textSize; alphaSize; querySize; timeTree; timeArray; timeTray; expCount; iterations;  
65536; 5; 4000; 875; 798; 877; 2; 62500;  
65536; 5; 4000; 783; 811; 843; 3; 62500;  
65536; 5; 4000; 875; 718; 845; 4; 62500;  
65536; 5; 4000; 844; 735; 983; 5; 62500;  
65536; 5; 4000; 842; 829; 874; 6; 62500;  
65536; 5; 8000; 1640; 1654; 1751; 2; 62500;  
65536; 5; 8000; 1562; 1609; 1718; 3; 62500;  
65536; 5; 8000; 1624; 1640; 1812; 4; 62500;  
65536; 5; 8000; 1626; 1514; 1781; 5; 62500;  
65536; 5; 8000; 1625; 1607; 1703; 6; 62500;  
65536; 5; 12000; 2379; 2330; 2702; 2; 62500;  
65536; 5; 12000; 2390; 2408; 2578; 3; 62500;  
65536; 5; 12000; 2389; 2468; 2593; 4; 62500;  
65536; 5; 12000; 2360; 2344; 2721; 5; 62500;  
65536; 5; 12000; 2373; 2361; 2621; 6; 62500;  
65536; 5; 16000; 3111; 3173; 3439; 2; 62500;  
65536; 5; 16000; 3059; 3140; 3564; 3; 62500;  
65536; 5; 16000; 2995; 3139; 3484; 4; 62500;  
65536; 5; 16000; 3126; 3095; 3453; 5; 62500;  
65536; 5; 16000; 3156; 3083; 3516; 6; 62500;  
65536; 5; 20000; 3861; 3955; 4313; 2; 62500;  
65536; 5; 20000; 3734; 3921; 4393; 3; 62500;  
65536; 5; 20000; 3824; 3998; 4455; 4; 62500;  
65536; 5; 20000; 3924; 3891; 4318; 5; 62500;  
65536; 5; 20000; 3952; 3889; 4405; 6; 62500;  
65536; 5; 24000; 4655; 4629; 5018; 2; 62500;  
65536; 5; 24000; 4582; 4636; 5191; 3; 62500;  
65536; 5; 24000; 4488; 4782; 5284; 4; 62500;  
65536; 5; 24000; 4672; 4715; 5219; 5; 62500;  
65536; 5; 24000; 4422; 4686; 5379; 6; 62500;  
65536; 5; 28000; 5403; 5423; 6145; 2; 62500;  
65536; 5; 28000; 5358; 5502; 6059; 3; 62500;  
65536; 5; 28000; 5363; 5409; 6342; 4; 62500;  
65536; 5; 28000; 5325; 5486; 6124; 5; 62500;  
65536; 5; 28000; 5281; 5570; 6135; 6; 62500;  
65536; 5; 32000; 6158; 6298; 7048; 2; 62500;  
65536; 5; 32000; 5952; 6483; 6922; 3; 62500;  
65536; 5; 32000; 6079; 6327; 7155; 4; 62500;  
65536; 5; 32000; 6205; 6250; 6967; 5; 62500;  
65536; 5; 32000; 5983; 6173; 6766; 6; 62500;  
65536; 5; 36000; 6870; 7129; 7779; 2; 62500;  
65536; 5; 36000; 6881; 7110; 7859; 3; 62500;  
65536; 5; 36000; 6670; 7064; 7725; 4; 62500;  
65536; 5; 36000; 6718; 7111; 7798; 5; 62500;  
65536; 5; 36000; 6939; 7027; 7874; 6; 62500;  
65536; 5; 40000; 7481; 7810; 8776; 2; 62500;  
65536; 5; 40000; 7598; 7734; 8593; 3; 62500;  
65536; 5; 40000; 7655; 7751; 8673; 4; 62500;  
65536; 5; 40000; 7640; 7774; 8716; 5; 62500;  
65536; 5; 40000; 7392; 7718; 8702; 6; 62500;  
65536; 5; 44000; 8358; 8492; 9737; 2; 62500;  
65536; 5; 44000; 8196; 8657; 9467; 3; 62500;  
65536; 5; 44000; 8403; 8543; 9485; 4; 62500;  
65536; 5; 44000; 8342; 8669; 9639; 5; 62500;  
65536; 5; 44000; 8344; 8451; 9584; 6; 62500;  
65536; 5; 48000; 9281; 9186; 10323; 2; 62500;  
65536; 5; 48000; 9067; 9502; 10542; 3; 62500;  
65536; 5; 48000; 9093; 9409; 10265; 4; 62500;  
65536; 5; 48000; 9250; 9393; 10530; 5; 62500;  
65536; 5; 48000; 9077; 9329; 10538; 6; 62500;  
65536; 5; 52000; 9648; 9873; 11372; 2; 62500;  
65536; 5; 52000; 9639; 10179; 11037; 3; 62500;  
65536; 5; 52000; 9710; 9971; 11469; 4; 62500;  
65536; 5; 52000; 9813; 10063; 11351; 5; 62500;  
65536; 5; 52000; 9596; 10220; 11297; 6; 62500;  
65536; 5; 56000; 10613; 10768; 12329; 2; 62500;  
65536; 5; 56000; 10646; 10817; 12366; 3; 62500;  
65536; 5; 56000; 10417; 10747; 12450; 4; 62500;  
65536; 5; 56000; 10481; 10803; 12258; 5; 62500;  
65536; 5; 56000; 10709; 10813; 11988; 6; 62500;  
65536; 5; 60000; 11348; 11649; 13177; 2; 62500;  
65536; 5; 60000; 11392; 11658; 13047; 3; 62500;  
65536; 5; 60000; 11215; 11524; 13205; 4; 62500;  
65536; 5; 60000; 11362; 11702; 12550; 5; 62500;  
65536; 5; 60000; 11416; 11708; 13225; 6; 62500;  
