textSize; alphaSize; querySize; timeTree; timeArray; timeTray; expCount; iterations;  avgTimeTree; standardDeviationTree; relativeStdDevTree; avgTimeArray; standardDeviationArray; relativeStdDevArray; avgTimeTray; standardDeviationTray; relativeStdDevTray; 
65536; 5; 4000; 875; 798; 877; 2; 62500;   843.8; 33.60595185380114;  3.9826916157621643;778.2; 43.67791203800841;  5.612684661784683;884.4; 51.28586549918018;  5.7989445385775875; 
65536; 5; 8000; 1640; 1654; 1751; 2; 62500;   1615.4; 27.332032489370413;  1.6919668496576952;1604.8; 48.84014741992493;  3.043379076515761;1753.0; 39.984997186444815;  2.28094678758955; 
65536; 5; 12000; 2379; 2330; 2702; 2; 62500;   2378.2; 11.08873302050329;  0.4662657901145105;2382.2; 50.32057233378809;  2.1123571628657585;2643.0; 57.92063535563125;  2.191473150042802; 
65536; 5; 16000; 3111; 3173; 3439; 2; 62500;   3089.4; 56.704849880764165;  1.8354648113149532;3126.0; 32.81463088318989;  1.0497322739344177;3491.2; 45.05729685633615;  1.2905962665082538; 
65536; 5; 20000; 3861; 3955; 4313; 2; 62500;   3859.0; 77.10771686413754;  1.9981268946394803;3930.8; 41.300847448932565;  1.0506982662290771;4376.8; 54.22324224905773;  1.2388786841769723; 
65536; 5; 24000; 4655; 4629; 5018; 2; 62500;   4563.8; 96.1340730438485;  2.1064479829056597;4689.6; 56.10917928467676;  1.1964598107445572;5218.2; 119.16945917473988;  2.283727323114099; 
65536; 5; 28000; 5403; 5423; 6145; 2; 62500;   5346.0; 40.86073910246852;  0.7643235896458758;5478.0; 58.12056434688156;  1.0609814594173341;6161.0; 95.35827179642048;  1.5477726310082858; 
65536; 5; 32000; 6158; 6298; 7048; 2; 62500;   6075.4; 97.36241574652921;  1.6025679913508446;6306.2; 102.62436357902543;  1.6273566264791066;6971.6; 129.78844324515185;  1.8616736939174916; 
65536; 5; 36000; 6870; 7129; 7779; 2; 62500;   6815.6; 103.13990498347378;  1.5132916395251157;7088.2; 37.39197774924456;  0.527524304467207;7807.0; 54.37278731130123;  0.6964619868233793; 
65536; 5; 40000; 7481; 7810; 8776; 2; 62500;   7553.2; 101.09678530991972;  1.3384629734406572;7757.4; 32.19689426016118;  0.41504749349216463;8692.0; 59.82307247208221;  0.6882544002770618; 
65536; 5; 44000; 8358; 8492; 9737; 2; 62500;   8328.6; 69.85585158023629;  0.8387466270469981;8562.4; 87.24127463534677;  1.0188880995438985;9582.4; 99.91116053774974;  1.0426527857086925; 
65536; 5; 48000; 9281; 9186; 10323; 2; 62500;   9153.6; 92.26396913205068;  1.0079528178208648;9363.8; 104.70797486342671;  1.1182209665245597;10439.6; 120.35048815854466;  1.1528266232283293; 
65536; 5; 52000; 9648; 9873; 11372; 2; 62500;   9681.2; 75.28983995201477;  0.7776911948107132;10061.2; 128.57122539666486;  1.277891557633929;11305.2; 145.18181704331982;  1.2842038800137974; 
65536; 5; 56000; 10613; 10768; 12329; 2; 62500;   10573.2; 107.91181584979469;  1.0206164250160281;10789.6; 27.419700946582186;  0.2541308384609456;12278.2; 157.752210761054;  1.2848154514591223; 
65536; 5; 60000; 11348; 11649; 13177; 2; 62500;   11346.6; 69.90736727985113;  0.6161085019287815;11648.2; 66.32164051046988;  0.5693724396084362;13040.8; 253.12637160122213;  1.9410340746060222; 
