textSize; alphaSize; querySize; timeTree; timeArray; timeTray; expCount; iterations;
1852441; 5; 100; 655; 392; 327; 0; 250000; 
1852441; 5; 100; 704; 359; 312; 1; 250000; 
1852441; 5; 200; 813; 438; 375; 0; 250000; 
1852441; 5; 200; 719; 453; 391; 1; 250000; 
1852441; 5; 300; 843; 578; 547; 0; 250000; 
1852441; 5; 300; 812; 549; 499; 1; 250000; 
1852441; 5; 400; 1001; 609; 546; 0; 250000; 
1852441; 5; 400; 985; 608; 625; 1; 250000; 
1852441; 5; 500; 1075; 767; 736; 0; 250000; 
1852441; 5; 500; 1064; 751; 734; 1; 250000; 
1852441; 5; 600; 1202; 813; 813; 0; 250000; 
1852441; 5; 600; 1174; 844; 798; 1; 250000; 
1852441; 5; 700; 1172; 1017; 894; 0; 250000; 
1852441; 5; 700; 1218; 890; 905; 1; 250000; 
1852441; 5; 800; 1346; 971; 1078; 0; 250000; 
1852441; 5; 800; 1389; 969; 1000; 1; 250000; 
1852441; 5; 900; 1439; 1127; 1062; 0; 250000; 
1852441; 5; 900; 1328; 1109; 1109; 1; 250000; 
1852441; 5; 1000; 1516; 1171; 1234; 0; 250000; 
1852441; 5; 1000; 1549; 1126; 1218; 1; 250000; 
1852441; 5; 1100; 1622; 1188; 1312; 0; 250000; 
1852441; 5; 1100; 1529; 1282; 1312; 1; 250000; 
1852441; 5; 1200; 1596; 1217; 1328; 0; 250000; 
1852441; 5; 1200; 1675; 1311; 1423; 1; 250000; 
1852441; 5; 1300; 1867; 1367; 1422; 0; 250000; 
1852441; 5; 1300; 1780; 1421; 1563; 1; 250000; 
1852441; 5; 1400; 1872; 1485; 1530; 0; 250000; 
1852441; 5; 1400; 1846; 1610; 1530; 1; 250000; 
1852441; 5; 1500; 1939; 1592; 1672; 0; 250000; 
1852441; 5; 1500; 1918; 1548; 1657; 1; 250000; 
1852441; 5; 1600; 2046; 1782; 1718; 0; 250000; 
1852441; 5; 1600; 2016; 1549; 1735; 1; 250000; 
1852441; 5; 1700; 2125; 1732; 1778; 0; 250000; 
1852441; 5; 1700; 2125; 1721; 1970; 1; 250000; 
1852441; 5; 1800; 2123; 1947; 1877; 0; 250000; 
1852441; 5; 1800; 2141; 1827; 1968; 1; 250000; 
1852441; 5; 1900; 2405; 1842; 2033; 0; 250000; 
1852441; 5; 1900; 2278; 1888; 2096; 1; 250000; 
