textSize; alphaSize; querySize; timeTree; timeArray; timeTray; expCount; iterations; 
65536; 5; 4000; 813; 795; 954; 0; 62500; 
65536; 5; 4000; 811; 749; 924; 1; 62500; 
65536; 5; 4000; 749; 782; 858; 2; 62500; 
65536; 5; 4000; 844; 812; 892; 3; 62500; 
65536; 5; 4000; 829; 859; 876; 4; 62500; 
65536; 5; 4000; 814; 829; 844; 5; 62500; 
65536; 5; 4000; 859; 844; 874; 6; 62500; 
65536; 5; 8000; 1591; 1656; 1721; 0; 62500; 
65536; 5; 8000; 1594; 1609; 1797; 1; 62500; 
65536; 5; 8000; 1609; 1640; 1845; 2; 62500; 
65536; 5; 8000; 1548; 1562; 1828; 3; 62500; 
65536; 5; 8000; 1531; 1625; 1719; 4; 62500; 
65536; 5; 8000; 1610; 1611; 1829; 5; 62500; 
65536; 5; 8000; 1563; 1594; 1765; 6; 62500; 
65536; 5; 12000; 2407; 2424; 2750; 0; 62500; 
65536; 5; 12000; 2359; 2450; 2675; 1; 62500; 
65536; 5; 12000; 2394; 2346; 2687; 2; 62500; 
65536; 5; 12000; 2343; 2424; 2593; 3; 62500; 
65536; 5; 12000; 2452; 2422; 2716; 4; 62500; 
65536; 5; 12000; 2374; 2390; 2654; 5; 62500; 
65536; 5; 12000; 2360; 2436; 2626; 6; 62500; 
65536; 5; 16000; 3124; 3110; 3655; 0; 62500; 
65536; 5; 16000; 3266; 3269; 3611; 1; 62500; 
65536; 5; 16000; 3143; 3249; 3565; 2; 62500; 
65536; 5; 16000; 3078; 3215; 3643; 3; 62500; 
65536; 5; 16000; 3128; 3156; 3482; 4; 62500; 
65536; 5; 16000; 3173; 3185; 3517; 5; 62500; 
65536; 5; 16000; 3187; 3277; 3611; 6; 62500; 
65536; 5; 20000; 3842; 3981; 4234; 0; 62500; 
65536; 5; 20000; 3811; 3987; 4453; 1; 62500; 
65536; 5; 20000; 3825; 3984; 4408; 2; 62500; 
65536; 5; 20000; 3938; 4046; 4326; 3; 62500; 
65536; 5; 20000; 3907; 4065; 4482; 4; 62500; 
65536; 5; 20000; 3971; 3950; 4469; 5; 62500; 
65536; 5; 20000; 3906; 4002; 4408; 6; 62500; 
65536; 5; 24000; 4564; 4751; 5312; 0; 62500; 
65536; 5; 24000; 4581; 4737; 5218; 1; 62500; 
65536; 5; 24000; 4767; 4698; 5312; 2; 62500; 
65536; 5; 24000; 4657; 4780; 5188; 3; 62500; 
65536; 5; 24000; 4656; 4772; 5251; 4; 62500; 
65536; 5; 24000; 4627; 4878; 5253; 5; 62500; 
65536; 5; 24000; 4515; 4753; 5218; 6; 62500; 
65536; 5; 28000; 5218; 5501; 6095; 0; 62500; 
65536; 5; 28000; 5421; 5596; 6193; 1; 62500; 
65536; 5; 28000; 5390; 5613; 6216; 2; 62500; 
65536; 5; 28000; 5388; 5782; 6220; 3; 62500; 
65536; 5; 28000; 5444; 5546; 6064; 4; 62500; 
65536; 5; 28000; 5344; 5502; 6232; 5; 62500; 
65536; 5; 28000; 5421; 5645; 6125; 6; 62500; 
65536; 5; 32000; 6284; 6338; 7052; 0; 62500; 
65536; 5; 32000; 6217; 6387; 6940; 1; 62500; 
65536; 5; 32000; 6251; 6314; 6953; 2; 62500; 
65536; 5; 32000; 6093; 6389; 6709; 3; 62500; 
65536; 5; 32000; 6236; 6327; 7047; 4; 62500; 
65536; 5; 32000; 6278; 6193; 7032; 5; 62500; 
65536; 5; 32000; 6253; 6347; 7019; 6; 62500; 
65536; 5; 36000; 6764; 7264; 7658; 0; 62500; 
65536; 5; 36000; 7060; 7110; 7724; 1; 62500; 
65536; 5; 36000; 6799; 6953; 7781; 2; 62500; 
65536; 5; 36000; 6957; 6944; 7815; 3; 62500; 
65536; 5; 36000; 6815; 7123; 7888; 4; 62500; 
65536; 5; 36000; 6936; 6844; 7952; 5; 62500; 
65536; 5; 36000; 6985; 7126; 8075; 6; 62500; 
65536; 5; 40000; 7454; 7858; 8750; 0; 62500; 
65536; 5; 40000; 7481; 7918; 8786; 1; 62500; 
65536; 5; 40000; 7418; 7903; 8658; 2; 62500; 
65536; 5; 40000; 7562; 7687; 8548; 3; 62500; 
65536; 5; 40000; 7584; 7922; 8798; 4; 62500; 
65536; 5; 40000; 7731; 7826; 8873; 5; 62500; 
65536; 5; 40000; 7455; 7703; 8890; 6; 62500; 
65536; 5; 44000; 8186; 8740; 9790; 0; 62500; 
65536; 5; 44000; 8284; 8641; 9747; 1; 62500; 
65536; 5; 44000; 8330; 8676; 9721; 2; 62500; 
65536; 5; 44000; 8193; 8924; 9992; 3; 62500; 
65536; 5; 44000; 8396; 8780; 9782; 4; 62500; 
65536; 5; 44000; 8481; 8834; 9655; 5; 62500; 
65536; 5; 44000; 8470; 8692; 9749; 6; 62500; 
65536; 5; 48000; 8925; 9565; 10431; 0; 62500; 
65536; 5; 48000; 9127; 9455; 10487; 1; 62500; 
65536; 5; 48000; 9109; 9361; 10601; 2; 62500; 
65536; 5; 48000; 9111; 9344; 10472; 3; 62500; 
65536; 5; 48000; 9017; 9514; 10592; 4; 62500; 
65536; 5; 48000; 9159; 9396; 10657; 5; 62500; 
65536; 5; 48000; 9062; 9489; 10623; 6; 62500; 
65536; 5; 52000; 9905; 10592; 11300; 0; 62500; 
65536; 5; 52000; 9936; 10187; 11312; 1; 62500; 
65536; 5; 52000; 9707; 10376; 11298; 2; 62500; 
65536; 5; 52000; 9948; 10440; 11541; 3; 62500; 
65536; 5; 52000; 9741; 10328; 11487; 4; 62500; 
65536; 5; 52000; 9939; 10246; 11685; 5; 62500; 
65536; 5; 52000; 10030; 10162; 11379; 6; 62500; 
65536; 5; 56000; 10488; 11019; 12000; 0; 62500; 
65536; 5; 56000; 10330; 10921; 12388; 1; 62500; 
65536; 5; 56000; 10598; 11128; 12251; 2; 62500; 
65536; 5; 56000; 10569; 11024; 12518; 3; 62500; 
65536; 5; 56000; 10509; 11160; 12439; 4; 62500; 
65536; 5; 56000; 10574; 10934; 12449; 5; 62500; 
65536; 5; 56000; 10731; 11016; 12388; 6; 62500; 
65536; 5; 60000; 11703; 11907; 13293; 0; 62500; 
65536; 5; 60000; 11674; 11775; 13296; 1; 62500; 
65536; 5; 60000; 11404; 11829; 13064; 2; 62500; 
65536; 5; 60000; 11110; 11750; 13250; 3; 62500; 
65536; 5; 60000; 11577; 11808; 13253; 4; 62500; 
65536; 5; 60000; 11468; 11751; 13326; 5; 62500; 
65536; 5; 60000; 11358; 11733; 13111; 6; 62500; 
