textSize; alphaSize; querySize; timeTree; timeArray; timeTray; expCount; iterations;  
262144; 5; 4000; 875; 778; 876; 2; 62500;  
262144; 5; 4000; 812; 876; 921; 3; 62500;  
262144; 5; 4000; 844; 812; 952; 4; 62500;  
262144; 5; 4000; 830; 795; 906; 5; 62500;  
262144; 5; 4000; 846; 827; 875; 6; 62500;  
262144; 5; 8000; 1592; 1688; 1860; 2; 62500;  
262144; 5; 8000; 1655; 1671; 1780; 3; 62500;  
262144; 5; 8000; 1595; 1672; 1813; 4; 62500;  
262144; 5; 8000; 1595; 1640; 1829; 5; 62500;  
262144; 5; 8000; 1577; 1546; 1810; 6; 62500;  
262144; 5; 12000; 2343; 2406; 2703; 2; 62500;  
262144; 5; 12000; 2375; 2500; 2590; 3; 62500;  
262144; 5; 12000; 2358; 2345; 2639; 4; 62500;  
262144; 5; 12000; 2311; 2456; 2706; 5; 62500;  
262144; 5; 12000; 2388; 2419; 2701; 6; 62500;  
262144; 5; 16000; 3219; 3219; 3624; 2; 62500;  
262144; 5; 16000; 3092; 3187; 3596; 3; 62500;  
262144; 5; 16000; 3282; 3263; 3672; 4; 62500;  
262144; 5; 16000; 3091; 3252; 3563; 5; 62500;  
262144; 5; 16000; 3157; 3187; 3534; 6; 62500;  
262144; 5; 20000; 4016; 4030; 4544; 2; 62500;  
262144; 5; 20000; 3815; 3844; 4486; 3; 62500;  
262144; 5; 20000; 3973; 4034; 4436; 4; 62500;  
262144; 5; 20000; 3733; 4019; 4612; 5; 62500;  
262144; 5; 20000; 3965; 4124; 4438; 6; 62500;  
262144; 5; 24000; 4672; 4642; 5420; 2; 62500;  
262144; 5; 24000; 4688; 4762; 5424; 3; 62500;  
262144; 5; 24000; 4610; 4748; 5297; 4; 62500;  
262144; 5; 24000; 4673; 4702; 5200; 5; 62500;  
262144; 5; 24000; 4815; 4717; 5357; 6; 62500;  
262144; 5; 28000; 5519; 5433; 6218; 2; 62500;  
262144; 5; 28000; 5519; 5408; 6050; 3; 62500;  
262144; 5; 28000; 5376; 5395; 6128; 4; 62500;  
262144; 5; 28000; 5403; 5465; 6190; 5; 62500;  
262144; 5; 28000; 5325; 5504; 6199; 6; 62500;  
262144; 5; 32000; 5951; 6269; 7140; 2; 62500;  
262144; 5; 32000; 6095; 6235; 6973; 3; 62500;  
262144; 5; 32000; 6061; 6221; 7052; 4; 62500;  
262144; 5; 32000; 6283; 6295; 6986; 5; 62500;  
262144; 5; 32000; 6240; 6203; 7221; 6; 62500;  
262144; 5; 36000; 6828; 7094; 7892; 2; 62500;  
262144; 5; 36000; 7015; 6966; 8025; 3; 62500;  
262144; 5; 36000; 6860; 7028; 7846; 4; 62500;  
262144; 5; 36000; 6710; 7003; 7937; 5; 62500;  
262144; 5; 36000; 6925; 6999; 7954; 6; 62500;  
262144; 5; 40000; 7890; 7890; 8894; 2; 62500;  
262144; 5; 40000; 7594; 7814; 8968; 3; 62500;  
262144; 5; 40000; 7751; 7795; 8922; 4; 62500;  
262144; 5; 40000; 7703; 7905; 8911; 5; 62500;  
262144; 5; 40000; 7635; 7908; 8813; 6; 62500;  
262144; 5; 44000; 8285; 8832; 9769; 2; 62500;  
262144; 5; 44000; 8310; 8525; 9722; 3; 62500;  
262144; 5; 44000; 8485; 8693; 9745; 4; 62500;  
262144; 5; 44000; 8484; 8574; 9496; 5; 62500;  
262144; 5; 44000; 8468; 8667; 9877; 6; 62500;  
262144; 5; 48000; 9108; 9343; 10547; 2; 62500;  
262144; 5; 48000; 9122; 9420; 10518; 3; 62500;  
262144; 5; 48000; 9041; 9561; 10639; 4; 62500;  
262144; 5; 48000; 9254; 9404; 10358; 5; 62500;  
262144; 5; 48000; 9123; 9421; 10541; 6; 62500;  
262144; 5; 52000; 10111; 9936; 11598; 2; 62500;  
262144; 5; 52000; 9990; 9954; 11298; 3; 62500;  
262144; 5; 52000; 9685; 10187; 11593; 4; 62500;  
262144; 5; 52000; 9860; 10441; 11470; 5; 62500;  
262144; 5; 52000; 9876; 10079; 11365; 6; 62500;  
262144; 5; 56000; 10776; 10989; 12343; 2; 62500;  
262144; 5; 56000; 10639; 10797; 12398; 3; 62500;  
262144; 5; 56000; 10737; 11049; 12423; 4; 62500;  
262144; 5; 56000; 10760; 10915; 12359; 5; 62500;  
262144; 5; 56000; 10686; 10894; 12283; 6; 62500;  
262144; 5; 60000; 11197; 11709; 13376; 2; 62500;  
262144; 5; 60000; 11480; 11550; 13078; 3; 62500;  
262144; 5; 60000; 11423; 11756; 13268; 4; 62500;  
262144; 5; 60000; 11284; 11737; 13380; 5; 62500;  
262144; 5; 60000; 11499; 11637; 13202; 6; 62500;  
