textSize; alphaSize; querySize; time; expCount; iterations; 
765014; 8; 5000; 686; 0; 2500; 
765014; 8; 10000; 2873; 0; 2500; 
765014; 8; 15000; 5064; 0; 2500; 
765014; 8; 20000; 5891; 0; 2500; 
765014; 8; 25000; 7186; 0; 2500; 
765014; 8; 30000; 8206; 0; 2500; 
765014; 8; 35000; 9238; 0; 2500; 
765014; 8; 40000; 10268; 0; 2500; 
765014; 8; 45000; 11277; 0; 2500; 
765014; 8; 50000; 12431; 0; 2500; 
765014; 8; 55000; 13768; 0; 2500; 
765014; 8; 60000; 14938; 0; 2500; 
765014; 8; 65000; 15938; 0; 2500; 
765014; 8; 70000; 17188; 0; 2500; 
765014; 8; 75000; 17855; 0; 2500; 
765014; 8; 80000; 18755; 0; 2500; 
765014; 8; 85000; 20018; 0; 2500; 
765014; 8; 90000; 22984; 0; 2500; 
765014; 8; 95000; 25143; 0; 2500; 
765014; 8; 5000; 808; 1; 2500; 
765014; 8; 10000; 2609; 1; 2500; 
765014; 8; 15000; 5139; 1; 2500; 
765014; 8; 20000; 6220; 1; 2500; 
765014; 8; 25000; 7094; 1; 2500; 
765014; 8; 30000; 8159; 1; 2500; 
765014; 8; 35000; 9060; 1; 2500; 
765014; 8; 40000; 9952; 1; 2500; 
765014; 8; 45000; 11273; 1; 2500; 
765014; 8; 50000; 12499; 1; 2500; 
765014; 8; 55000; 13615; 1; 2500; 
765014; 8; 60000; 14825; 1; 2500; 
765014; 8; 65000; 15993; 1; 2500; 
765014; 8; 70000; 17161; 1; 2500; 
765014; 8; 75000; 18001; 1; 2500; 
765014; 8; 80000; 18909; 1; 2500; 
765014; 8; 85000; 19907; 1; 2500; 
765014; 8; 90000; 23041; 1; 2500; 
765014; 8; 95000; 25088; 1; 2500; 
765014; 8; 5000; 952; 2; 2500; 
765014; 8; 10000; 2782; 2; 2500; 
765014; 8; 15000; 4973; 2; 2500; 
765014; 8; 20000; 5992; 2; 2500; 
765014; 8; 25000; 7006; 2; 2500; 
765014; 8; 30000; 8157; 2; 2500; 
765014; 8; 35000; 9001; 2; 2500; 
765014; 8; 40000; 10218; 2; 2500; 
765014; 8; 45000; 11079; 2; 2500; 
765014; 8; 50000; 12328; 2; 2500; 
765014; 8; 55000; 13607; 2; 2500; 
765014; 8; 60000; 14470; 2; 2500; 
765014; 8; 65000; 16091; 2; 2500; 
765014; 8; 70000; 17191; 2; 2500; 
765014; 8; 75000; 18180; 2; 2500; 
765014; 8; 80000; 18765; 2; 2500; 
765014; 8; 85000; 19831; 2; 2500; 
765014; 8; 90000; 23090; 2; 2500; 
765014; 8; 95000; 25360; 2; 2500; 
765014; 8; 5000; 935; 3; 2500; 
765014; 8; 10000; 2618; 3; 2500; 
765014; 8; 15000; 4917; 3; 2500; 
765014; 8; 20000; 5988; 3; 2500; 
765014; 8; 25000; 6826; 3; 2500; 
765014; 8; 30000; 7848; 3; 2500; 
765014; 8; 35000; 8982; 3; 2500; 
765014; 8; 40000; 10156; 3; 2500; 
765014; 8; 45000; 11230; 3; 2500; 
765014; 8; 50000; 12322; 3; 2500; 
765014; 8; 55000; 13473; 3; 2500; 
765014; 8; 60000; 14743; 3; 2500; 
765014; 8; 65000; 16003; 3; 2500; 
765014; 8; 70000; 17175; 3; 2500; 
765014; 8; 75000; 18051; 3; 2500; 
765014; 8; 80000; 18605; 3; 2500; 
765014; 8; 85000; 20144; 3; 2500; 
765014; 8; 90000; 23060; 3; 2500; 
765014; 8; 95000; 25125; 3; 2500; 
765014; 8; 5000; 812; 4; 2500; 
765014; 8; 10000; 2678; 4; 2500; 
765014; 8; 15000; 5187; 4; 2500; 
765014; 8; 20000; 5970; 4; 2500; 
765014; 8; 25000; 7051; 4; 2500; 
765014; 8; 30000; 7954; 4; 2500; 
765014; 8; 35000; 8940; 4; 2500; 
765014; 8; 40000; 10452; 4; 2500; 
765014; 8; 45000; 11352; 4; 2500; 
765014; 8; 50000; 12421; 4; 2500; 
765014; 8; 55000; 13527; 4; 2500; 
765014; 8; 60000; 14781; 4; 2500; 
765014; 8; 65000; 15947; 4; 2500; 
765014; 8; 70000; 17321; 4; 2500; 
765014; 8; 75000; 17983; 4; 2500; 
765014; 8; 80000; 18827; 4; 2500; 
765014; 8; 85000; 19952; 4; 2500; 
765014; 8; 90000; 23031; 4; 2500; 
765014; 8; 95000; 25088; 4; 2500; 
765014; 8; 5000; 863; 5; 2500; 
765014; 8; 10000; 2460; 5; 2500; 
765014; 8; 15000; 5012; 5; 2500; 
765014; 8; 20000; 6041; 5; 2500; 
765014; 8; 25000; 7197; 5; 2500; 
765014; 8; 30000; 8219; 5; 2500; 
765014; 8; 35000; 9036; 5; 2500; 
765014; 8; 40000; 10302; 5; 2500; 
765014; 8; 45000; 11326; 5; 2500; 
765014; 8; 50000; 12299; 5; 2500; 
765014; 8; 55000; 13563; 5; 2500; 
765014; 8; 60000; 14746; 5; 2500; 
765014; 8; 65000; 16094; 5; 2500; 
765014; 8; 70000; 17241; 5; 2500; 
765014; 8; 75000; 17814; 5; 2500; 
765014; 8; 80000; 19081; 5; 2500; 
765014; 8; 85000; 19968; 5; 2500; 
765014; 8; 90000; 22996; 5; 2500; 
765014; 8; 95000; 25066; 5; 2500; 
765014; 8; 5000; 812; 6; 2500; 
765014; 8; 10000; 2484; 6; 2500; 
765014; 8; 15000; 4907; 6; 2500; 
765014; 8; 20000; 6109; 6; 2500; 
765014; 8; 25000; 6783; 6; 2500; 
765014; 8; 30000; 7970; 6; 2500; 
765014; 8; 35000; 9140; 6; 2500; 
765014; 8; 40000; 10130; 6; 2500; 
765014; 8; 45000; 11233; 6; 2500; 
765014; 8; 50000; 12359; 6; 2500; 
765014; 8; 55000; 13779; 6; 2500; 
765014; 8; 60000; 14657; 6; 2500; 
765014; 8; 65000; 16048; 6; 2500; 
765014; 8; 70000; 17304; 6; 2500; 
765014; 8; 75000; 18030; 6; 2500; 
765014; 8; 80000; 18611; 6; 2500; 
765014; 8; 85000; 20030; 6; 2500; 
765014; 8; 90000; 23069; 6; 2500; 
765014; 8; 95000; 25104; 6; 2500; 
