textSize; alphaSize; querySize; time; expCount; iterations;   
6085126; 64; 5000; 3285; 2; 2500;   
6085126; 64; 5000; 3079; 3; 2500;   
6085126; 64; 5000; 2980; 4; 2500;   
6085126; 64; 5000; 3284; 5; 2500;   
6085126; 64; 5000; 3206; 6; 2500;   
6085126; 64; 10000; 8779; 2; 2500;   
6085126; 64; 10000; 8773; 3; 2500;   
6085126; 64; 10000; 8938; 4; 2500;   
6085126; 64; 10000; 8704; 5; 2500;   
6085126; 64; 10000; 8992; 6; 2500;   
6085126; 64; 15000; 11247; 2; 2500;   
6085126; 64; 15000; 11231; 3; 2500;   
6085126; 64; 15000; 11145; 4; 2500;   
6085126; 64; 15000; 11110; 5; 2500;   
6085126; 64; 15000; 11456; 6; 2500;   
6085126; 64; 20000; 12422; 2; 2500;   
6085126; 64; 20000; 12311; 3; 2500;   
6085126; 64; 20000; 12456; 4; 2500;   
6085126; 64; 20000; 12298; 5; 2500;   
6085126; 64; 20000; 12232; 6; 2500;   
6085126; 64; 25000; 13689; 2; 2500;   
6085126; 64; 25000; 13653; 3; 2500;   
6085126; 64; 25000; 13611; 4; 2500;   
6085126; 64; 25000; 13628; 5; 2500;   
6085126; 64; 25000; 13937; 6; 2500;   
6085126; 64; 30000; 14842; 2; 2500;   
6085126; 64; 30000; 14265; 3; 2500;   
6085126; 64; 30000; 14446; 4; 2500;   
6085126; 64; 30000; 14436; 5; 2500;   
6085126; 64; 30000; 14592; 6; 2500;   
6085126; 64; 35000; 15522; 2; 2500;   
6085126; 64; 35000; 15407; 3; 2500;   
6085126; 64; 35000; 15572; 4; 2500;   
6085126; 64; 35000; 15429; 5; 2500;   
6085126; 64; 35000; 15636; 6; 2500;   
6085126; 64; 40000; 19231; 2; 2500;   
6085126; 64; 40000; 19234; 3; 2500;   
6085126; 64; 40000; 19160; 4; 2500;   
6085126; 64; 40000; 19212; 5; 2500;   
6085126; 64; 40000; 19213; 6; 2500;   
6085126; 64; 45000; 23424; 2; 2500;   
6085126; 64; 45000; 23419; 3; 2500;   
6085126; 64; 45000; 23125; 4; 2500;   
6085126; 64; 45000; 23360; 5; 2500;   
6085126; 64; 45000; 23263; 6; 2500;   
6085126; 64; 50000; 27271; 2; 2500;   
6085126; 64; 50000; 27290; 3; 2500;   
6085126; 64; 50000; 27504; 4; 2500;   
6085126; 64; 50000; 27309; 5; 2500;   
6085126; 64; 50000; 27538; 6; 2500;   
6085126; 64; 55000; 31404; 2; 2500;   
6085126; 64; 55000; 31709; 3; 2500;   
6085126; 64; 55000; 31319; 4; 2500;   
6085126; 64; 55000; 31609; 5; 2500;   
6085126; 64; 55000; 31579; 6; 2500;   
6085126; 64; 60000; 35239; 2; 2500;   
6085126; 64; 60000; 35549; 3; 2500;   
6085126; 64; 60000; 35492; 4; 2500;   
6085126; 64; 60000; 35235; 5; 2500;   
6085126; 64; 60000; 35472; 6; 2500;   
6085126; 64; 65000; 39563; 2; 2500;   
6085126; 64; 65000; 39583; 3; 2500;   
6085126; 64; 65000; 39503; 4; 2500;   
6085126; 64; 65000; 39584; 5; 2500;   
6085126; 64; 65000; 39719; 6; 2500;   
6085126; 64; 70000; 43737; 2; 2500;   
6085126; 64; 70000; 43588; 3; 2500;   
6085126; 64; 70000; 43908; 4; 2500;   
6085126; 64; 70000; 43736; 5; 2500;   
6085126; 64; 70000; 43772; 6; 2500;   
6085126; 64; 75000; 48060; 2; 2500;   
6085126; 64; 75000; 47866; 3; 2500;   
6085126; 64; 75000; 47863; 4; 2500;   
6085126; 64; 75000; 47834; 5; 2500;   
6085126; 64; 75000; 47947; 6; 2500;   
6085126; 64; 80000; 52212; 2; 2500;   
6085126; 64; 80000; 52019; 3; 2500;   
6085126; 64; 80000; 51943; 4; 2500;   
6085126; 64; 80000; 52014; 5; 2500;   
6085126; 64; 80000; 52115; 6; 2500;   
6085126; 64; 85000; 56158; 2; 2500;   
6085126; 64; 85000; 56536; 3; 2500;   
6085126; 64; 85000; 56378; 4; 2500;   
6085126; 64; 85000; 56505; 5; 2500;   
6085126; 64; 85000; 56500; 6; 2500;   
6085126; 64; 90000; 60691; 2; 2500;   
6085126; 64; 90000; 60772; 3; 2500;   
6085126; 64; 90000; 60398; 4; 2500;   
6085126; 64; 90000; 60581; 5; 2500;   
6085126; 64; 90000; 60722; 6; 2500;   
6085126; 64; 95000; 65506; 2; 2500;   
6085126; 64; 95000; 65296; 3; 2500;   
6085126; 64; 95000; 65339; 4; 2500;   
6085126; 64; 95000; 65503; 5; 2500;   
6085126; 64; 95000; 65645; 6; 2500;   
