textSize; alphaSize; querySize; time; expCount; iterations; 
385006; 4; 5000; 1435; 0; 2500; 
385006; 4; 10000; 3356; 0; 2500; 
385006; 4; 15000; 4203; 0; 2500; 
385006; 4; 20000; 5395; 0; 2500; 
385006; 4; 25000; 6501; 0; 2500; 
385006; 4; 30000; 8042; 0; 2500; 
385006; 4; 35000; 9564; 0; 2500; 
385006; 4; 40000; 11232; 0; 2500; 
385006; 4; 45000; 12435; 0; 2500; 
385006; 4; 50000; 13080; 0; 2500; 
385006; 4; 55000; 13530; 0; 2500; 
385006; 4; 60000; 14280; 0; 2500; 
385006; 4; 65000; 14875; 0; 2500; 
385006; 4; 70000; 15076; 0; 2500; 
385006; 4; 75000; 15582; 0; 2500; 
385006; 4; 80000; 15919; 0; 2500; 
385006; 4; 85000; 16204; 0; 2500; 
385006; 4; 90000; 16521; 0; 2500; 
385006; 4; 95000; 16860; 0; 2500; 
385006; 4; 5000; 1187; 1; 2500; 
385006; 4; 10000; 3444; 1; 2500; 
385006; 4; 15000; 4045; 1; 2500; 
385006; 4; 20000; 5028; 1; 2500; 
385006; 4; 25000; 6690; 1; 2500; 
385006; 4; 30000; 8203; 1; 2500; 
385006; 4; 35000; 9700; 1; 2500; 
385006; 4; 40000; 11360; 1; 2500; 
385006; 4; 45000; 12704; 1; 2500; 
385006; 4; 50000; 13174; 1; 2500; 
385006; 4; 55000; 13765; 1; 2500; 
385006; 4; 60000; 14140; 1; 2500; 
385006; 4; 65000; 14873; 1; 2500; 
385006; 4; 70000; 14956; 1; 2500; 
385006; 4; 75000; 15621; 1; 2500; 
385006; 4; 80000; 15860; 1; 2500; 
385006; 4; 85000; 16248; 1; 2500; 
385006; 4; 90000; 16288; 1; 2500; 
385006; 4; 95000; 16658; 1; 2500; 
385006; 4; 5000; 1503; 2; 2500; 
385006; 4; 10000; 3241; 2; 2500; 
385006; 4; 15000; 4206; 2; 2500; 
385006; 4; 20000; 5120; 2; 2500; 
385006; 4; 25000; 6393; 2; 2500; 
385006; 4; 30000; 8195; 2; 2500; 
385006; 4; 35000; 9493; 2; 2500; 
385006; 4; 40000; 11449; 2; 2500; 
385006; 4; 45000; 12392; 2; 2500; 
385006; 4; 50000; 13019; 2; 2500; 
385006; 4; 55000; 13534; 2; 2500; 
385006; 4; 60000; 14140; 2; 2500; 
385006; 4; 65000; 14419; 2; 2500; 
385006; 4; 70000; 15236; 2; 2500; 
385006; 4; 75000; 15450; 2; 2500; 
385006; 4; 80000; 15890; 2; 2500; 
385006; 4; 85000; 16455; 2; 2500; 
385006; 4; 90000; 16630; 2; 2500; 
385006; 4; 95000; 16671; 2; 2500; 
385006; 4; 5000; 1294; 3; 2500; 
385006; 4; 10000; 3270; 3; 2500; 
385006; 4; 15000; 4360; 3; 2500; 
385006; 4; 20000; 5031; 3; 2500; 
385006; 4; 25000; 6507; 3; 2500; 
385006; 4; 30000; 8032; 3; 2500; 
385006; 4; 35000; 10143; 3; 2500; 
385006; 4; 40000; 12685; 3; 2500; 
385006; 4; 45000; 13686; 3; 2500; 
385006; 4; 50000; 13818; 3; 2500; 
385006; 4; 55000; 14525; 3; 2500; 
385006; 4; 60000; 15343; 3; 2500; 
385006; 4; 65000; 15402; 3; 2500; 
385006; 4; 70000; 15777; 3; 2500; 
385006; 4; 75000; 15910; 3; 2500; 
385006; 4; 80000; 16384; 3; 2500; 
385006; 4; 85000; 16810; 3; 2500; 
385006; 4; 90000; 17189; 3; 2500; 
385006; 4; 95000; 16626; 3; 2500; 
385006; 4; 5000; 1282; 4; 2500; 
385006; 4; 10000; 3389; 4; 2500; 
385006; 4; 15000; 4126; 4; 2500; 
385006; 4; 20000; 5141; 4; 2500; 
385006; 4; 25000; 6639; 4; 2500; 
385006; 4; 30000; 7824; 4; 2500; 
385006; 4; 35000; 9607; 4; 2500; 
385006; 4; 40000; 11545; 4; 2500; 
385006; 4; 45000; 12500; 4; 2500; 
385006; 4; 50000; 13017; 4; 2500; 
385006; 4; 55000; 13619; 4; 2500; 
385006; 4; 60000; 14050; 4; 2500; 
385006; 4; 65000; 14559; 4; 2500; 
385006; 4; 70000; 15013; 4; 2500; 
385006; 4; 75000; 15687; 4; 2500; 
385006; 4; 80000; 15858; 4; 2500; 
385006; 4; 85000; 16145; 4; 2500; 
385006; 4; 90000; 16271; 4; 2500; 
385006; 4; 95000; 16660; 4; 2500; 
385006; 4; 5000; 1157; 5; 2500; 
385006; 4; 10000; 3048; 5; 2500; 
385006; 4; 15000; 4079; 5; 2500; 
385006; 4; 20000; 5236; 5; 2500; 
385006; 4; 25000; 6501; 5; 2500; 
385006; 4; 30000; 8006; 5; 2500; 
385006; 4; 35000; 9707; 5; 2500; 
385006; 4; 40000; 11474; 5; 2500; 
385006; 4; 45000; 12595; 5; 2500; 
385006; 4; 50000; 13034; 5; 2500; 
385006; 4; 55000; 13876; 5; 2500; 
385006; 4; 60000; 14155; 5; 2500; 
385006; 4; 65000; 14249; 5; 2500; 
385006; 4; 70000; 15139; 5; 2500; 
385006; 4; 75000; 15570; 5; 2500; 
385006; 4; 80000; 15798; 5; 2500; 
385006; 4; 85000; 16109; 5; 2500; 
385006; 4; 90000; 16300; 5; 2500; 
385006; 4; 95000; 16652; 5; 2500; 
385006; 4; 5000; 1311; 6; 2500; 
385006; 4; 10000; 3385; 6; 2500; 
385006; 4; 15000; 4238; 6; 2500; 
385006; 4; 20000; 5060; 6; 2500; 
385006; 4; 25000; 6392; 6; 2500; 
385006; 4; 30000; 8082; 6; 2500; 
385006; 4; 35000; 9711; 6; 2500; 
385006; 4; 40000; 11305; 6; 2500; 
385006; 4; 45000; 12737; 6; 2500; 
385006; 4; 50000; 13245; 6; 2500; 
385006; 4; 55000; 13587; 6; 2500; 
385006; 4; 60000; 14094; 6; 2500; 
385006; 4; 65000; 14891; 6; 2500; 
385006; 4; 70000; 15221; 6; 2500; 
385006; 4; 75000; 15375; 6; 2500; 
385006; 4; 80000; 16160; 6; 2500; 
385006; 4; 85000; 16112; 6; 2500; 
385006; 4; 90000; 16376; 6; 2500; 
385006; 4; 95000; 16661; 6; 2500; 
