textSize; alphaSize; querySize; time; expCount; iterations;  
1525030; 16; 5000; 1049; 0; 2500;  
1525030; 16; 5000; 967; 1; 2500;  
1525030; 16; 5000; 1065; 2; 2500;  
1525030; 16; 5000; 954; 3; 2500;  
1525030; 16; 5000; 1096; 4; 2500;  
1525030; 16; 5000; 1097; 5; 2500;  
1525030; 16; 5000; 1036; 6; 2500;  
1525030; 16; 10000; 2940; 0; 2500;  
1525030; 16; 10000; 2902; 1; 2500;  
1525030; 16; 10000; 2911; 2; 2500;  
1525030; 16; 10000; 2952; 3; 2500;  
1525030; 16; 10000; 2582; 4; 2500;  
1525030; 16; 10000; 3148; 5; 2500;  
1525030; 16; 10000; 3069; 6; 2500;  
1525030; 16; 15000; 4398; 0; 2500;  
1525030; 16; 15000; 4326; 1; 2500;  
1525030; 16; 15000; 4361; 2; 2500;  
1525030; 16; 15000; 4407; 3; 2500;  
1525030; 16; 15000; 4577; 4; 2500;  
1525030; 16; 15000; 4309; 5; 2500;  
1525030; 16; 15000; 4325; 6; 2500;  
1525030; 16; 20000; 5974; 0; 2500;  
1525030; 16; 20000; 5912; 1; 2500;  
1525030; 16; 20000; 6072; 2; 2500;  
1525030; 16; 20000; 5923; 3; 2500;  
1525030; 16; 20000; 5952; 4; 2500;  
1525030; 16; 20000; 6007; 5; 2500;  
1525030; 16; 20000; 5977; 6; 2500;  
1525030; 16; 25000; 7377; 0; 2500;  
1525030; 16; 25000; 7464; 1; 2500;  
1525030; 16; 25000; 7284; 2; 2500;  
1525030; 16; 25000; 7371; 3; 2500;  
1525030; 16; 25000; 7266; 4; 2500;  
1525030; 16; 25000; 7334; 5; 2500;  
1525030; 16; 25000; 7311; 6; 2500;  
1525030; 16; 30000; 8482; 0; 2500;  
1525030; 16; 30000; 8783; 1; 2500;  
1525030; 16; 30000; 8966; 2; 2500;  
1525030; 16; 30000; 8956; 3; 2500;  
1525030; 16; 30000; 9083; 4; 2500;  
1525030; 16; 30000; 8941; 5; 2500;  
1525030; 16; 30000; 9062; 6; 2500;  
1525030; 16; 35000; 10576; 0; 2500;  
1525030; 16; 35000; 10473; 1; 2500;  
1525030; 16; 35000; 10480; 2; 2500;  
1525030; 16; 35000; 10396; 3; 2500;  
1525030; 16; 35000; 10391; 4; 2500;  
1525030; 16; 35000; 10585; 5; 2500;  
1525030; 16; 35000; 10526; 6; 2500;  
1525030; 16; 40000; 13063; 0; 2500;  
1525030; 16; 40000; 12588; 1; 2500;  
1525030; 16; 40000; 12768; 2; 2500;  
1525030; 16; 40000; 12818; 3; 2500;  
1525030; 16; 40000; 12658; 4; 2500;  
1525030; 16; 40000; 12729; 5; 2500;  
1525030; 16; 40000; 12907; 6; 2500;  
1525030; 16; 45000; 16256; 0; 2500;  
1525030; 16; 45000; 16494; 1; 2500;  
1525030; 16; 45000; 16267; 2; 2500;  
1525030; 16; 45000; 16136; 3; 2500;  
1525030; 16; 45000; 16341; 4; 2500;  
1525030; 16; 45000; 16289; 5; 2500;  
1525030; 16; 45000; 16419; 6; 2500;  
1525030; 16; 50000; 17312; 0; 2500;  
1525030; 16; 50000; 17413; 1; 2500;  
1525030; 16; 50000; 17345; 2; 2500;  
1525030; 16; 50000; 17598; 3; 2500;  
1525030; 16; 50000; 17502; 4; 2500;  
1525030; 16; 50000; 17625; 5; 2500;  
1525030; 16; 50000; 17531; 6; 2500;  
1525030; 16; 55000; 18325; 0; 2500;  
1525030; 16; 55000; 18524; 1; 2500;  
1525030; 16; 55000; 18205; 2; 2500;  
1525030; 16; 55000; 18176; 3; 2500;  
1525030; 16; 55000; 18411; 4; 2500;  
1525030; 16; 55000; 18329; 5; 2500;  
1525030; 16; 55000; 18062; 6; 2500;  
1525030; 16; 60000; 19046; 0; 2500;  
1525030; 16; 60000; 19033; 1; 2500;  
1525030; 16; 60000; 18905; 2; 2500;  
1525030; 16; 60000; 18954; 3; 2500;  
1525030; 16; 60000; 18878; 4; 2500;  
1525030; 16; 60000; 18943; 5; 2500;  
1525030; 16; 60000; 19093; 6; 2500;  
1525030; 16; 65000; 19703; 0; 2500;  
1525030; 16; 65000; 19641; 1; 2500;  
1525030; 16; 65000; 19531; 2; 2500;  
1525030; 16; 65000; 19717; 3; 2500;  
1525030; 16; 65000; 19660; 4; 2500;  
1525030; 16; 65000; 19491; 5; 2500;  
1525030; 16; 65000; 19439; 6; 2500;  
1525030; 16; 70000; 20464; 0; 2500;  
1525030; 16; 70000; 20064; 1; 2500;  
1525030; 16; 70000; 20546; 2; 2500;  
1525030; 16; 70000; 20308; 3; 2500;  
1525030; 16; 70000; 20240; 4; 2500;  
1525030; 16; 70000; 20513; 5; 2500;  
1525030; 16; 70000; 20252; 6; 2500;  
1525030; 16; 75000; 20808; 0; 2500;  
1525030; 16; 75000; 20877; 1; 2500;  
1525030; 16; 75000; 20859; 2; 2500;  
1525030; 16; 75000; 20933; 3; 2500;  
1525030; 16; 75000; 21088; 4; 2500;  
1525030; 16; 75000; 20863; 5; 2500;  
1525030; 16; 75000; 20642; 6; 2500;  
1525030; 16; 80000; 21484; 0; 2500;  
1525030; 16; 80000; 21581; 1; 2500;  
1525030; 16; 80000; 21506; 2; 2500;  
1525030; 16; 80000; 21601; 3; 2500;  
1525030; 16; 80000; 21485; 4; 2500;  
1525030; 16; 80000; 21510; 5; 2500;  
1525030; 16; 80000; 21580; 6; 2500;  
1525030; 16; 85000; 22296; 0; 2500;  
1525030; 16; 85000; 22239; 1; 2500;  
1525030; 16; 85000; 22484; 2; 2500;  
1525030; 16; 85000; 22391; 3; 2500;  
1525030; 16; 85000; 22128; 4; 2500;  
1525030; 16; 85000; 22315; 5; 2500;  
1525030; 16; 85000; 22169; 6; 2500;  
1525030; 16; 90000; 22913; 0; 2500;  
1525030; 16; 90000; 22982; 1; 2500;  
1525030; 16; 90000; 22812; 2; 2500;  
1525030; 16; 90000; 22940; 3; 2500;  
1525030; 16; 90000; 22912; 4; 2500;  
1525030; 16; 90000; 22699; 5; 2500;  
1525030; 16; 90000; 22597; 6; 2500;  
1525030; 16; 95000; 23539; 0; 2500;  
1525030; 16; 95000; 23487; 1; 2500;  
1525030; 16; 95000; 23529; 2; 2500;  
1525030; 16; 95000; 23446; 3; 2500;  
1525030; 16; 95000; 23327; 4; 2500;  
1525030; 16; 95000; 23386; 5; 2500;  
1525030; 16; 95000; 23312; 6; 2500;  
