textSize; alphaSize; querySize; timeArray; timeTray; expCount; iterations;  
65536; 80; 100; 174; 126; 2; 250000;  
65536; 80; 100; 219; 188; 3; 250000;  
65536; 80; 100; 218; 156; 4; 250000;  
65536; 80; 100; 171; 171; 5; 250000;  
65536; 80; 100; 203; 155; 6; 250000;  
65536; 80; 200; 281; 266; 2; 250000;  
65536; 80; 200; 295; 249; 3; 250000;  
65536; 80; 200; 281; 233; 4; 250000;  
65536; 80; 200; 284; 281; 5; 250000;  
65536; 80; 200; 220; 218; 6; 250000;  
65536; 80; 300; 423; 282; 2; 250000;  
65536; 80; 300; 313; 329; 3; 250000;  
65536; 80; 300; 406; 390; 4; 250000;  
65536; 80; 300; 313; 328; 5; 250000;  
65536; 80; 300; 330; 375; 6; 250000;  
65536; 80; 400; 342; 500; 2; 250000;  
65536; 80; 400; 436; 391; 3; 250000;  
65536; 80; 400; 423; 359; 4; 250000;  
65536; 80; 400; 452; 454; 5; 250000;  
65536; 80; 400; 420; 439; 6; 250000;  
65536; 80; 500; 499; 470; 2; 250000;  
65536; 80; 500; 576; 469; 3; 250000;  
65536; 80; 500; 531; 421; 4; 250000;  
65536; 80; 500; 516; 513; 5; 250000;  
65536; 80; 500; 513; 407; 6; 250000;  
65536; 80; 600; 686; 657; 2; 250000;  
65536; 80; 600; 611; 532; 3; 250000;  
65536; 80; 600; 656; 547; 4; 250000;  
65536; 80; 600; 673; 611; 5; 250000;  
65536; 80; 600; 595; 562; 6; 250000;  
65536; 80; 700; 596; 608; 2; 250000;  
65536; 80; 700; 720; 594; 3; 250000;  
65536; 80; 700; 610; 561; 4; 250000;  
65536; 80; 700; 705; 670; 5; 250000;  
65536; 80; 700; 641; 657; 6; 250000;  
65536; 80; 800; 673; 828; 2; 250000;  
65536; 80; 800; 811; 750; 3; 250000;  
65536; 80; 800; 673; 749; 4; 250000;  
65536; 80; 800; 827; 768; 5; 250000;  
65536; 80; 800; 796; 765; 6; 250000;  
65536; 80; 900; 860; 736; 2; 250000;  
65536; 80; 900; 843; 734; 3; 250000;  
65536; 80; 900; 737; 737; 4; 250000;  
65536; 80; 900; 860; 690; 5; 250000;  
65536; 80; 900; 858; 765; 6; 250000;  
65536; 80; 1000; 1001; 940; 2; 250000;  
65536; 80; 1000; 877; 956; 3; 250000;  
65536; 80; 1000; 924; 889; 4; 250000;  
65536; 80; 1000; 887; 876; 5; 250000;  
65536; 80; 1000; 924; 877; 6; 250000;  
65536; 80; 1100; 1063; 937; 2; 250000;  
65536; 80; 1100; 1063; 1015; 3; 250000;  
65536; 80; 1100; 1048; 953; 4; 250000;  
65536; 80; 1100; 1062; 984; 5; 250000;  
65536; 80; 1100; 1125; 876; 6; 250000;  
65536; 80; 1200; 1108; 1091; 2; 250000;  
65536; 80; 1200; 1154; 1137; 3; 250000;  
65536; 80; 1200; 1126; 1126; 4; 250000;  
65536; 80; 1200; 1140; 1029; 5; 250000;  
65536; 80; 1200; 1077; 1108; 6; 250000;  
65536; 80; 1300; 1237; 1265; 2; 250000;  
65536; 80; 1300; 1051; 1138; 3; 250000;  
65536; 80; 1300; 1142; 1060; 4; 250000;  
65536; 80; 1300; 1096; 1158; 5; 250000;  
65536; 80; 1300; 1284; 1141; 6; 250000;  
65536; 80; 1400; 1311; 1123; 2; 250000;  
65536; 80; 1400; 1156; 1299; 3; 250000;  
65536; 80; 1400; 1218; 1141; 4; 250000;  
65536; 80; 1400; 1264; 1250; 5; 250000;  
65536; 80; 1400; 1097; 1159; 6; 250000;  
65536; 80; 1500; 1363; 1358; 2; 250000;  
65536; 80; 1500; 1389; 1388; 3; 250000;  
65536; 80; 1500; 1283; 1250; 4; 250000;  
65536; 80; 1500; 1299; 1346; 5; 250000;  
65536; 80; 1500; 1407; 1390; 6; 250000;  
65536; 80; 1600; 1422; 1402; 2; 250000;  
65536; 80; 1600; 1390; 1375; 3; 250000;  
65536; 80; 1600; 1389; 1357; 4; 250000;  
65536; 80; 1600; 1421; 1433; 5; 250000;  
65536; 80; 1600; 1377; 1360; 6; 250000;  
65536; 80; 1700; 1593; 1504; 2; 250000;  
65536; 80; 1700; 1562; 1438; 3; 250000;  
65536; 80; 1700; 1548; 1561; 4; 250000;  
65536; 80; 1700; 1624; 1544; 5; 250000;  
65536; 80; 1700; 1609; 1514; 6; 250000;  
65536; 80; 1800; 1639; 1563; 2; 250000;  
65536; 80; 1800; 1578; 1551; 3; 250000;  
65536; 80; 1800; 1550; 1533; 4; 250000;  
65536; 80; 1800; 1594; 1686; 5; 250000;  
65536; 80; 1800; 1639; 1557; 6; 250000;  
65536; 80; 1900; 1733; 1621; 2; 250000;  
65536; 80; 1900; 1748; 1719; 3; 250000;  
65536; 80; 1900; 1671; 1577; 4; 250000;  
65536; 80; 1900; 1661; 1640; 5; 250000;  
65536; 80; 1900; 1751; 1579; 6; 250000;  
65536; 80; 2000; 1778; 1780; 2; 250000;  
65536; 80; 2000; 1773; 1718; 3; 250000;  
65536; 80; 2000; 1763; 1750; 4; 250000;  
65536; 80; 2000; 1771; 1640; 5; 250000;  
65536; 80; 2000; 1747; 1626; 6; 250000;  
