textSize; alphaSize; querySize; timeArray; timeTray; expCount; iterations;  avgTimeArray; standardDeviationArray; relativeStdDevArray; avgTimeTray; standardDeviationTray; relativeStdDevTray; 
262144; 81; 100; 188; 141; 2; 250000;   240.6; 28.667751917442008;  11.91510886011721;172.0; 19.616319736382767;  11.404837056036493; 
262144; 81; 200; 327; 313; 2; 250000;   331.2; 26.72377218882095;  8.068771796141592;284.4; 27.514359887157106;  9.67452879295257; 
262144; 81; 300; 470; 359; 2; 250000;   434.8; 21.70161284328886;  4.991171307104154;374.0; 22.351733713517618;  5.976399388641075; 
262144; 81; 400; 470; 454; 2; 250000;   500.4; 32.041223447303004;  6.403122191707235;455.8; 21.469979040511426;  4.710394699541778; 
262144; 81; 500; 640; 467; 2; 250000;   608.8; 51.97460918563987;  8.537222270965813;528.0; 45.66399018920707;  8.648482990380128; 
262144; 81; 600; 675; 594; 2; 250000;   688.4; 38.846364051221066;  5.6429930347503;610.0; 19.969977466186585;  3.2737667977355054; 
262144; 81; 700; 782; 660; 2; 250000;   762.4; 37.913585955432914;  4.972925754909879;720.4; 42.52810835200644;  5.903402047752144; 
262144; 81; 800; 750; 735; 2; 250000;   819.6; 36.7782544447123;  4.487341928344595;729.0; 17.34358671094304;  2.379092827289855; 
262144; 81; 900; 891; 878; 2; 250000;   884.4; 36.76737684415357;  4.157324383101941;851.4; 45.12028368705144;  5.29954001492265; 
262144; 81; 1000; 954; 1015; 2; 250000;   990.4; 26.522443326360413;  2.677952678348184;962.4; 55.21811297029264;  5.737542910462659; 
262144; 81; 1100; 1082; 1079; 2; 250000;   1112.0; 46.29902806755235;  4.1635816607511105;1009.6; 74.32254032256971;  7.3615828370215635; 
262144; 81; 1200; 1098; 1126; 2; 250000;   1150.0; 44.528642467517464;  3.8720558667406495;1112.8; 74.48865685458425;  6.693804534020871; 
262144; 81; 1300; 1248; 1110; 2; 250000;   1262.8; 18.258148865643527;  1.445846441688591;1201.2; 79.297919266523;  6.601558380496419; 
262144; 81; 1400; 1420; 1143; 2; 250000;   1367.6; 36.313083041790875;  2.655241521043498;1237.0; 76.10519036176179;  6.152400190926579; 
262144; 81; 1500; 1343; 1377; 2; 250000;   1422.6; 69.39337144137039;  4.877925730449205;1325.4; 53.421344048984764;  4.030582771162273; 
262144; 81; 1600; 1502; 1454; 2; 250000;   1496.6; 55.93424711212264;  3.737421295745199;1425.0; 62.00967666421104;  4.3515562571376165; 
262144; 81; 1700; 1580; 1514; 2; 250000;   1569.4; 41.08332995267058;  2.6177730312648513;1503.6; 78.81776449506799;  5.2419369842423515; 
262144; 81; 1800; 1623; 1628; 2; 250000;   1630.8; 73.93348361872313;  4.533571475271224;1628.2; 72.13709170738726;  4.430481004015923; 
262144; 81; 1900; 1830; 1687; 2; 250000;   1733.4; 63.68233664054736;  3.6738396585062514;1702.6; 14.235167719419396;  0.8360840901808643; 
262144; 81; 2000; 1845; 1796; 2; 250000;   1854.0; 67.86751800382861;  3.6605996765819095;1780.8; 38.82988539771911;  2.180474247401118; 
