textSize; alphaSize; querySize; timeArray; timeTray; expCount; iterations;  avgTimeArray; standardDeviationArray; relativeStdDevArray; avgTimeTray; standardDeviationTray; relativeStdDevTray; 
65536; 80; 100; 174; 126; 2; 250000;   197.0; 20.813457185196313;  10.565206692993053;159.2; 20.48804529475665;  12.869375185148648; 
65536; 80; 200; 281; 266; 2; 250000;   272.2; 26.603759132874437;  9.773607322878192;249.4; 22.49088704342272;  9.017998012599326; 
65536; 80; 300; 423; 282; 2; 250000;   357.0; 47.6613050597652;  13.350505618981847;340.8; 38.34266553071135;  11.250782139293236; 
65536; 80; 400; 342; 500; 2; 250000;   414.6; 38.018942647054246;  9.170029582019836;428.6; 49.212193610933454;  11.482079703904212; 
65536; 80; 500; 499; 470; 2; 250000;   527.0; 26.525459468216567;  5.0332940167393865;456.0; 38.05259518088089;  8.344867364228266; 
65536; 80; 600; 686; 657; 2; 250000;   644.2; 35.32364647088406;  5.4833353726923395;581.8; 46.02347227230906;  7.910531500912524; 
65536; 80; 700; 596; 608; 2; 250000;   654.4; 49.85017552627072;  7.617691859148949;618.0; 40.3732584763727;  6.532889721095906; 
65536; 80; 800; 673; 828; 2; 250000;   756.0; 68.47481288765965;  9.057514932230113;772.0; 29.03101789465881;  3.76049454594026; 
65536; 80; 900; 860; 736; 2; 250000;   831.6; 47.72672207474551;  5.739144068632216;732.4; 24.071559982684963;  3.2866684848013334; 
65536; 80; 1000; 1001; 940; 2; 250000;   922.6; 43.58256532146771;  4.723885250538447;907.6; 33.684417762520404;  3.711372604949361; 
65536; 80; 1100; 1063; 937; 2; 250000;   1072.2; 27.006665843824557;  2.5188086032293002;953.0; 46.88283267892417;  4.919499756445348; 
65536; 80; 1200; 1108; 1091; 2; 250000;   1121.0; 26.758176320519304;  2.386991643222061;1098.2; 37.98631332466998;  3.458961329873427; 
65536; 80; 1300; 1237; 1265; 2; 250000;   1162.0; 86.70178775550133;  7.461427517685141;1152.4; 65.70418555921685;  5.701508639293375; 
65536; 80; 1400; 1311; 1123; 2; 250000;   1209.2; 75.97736505038853;  6.283275310154527;1194.4; 68.1692012568726;  5.7074013108567145; 
65536; 80; 1500; 1363; 1358; 2; 250000;   1348.2; 49.015915782529255;  3.6356561179742806;1346.4; 51.1061640117902;  3.795763815492439; 
65536; 80; 1600; 1422; 1402; 2; 250000;   1399.8; 18.301912468373352;  1.3074662429185135;1385.4; 28.639832401744254;  2.067260892287011; 
65536; 80; 1700; 1593; 1504; 2; 250000;   1587.2; 28.407041380615475;  1.7897581515004708;1512.2; 42.35280392134622;  2.8007409020861145; 
65536; 80; 1800; 1639; 1563; 2; 250000;   1600.0; 34.81953474703532;  2.1762209216897075;1578.0; 54.92540395845988;  3.4806973357705884; 
65536; 80; 1900; 1733; 1621; 2; 250000;   1712.8; 38.824734384152585;  2.2667406809990998;1627.2; 51.909151408976044;  3.190090425822028; 
65536; 80; 2000; 1778; 1780; 2; 250000;   1766.4; 10.836973747315254;  0.613506213050003;1702.8; 60.43310351123795;  3.5490429593163; 
