textSize; alphaSize; querySize; timeArray; timeTray; expCount; iterations;  
65536; 5; 100; 219; 188; 2; 250000;  
65536; 5; 100; 203; 188; 3; 250000;  
65536; 5; 100; 202; 203; 4; 250000;  
65536; 5; 100; 189; 109; 5; 250000;  
65536; 5; 100; 173; 126; 6; 250000;  
65536; 5; 200; 249; 282; 2; 250000;  
65536; 5; 200; 219; 218; 3; 250000;  
65536; 5; 200; 314; 235; 4; 250000;  
65536; 5; 200; 250; 297; 5; 250000;  
65536; 5; 200; 312; 297; 6; 250000;  
65536; 5; 300; 328; 361; 2; 250000;  
65536; 5; 300; 375; 374; 3; 250000;  
65536; 5; 300; 344; 422; 4; 250000;  
65536; 5; 300; 361; 358; 5; 250000;  
65536; 5; 300; 391; 343; 6; 250000;  
65536; 5; 400; 501; 453; 2; 250000;  
65536; 5; 400; 437; 424; 3; 250000;  
65536; 5; 400; 421; 437; 4; 250000;  
65536; 5; 400; 438; 486; 5; 250000;  
65536; 5; 400; 456; 468; 6; 250000;  
65536; 5; 500; 610; 499; 2; 250000;  
65536; 5; 500; 533; 624; 3; 250000;  
65536; 5; 500; 517; 502; 4; 250000;  
65536; 5; 500; 531; 422; 5; 250000;  
65536; 5; 500; 531; 516; 6; 250000;  
65536; 5; 600; 639; 577; 2; 250000;  
65536; 5; 600; 609; 610; 3; 250000;  
65536; 5; 600; 561; 686; 4; 250000;  
65536; 5; 600; 565; 639; 5; 250000;  
65536; 5; 600; 577; 564; 6; 250000;  
65536; 5; 700; 625; 718; 2; 250000;  
65536; 5; 700; 686; 737; 3; 250000;  
65536; 5; 700; 700; 655; 4; 250000;  
65536; 5; 700; 674; 655; 5; 250000;  
65536; 5; 700; 655; 813; 6; 250000;  
65536; 5; 800; 827; 752; 2; 250000;  
65536; 5; 800; 859; 845; 3; 250000;  
65536; 5; 800; 781; 814; 4; 250000;  
65536; 5; 800; 688; 766; 5; 250000;  
65536; 5; 800; 722; 736; 6; 250000;  
65536; 5; 900; 906; 907; 2; 250000;  
65536; 5; 900; 858; 843; 3; 250000;  
65536; 5; 900; 764; 920; 4; 250000;  
65536; 5; 900; 875; 892; 5; 250000;  
65536; 5; 900; 844; 892; 6; 250000;  
65536; 5; 1000; 811; 1030; 2; 250000;  
65536; 5; 1000; 839; 969; 3; 250000;  
65536; 5; 1000; 875; 939; 4; 250000;  
65536; 5; 1000; 889; 1014; 5; 250000;  
65536; 5; 1000; 1000; 1030; 6; 250000;  
65536; 5; 1100; 1108; 965; 2; 250000;  
65536; 5; 1100; 971; 1124; 3; 250000;  
65536; 5; 1100; 1013; 1079; 4; 250000;  
65536; 5; 1100; 934; 1013; 5; 250000;  
65536; 5; 1100; 846; 1061; 6; 250000;  
65536; 5; 1200; 1093; 1160; 2; 250000;  
65536; 5; 1200; 1109; 1186; 3; 250000;  
65536; 5; 1200; 1032; 1220; 4; 250000;  
65536; 5; 1200; 1016; 1236; 5; 250000;  
65536; 5; 1200; 1093; 1249; 6; 250000;  
65536; 5; 1300; 1155; 1217; 2; 250000;  
65536; 5; 1300; 1248; 1266; 3; 250000;  
65536; 5; 1300; 1129; 1281; 4; 250000;  
65536; 5; 1300; 1076; 1233; 5; 250000;  
65536; 5; 1300; 1175; 1248; 6; 250000;  
65536; 5; 1400; 1262; 1439; 2; 250000;  
65536; 5; 1400; 1220; 1439; 3; 250000;  
65536; 5; 1400; 1358; 1331; 4; 250000;  
65536; 5; 1400; 1201; 1375; 5; 250000;  
65536; 5; 1400; 1217; 1361; 6; 250000;  
65536; 5; 1500; 1232; 1406; 2; 250000;  
65536; 5; 1500; 1345; 1502; 3; 250000;  
65536; 5; 1500; 1345; 1436; 4; 250000;  
65536; 5; 1500; 1297; 1592; 5; 250000;  
65536; 5; 1500; 1388; 1516; 6; 250000;  
65536; 5; 1600; 1440; 1579; 2; 250000;  
65536; 5; 1600; 1530; 1563; 3; 250000;  
65536; 5; 1600; 1251; 1547; 4; 250000;  
65536; 5; 1600; 1386; 1595; 5; 250000;  
65536; 5; 1600; 1467; 1468; 6; 250000;  
65536; 5; 1700; 1423; 1659; 2; 250000;  
65536; 5; 1700; 1642; 1519; 3; 250000;  
65536; 5; 1700; 1534; 1578; 4; 250000;  
65536; 5; 1700; 1515; 1735; 5; 250000;  
65536; 5; 1700; 1485; 1578; 6; 250000;  
65536; 5; 1800; 1624; 1734; 2; 250000;  
65536; 5; 1800; 1550; 1892; 3; 250000;  
65536; 5; 1800; 1608; 1671; 4; 250000;  
65536; 5; 1800; 1518; 1858; 5; 250000;  
65536; 5; 1800; 1559; 1703; 6; 250000;  
65536; 5; 1900; 1645; 1830; 2; 250000;  
65536; 5; 1900; 1750; 1875; 3; 250000;  
65536; 5; 1900; 1753; 1812; 4; 250000;  
65536; 5; 1900; 1689; 1845; 5; 250000;  
65536; 5; 1900; 1657; 1876; 6; 250000;  
65536; 5; 2000; 1739; 1908; 2; 250000;  
65536; 5; 2000; 1799; 1968; 3; 250000;  
65536; 5; 2000; 1878; 2017; 4; 250000;  
65536; 5; 2000; 1780; 1924; 5; 250000;  
65536; 5; 2000; 1831; 1985; 6; 250000;  
