textSize; alphaSize; querySize; time; expCount;  
195002; 2; 5000; 392; 0;  
195002; 2; 5000; 548; 1;  
195002; 2; 5000; 329; 2;  
195002; 2; 5000; 467; 3;  
195002; 2; 5000; 267; 4;  
195002; 2; 5000; 410; 5;  
195002; 2; 5000; 470; 6;  
195002; 2; 10000; 793; 0;  
195002; 2; 10000; 592; 1;  
195002; 2; 10000; 625; 2;  
195002; 2; 10000; 625; 3;  
195002; 2; 10000; 608; 4;  
195002; 2; 10000; 769; 5;  
195002; 2; 10000; 660; 6;  
195002; 2; 15000; 1097; 0;  
195002; 2; 15000; 967; 1;  
195002; 2; 15000; 781; 2;  
195002; 2; 15000; 997; 3;  
195002; 2; 15000; 910; 4;  
195002; 2; 15000; 893; 5;  
195002; 2; 15000; 798; 6;  
195002; 2; 20000; 2107; 0;  
195002; 2; 20000; 2329; 1;  
195002; 2; 20000; 1941; 2;  
195002; 2; 20000; 1875; 3;  
195002; 2; 20000; 2093; 4;  
195002; 2; 20000; 1975; 5;  
195002; 2; 20000; 1702; 6;  
195002; 2; 25000; 3124; 0;  
195002; 2; 25000; 3389; 1;  
195002; 2; 25000; 3094; 2;  
195002; 2; 25000; 3141; 3;  
195002; 2; 25000; 3377; 4;  
195002; 2; 25000; 3279; 5;  
195002; 2; 25000; 3327; 6;  
195002; 2; 30000; 3718; 0;  
195002; 2; 30000; 4093; 1;  
195002; 2; 30000; 3795; 2;  
195002; 2; 30000; 3853; 3;  
195002; 2; 30000; 3832; 4;  
195002; 2; 30000; 3711; 5;  
195002; 2; 30000; 4030; 6;  
195002; 2; 35000; 4591; 0;  
195002; 2; 35000; 4737; 1;  
195002; 2; 35000; 4298; 2;  
195002; 2; 35000; 4382; 3;  
195002; 2; 35000; 4426; 4;  
195002; 2; 35000; 4469; 5;  
195002; 2; 35000; 4581; 6;  
195002; 2; 40000; 5158; 0;  
195002; 2; 40000; 5145; 1;  
195002; 2; 40000; 4970; 2;  
195002; 2; 40000; 4802; 3;  
195002; 2; 40000; 4854; 4;  
195002; 2; 40000; 4939; 5;  
195002; 2; 40000; 4989; 6;  
195002; 2; 45000; 5797; 0;  
195002; 2; 45000; 5402; 1;  
195002; 2; 45000; 5465; 2;  
195002; 2; 45000; 5672; 3;  
195002; 2; 45000; 5408; 4;  
195002; 2; 45000; 5489; 5;  
195002; 2; 45000; 5518; 6;  
195002; 2; 50000; 6264; 0;  
195002; 2; 50000; 6024; 1;  
195002; 2; 50000; 6198; 2;  
195002; 2; 50000; 6062; 3;  
195002; 2; 50000; 6170; 4;  
195002; 2; 50000; 6031; 5;  
195002; 2; 50000; 6084; 6;  
195002; 2; 55000; 7079; 0;  
195002; 2; 55000; 6597; 1;  
195002; 2; 55000; 6798; 2;  
195002; 2; 55000; 6969; 3;  
195002; 2; 55000; 6638; 4;  
195002; 2; 55000; 7315; 5;  
195002; 2; 55000; 6674; 6;  
195002; 2; 60000; 7858; 0;  
195002; 2; 60000; 7080; 1;  
195002; 2; 60000; 7339; 2;  
195002; 2; 60000; 7380; 3;  
195002; 2; 60000; 7256; 4;  
195002; 2; 60000; 7202; 5;  
195002; 2; 60000; 7210; 6;  
195002; 2; 65000; 7903; 0;  
195002; 2; 65000; 7805; 1;  
195002; 2; 65000; 7953; 2;  
195002; 2; 65000; 7739; 3;  
195002; 2; 65000; 7638; 4;  
195002; 2; 65000; 7596; 5;  
195002; 2; 65000; 7594; 6;  
195002; 2; 70000; 8481; 0;  
195002; 2; 70000; 8028; 1;  
195002; 2; 70000; 8207; 2;  
195002; 2; 70000; 7864; 3;  
195002; 2; 70000; 7987; 4;  
195002; 2; 70000; 7995; 5;  
195002; 2; 70000; 8051; 6;  
195002; 2; 75000; 9293; 0;  
195002; 2; 75000; 9091; 1;  
195002; 2; 75000; 9325; 2;  
195002; 2; 75000; 9279; 3;  
195002; 2; 75000; 9205; 4;  
195002; 2; 75000; 9325; 5;  
195002; 2; 75000; 9392; 6;  
195002; 2; 80000; 9992; 0;  
195002; 2; 80000; 10004; 1;  
195002; 2; 80000; 9926; 2;  
195002; 2; 80000; 10371; 3;  
195002; 2; 80000; 10260; 4;  
195002; 2; 80000; 9998; 5;  
195002; 2; 80000; 10141; 6;  
195002; 2; 85000; 10336; 0;  
195002; 2; 85000; 10469; 1;  
195002; 2; 85000; 10323; 2;  
195002; 2; 85000; 10556; 3;  
195002; 2; 85000; 10489; 4;  
195002; 2; 85000; 10409; 5;  
195002; 2; 85000; 10473; 6;  
195002; 2; 90000; 10675; 0;  
195002; 2; 90000; 10764; 1;  
195002; 2; 90000; 10784; 2;  
195002; 2; 90000; 10495; 3;  
195002; 2; 90000; 10521; 4;  
195002; 2; 90000; 10751; 5;  
195002; 2; 90000; 10796; 6;  
195002; 2; 95000; 10877; 0;  
195002; 2; 95000; 11017; 1;  
195002; 2; 95000; 11096; 2;  
195002; 2; 95000; 10970; 3;  
195002; 2; 95000; 10879; 4;  
195002; 2; 95000; 10901; 5;  
195002; 2; 95000; 11015; 6;  
