textSize; alphaSize; querySize; time; expCount;  
765014; 8; 5000; 844; 0;  
765014; 8; 5000; 1076; 1;  
765014; 8; 5000; 1179; 2;  
765014; 8; 5000; 895; 3;  
765014; 8; 5000; 1174; 4;  
765014; 8; 5000; 1123; 5;  
765014; 8; 5000; 1060; 6;  
765014; 8; 10000; 3940; 0;  
765014; 8; 10000; 3946; 1;  
765014; 8; 10000; 3982; 2;  
765014; 8; 10000; 4066; 3;  
765014; 8; 10000; 3758; 4;  
765014; 8; 10000; 4207; 5;  
765014; 8; 10000; 3935; 6;  
765014; 8; 15000; 7271; 0;  
765014; 8; 15000; 7408; 1;  
765014; 8; 15000; 7424; 2;  
765014; 8; 15000; 7356; 3;  
765014; 8; 15000; 7561; 4;  
765014; 8; 15000; 7422; 5;  
765014; 8; 15000; 7479; 6;  
765014; 8; 20000; 8960; 0;  
765014; 8; 20000; 9128; 1;  
765014; 8; 20000; 8981; 2;  
765014; 8; 20000; 9122; 3;  
765014; 8; 20000; 8969; 4;  
765014; 8; 20000; 9322; 5;  
765014; 8; 20000; 8955; 6;  
765014; 8; 25000; 10721; 0;  
765014; 8; 25000; 10600; 1;  
765014; 8; 25000; 10673; 2;  
765014; 8; 25000; 10528; 3;  
765014; 8; 25000; 10705; 4;  
765014; 8; 25000; 10484; 5;  
765014; 8; 25000; 10471; 6;  
765014; 8; 30000; 11815; 0;  
765014; 8; 30000; 12106; 1;  
765014; 8; 30000; 11859; 2;  
765014; 8; 30000; 12249; 3;  
765014; 8; 30000; 11982; 4;  
765014; 8; 30000; 12173; 5;  
765014; 8; 30000; 11544; 6;  
765014; 8; 35000; 13471; 0;  
765014; 8; 35000; 13378; 1;  
765014; 8; 35000; 13395; 2;  
765014; 8; 35000; 13707; 3;  
765014; 8; 35000; 13634; 4;  
765014; 8; 35000; 13454; 5;  
765014; 8; 35000; 13490; 6;  
765014; 8; 40000; 15126; 0;  
765014; 8; 40000; 14744; 1;  
765014; 8; 40000; 14996; 2;  
765014; 8; 40000; 15063; 3;  
765014; 8; 40000; 14893; 4;  
765014; 8; 40000; 14932; 5;  
765014; 8; 40000; 14810; 6;  
765014; 8; 45000; 16642; 0;  
765014; 8; 45000; 16450; 1;  
765014; 8; 45000; 16621; 2;  
765014; 8; 45000; 16487; 3;  
765014; 8; 45000; 16391; 4;  
765014; 8; 45000; 16745; 5;  
765014; 8; 45000; 16549; 6;  
765014; 8; 50000; 18078; 0;  
765014; 8; 50000; 18004; 1;  
765014; 8; 50000; 18140; 2;  
765014; 8; 50000; 18022; 3;  
765014; 8; 50000; 17824; 4;  
765014; 8; 50000; 18113; 5;  
765014; 8; 50000; 17969; 6;  
765014; 8; 55000; 19607; 0;  
765014; 8; 55000; 19471; 1;  
765014; 8; 55000; 19449; 2;  
765014; 8; 55000; 19648; 3;  
765014; 8; 55000; 19563; 4;  
765014; 8; 55000; 19552; 5;  
765014; 8; 55000; 19410; 6;  
765014; 8; 60000; 21069; 0;  
765014; 8; 60000; 20996; 1;  
765014; 8; 60000; 21119; 2;  
765014; 8; 60000; 21264; 3;  
765014; 8; 60000; 20940; 4;  
765014; 8; 60000; 21062; 5;  
765014; 8; 60000; 21186; 6;  
765014; 8; 65000; 22776; 0;  
765014; 8; 65000; 22725; 1;  
765014; 8; 65000; 22503; 2;  
765014; 8; 65000; 22813; 3;  
765014; 8; 65000; 22674; 4;  
765014; 8; 65000; 22597; 5;  
765014; 8; 65000; 22577; 6;  
765014; 8; 70000; 23958; 0;  
765014; 8; 70000; 24239; 1;  
765014; 8; 70000; 24237; 2;  
765014; 8; 70000; 24235; 3;  
765014; 8; 70000; 24248; 4;  
765014; 8; 70000; 24440; 5;  
765014; 8; 70000; 24328; 6;  
765014; 8; 75000; 26692; 0;  
765014; 8; 75000; 26815; 1;  
765014; 8; 75000; 26936; 2;  
765014; 8; 75000; 26751; 3;  
765014; 8; 75000; 26903; 4;  
765014; 8; 75000; 26747; 5;  
765014; 8; 75000; 26972; 6;  
765014; 8; 80000; 30073; 0;  
765014; 8; 80000; 30315; 1;  
765014; 8; 80000; 30299; 2;  
765014; 8; 80000; 30317; 3;  
765014; 8; 80000; 30583; 4;  
765014; 8; 80000; 30314; 5;  
765014; 8; 80000; 30153; 6;  
765014; 8; 85000; 33589; 0;  
765014; 8; 85000; 33434; 1;  
765014; 8; 85000; 33498; 2;  
765014; 8; 85000; 33421; 3;  
765014; 8; 85000; 33517; 4;  
765014; 8; 85000; 33518; 5;  
765014; 8; 85000; 33406; 6;  
765014; 8; 90000; 35876; 0;  
765014; 8; 90000; 35881; 1;  
765014; 8; 90000; 35721; 2;  
765014; 8; 90000; 35638; 3;  
765014; 8; 90000; 35705; 4;  
765014; 8; 90000; 35949; 5;  
765014; 8; 90000; 35798; 6;  
765014; 8; 95000; 36677; 0;  
765014; 8; 95000; 36360; 1;  
765014; 8; 95000; 36491; 2;  
765014; 8; 95000; 36301; 3;  
765014; 8; 95000; 36450; 4;  
765014; 8; 95000; 36421; 5;  
765014; 8; 95000; 36668; 6;  
