textSize; alphaSize; querySize; timeTree; timeArray; timeTray; expCount; iterations; 
2097152; 55; 5; 271; 301; 112; 2; 500000;  
2097152; 55; 5; 286; 313; 126; 3; 500000;  
2097152; 55; 5; 273; 287; 102; 4; 500000;  
2097152; 55; 5; 290; 305; 117; 5; 500000;  
2097152; 55; 5; 282; 298; 104; 6; 500000;  
2097152; 55; 10; 872; 514; 325; 2; 500000;  
2097152; 55; 10; 859; 509; 322; 3; 500000;  
2097152; 55; 10; 871; 522; 315; 4; 500000;  
2097152; 55; 10; 857; 528; 316; 5; 500000;  
2097152; 55; 10; 857; 536; 329; 6; 500000;  
2097152; 55; 15; 1135; 614; 409; 2; 500000;  
2097152; 55; 15; 1133; 594; 391; 3; 500000;  
2097152; 55; 15; 1131; 587; 417; 4; 500000;  
2097152; 55; 15; 1097; 611; 389; 5; 500000;  
2097152; 55; 15; 1154; 610; 401; 6; 500000;  
2097152; 55; 20; 1267; 638; 426; 2; 500000;  
2097152; 55; 20; 1250; 643; 444; 3; 500000;  
2097152; 55; 20; 1271; 616; 416; 4; 500000;  
2097152; 55; 20; 1248; 628; 434; 5; 500000;  
2097152; 55; 20; 1262; 629; 429; 6; 500000;  
2097152; 55; 25; 1300; 653; 456; 2; 500000;  
2097152; 55; 25; 1268; 664; 459; 3; 500000;  
2097152; 55; 25; 1274; 646; 463; 4; 500000;  
2097152; 55; 25; 1308; 648; 447; 5; 500000;  
2097152; 55; 25; 1279; 660; 448; 6; 500000;  
2097152; 55; 30; 1354; 668; 462; 2; 500000;  
2097152; 55; 30; 1299; 655; 461; 3; 500000;  
2097152; 55; 30; 1350; 652; 461; 4; 500000;  
2097152; 55; 30; 1313; 674; 482; 5; 500000;  
2097152; 55; 30; 1330; 681; 482; 6; 500000;  
2097152; 55; 35; 1368; 698; 471; 2; 500000;  
2097152; 55; 35; 1370; 676; 475; 3; 500000;  
2097152; 55; 35; 1373; 682; 477; 4; 500000;  
2097152; 55; 35; 1335; 662; 470; 5; 500000;  
2097152; 55; 35; 1366; 669; 490; 6; 500000;  
2097152; 55; 40; 1375; 672; 483; 2; 500000;  
2097152; 55; 40; 1379; 694; 474; 3; 500000;  
2097152; 55; 40; 1379; 685; 510; 4; 500000;  
2097152; 55; 40; 1394; 698; 480; 5; 500000;  
2097152; 55; 40; 1380; 682; 492; 6; 500000;  
2097152; 55; 45; 1375; 702; 500; 2; 500000;  
2097152; 55; 45; 1418; 694; 493; 3; 500000;  
2097152; 55; 45; 1403; 703; 509; 4; 500000;  
2097152; 55; 45; 1399; 693; 496; 5; 500000;  
2097152; 55; 45; 1394; 703; 502; 6; 500000;  
2097152; 55; 50; 1400; 718; 520; 2; 500000;  
2097152; 55; 50; 1431; 706; 502; 3; 500000;  
2097152; 55; 50; 1443; 708; 505; 4; 500000;  
2097152; 55; 50; 1397; 721; 516; 5; 500000;  
2097152; 55; 50; 1398; 699; 502; 6; 500000;  
2097152; 55; 55; 1414; 721; 521; 2; 500000;  
2097152; 55; 55; 1424; 729; 512; 3; 500000;  
2097152; 55; 55; 1384; 723; 523; 4; 500000;  
2097152; 55; 55; 1432; 711; 521; 5; 500000;  
2097152; 55; 55; 1431; 723; 526; 6; 500000;  
2097152; 55; 60; 1423; 721; 523; 2; 500000;  
2097152; 55; 60; 1443; 711; 558; 3; 500000;  
2097152; 55; 60; 1438; 730; 527; 4; 500000;  
2097152; 55; 60; 1447; 729; 519; 5; 500000;  
2097152; 55; 60; 1444; 749; 526; 6; 500000;  
2097152; 55; 65; 1417; 743; 546; 2; 500000;  
2097152; 55; 65; 1456; 743; 523; 3; 500000;  
2097152; 55; 65; 1434; 718; 552; 4; 500000;  
2097152; 55; 65; 1449; 724; 548; 5; 500000;  
2097152; 55; 65; 1432; 760; 541; 6; 500000;  
2097152; 55; 70; 1471; 757; 550; 2; 500000;  
2097152; 55; 70; 1464; 747; 553; 3; 500000;  
2097152; 55; 70; 1470; 747; 547; 4; 500000;  
2097152; 55; 70; 1433; 734; 554; 5; 500000;  
2097152; 55; 70; 1463; 746; 527; 6; 500000;  
2097152; 55; 75; 1451; 771; 562; 2; 500000;  
2097152; 55; 75; 1464; 750; 575; 3; 500000;  
2097152; 55; 75; 1456; 759; 554; 4; 500000;  
2097152; 55; 75; 1456; 763; 571; 5; 500000;  
2097152; 55; 75; 1427; 739; 559; 6; 500000;  
2097152; 55; 80; 1472; 777; 566; 2; 500000;  
2097152; 55; 80; 1471; 753; 567; 3; 500000;  
2097152; 55; 80; 1484; 774; 574; 4; 500000;  
2097152; 55; 80; 1545; 778; 567; 5; 500000;  
2097152; 55; 80; 1564; 815; 614; 6; 500000;  
2097152; 55; 85; 1550; 840; 628; 2; 500000;  
2097152; 55; 85; 1509; 785; 615; 3; 500000;  
2097152; 55; 85; 1537; 787; 563; 4; 500000;  
2097152; 55; 85; 1455; 776; 575; 5; 500000;  
2097152; 55; 85; 1492; 769; 569; 6; 500000;  
2097152; 55; 90; 1485; 794; 591; 2; 500000;  
2097152; 55; 90; 1474; 774; 603; 3; 500000;  
2097152; 55; 90; 1433; 795; 605; 4; 500000;  
2097152; 55; 90; 1478; 788; 585; 5; 500000;  
2097152; 55; 90; 1500; 779; 590; 6; 500000;  
2097152; 55; 95; 1500; 803; 604; 2; 500000;  
2097152; 55; 95; 1512; 808; 595; 3; 500000;  
2097152; 55; 95; 1476; 798; 616; 4; 500000;  
2097152; 55; 95; 1527; 782; 602; 5; 500000;  
2097152; 55; 95; 1497; 804; 602; 6; 500000;  
2097152; 55; 100; 1532; 804; 606; 2; 500000;  
2097152; 55; 100; 1462; 815; 632; 3; 500000;  
2097152; 55; 100; 1444; 815; 618; 4; 500000;  
2097152; 55; 100; 1530; 805; 618; 5; 500000;  
2097152; 55; 100; 1534; 810; 593; 6; 500000;  
