textSize; alphaSize; querySize; time; expCount; iterations;  
10000; 2; 50; 9032; 0; 20000000;  
10000; 2; 50; 9154; 1; 20000000;  
10000; 2; 50; 9099; 2; 20000000;  
10000; 2; 50; 9015; 3; 20000000;  
10000; 2; 50; 8906; 4; 20000000;  
10000; 2; 50; 9360; 5; 20000000;  
10000; 2; 50; 8985; 6; 20000000;  
20000; 2; 50; 9342; 0; 20000000;  
20000; 2; 50; 9014; 1; 20000000;  
20000; 2; 50; 8950; 2; 20000000;  
20000; 2; 50; 8999; 3; 20000000;  
20000; 2; 50; 9129; 4; 20000000;  
20000; 2; 50; 9125; 5; 20000000;  
20000; 2; 50; 8891; 6; 20000000;  
30000; 2; 50; 9016; 0; 20000000;  
30000; 2; 50; 9173; 1; 20000000;  
30000; 2; 50; 9074; 2; 20000000;  
30000; 2; 50; 9109; 3; 20000000;  
30000; 2; 50; 9220; 4; 20000000;  
30000; 2; 50; 8920; 5; 20000000;  
30000; 2; 50; 8949; 6; 20000000;  
40000; 2; 50; 9095; 0; 20000000;  
40000; 2; 50; 8954; 1; 20000000;  
40000; 2; 50; 8888; 2; 20000000;  
40000; 2; 50; 9092; 3; 20000000;  
40000; 2; 50; 9018; 4; 20000000;  
40000; 2; 50; 9251; 5; 20000000;  
40000; 2; 50; 9031; 6; 20000000;  
50000; 2; 50; 9014; 0; 20000000;  
50000; 2; 50; 8998; 1; 20000000;  
50000; 2; 50; 9126; 2; 20000000;  
50000; 2; 50; 9064; 3; 20000000;  
50000; 2; 50; 9013; 4; 20000000;  
50000; 2; 50; 9112; 5; 20000000;  
50000; 2; 50; 9191; 6; 20000000;  
60000; 2; 50; 8963; 0; 20000000;  
60000; 2; 50; 9136; 1; 20000000;  
60000; 2; 50; 9068; 2; 20000000;  
60000; 2; 50; 8967; 3; 20000000;  
60000; 2; 50; 8909; 4; 20000000;  
60000; 2; 50; 9075; 5; 20000000;  
60000; 2; 50; 8966; 6; 20000000;  
70000; 2; 50; 9005; 0; 20000000;  
70000; 2; 50; 9176; 1; 20000000;  
70000; 2; 50; 9127; 2; 20000000;  
70000; 2; 50; 8936; 3; 20000000;  
70000; 2; 50; 8923; 4; 20000000;  
70000; 2; 50; 9077; 5; 20000000;  
70000; 2; 50; 9112; 6; 20000000;  
80000; 2; 50; 9063; 0; 20000000;  
80000; 2; 50; 9019; 1; 20000000;  
80000; 2; 50; 8893; 2; 20000000;  
80000; 2; 50; 8999; 3; 20000000;  
80000; 2; 50; 8924; 4; 20000000;  
80000; 2; 50; 9126; 5; 20000000;  
80000; 2; 50; 9126; 6; 20000000;  
90000; 2; 50; 9077; 0; 20000000;  
90000; 2; 50; 9029; 1; 20000000;  
90000; 2; 50; 9097; 2; 20000000;  
90000; 2; 50; 9201; 3; 20000000;  
90000; 2; 50; 9079; 4; 20000000;  
90000; 2; 50; 8911; 5; 20000000;  
90000; 2; 50; 9127; 6; 20000000;  
100000; 2; 50; 8936; 0; 20000000;  
100000; 2; 50; 8943; 1; 20000000;  
100000; 2; 50; 9170; 2; 20000000;  
100000; 2; 50; 9202; 3; 20000000;  
100000; 2; 50; 9111; 4; 20000000;  
100000; 2; 50; 9000; 5; 20000000;  
100000; 2; 50; 9002; 6; 20000000;  
110000; 2; 50; 8794; 0; 20000000;  
110000; 2; 50; 9106; 1; 20000000;  
110000; 2; 50; 8923; 2; 20000000;  
110000; 2; 50; 9075; 3; 20000000;  
110000; 2; 50; 9109; 4; 20000000;  
110000; 2; 50; 9251; 5; 20000000;  
110000; 2; 50; 9157; 6; 20000000;  
120000; 2; 50; 9154; 0; 20000000;  
120000; 2; 50; 8957; 1; 20000000;  
120000; 2; 50; 9062; 2; 20000000;  
120000; 2; 50; 9020; 3; 20000000;  
120000; 2; 50; 9249; 4; 20000000;  
120000; 2; 50; 8863; 5; 20000000;  
120000; 2; 50; 9125; 6; 20000000;  
130000; 2; 50; 9126; 0; 20000000;  
130000; 2; 50; 9204; 1; 20000000;  
130000; 2; 50; 9124; 2; 20000000;  
130000; 2; 50; 9309; 3; 20000000;  
130000; 2; 50; 9095; 4; 20000000;  
130000; 2; 50; 9112; 5; 20000000;  
130000; 2; 50; 8923; 6; 20000000;  
140000; 2; 50; 9144; 0; 20000000;  
140000; 2; 50; 9114; 1; 20000000;  
140000; 2; 50; 8842; 2; 20000000;  
140000; 2; 50; 9031; 3; 20000000;  
140000; 2; 50; 9095; 4; 20000000;  
140000; 2; 50; 8879; 5; 20000000;  
140000; 2; 50; 8920; 6; 20000000;  
150000; 2; 50; 8924; 0; 20000000;  
150000; 2; 50; 9201; 1; 20000000;  
150000; 2; 50; 9094; 2; 20000000;  
150000; 2; 50; 9081; 3; 20000000;  
150000; 2; 50; 9096; 4; 20000000;  
150000; 2; 50; 9031; 5; 20000000;  
150000; 2; 50; 9082; 6; 20000000;  
160000; 2; 50; 9204; 0; 20000000;  
160000; 2; 50; 9045; 1; 20000000;  
160000; 2; 50; 8870; 2; 20000000;  
160000; 2; 50; 9015; 3; 20000000;  
160000; 2; 50; 8985; 4; 20000000;  
160000; 2; 50; 9161; 5; 20000000;  
160000; 2; 50; 9205; 6; 20000000;  
170000; 2; 50; 8876; 0; 20000000;  
170000; 2; 50; 9032; 1; 20000000;  
170000; 2; 50; 8845; 2; 20000000;  
170000; 2; 50; 8736; 3; 20000000;  
170000; 2; 50; 9078; 4; 20000000;  
170000; 2; 50; 8909; 5; 20000000;  
170000; 2; 50; 9015; 6; 20000000;  
180000; 2; 50; 8940; 0; 20000000;  
180000; 2; 50; 8811; 1; 20000000;  
180000; 2; 50; 9128; 2; 20000000;  
180000; 2; 50; 8926; 3; 20000000;  
180000; 2; 50; 9017; 4; 20000000;  
180000; 2; 50; 9053; 5; 20000000;  
180000; 2; 50; 9033; 6; 20000000;  
190000; 2; 50; 9052; 0; 20000000;  
190000; 2; 50; 9066; 1; 20000000;  
190000; 2; 50; 9160; 2; 20000000;  
190000; 2; 50; 9110; 3; 20000000;  
190000; 2; 50; 9082; 4; 20000000;  
190000; 2; 50; 8942; 5; 20000000;  
190000; 2; 50; 8894; 6; 20000000;  
200000; 2; 50; 9044; 0; 20000000;  
200000; 2; 50; 8941; 1; 20000000;  
200000; 2; 50; 9078; 2; 20000000;  
200000; 2; 50; 9027; 3; 20000000;  
200000; 2; 50; 9198; 4; 20000000;  
200000; 2; 50; 9056; 5; 20000000;  
200000; 2; 50; 9049; 6; 20000000;  
210000; 2; 50; 9064; 0; 20000000;  
210000; 2; 50; 8974; 1; 20000000;  
210000; 2; 50; 9238; 2; 20000000;  
210000; 2; 50; 8934; 3; 20000000;  
210000; 2; 50; 9077; 4; 20000000;  
210000; 2; 50; 9123; 5; 20000000;  
210000; 2; 50; 9174; 6; 20000000;  
220000; 2; 50; 8989; 0; 20000000;  
220000; 2; 50; 9110; 1; 20000000;  
220000; 2; 50; 9128; 2; 20000000;  
220000; 2; 50; 9060; 3; 20000000;  
220000; 2; 50; 8890; 4; 20000000;  
220000; 2; 50; 9032; 5; 20000000;  
220000; 2; 50; 9107; 6; 20000000;  
230000; 2; 50; 9110; 0; 20000000;  
230000; 2; 50; 9067; 1; 20000000;  
230000; 2; 50; 8911; 2; 20000000;  
230000; 2; 50; 8986; 3; 20000000;  
230000; 2; 50; 8952; 4; 20000000;  
230000; 2; 50; 9108; 5; 20000000;  
230000; 2; 50; 9077; 6; 20000000;  
240000; 2; 50; 9003; 0; 20000000;  
240000; 2; 50; 9141; 1; 20000000;  
240000; 2; 50; 9128; 2; 20000000;  
240000; 2; 50; 9106; 3; 20000000;  
240000; 2; 50; 9017; 4; 20000000;  
240000; 2; 50; 8874; 5; 20000000;  
240000; 2; 50; 9014; 6; 20000000;  
250000; 2; 50; 9142; 0; 20000000;  
250000; 2; 50; 8799; 1; 20000000;  
250000; 2; 50; 9109; 2; 20000000;  
250000; 2; 50; 9032; 3; 20000000;  
250000; 2; 50; 9124; 4; 20000000;  
250000; 2; 50; 9121; 5; 20000000;  
250000; 2; 50; 9014; 6; 20000000;  
