textSize; alphaSize; querySize; time; expCount; iterations;  
100000; 2; 50; 10299; 0; 20000000;  
100000; 2; 50; 9844; 1; 20000000;  
100000; 2; 50; 9859; 2; 20000000;  
100000; 2; 50; 9835; 3; 20000000;  
100000; 2; 50; 10029; 4; 20000000;  
100000; 2; 50; 9922; 5; 20000000;  
100000; 2; 50; 9862; 6; 20000000;  
200000; 2; 50; 10095; 0; 20000000;  
200000; 2; 50; 10015; 1; 20000000;  
200000; 2; 50; 10031; 2; 20000000;  
200000; 2; 50; 10151; 3; 20000000;  
200000; 2; 50; 9985; 4; 20000000;  
200000; 2; 50; 10454; 5; 20000000;  
200000; 2; 50; 10048; 6; 20000000;  
300000; 2; 50; 10329; 0; 20000000;  
300000; 2; 50; 10564; 1; 20000000;  
300000; 2; 50; 10108; 2; 20000000;  
300000; 2; 50; 9892; 3; 20000000;  
300000; 2; 50; 9981; 4; 20000000;  
300000; 2; 50; 9984; 5; 20000000;  
300000; 2; 50; 10114; 6; 20000000;  
400000; 2; 50; 10031; 0; 20000000;  
400000; 2; 50; 9813; 1; 20000000;  
400000; 2; 50; 10082; 2; 20000000;  
400000; 2; 50; 9892; 3; 20000000;  
400000; 2; 50; 9879; 4; 20000000;  
400000; 2; 50; 10143; 5; 20000000;  
400000; 2; 50; 10067; 6; 20000000;  
500000; 2; 50; 10455; 0; 20000000;  
500000; 2; 50; 10050; 1; 20000000;  
500000; 2; 50; 10032; 2; 20000000;  
500000; 2; 50; 10129; 3; 20000000;  
500000; 2; 50; 10000; 4; 20000000;  
500000; 2; 50; 10033; 5; 20000000;  
500000; 2; 50; 10140; 6; 20000000;  
600000; 2; 50; 10190; 0; 20000000;  
600000; 2; 50; 10077; 1; 20000000;  
600000; 2; 50; 9957; 2; 20000000;  
600000; 2; 50; 9855; 3; 20000000;  
600000; 2; 50; 10249; 4; 20000000;  
600000; 2; 50; 9966; 5; 20000000;  
600000; 2; 50; 10033; 6; 20000000;  
700000; 2; 50; 10361; 0; 20000000;  
700000; 2; 50; 10049; 1; 20000000;  
700000; 2; 50; 10120; 2; 20000000;  
700000; 2; 50; 10203; 3; 20000000;  
700000; 2; 50; 9878; 4; 20000000;  
700000; 2; 50; 10094; 5; 20000000;  
700000; 2; 50; 10471; 6; 20000000;  
800000; 2; 50; 10388; 0; 20000000;  
800000; 2; 50; 9967; 1; 20000000;  
800000; 2; 50; 9965; 2; 20000000;  
800000; 2; 50; 10237; 3; 20000000;  
800000; 2; 50; 9797; 4; 20000000;  
800000; 2; 50; 9906; 5; 20000000;  
800000; 2; 50; 10175; 6; 20000000;  
900000; 2; 50; 10190; 0; 20000000;  
900000; 2; 50; 9862; 1; 20000000;  
900000; 2; 50; 10111; 2; 20000000;  
900000; 2; 50; 10234; 3; 20000000;  
900000; 2; 50; 10092; 4; 20000000;  
900000; 2; 50; 10170; 5; 20000000;  
900000; 2; 50; 10037; 6; 20000000;  
1000000; 2; 50; 10076; 0; 20000000;  
1000000; 2; 50; 9936; 1; 20000000;  
1000000; 2; 50; 10113; 2; 20000000;  
1000000; 2; 50; 10081; 3; 20000000;  
1000000; 2; 50; 10015; 4; 20000000;  
1000000; 2; 50; 10189; 5; 20000000;  
1000000; 2; 50; 10160; 6; 20000000;  
1100000; 2; 50; 10051; 0; 20000000;  
1100000; 2; 50; 10017; 1; 20000000;  
1100000; 2; 50; 10247; 2; 20000000;  
1100000; 2; 50; 10312; 3; 20000000;  
1100000; 2; 50; 10251; 4; 20000000;  
1100000; 2; 50; 10045; 5; 20000000;  
1100000; 2; 50; 9965; 6; 20000000;  
1200000; 2; 50; 9968; 0; 20000000;  
1200000; 2; 50; 10379; 1; 20000000;  
1200000; 2; 50; 10017; 2; 20000000;  
1200000; 2; 50; 10251; 3; 20000000;  
1200000; 2; 50; 10080; 4; 20000000;  
1200000; 2; 50; 10016; 5; 20000000;  
1200000; 2; 50; 10042; 6; 20000000;  
1300000; 2; 50; 10140; 0; 20000000;  
1300000; 2; 50; 10108; 1; 20000000;  
1300000; 2; 50; 10206; 2; 20000000;  
1300000; 2; 50; 10061; 3; 20000000;  
1300000; 2; 50; 10143; 4; 20000000;  
1300000; 2; 50; 10157; 5; 20000000;  
1300000; 2; 50; 10234; 6; 20000000;  
1400000; 2; 50; 10670; 0; 20000000;  
1400000; 2; 50; 10748; 1; 20000000;  
1400000; 2; 50; 10098; 2; 20000000;  
1400000; 2; 50; 10152; 3; 20000000;  
1400000; 2; 50; 10405; 4; 20000000;  
1400000; 2; 50; 10000; 5; 20000000;  
1400000; 2; 50; 10392; 6; 20000000;  
1500000; 2; 50; 10080; 0; 20000000;  
1500000; 2; 50; 10217; 1; 20000000;  
1500000; 2; 50; 10436; 2; 20000000;  
1500000; 2; 50; 10751; 3; 20000000;  
1500000; 2; 50; 10051; 4; 20000000;  
1500000; 2; 50; 10874; 5; 20000000;  
1500000; 2; 50; 10139; 6; 20000000;  
1600000; 2; 50; 10621; 0; 20000000;  
1600000; 2; 50; 10660; 1; 20000000;  
1600000; 2; 50; 10019; 2; 20000000;  
1600000; 2; 50; 9986; 3; 20000000;  
1600000; 2; 50; 10343; 4; 20000000;  
1600000; 2; 50; 10020; 5; 20000000;  
1600000; 2; 50; 10608; 6; 20000000;  
1700000; 2; 50; 9829; 0; 20000000;  
1700000; 2; 50; 10001; 1; 20000000;  
1700000; 2; 50; 10046; 2; 20000000;  
1700000; 2; 50; 9737; 3; 20000000;  
1700000; 2; 50; 10051; 4; 20000000;  
1700000; 2; 50; 9721; 5; 20000000;  
1700000; 2; 50; 11313; 6; 20000000;  
1800000; 2; 50; 10059; 0; 20000000;  
1800000; 2; 50; 9927; 1; 20000000;  
1800000; 2; 50; 9953; 2; 20000000;  
1800000; 2; 50; 10094; 3; 20000000;  
1800000; 2; 50; 10046; 4; 20000000;  
1800000; 2; 50; 9911; 5; 20000000;  
1800000; 2; 50; 10265; 6; 20000000;  
1900000; 2; 50; 9891; 0; 20000000;  
1900000; 2; 50; 10036; 1; 20000000;  
1900000; 2; 50; 9949; 2; 20000000;  
1900000; 2; 50; 9848; 3; 20000000;  
1900000; 2; 50; 9734; 4; 20000000;  
1900000; 2; 50; 10111; 5; 20000000;  
1900000; 2; 50; 10013; 6; 20000000;  
2000000; 2; 50; 10018; 0; 20000000;  
2000000; 2; 50; 9969; 1; 20000000;  
2000000; 2; 50; 10001; 2; 20000000;  
2000000; 2; 50; 10030; 3; 20000000;  
2000000; 2; 50; 9921; 4; 20000000;  
2000000; 2; 50; 9843; 5; 20000000;  
2000000; 2; 50; 9892; 6; 20000000;  
