log2(x) = log(x)/log(2)

if (!exists("directory")) directory='./'

set terminal pdf enhanced font "Helvetica, 10" size 7,4
set output (directory . "plot_sigma_all_tree_full.pdf")

set xlabel "Genome1-Suffix Tree"
set xtics 0, 100 rotate
set offset 1, 1

set ylabel "Running time [milliseconds]"

set ytics nomirror tc lt 1

set xrange [100:2000]
set yrange [500:2500]

set grid mytics


set key vert left top reverse
set pointsize 2

set datafile separator ";"


plot (directory .  '/Bible/Compare_bible(100-2000)/FirstPart/AV1611Bible_2pow21.txt_compare_2097152_Exp12Removed_avgANDstdDev.csv') using ($3):($9) title 'Tree Bib'  with linespoints ls 1,\
(directory .  '/BibleLowerCase/Compare_bible_lower(100-2000)/FirstPart/AV1611Bible_2pow21_lowerCase.txt_compare_2097152_Exp12Removed_avgANDstdDev.csv') using ($3):($9) title 'Tree BibLow)'  with linespoints ls 2,\
(directory .  '/Genomes/Compare_gen(100-2000)/Genome1/genome1.fa_compare_1852441_Exp12Removed_avgANDstdDev.csv') using ($3):($9) title 'Tree Sgen'  with linespoints ls 3
