textSize; alphaSize; querySize; time; expCount; index; iterations;   avgTime; standardDeviation; relativeStdDev; 
200000; 2; 100; 14438; 2; 7500000; 0;    14556.8; 235.69590577691417;  1.619146418010237; 
200000; 2; 100; 14391; 2; 7500000; 10000;    14391.6; 24.393441741582922;  0.1694977746851144; 
200000; 2; 100; 14375; 2; 7500000; 20000;    14706.8; 319.98024939048975;  2.175729930307679; 
200000; 2; 100; 14439; 2; 7500000; 30000;    14375.8; 36.05218439983908;  0.2507838478543043; 
200000; 2; 100; 14469; 2; 7500000; 40000;    14562.2; 300.8876202172499;  2.0662236490176613; 
200000; 2; 100; 14313; 2; 7500000; 50000;    14363.6; 30.682894257224174;  0.21361562739998452; 
200000; 2; 100; 14358; 2; 7500000; 60000;    14384.4; 34.003529228596264;  0.23639171066291445; 
200000; 2; 100; 14376; 2; 7500000; 70000;    14525.4; 342.11495144176325;  2.3552876440012893; 
200000; 2; 100; 14347; 2; 7500000; 80000;    14388.8; 40.2512111619017;  0.27973987519391263; 
200000; 2; 100; 14346; 2; 7500000; 90000;    14401.6; 45.124716065588714;  0.3133312692033435; 
200000; 2; 100; 14377; 2; 7500000; 100000;    14651.0; 497.2375689748312;  3.393881434542565; 
200000; 2; 100; 14342; 2; 7500000; 110000;    14307.2; 46.7734967690037;  0.3269227855136134; 
200000; 2; 100; 14406; 2; 7500000; 120000;    14468.2; 171.48924164506647;  1.185283875292479; 
200000; 2; 100; 14410; 2; 7500000; 130000;    15030.0; 1243.0007240544955;  8.270131231234169; 
200000; 2; 100; 14438; 2; 7500000; 140000;    14400.8; 35.818431009746924;  0.24872528616290013; 
200000; 2; 100; 14316; 2; 7500000; 150000;    15509.8; 1520.176095062674;  9.801390701767103; 
200000; 2; 100; 14391; 2; 7500000; 160000;    14445.2; 51.6774612379517;  0.35774832635028725; 
200000; 2; 100; 14363; 2; 7500000; 170000;    14785.8; 795.5665654110912;  5.38061224560789; 
200000; 2; 100; 14421; 2; 7500000; 180000;    14409.4; 27.163210414087654;  0.1885103502858388; 
200000; 2; 100; 14390; 2; 7500000; 190000;    14447.0; 74.444610281739;  0.5152945959835191; 
