textSize; alphaSize; querySize; timeTree; timeArray; timeTray; expCount; iterations; avgTimeTree; standardDeviationTree; relativeStdDevTree; avgTimeArray; standardDeviationArray; relativeStdDevArray; avgTimeTray; standardDeviationTray; relativeStdDevTray; 
65536; 54; 100; 298; 203; 141; 2; 250000;   278.2; 18.56232744027537;  6.672295988596468;206.2; 6.3999999999999995;  3.1037827352085356;134.8; 7.6;  5.637982195845696; 
65536; 54; 200; 326; 281; 234; 2; 250000;   377.6; 27.49254444390333;  7.2808645243388055;259.6; 32.47522132334127;  12.509715455832538;206.0; 20.503658210182884;  9.95323214086548; 
65536; 54; 300; 454; 360; 312; 2; 250000;   450.0; 40.303845970328936;  8.956410215628651;353.6; 7.889233169326408;  2.231117977750681;290.0; 12.505998560690786;  4.312413296789926; 
65536; 54; 400; 547; 438; 422; 2; 250000;   541.0; 15.11290838985005;  2.7935135655915064;425.0; 18.18790807102345;  4.279507781417283;390.4; 17.001176429882726;  4.354809536342912; 
65536; 54; 500; 657; 500; 484; 2; 250000;   634.6; 28.611885642159272;  4.508648856312523;497.0; 28.58671019897183;  5.751853158746846;469.0; 39.45630494610462;  8.412858197463672; 
65536; 54; 600; 704; 565; 577; 2; 250000;   700.4; 11.62067123706716;  1.6591478065487095;591.0; 22.618576436195095;  3.8271702937724354;556.6; 28.73743203558731;  5.163031267622585; 
65536; 54; 700; 780; 673; 625; 2; 250000;   797.4; 19.64281038955475;  2.463357209625627;694.0; 18.3412104289766;  2.642825710227176;634.0; 24.058262613912916;  3.7946786457275894; 
65536; 54; 800; 858; 736; 734; 2; 250000;   854.0; 22.494443758403985;  2.634009807775642;756.6; 15.265647709809107;  2.0176642492478334;738.0; 20.228692493584454;  2.741015243033124; 
65536; 54; 900; 984; 753; 811; 2; 250000;   949.8; 20.478281177872326;  2.156062452924018;828.4; 46.09381737283212;  5.564198137715128;806.0; 16.492422502470642;  2.0462062658152163; 
65536; 54; 1000; 999; 892; 888; 2; 250000;   1005.4; 21.28473631502162;  2.1170416068253055;912.2; 32.61533381708671;  3.5754586512921183;881.0; 31.60379724020517;  3.5872641589336176; 
65536; 54; 1100; 1080; 1000; 875; 2; 250000;   1107.0; 30.01999333777408;  2.7118331831774234;999.8; 18.258148865643527;  1.8261801225888705;937.6; 46.59012770963394;  4.969083586778364; 
65536; 54; 1200; 1281; 1017; 1125; 2; 250000;   1190.2; 64.75615800833152;  5.440779533551632;1065.6; 62.662907688679745;  5.8805281239376646;1051.0; 47.463670317412245;  4.516048555415057; 
65536; 54; 1300; 1250; 1050; 1124; 2; 250000;   1263.4; 33.10951524864114;  2.620667662548768;1129.4; 54.441160898717065;  4.820361333337796;1130.8; 25.794573072644564;  2.28109065021618; 
65536; 54; 1400; 1328; 1218; 1251; 2; 250000;   1375.8; 46.460305638254255;  3.376966538614207;1200.2; 41.22814572594795;  3.435106292780199;1243.4; 16.451139778143034;  1.3230770289643745; 
65536; 54; 1500; 1406; 1234; 1314; 2; 250000;   1422.2; 30.419730439305344;  2.1389207171498623;1303.2; 46.11897657147218;  3.5389024379582703;1281.4; 26.792536274119325;  2.0908799964194884; 
65536; 54; 1600; 1484; 1391; 1439; 2; 250000;   1501.4; 35.83071308249391;  2.3864868178029774;1356.8; 30.115776596329038;  2.2196179684794397;1425.4; 31.347089179060944;  2.1991784186236103; 
65536; 54; 1700; 1593; 1439; 1359; 2; 250000;   1578.4; 32.806096994308845;  2.0784400021736467;1446.8; 41.82056910181878;  2.890556338251229;1399.6; 28.38732111348304;  2.02824529247521; 
65536; 54; 1800; 1686; 1485; 1532; 2; 250000;   1678.0; 14.966629547095765;  0.8919326309353853;1528.2; 69.88390372610849;  4.572955354410973;1521.6; 12.753038853543888;  0.8381334682928423; 
65536; 54; 1900; 1765; 1640; 1596; 2; 250000;   1744.6; 15.551205741035002;  0.8913909057110514;1621.2; 32.70107031887488;  2.017090446513378;1603.6; 46.019995654063244;  2.869792694815618; 
65536; 54; 2000; 1939; 1720; 1688; 2; 250000;   1856.2; 47.003829631211964;  2.5322610511373753;1703.6; 71.25335079840106;  4.1825164826485715;1684.8; 25.49039034616771;  1.5129623899672195; 
