textSize; alphaSize; querySize; timeTree; timeArray; timeTray; expCount; iterations;
65536; 54; 100; 297; 188; 141; 0; 250000; 
65536; 54; 100; 313; 187; 157; 1; 250000; 
65536; 54; 100; 298; 203; 141; 2; 250000; 
65536; 54; 100; 265; 203; 141; 3; 250000; 
65536; 54; 100; 297; 203; 141; 4; 250000; 
65536; 54; 100; 250; 219; 126; 5; 250000; 
65536; 54; 100; 281; 203; 125; 6; 250000; 
65536; 54; 200; 422; 266; 203; 0; 250000; 
65536; 54; 200; 374; 281; 218; 1; 250000; 
65536; 54; 200; 326; 281; 234; 2; 250000; 
65536; 54; 200; 376; 266; 203; 3; 250000; 
65536; 54; 200; 390; 252; 218; 4; 250000; 
65536; 54; 200; 390; 297; 172; 5; 250000; 
65536; 54; 200; 406; 202; 203; 6; 250000; 
65536; 54; 300; 452; 313; 296; 0; 250000; 
65536; 54; 300; 470; 345; 344; 1; 250000; 
65536; 54; 300; 454; 360; 312; 2; 250000; 
65536; 54; 300; 391; 361; 281; 3; 250000; 
65536; 54; 300; 485; 343; 281; 4; 250000; 
65536; 54; 300; 420; 359; 296; 5; 250000; 
65536; 54; 300; 500; 345; 280; 6; 250000; 
65536; 54; 400; 531; 344; 346; 0; 250000; 
65536; 54; 400; 594; 453; 359; 1; 250000; 
65536; 54; 400; 547; 438; 422; 2; 250000; 
65536; 54; 400; 562; 453; 389; 3; 250000; 
65536; 54; 400; 547; 421; 390; 4; 250000; 
65536; 54; 400; 518; 407; 375; 5; 250000; 
65536; 54; 400; 531; 406; 376; 6; 250000; 
65536; 54; 500; 609; 483; 469; 0; 250000; 
65536; 54; 500; 640; 516; 467; 1; 250000; 
65536; 54; 500; 657; 500; 484; 2; 250000; 
65536; 54; 500; 639; 469; 486; 3; 250000; 
65536; 54; 500; 672; 469; 484; 4; 250000; 
65536; 54; 500; 610; 500; 500; 5; 250000; 
65536; 54; 500; 595; 547; 391; 6; 250000; 
65536; 54; 600; 719; 610; 531; 0; 250000; 
65536; 54; 600; 751; 608; 531; 1; 250000; 
65536; 54; 600; 704; 565; 577; 2; 250000; 
65536; 54; 600; 687; 577; 501; 3; 250000; 
65536; 54; 600; 719; 625; 564; 4; 250000; 
65536; 54; 600; 703; 610; 561; 5; 250000; 
65536; 54; 600; 689; 578; 580; 6; 250000; 
65536; 54; 700; 813; 688; 656; 0; 250000; 
65536; 54; 700; 749; 639; 734; 1; 250000; 
65536; 54; 700; 780; 673; 625; 2; 250000; 
65536; 54; 700; 812; 672; 656; 3; 250000; 
65536; 54; 700; 783; 704; 657; 4; 250000; 
65536; 54; 700; 829; 718; 640; 5; 250000; 
65536; 54; 700; 783; 703; 592; 6; 250000; 
65536; 54; 800; 845; 766; 703; 0; 250000; 
65536; 54; 800; 892; 766; 704; 1; 250000; 
65536; 54; 800; 858; 736; 734; 2; 250000; 
65536; 54; 800; 815; 750; 704; 3; 250000; 
65536; 54; 800; 874; 765; 737; 4; 250000; 
65536; 54; 800; 877; 781; 765; 5; 250000; 
65536; 54; 800; 846; 751; 750; 6; 250000; 
65536; 54; 900; 953; 876; 795; 0; 250000; 
65536; 54; 900; 907; 780; 813; 1; 250000; 
65536; 54; 900; 984; 753; 811; 2; 250000; 
65536; 54; 900; 952; 859; 797; 3; 250000; 
65536; 54; 900; 922; 797; 829; 4; 250000; 
65536; 54; 900; 938; 859; 780; 5; 250000; 
65536; 54; 900; 953; 874; 813; 6; 250000; 
65536; 54; 1000; 1002; 921; 844; 0; 250000; 
65536; 54; 1000; 1016; 796; 859; 1; 250000; 
65536; 54; 1000; 999; 892; 888; 2; 250000; 
65536; 54; 1000; 983; 922; 846; 3; 250000; 
65536; 54; 1000; 1046; 969; 907; 4; 250000; 
65536; 54; 1000; 1001; 905; 843; 5; 250000; 
65536; 54; 1000; 998; 873; 921; 6; 250000; 
65536; 54; 1100; 1094; 1031; 968; 0; 250000; 
65536; 54; 1100; 1109; 1015; 952; 1; 250000; 
65536; 54; 1100; 1080; 1000; 875; 2; 250000; 
65536; 54; 1100; 1157; 1000; 984; 3; 250000; 
65536; 54; 1100; 1094; 983; 890; 4; 250000; 
65536; 54; 1100; 1079; 1033; 954; 5; 250000; 
65536; 54; 1100; 1125; 983; 985; 6; 250000; 
65536; 54; 1200; 1126; 1063; 1077; 0; 250000; 
65536; 54; 1200; 1204; 1079; 1014; 1; 250000; 
65536; 54; 1200; 1281; 1017; 1125; 2; 250000; 
65536; 54; 1200; 1202; 1156; 1049; 3; 250000; 
65536; 54; 1200; 1079; 1000; 1001; 4; 250000; 
65536; 54; 1200; 1185; 1030; 1001; 5; 250000; 
65536; 54; 1200; 1204; 1125; 1079; 6; 250000; 
65536; 54; 1300; 1204; 1156; 1173; 0; 250000; 
65536; 54; 1300; 1252; 1077; 1158; 1; 250000; 
65536; 54; 1300; 1250; 1050; 1124; 2; 250000; 
65536; 54; 1300; 1283; 1096; 1140; 3; 250000; 
65536; 54; 1300; 1205; 1204; 1123; 4; 250000; 
65536; 54; 1300; 1298; 1125; 1173; 5; 250000; 
65536; 54; 1300; 1281; 1172; 1094; 6; 250000; 
65536; 54; 1400; 1438; 1251; 1233; 0; 250000; 
65536; 54; 1400; 1343; 1219; 1219; 1; 250000; 
65536; 54; 1400; 1328; 1218; 1251; 2; 250000; 
65536; 54; 1400; 1422; 1189; 1266; 3; 250000; 
65536; 54; 1400; 1314; 1218; 1218; 4; 250000; 
65536; 54; 1400; 1391; 1127; 1249; 5; 250000; 
65536; 54; 1400; 1424; 1249; 1233; 6; 250000; 
65536; 54; 1500; 1437; 1359; 1298; 0; 250000; 
65536; 54; 1500; 1438; 1329; 1268; 1; 250000; 
65536; 54; 1500; 1406; 1234; 1314; 2; 250000; 
65536; 54; 1500; 1407; 1312; 1251; 3; 250000; 
65536; 54; 1500; 1409; 1283; 1297; 4; 250000; 
65536; 54; 1500; 1406; 1311; 1248; 5; 250000; 
65536; 54; 1500; 1483; 1376; 1297; 6; 250000; 
65536; 54; 1600; 1437; 1451; 1347; 0; 250000; 
65536; 54; 1600; 1515; 1343; 1344; 1; 250000; 
65536; 54; 1600; 1484; 1391; 1439; 2; 250000; 
65536; 54; 1600; 1468; 1345; 1468; 3; 250000; 
65536; 54; 1600; 1564; 1346; 1376; 4; 250000; 
65536; 54; 1600; 1518; 1312; 1437; 5; 250000; 
65536; 54; 1600; 1473; 1390; 1407; 6; 250000; 
65536; 54; 1700; 1624; 1484; 1419; 0; 250000; 
65536; 54; 1700; 1514; 1484; 1484; 1; 250000; 
65536; 54; 1700; 1593; 1439; 1359; 2; 250000; 
65536; 54; 1700; 1516; 1515; 1376; 3; 250000; 
65536; 54; 1700; 1610; 1470; 1421; 4; 250000; 
65536; 54; 1700; 1578; 1405; 1436; 5; 250000; 
65536; 54; 1700; 1595; 1405; 1406; 6; 250000; 
65536; 54; 1800; 1625; 1549; 1547; 0; 250000; 
65536; 54; 1800; 1610; 1469; 1501; 1; 250000; 
65536; 54; 1800; 1686; 1485; 1532; 2; 250000; 
65536; 54; 1800; 1702; 1421; 1499; 3; 250000; 
65536; 54; 1800; 1670; 1562; 1529; 4; 250000; 
65536; 54; 1800; 1674; 1626; 1532; 5; 250000; 
65536; 54; 1800; 1658; 1547; 1516; 6; 250000; 
65536; 54; 1900; 1689; 1657; 1609; 0; 250000; 
65536; 54; 1900; 1622; 1608; 1626; 1; 250000; 
65536; 54; 1900; 1765; 1640; 1596; 2; 250000; 
65536; 54; 1900; 1720; 1627; 1609; 3; 250000; 
65536; 54; 1900; 1752; 1656; 1688; 4; 250000; 
65536; 54; 1900; 1751; 1623; 1563; 5; 250000; 
65536; 54; 1900; 1735; 1560; 1562; 6; 250000; 
65536; 54; 2000; 1875; 1717; 1734; 0; 250000; 
65536; 54; 2000; 1844; 1642; 1748; 1; 250000; 
65536; 54; 2000; 1939; 1720; 1688; 2; 250000; 
65536; 54; 2000; 1857; 1702; 1657; 3; 250000; 
65536; 54; 2000; 1798; 1578; 1705; 4; 250000; 
65536; 54; 2000; 1828; 1719; 1655; 5; 250000; 
65536; 54; 2000; 1859; 1799; 1719; 6; 250000; 
