textSize; alphaSize; querySize; time; expCount;   
3045062; 32; 5000; 1096; 2;   
3045062; 32; 5000; 919; 3;   
3045062; 32; 5000; 917; 4;   
3045062; 32; 5000; 813; 5;   
3045062; 32; 5000; 905; 6;   
3045062; 32; 10000; 4301; 2;   
3045062; 32; 10000; 4363; 3;   
3045062; 32; 10000; 4110; 4;   
3045062; 32; 10000; 4124; 5;   
3045062; 32; 10000; 4186; 6;   
3045062; 32; 15000; 8623; 2;   
3045062; 32; 15000; 8344; 3;   
3045062; 32; 15000; 8337; 4;   
3045062; 32; 15000; 8563; 5;   
3045062; 32; 15000; 8561; 6;   
3045062; 32; 20000; 11715; 2;   
3045062; 32; 20000; 11720; 3;   
3045062; 32; 20000; 12030; 4;   
3045062; 32; 20000; 11653; 5;   
3045062; 32; 20000; 11762; 6;   
3045062; 32; 25000; 15266; 2;   
3045062; 32; 25000; 15420; 3;   
3045062; 32; 25000; 15187; 4;   
3045062; 32; 25000; 15446; 5;   
3045062; 32; 25000; 15329; 6;   
3045062; 32; 30000; 19221; 2;   
3045062; 32; 30000; 18724; 3;   
3045062; 32; 30000; 19021; 4;   
3045062; 32; 30000; 18676; 5;   
3045062; 32; 30000; 19206; 6;   
3045062; 32; 35000; 22617; 2;   
3045062; 32; 35000; 22906; 3;   
3045062; 32; 35000; 22784; 4;   
3045062; 32; 35000; 22595; 5;   
3045062; 32; 35000; 22764; 6;   
3045062; 32; 40000; 26584; 2;   
3045062; 32; 40000; 26445; 3;   
3045062; 32; 40000; 26353; 4;   
3045062; 32; 40000; 26412; 5;   
3045062; 32; 40000; 26346; 6;   
3045062; 32; 45000; 30054; 2;   
3045062; 32; 45000; 30330; 3;   
3045062; 32; 45000; 30295; 4;   
3045062; 32; 45000; 30142; 5;   
3045062; 32; 45000; 29875; 6;   
3045062; 32; 50000; 33772; 2;   
3045062; 32; 50000; 33832; 3;   
3045062; 32; 50000; 33665; 4;   
3045062; 32; 50000; 33386; 5;   
3045062; 32; 50000; 33898; 6;   
3045062; 32; 55000; 37444; 2;   
3045062; 32; 55000; 37285; 3;   
3045062; 32; 55000; 37614; 4;   
3045062; 32; 55000; 37595; 5;   
3045062; 32; 55000; 37265; 6;   
3045062; 32; 60000; 41153; 2;   
3045062; 32; 60000; 40926; 3;   
3045062; 32; 60000; 41000; 4;   
3045062; 32; 60000; 40924; 5;   
3045062; 32; 60000; 43124; 6;   
3045062; 32; 65000; 42862; 2;   
3045062; 32; 65000; 42773; 3;   
3045062; 32; 65000; 43067; 4;   
3045062; 32; 65000; 42828; 5;   
3045062; 32; 65000; 44385; 6;   
3045062; 32; 70000; 43897; 2;   
3045062; 32; 70000; 44172; 3;   
3045062; 32; 70000; 44153; 4;   
3045062; 32; 70000; 43794; 5;   
3045062; 32; 70000; 44823; 6;   
3045062; 32; 75000; 45241; 2;   
3045062; 32; 75000; 45161; 3;   
3045062; 32; 75000; 45314; 4;   
3045062; 32; 75000; 45181; 5;   
3045062; 32; 75000; 46036; 6;   
3045062; 32; 80000; 45717; 2;   
3045062; 32; 80000; 46153; 3;   
3045062; 32; 80000; 45894; 4;   
3045062; 32; 80000; 45877; 5;   
3045062; 32; 80000; 46594; 6;   
3045062; 32; 85000; 46864; 2;   
3045062; 32; 85000; 47192; 3;   
3045062; 32; 85000; 47045; 4;   
3045062; 32; 85000; 46727; 5;   
3045062; 32; 85000; 47596; 6;   
3045062; 32; 90000; 47384; 2;   
3045062; 32; 90000; 47579; 3;   
3045062; 32; 90000; 47445; 4;   
3045062; 32; 90000; 47374; 5;   
3045062; 32; 90000; 48069; 6;   
3045062; 32; 95000; 47759; 2;   
3045062; 32; 95000; 48190; 3;   
3045062; 32; 95000; 48107; 4;   
3045062; 32; 95000; 47957; 5;   
3045062; 32; 95000; 48445; 6;   
