textSize; alphaSize; querySize; timeTree; timeArray; timeTray; expCount; iterations; avgTimeTree; standardDeviationTree; relativeStdDevTree; avgTimeArray; standardDeviationArray; relativeStdDevArray; avgTimeTray; standardDeviationTray; relativeStdDevTray; 
262144; 5; 100; 469; 202; 171; 2; 250000;   427.6; 25.585933635495895;  5.983614040106617;218.4; 10.131140113531153;  4.638800418283495;174.6; 6.711184694225007;  3.8437483930269223; 
262144; 5; 200; 531; 298; 297; 2; 250000;   537.2; 15.816447135814034;  2.9442381116556278;306.8; 18.605375567292374;  6.064333626887997;306.2; 7.520638270785265;  2.4561196181532545; 
262144; 5; 300; 624; 422; 421; 2; 250000;   618.8; 20.88444397153058;  3.374990945625498;409.8; 28.610487587596268;  6.981573349828274;384.2; 25.545253962331245;  6.648946892850402; 
262144; 5; 400; 702; 500; 485; 2; 250000;   699.8; 15.68948692596415;  2.241995845379273;496.6; 5.817215828899594;  1.1714087452476025;493.8; 19.103926298015285;  3.868757857030232; 
262144; 5; 500; 782; 563; 593; 2; 250000;   771.8; 18.41086635658409;  2.385445239256814;543.4; 15.200000000000001;  2.7972027972027975;584.4; 17.715529910222838;  3.0314048443228674; 
262144; 5; 600; 859; 625; 672; 2; 250000;   821.4; 25.834860169933183;  3.145222811046163;624.6; 26.203816515919968;  4.195295631751516;662.6; 16.267759526130202;  2.4551402846559314; 
262144; 5; 700; 923; 704; 764; 2; 250000;   941.0; 18.19890106572372;  1.933995862457356;699.4; 11.637869220780924;  1.663979013551748;743.2; 15.778466338652816;  2.123044448150271; 
262144; 5; 800; 1047; 813; 891; 2; 250000;   1037.8; 36.831508250409726;  3.5489986751213842;806.4; 31.941195970094796;  3.960961801847073;869.6; 12.338557452149743;  1.4188773519031443; 
262144; 5; 900; 1063; 907; 938; 2; 250000;   1066.8; 32.002499902351374;  2.9998593834225136;909.6; 12.175385004179539;  1.3385427665105034;950.0; 45.09101906144948;  4.746423059099945; 
262144; 5; 1000; 1154; 922; 968; 2; 250000;   1155.6; 34.71944700020437;  3.004451973018724;954.0; 17.204650534085253;  1.8034224878496072;997.0; 24.39672109116305;  2.4470131485619913; 
262144; 5; 1100; 1281; 1000; 1108; 2; 250000;   1244.2; 25.1745903640953;  2.0233555991074827;1039.8; 38.968705392917535;  3.747711616937636;1112.6; 30.37498971193241;  2.7300907524656135; 
262144; 5; 1200; 1359; 1014; 1266; 2; 250000;   1328.0; 22.07260745811423;  1.6620939350989632;1094.2; 44.93283877076987;  4.1064557458206785;1210.2; 53.078809331031536;  4.385953506117297; 
262144; 5; 1300; 1361; 1219; 1297; 2; 250000;   1422.2; 43.99727264274457;  3.093606570295638;1209.4; 32.178253526255894;  2.660679140586728;1300.2; 10.684568311354464;  0.8217634449588113; 
262144; 5; 1400; 1486; 1312; 1327; 2; 250000;   1465.8; 43.296189208751386;  2.953758303230413;1266.8; 27.410946718418902;  2.1637943415234373;1383.4; 45.00044444224968;  3.252887410889813; 
262144; 5; 1500; 1594; 1374; 1467; 2; 250000;   1540.4; 61.68500628191587;  4.004479763822116;1369.2; 21.479292353334174;  1.568747615639364;1484.0; 40.96828041302198;  2.76066579602574; 
262144; 5; 1600; 1626; 1404; 1533; 2; 250000;   1626.4; 25.9430144740352;  1.5951189420828331;1439.8; 50.36030182594222;  3.497728978048494;1541.4; 26.59774426525678;  1.725557562297702; 
262144; 5; 1700; 1735; 1546; 1626; 2; 250000;   1719.2; 34.85627633583369;  2.027470703573388;1514.6; 34.23799059524376;  2.2605302122833595;1646.6; 35.18863452877932;  2.1370481312267287; 
262144; 5; 1800; 1812; 1656; 1719; 2; 250000;   1816.4; 15.78100123566309;  0.8688064983298333;1606.8; 26.498301832381635;  1.6491350406012968;1690.4; 57.05646326228081;  3.3753231934619503; 
262144; 5; 1900; 1873; 1721; 1734; 2; 250000;   1900.4; 31.212817879839047;  1.6424341128098847;1688.6; 32.15338240372232;  1.9041444038684308;1777.4; 37.792062658711814;  2.126255353815225; 
262144; 5; 2000; 1862; 1780; 1875; 2; 250000;   1893.8; 59.290471409831106;  3.1307673149134603;1765.8; 20.7499397589487;  1.1751013568325235;1884.8; 53.55893949659571;  2.8416245488431513; 
