textSize; alphaSize; querySize; timeTree; timeArray; timeTray; expCount; iterations; avgTimeTree; standardDeviationTree; relativeStdDevTree; avgTimeArray; standardDeviationArray; relativeStdDevArray; avgTimeTray; standardDeviationTray; relativeStdDevTray; 
65536; 5; 100; 201; 203; 172; 2; 250000;   246.2; 23.709913538433668;  9.630346684985243;175.2; 15.07846145997661;  8.606427773959254;140.6; 17.165080832900262;  12.208450094523657; 
65536; 5; 200; 328; 251; 234; 2; 250000;   346.8; 11.548160026601641;  3.329919269492976;259.6; 7.031358332498778;  2.7085355672183273;243.2; 7.520638270785265;  3.0923677100268363; 
65536; 5; 300; 343; 327; 329; 2; 250000;   400.6; 29.472699231661828;  7.357139099266556;352.4; 16.044936896105263;  4.553046792311369;322.2; 26.026140705068048;  8.0776352281403; 
65536; 5; 400; 455; 468; 393; 2; 250000;   472.0; 11.575836902790225;  2.4525078183877596;431.0; 21.090282122342508;  4.893336919337009;429.0; 20.64945519862449;  4.813392820192189; 
65536; 5; 500; 515; 500; 515; 2; 250000;   540.0; 37.98947222586805;  7.035087449234824;487.4; 30.59803915286076;  6.277808607480666;528.2; 18.048822676285564;  3.417043293503514; 
65536; 5; 600; 657; 501; 656; 2; 250000;   628.2; 26.102873405048722;  4.155185196601197;575.6; 51.44939261060328;  8.938393434781668;631.6; 33.332266649599454;  5.277432971754188; 
65536; 5; 700; 688; 581; 703; 2; 250000;   719.0; 19.636700333813724;  2.7311127028948157;647.8; 36.86407465270219;  5.690656784918524;699.4; 27.266096163550806;  3.8984981646483856; 
65536; 5; 800; 828; 766; 780; 2; 250000;   803.2; 40.572897357718986;  5.05140654354071;744.8; 28.749956521706256;  3.860090832667328;778.0; 12.049896265113654;  1.548829854127719; 
65536; 5; 900; 907; 797; 856; 2; 250000;   884.4; 30.407893711995246;  3.438251211216107;793.4; 21.17167919651155;  2.668474816802565;868.2; 32.31965346348874;  3.7226046375822093; 
65536; 5; 1000; 951; 906; 1032; 2; 250000;   965.2; 17.90418945386805;  1.8549719699407428;906.4; 17.715529910222838;  1.954493591154329;994.2; 28.62446506050375;  2.8791455502417773; 
65536; 5; 1100; 1064; 1017; 1092; 2; 250000;   1029.2; 35.58314207598874;  3.457359315583826;972.6; 30.78701024783017;  3.1654339140273673;1084.2; 25.57655176133014;  2.359025250076567; 
65536; 5; 1200; 1124; 1064; 1204; 2; 250000;   1081.6; 43.33405127610387;  4.006476634255166;1057.0; 16.946976131451887;  1.603309000137359;1144.4; 40.509751912348214;  3.539824529216027; 
65536; 5; 1300; 1236; 1125; 1235; 2; 250000;   1175.2; 57.12232488265862;  4.860647113909004;1128.2; 38.34266553071134;  3.398569892812563;1213.8; 27.578252301405904;  2.272059013132798; 
65536; 5; 1400; 1110; 1250; 1344; 2; 250000;   1221.0; 61.26989472816156;  5.018009396245828;1187.2; 38.47804568841822;  3.241075276989405;1347.0; 26.290682760247975;  1.9517953051409038; 
65536; 5; 1500; 1297; 1248; 1499; 2; 250000;   1278.2; 57.304101074879455;  4.483187378726291;1308.8; 40.61231340369569;  3.103019055905844;1424.6; 54.98581635294687;  3.8597372141616506; 
65536; 5; 1600; 1390; 1377; 1580; 2; 250000;   1363.0; 48.02915781064665;  3.5237826713607228;1328.4; 38.50506460194555;  2.898604682471059;1518.8; 44.17420061529128;  2.9084935880492018; 
65536; 5; 1700; 1517; 1499; 1595; 2; 250000;   1466.6; 59.03761512798429;  4.02547491667696;1444.4; 31.550594289173063;  2.184339122761912;1669.0; 54.79781017522507;  3.283272029671963; 
65536; 5; 1800; 1560; 1515; 1764; 2; 250000;   1547.4; 31.340708351918277;  2.0253785932479174;1503.4; 31.752795152553105;  2.1120656613378412;1727.0; 46.238512086787566;  2.6773892349037385; 
65536; 5; 1900; 1673; 1594; 1734; 2; 250000;   1647.2; 70.96872550638062;  4.308446181786099;1593.6; 43.088745630384736;  2.703862050099444;1790.8; 49.02815517638819;  2.7377794938791706; 
65536; 5; 2000; 1764; 1641; 1925; 2; 250000;   1742.8; 62.18488562343747;  3.5681022276473184;1672.0; 35.96109008358896;  2.150782899736182;1900.4; 29.241067011995305;  1.5386795944009315; 
