textSize; alphaSize; querySize; timeTree; timeArray; timeTray; expCount; iterations; 
65536; 5; 100; 201; 203; 172; 2; 250000;  
65536; 5; 100; 250; 172; 141; 3; 250000;  
65536; 5; 100; 266; 171; 125; 4; 250000;  
65536; 5; 100; 265; 157; 125; 5; 250000;  
65536; 5; 100; 249; 173; 140; 6; 250000;  
65536; 5; 200; 328; 251; 234; 2; 250000;  
65536; 5; 200; 344; 251; 249; 3; 250000;  
65536; 5; 200; 344; 265; 234; 4; 250000;  
65536; 5; 200; 359; 265; 250; 5; 250000;  
65536; 5; 200; 359; 266; 249; 6; 250000;  
65536; 5; 300; 343; 327; 329; 2; 250000;  
65536; 5; 300; 422; 359; 329; 3; 250000;  
65536; 5; 300; 422; 359; 360; 4; 250000;  
65536; 5; 300; 408; 343; 280; 5; 250000;  
65536; 5; 300; 408; 374; 313; 6; 250000;  
65536; 5; 400; 455; 468; 393; 2; 250000;  
65536; 5; 400; 467; 406; 454; 3; 250000;  
65536; 5; 400; 484; 422; 422; 4; 250000;  
65536; 5; 400; 468; 438; 438; 5; 250000;  
65536; 5; 400; 486; 421; 438; 6; 250000;  
65536; 5; 500; 515; 500; 515; 2; 250000;  
65536; 5; 500; 593; 453; 547; 3; 250000;  
65536; 5; 500; 562; 501; 501; 4; 250000;  
65536; 5; 500; 547; 531; 531; 5; 250000;  
65536; 5; 500; 483; 452; 547; 6; 250000;  
65536; 5; 600; 657; 501; 656; 2; 250000;  
65536; 5; 600; 658; 609; 640; 3; 250000;  
65536; 5; 600; 592; 595; 578; 4; 250000;  
65536; 5; 600; 625; 641; 612; 5; 250000;  
65536; 5; 600; 609; 532; 672; 6; 250000;  
65536; 5; 700; 688; 581; 703; 2; 250000;  
65536; 5; 700; 720; 688; 750; 3; 250000;  
65536; 5; 700; 717; 672; 685; 4; 250000;  
65536; 5; 700; 720; 641; 671; 5; 250000;  
65536; 5; 700; 750; 657; 688; 6; 250000;  
65536; 5; 800; 828; 766; 780; 2; 250000;  
65536; 5; 800; 844; 751; 766; 3; 250000;  
65536; 5; 800; 733; 689; 798; 4; 250000;  
65536; 5; 800; 828; 751; 781; 5; 250000;  
65536; 5; 800; 783; 767; 765; 6; 250000;  
65536; 5; 900; 907; 797; 856; 2; 250000;  
65536; 5; 900; 907; 764; 907; 3; 250000;  
65536; 5; 900; 905; 797; 890; 4; 250000;  
65536; 5; 900; 874; 781; 875; 5; 250000;  
65536; 5; 900; 829; 828; 813; 6; 250000;  
65536; 5; 1000; 951; 906; 1032; 2; 250000;  
65536; 5; 1000; 954; 874; 1015; 3; 250000;  
65536; 5; 1000; 999; 923; 1000; 4; 250000;  
65536; 5; 1000; 954; 907; 970; 5; 250000;  
65536; 5; 1000; 968; 922; 954; 6; 250000;  
65536; 5; 1100; 1064; 1017; 1092; 2; 250000;  
65536; 5; 1100; 968; 955; 1077; 3; 250000;  
65536; 5; 1100; 1033; 1001; 1126; 4; 250000;  
65536; 5; 1100; 1064; 937; 1047; 5; 250000;  
65536; 5; 1100; 1017; 953; 1079; 6; 250000;  
65536; 5; 1200; 1124; 1064; 1204; 2; 250000;  
65536; 5; 1200; 1142; 1032; 1141; 3; 250000;  
65536; 5; 1200; 1047; 1065; 1078; 4; 250000;  
65536; 5; 1200; 1033; 1080; 1140; 5; 250000;  
65536; 5; 1200; 1062; 1044; 1159; 6; 250000;  
65536; 5; 1300; 1236; 1125; 1235; 2; 250000;  
65536; 5; 1300; 1125; 1171; 1175; 3; 250000;  
65536; 5; 1300; 1233; 1172; 1218; 4; 250000;  
65536; 5; 1300; 1094; 1079; 1250; 5; 250000;  
65536; 5; 1300; 1188; 1094; 1191; 6; 250000;  
65536; 5; 1400; 1110; 1250; 1344; 2; 250000;  
65536; 5; 1400; 1203; 1154; 1360; 3; 250000;  
65536; 5; 1400; 1281; 1202; 1330; 4; 250000;  
65536; 5; 1400; 1247; 1189; 1312; 5; 250000;  
65536; 5; 1400; 1264; 1141; 1389; 6; 250000;  
65536; 5; 1500; 1297; 1248; 1499; 2; 250000;  
65536; 5; 1500; 1345; 1375; 1469; 3; 250000;  
65536; 5; 1500; 1172; 1310; 1408; 4; 250000;  
65536; 5; 1500; 1281; 1297; 1406; 5; 250000;  
65536; 5; 1500; 1296; 1314; 1341; 6; 250000;  
65536; 5; 1600; 1390; 1377; 1580; 2; 250000;  
65536; 5; 1600; 1423; 1374; 1562; 3; 250000;  
65536; 5; 1600; 1298; 1295; 1500; 4; 250000;  
65536; 5; 1600; 1315; 1300; 1484; 5; 250000;  
65536; 5; 1600; 1389; 1296; 1468; 6; 250000;  
65536; 5; 1700; 1517; 1499; 1595; 2; 250000;  
65536; 5; 1700; 1499; 1442; 1718; 3; 250000;  
65536; 5; 1700; 1515; 1406; 1719; 4; 250000;  
65536; 5; 1700; 1439; 1452; 1703; 5; 250000;  
65536; 5; 1700; 1363; 1423; 1610; 6; 250000;  
65536; 5; 1800; 1560; 1515; 1764; 2; 250000;  
65536; 5; 1800; 1532; 1548; 1763; 3; 250000;  
65536; 5; 1800; 1548; 1455; 1657; 4; 250000;  
65536; 5; 1800; 1596; 1483; 1686; 5; 250000;  
65536; 5; 1800; 1501; 1516; 1765; 6; 250000;  
65536; 5; 1900; 1673; 1594; 1734; 2; 250000;  
65536; 5; 1900; 1548; 1641; 1815; 3; 250000;  
65536; 5; 1900; 1718; 1609; 1767; 4; 250000;  
65536; 5; 1900; 1718; 1513; 1764; 5; 250000;  
65536; 5; 1900; 1579; 1611; 1874; 6; 250000;  
65536; 5; 2000; 1764; 1641; 1925; 2; 250000;  
65536; 5; 2000; 1752; 1688; 1875; 3; 250000;  
65536; 5; 2000; 1763; 1640; 1907; 4; 250000;  
65536; 5; 2000; 1810; 1656; 1859; 5; 250000;  
65536; 5; 2000; 1625; 1735; 1936; 6; 250000;  
