textSize; alphaSize; querySize; timeTree; timeArray; timeTray; expCount; iterations;
1852441; 5; 100; 594; 312; 345; 0; 250000; 
1852441; 5; 100; 639; 375; 282; 1; 250000; 
1852441; 5; 100; 657; 344; 314; 2; 250000; 
1852441; 5; 100; 656; 344; 298; 3; 250000; 
1852441; 5; 100; 624; 375; 233; 4; 250000; 
1852441; 5; 100; 656; 343; 282; 5; 250000; 
1852441; 5; 100; 560; 329; 328; 6; 250000; 
1852441; 5; 200; 749; 437; 422; 0; 250000; 
1852441; 5; 200; 718; 391; 424; 1; 250000; 
1852441; 5; 200; 735; 453; 375; 2; 250000; 
1852441; 5; 200; 720; 389; 390; 3; 250000; 
1852441; 5; 200; 718; 422; 389; 4; 250000; 
1852441; 5; 200; 717; 374; 390; 5; 250000; 
1852441; 5; 200; 734; 420; 390; 6; 250000; 
1852441; 5; 300; 797; 500; 452; 0; 250000; 
1852441; 5; 300; 875; 516; 440; 1; 250000; 
1852441; 5; 300; 719; 484; 485; 2; 250000; 
1852441; 5; 300; 751; 516; 439; 3; 250000; 
1852441; 5; 300; 814; 532; 547; 4; 250000; 
1852441; 5; 300; 859; 516; 514; 5; 250000; 
1852441; 5; 300; 782; 468; 501; 6; 250000; 
1852441; 5; 400; 905; 578; 641; 0; 250000; 
1852441; 5; 400; 893; 578; 626; 1; 250000; 
1852441; 5; 400; 953; 596; 564; 2; 250000; 
1852441; 5; 400; 923; 595; 593; 3; 250000; 
1852441; 5; 400; 936; 561; 595; 4; 250000; 
1852441; 5; 400; 953; 626; 625; 5; 250000; 
1852441; 5; 400; 889; 547; 579; 6; 250000; 
1852441; 5; 500; 967; 702; 670; 0; 250000; 
1852441; 5; 500; 999; 719; 721; 1; 250000; 
1852441; 5; 500; 999; 673; 674; 2; 250000; 
1852441; 5; 500; 1061; 719; 703; 3; 250000; 
1852441; 5; 500; 1001; 687; 705; 4; 250000; 
1852441; 5; 500; 1016; 624; 702; 5; 250000; 
1852441; 5; 500; 1063; 656; 671; 6; 250000; 
1852441; 5; 600; 1065; 749; 813; 0; 250000; 
1852441; 5; 600; 1093; 752; 781; 1; 250000; 
1852441; 5; 600; 936; 780; 766; 2; 250000; 
1852441; 5; 600; 1110; 718; 783; 3; 250000; 
1852441; 5; 600; 1109; 796; 749; 4; 250000; 
1852441; 5; 600; 1000; 688; 766; 5; 250000; 
1852441; 5; 600; 1095; 735; 750; 6; 250000; 
1852441; 5; 700; 1171; 843; 812; 0; 250000; 
1852441; 5; 700; 1110; 842; 845; 1; 250000; 
1852441; 5; 700; 1171; 859; 891; 2; 250000; 
1852441; 5; 700; 1171; 813; 859; 3; 250000; 
1852441; 5; 700; 1233; 811; 844; 4; 250000; 
1852441; 5; 700; 1189; 826; 938; 5; 250000; 
1852441; 5; 700; 1154; 875; 874; 6; 250000; 
1852441; 5; 800; 1266; 921; 999; 0; 250000; 
1852441; 5; 800; 1234; 905; 1000; 1; 250000; 
1852441; 5; 800; 1311; 892; 953; 2; 250000; 
1852441; 5; 800; 1232; 875; 910; 3; 250000; 
1852441; 5; 800; 1222; 907; 952; 4; 250000; 
1852441; 5; 800; 1249; 953; 939; 5; 250000; 
1852441; 5; 800; 1343; 906; 953; 6; 250000; 
1852441; 5; 900; 1345; 954; 983; 0; 250000; 
1852441; 5; 900; 1345; 983; 982; 1; 250000; 
1852441; 5; 900; 1266; 986; 1078; 2; 250000; 
1852441; 5; 900; 1377; 938; 1049; 3; 250000; 
1852441; 5; 900; 1391; 1032; 1094; 4; 250000; 
1852441; 5; 900; 1393; 1079; 968; 5; 250000; 
1852441; 5; 900; 1374; 955; 969; 6; 250000; 
1852441; 5; 1000; 1501; 1016; 1141; 0; 250000; 
1852441; 5; 1000; 1362; 1093; 1141; 1; 250000; 
1852441; 5; 1000; 1361; 1156; 1142; 2; 250000; 
1852441; 5; 1000; 1391; 953; 1063; 3; 250000; 
1852441; 5; 1000; 1420; 1011; 1172; 4; 250000; 
1852441; 5; 1000; 1375; 1029; 1094; 5; 250000; 
1852441; 5; 1000; 1500; 1078; 1172; 6; 250000; 
1852441; 5; 1100; 1533; 1107; 1266; 0; 250000; 
1852441; 5; 1100; 1564; 1172; 1283; 1; 250000; 
1852441; 5; 1100; 1561; 1155; 1204; 2; 250000; 
1852441; 5; 1100; 1453; 1157; 1250; 3; 250000; 
1852441; 5; 1100; 1515; 1127; 1217; 4; 250000; 
1852441; 5; 1100; 1501; 1078; 1157; 5; 250000; 
1852441; 5; 1100; 1421; 1142; 1250; 6; 250000; 
1852441; 5; 1200; 1734; 1142; 1220; 0; 250000; 
1852441; 5; 1200; 1672; 1296; 1298; 1; 250000; 
1852441; 5; 1200; 1613; 1219; 1325; 2; 250000; 
1852441; 5; 1200; 1563; 1219; 1232; 3; 250000; 
1852441; 5; 1200; 1518; 1153; 1376; 4; 250000; 
1852441; 5; 1200; 1673; 1233; 1247; 5; 250000; 
1852441; 5; 1200; 1483; 1204; 1344; 6; 250000; 
1852441; 5; 1300; 1812; 1391; 1498; 0; 250000; 
1852441; 5; 1300; 1654; 1312; 1453; 1; 250000; 
1852441; 5; 1300; 1658; 1296; 1342; 2; 250000; 
1852441; 5; 1300; 1690; 1284; 1360; 3; 250000; 
1852441; 5; 1300; 1783; 1406; 1377; 4; 250000; 
1852441; 5; 1300; 1781; 1265; 1390; 5; 250000; 
1852441; 5; 1300; 1767; 1343; 1404; 6; 250000; 
1852441; 5; 1400; 1716; 1346; 1468; 0; 250000; 
1852441; 5; 1400; 1812; 1389; 1516; 1; 250000; 
1852441; 5; 1400; 1780; 1326; 1577; 2; 250000; 
1852441; 5; 1400; 1828; 1311; 1516; 3; 250000; 
1852441; 5; 1400; 1720; 1315; 1472; 4; 250000; 
1852441; 5; 1400; 1749; 1374; 1512; 5; 250000; 
1852441; 5; 1400; 1799; 1343; 1438; 6; 250000; 
1852441; 5; 1500; 1877; 1546; 1611; 0; 250000; 
1852441; 5; 1500; 1968; 1548; 1608; 1; 250000; 
1852441; 5; 1500; 1937; 1498; 1564; 2; 250000; 
1852441; 5; 1500; 1842; 1502; 1597; 3; 250000; 
1852441; 5; 1500; 1796; 1500; 1517; 4; 250000; 
1852441; 5; 1500; 1861; 1392; 1532; 5; 250000; 
1852441; 5; 1500; 1812; 1562; 1592; 6; 250000; 
1852441; 5; 1600; 1939; 1520; 1720; 0; 250000; 
1852441; 5; 1600; 2000; 1515; 1705; 1; 250000; 
1852441; 5; 1600; 1940; 1624; 1674; 2; 250000; 
1852441; 5; 1600; 1908; 1626; 1606; 3; 250000; 
1852441; 5; 1600; 2002; 1560; 1610; 4; 250000; 
1852441; 5; 1600; 1920; 1502; 1656; 5; 250000; 
1852441; 5; 1600; 1907; 1561; 1625; 6; 250000; 
1852441; 5; 1700; 2062; 1656; 1701; 0; 250000; 
1852441; 5; 1700; 2123; 1644; 1672; 1; 250000; 
1852441; 5; 1700; 1968; 1672; 1688; 2; 250000; 
1852441; 5; 1700; 2064; 1608; 1784; 3; 250000; 
1852441; 5; 1700; 1953; 1575; 1842; 4; 250000; 
1852441; 5; 1700; 1968; 1752; 1700; 5; 250000; 
1852441; 5; 1700; 2061; 1627; 1702; 6; 250000; 
1852441; 5; 1800; 2110; 1874; 1874; 0; 250000; 
1852441; 5; 1800; 2171; 1673; 1750; 1; 250000; 
1852441; 5; 1800; 2124; 1611; 1811; 2; 250000; 
1852441; 5; 1800; 2111; 1812; 1847; 3; 250000; 
1852441; 5; 1800; 2093; 1625; 1781; 4; 250000; 
1852441; 5; 1800; 2091; 1768; 1828; 5; 250000; 
1852441; 5; 1800; 2123; 1717; 1827; 6; 250000; 
1852441; 5; 1900; 2222; 1857; 2000; 0; 250000; 
1852441; 5; 1900; 2203; 1824; 1862; 1; 250000; 
1852441; 5; 1900; 2140; 1797; 1950; 2; 250000; 
1852441; 5; 1900; 2188; 1794; 2031; 3; 250000; 
1852441; 5; 1900; 2124; 1877; 1939; 4; 250000; 
1852441; 5; 1900; 2188; 1733; 1955; 5; 250000; 
1852441; 5; 1900; 2139; 1783; 1967; 6; 250000; 
1852441; 5; 2000; 2282; 1798; 2049; 0; 250000; 
1852441; 5; 2000; 2236; 1876; 2015; 1; 250000; 
1852441; 5; 2000; 2297; 1827; 2001; 2; 250000; 
1852441; 5; 2000; 2078; 1922; 2029; 3; 250000; 
1852441; 5; 2000; 2299; 1814; 1982; 4; 250000; 
1852441; 5; 2000; 2251; 1858; 2018; 5; 250000; 
1852441; 5; 2000; 2235; 1872; 2018; 6; 250000; 
