textSize; alphaSize; querySize; timeTree; timeArray; timeTray; expCount; iterations; avgTimeTree; standardDeviationTree; relativeStdDevTree; avgTimeArray; standardDeviationArray; relativeStdDevArray; avgTimeTray; standardDeviationTray; relativeStdDevTray; 
65536; 5; 100; 250; 189; 156; 2; 250000;   272.2; 15.816447135814036;  5.810597772157985;184.4; 6.248199740725323;  3.388394653321759;137.2; 18.21428011204396;  13.27571436737898; 
65536; 5; 200; 375; 265; 218; 2; 250000;   359.4; 10.150862032359615;  2.8243912165719576;268.6; 15.396103403134184;  5.731981907347052;212.4; 15.081114017207085;  7.100336166293355; 
65536; 5; 300; 469; 297; 312; 2; 250000;   462.8; 12.671227249165726;  2.737948843812819;322.2; 26.663833182796505;  8.275553439725794;309.0; 26.97406161481804;  8.729469778258265; 
65536; 5; 400; 561; 437; 437; 2; 250000;   527.6; 41.60096152734934;  7.884943428231489;425.2; 17.29045979724079;  4.066429867648351;387.0; 27.09243436828813;  7.000629035733367; 
65536; 5; 500; 594; 531; 499; 2; 250000;   584.6; 15.06784656146989;  2.5774626345312845;515.4; 17.350504315437057;  3.3664152726886027;513.0; 12.049896265113654;  2.348907654018256; 
65536; 5; 600; 689; 548; 594; 2; 250000;   703.8; 25.70136183162285;  3.6517990667267477;574.4; 14.582180906846549;  2.5386805199941764;594.0; 9.818350166906862;  1.6529209035196737; 
65536; 5; 700; 782; 655; 609; 2; 250000;   763.2; 25.40393670280258;  3.328608058543315;674.2; 42.81775332732907;  6.350897853356432;650.2; 59.76754972390955;  9.192179286974708; 
65536; 5; 800; 844; 764; 782; 2; 250000;   855.8; 27.657910260900046;  3.231819380801595;724.8; 50.86609872990064;  7.017949604014989;738.0; 50.872389367907616;  6.893277692128404; 
65536; 5; 900; 935; 843; 861; 2; 250000;   949.8; 18.356470248934023;  1.9326669034464123;840.8; 18.497567407634982;  2.199996123648309;856.6; 20.771133815947554;  2.4248346738206346; 
65536; 5; 1000; 984; 861; 938; 2; 250000;   994.2; 38.865923377683956;  3.9092660810384183;874.8; 48.35866003106372;  5.527967538987623;943.6; 21.6573313222105;  2.295181360980341; 
65536; 5; 1100; 1126; 1000; 1047; 2; 250000;   1121.6; 12.531560158256434;  1.117293166748969;981.8; 29.995999733297772;  3.0552046988488257;1037.6; 28.089855820206694;  2.707195048208047; 
65536; 5; 1200; 1155; 1015; 1110; 2; 250000;   1175.4; 38.908096843716216;  3.310200514183785;1046.0; 41.05118755894889;  3.9245877207408117;1100.6; 55.06577884675745;  5.003250849242001; 
65536; 5; 1300; 1249; 1175; 1187; 2; 250000;   1236.6; 39.52012145730323;  3.195869436948345;1150.6; 24.23716154998353;  2.1064802320514104;1212.2; 20.7306536317599;  1.7101677637155501; 
65536; 5; 1400; 1360; 1218; 1344; 2; 250000;   1322.4; 33.52968833735262;  2.535517871850621;1206.4; 30.295874306578444;  2.5112627906646585;1318.8; 34.58554611394766;  2.6225012218643964; 
65536; 5; 1500; 1423; 1329; 1407; 2; 250000;   1381.0; 67.96175395029178;  4.9211986929972324;1269.8; 41.74877243704299;  3.287822683654354;1412.0; 40.13975585376672;  2.8427589131562834; 
65536; 5; 1600; 1483; 1330; 1484; 2; 250000;   1481.0; 42.47822971829217;  2.8682126751041306;1331.6; 60.734174893547376;  4.560992407145342;1481.6; 40.746042752640406;  2.7501378747732454; 
65536; 5; 1700; 1610; 1373; 1594; 2; 250000;   1553.4; 52.88326767513521;  3.4043561011417025;1440.6; 34.27302146003471;  2.3790796515364927;1581.0; 12.312595177297109;  0.778785273706332; 
65536; 5; 1800; 1517; 1500; 1673; 2; 250000;   1607.2; 58.48555377185036;  3.6389717379200075;1536.2; 39.72102717705069;  2.585667698024391;1668.6; 21.09597117935081;  1.264291692397867; 
65536; 5; 1900; 1579; 1594; 1750; 2; 250000;   1681.6; 63.553442078301316;  3.779343605988423;1594.6; 38.239246854507996;  2.3980463347866547;1746.4; 48.74669219547107;  2.7912673039092457; 
65536; 5; 2000; 1751; 1734; 1764; 2; 250000;   1825.0; 81.709240603496;  4.47721866320526;1697.0; 58.69582608669887;  3.4587994158337576;1805.6; 36.903116399567125;  2.043814599001281; 
