textSize; alphaSize; querySize; timeTree; timeArray; timeTray; expCount; iterations; avgTimeTree; standardDeviationTree; relativeStdDevTree; avgTimeArray; standardDeviationArray; relativeStdDevArray; avgTimeTray; standardDeviationTray; relativeStdDevTray; 
262144; 5; 100; 407; 218; 172; 2; 250000;   406.8; 26.536013264995177;  6.523110438789375;224.8; 7.520638270785265;  3.3454796578226267;175.8; 24.660900226877366;  14.02781582871295; 
262144; 5; 200; 515; 234; 297; 2; 250000;   512.4; 15.2;  2.9664324746291957;293.6; 33.5952377577537;  11.442519672259435;284.6; 18.607525359380812;  6.538132592895576; 
262144; 5; 300; 625; 390; 390; 2; 250000;   594.2; 16.987053894068858;  2.858810820274126;391.0; 17.181385275931625;  4.394216183102717;375.0; 21.79908254950194;  5.8130886798671835; 
262144; 5; 400; 626; 499; 468; 2; 250000;   646.4; 29.15201536772372;  4.509903367531516;474.0; 18.83613548475377;  3.9738682457286427;472.2; 11.196428001822724;  2.371119864850217; 
262144; 5; 500; 781; 561; 609; 2; 250000;   750.6; 19.001052602421794;  2.531448521505701;556.4; 21.81375712709757;  3.9205170968902894;562.0; 33.184333653096004;  5.904685703397865; 
262144; 5; 600; 749; 641; 673; 2; 250000;   781.6; 35.37004382242126;  4.525338257730458;635.0; 29.120439557122072;  4.58589599324757;678.0; 36.8021738488367;  5.428049240241402; 
262144; 5; 700; 907; 750; 734; 2; 250000;   884.0; 38.81752181682906;  4.39112237746935;728.2; 37.85974115072632;  5.199085574117868;762.4; 24.67873578609731;  3.2369800349025852; 
262144; 5; 800; 969; 813; 846; 2; 250000;   968.8; 10.127191120937729;  1.0453335178507153;787.4; 38.08726821393206;  4.837092737354847;844.2; 32.9083576010715;  3.898170765348436; 
262144; 5; 900; 1046; 907; 969; 2; 250000;   1052.2; 29.403401163810962;  2.794468842787584;882.0; 16.087262041752165;  1.823952612443556;931.4; 42.51399769487692;  4.56452627172825; 
262144; 5; 1000; 1127; 1003; 1000; 2; 250000;   1119.2; 6.8527366796047255;  0.6122888384207225;927.2; 51.52630396215122;  5.557194128791115;1000.4; 37.483863194713535;  3.7468875644455752; 
262144; 5; 1100; 1266; 1016; 1064; 2; 250000;   1228.2; 42.338634838643536;  3.447210131789898;1031.8; 36.51520231355702;  3.538980646787848;1082.6; 10.96540012949824;  1.0128764206076337; 
262144; 5; 1200; 1299; 1081; 1107; 2; 250000;   1279.0; 31.260198335903116;  2.4441124578501263;1116.0; 24.511221919765646;  2.196346050158212;1171.0; 36.491094804075146;  3.1162335443275104; 
262144; 5; 1300; 1360; 1187; 1280; 2; 250000;   1337.8; 40.57289735771898;  3.03280739704881;1177.6; 35.8307130824939;  3.0426896299672133;1274.2; 21.59073875530895;  1.694454462039629; 
262144; 5; 1400; 1466; 1297; 1358; 2; 250000;   1423.6; 39.23060030129541;  2.7557319683405037;1273.8; 21.77521526874074;  1.70946893301466;1381.6; 27.666586345264932;  2.0025033544632986; 
262144; 5; 1500; 1565; 1312; 1471; 2; 250000;   1494.4; 72.01277664414836;  4.81884212019194;1350.4; 36.995134815269964;  2.739568632647361;1469.4; 22.07804339156892;  1.5025209875846548; 
262144; 5; 1600; 1607; 1453; 1549; 2; 250000;   1608.8; 31.517614122899595;  1.9590759648744154;1443.8; 33.38502658378453;  2.312302713934377;1516.2; 32.158358167045776;  2.1209839181536587; 
262144; 5; 1700; 1718; 1393; 1577; 2; 250000;   1691.4; 30.51294807126968;  1.8040054434947188;1515.6; 66.80299394488245;  4.407692923256958;1625.2; 34.07873237079102;  2.0968946819339784; 
262144; 5; 1800; 1751; 1624; 1643; 2; 250000;   1784.8; 30.261526729495987;  1.6955135998148807;1603.2; 34.793102764772215;  2.17022846586653;1710.0; 56.913970165505056;  3.328302348859945; 
262144; 5; 1900; 1859; 1686; 1736; 2; 250000;   1869.0; 23.94159560263267;  1.280984248401962;1683.8; 24.644674881198977;  1.4636343319395995;1747.0; 45.61140208325107;  2.610841561720153; 
262144; 5; 2000; 1876; 1654; 1842; 2; 250000;   1933.8; 36.836937983496945;  1.904899057994464;1725.0; 47.7283982551269;  2.766863666963878;1895.8; 52.3465376123388;  2.7611845981822345; 
