log2(x) = log(x)/log(2)

if (!exists("directory")) directory='./'

set terminal pdf enhanced font "Helvetica, 10" size 7,4
set output (directory . "plot_genome1_65536_array_WC_perc.pdf")

set xlabel "m"
set xtics 0, 100 rotate

set ylabel "Running time [milliseconds]"

set ytics nomirror tc lt 1


set xrange [100:2000]
set yrange [80:250]

set grid mytics


set key vert left top reverse
set pointsize 2

set datafile separator ";"


plot (directory .  'genome1.fa_compare_65536_Exp12Removed_avgANDstdDev.csv') using ($3):($12/((3.28*10**-6*$3+1.43*10**-5*log2(65536))*250000))*100 title 'Running time in practice'  with linespoints ls 1,\
