textSize; alphaSize; querySize; time; expCount; iterations;  
1400000; 2; 50; 10159; 0; 20000000;  
1400000; 2; 50; 10113; 1; 20000000;  
1400000; 2; 50; 9774; 2; 20000000;  
1400000; 2; 50; 10220; 3; 20000000;  
1400000; 2; 50; 10372; 4; 20000000;  
1400000; 2; 50; 10012; 5; 20000000;  
1400000; 2; 50; 10520; 6; 20000000;  
1400000; 2; 50; 10581; 7; 20000000;  
1400000; 2; 50; 10001; 8; 20000000;  
1400000; 2; 50; 10455; 9; 20000000;  
1400000; 2; 50; 9920; 10; 20000000;  
1400000; 2; 50; 10998; 11; 20000000;  
1500000; 2; 50; 9958; 0; 20000000;  
1500000; 2; 50; 10436; 1; 20000000;  
1500000; 2; 50; 10157; 2; 20000000;  
1500000; 2; 50; 10049; 3; 20000000;  
1500000; 2; 50; 9844; 4; 20000000;  
1500000; 2; 50; 10000; 5; 20000000;  
1500000; 2; 50; 10031; 6; 20000000;  
1500000; 2; 50; 10082; 7; 20000000;  
1500000; 2; 50; 10200; 8; 20000000;  
1500000; 2; 50; 10111; 9; 20000000;  
1500000; 2; 50; 10862; 10; 20000000;  
1500000; 2; 50; 10078; 11; 20000000;  
1600000; 2; 50; 10316; 0; 20000000;  
1600000; 2; 50; 10486; 1; 20000000;  
1600000; 2; 50; 10013; 2; 20000000;  
1600000; 2; 50; 10721; 3; 20000000;  
1600000; 2; 50; 10360; 4; 20000000;  
1600000; 2; 50; 10160; 5; 20000000;  
1600000; 2; 50; 10214; 6; 20000000;  
1600000; 2; 50; 9829; 7; 20000000;  
1600000; 2; 50; 10036; 8; 20000000;  
1600000; 2; 50; 10580; 9; 20000000;  
1600000; 2; 50; 10033; 10; 20000000;  
1600000; 2; 50; 9767; 11; 20000000;  
