textSize; alphaSize; querySize; timeTree; timeArray; timeTray; expCount; iterations; avgTimeTree; standardDeviationTree; relativeStdDevTree; avgTimeArray; standardDeviationArray; relativeStdDevArray; avgTimeTray; standardDeviationTray; relativeStdDevTray; 
262144; 81; 5; 244; 216; 101; 2; 500000;   250.6; 5.238320341483518;  2.090311389259185;217.4; 4.363484845854286;  2.007122744183204;93.0; 4.604345773288535;  4.950909433643586; 
262144; 81; 10; 574; 301; 163; 2; 500000;   583.0; 7.4565407529228995;  1.2789949833486964;293.2; 5.491812087098392;  1.8730600569912663;164.2; 9.019977827023745;  5.4932873489791385; 
262144; 81; 15; 644; 320; 182; 2; 500000;   671.2; 17.2673101553195;  2.572602824094085;320.8; 2.6381811916545836;  0.8223756831840972;186.6; 6.974238309665077;  3.737533928009152; 
262144; 81; 20; 729; 340; 212; 2; 500000;   716.2; 13.731715115017497;  1.9173017474193657;334.8; 5.6;  1.6726403823178015;203.6; 4.317406628984581;  2.1205337077527413; 
262144; 81; 25; 743; 348; 217; 2; 500000;   741.8; 3.8678159211627436;  0.5214095337237454;341.0; 6.418722614352485;  1.8823233473174443;215.0; 1.7888543819998317;  0.8320252939534102; 
262144; 81; 30; 749; 351; 213; 2; 500000;   746.8; 14.048487463068755;  1.8811579356010653;348.2; 2.7856776554368237;  0.8000223019634761;220.2; 4.915282290977803;  2.2321899595721177; 
262144; 81; 35; 761; 374; 238; 2; 500000;   758.0; 15.257784898208522;  2.012900382349409;362.4; 7.552483035399681;  2.0840184976268437;234.4; 4.127953488110059;  1.7610723072141887; 
262144; 81; 40; 789; 375; 253; 2; 500000;   779.0; 6.29285308902091;  0.8078116930707202;378.2; 9.239047569960876;  2.4428999391752715;244.6; 5.083306010855534;  2.0782117787635053; 
262144; 81; 45; 787; 385; 258; 2; 500000;   789.6; 7.28285658241325;  0.9223475914910397;378.2; 7.6262703859750465;  2.016464935477273;255.8; 2.4;  0.9382329945269741; 
262144; 81; 50; 790; 368; 267; 2; 500000;   791.4; 4.029888335921977;  0.5092100500280486;384.0; 10.714476188783099;  2.7902281741622654;263.8; 6.04648658313239;  2.2920722453117475; 
262144; 81; 55; 788; 395; 268; 2; 500000;   801.4; 9.478396488858229;  1.1827297839853044;402.2; 4.955804677345546;  1.2321742111749245;269.2; 8.611620056644394;  3.198967331591528; 
262144; 81; 60; 813; 406; 278; 2; 500000;   812.6; 4.8;  0.5906965296578882;411.2; 6.554387843269575;  1.5939659151920174;286.0; 8.099382692526634;  2.831951990393928; 
262144; 81; 65; 838; 398; 292; 2; 500000;   811.2; 26.11819289307742;  3.2196983349454413;411.4; 7.418894796396562;  1.8033288275149641;288.0; 2.6076809620810595;  0.9054447785003679; 
262144; 81; 70; 827; 423; 315; 2; 500000;   831.4; 9.645724441429994;  1.160178547201106;421.6; 8.685620300243384;  2.0601566177047874;299.0; 11.117553687749837;  3.7182453805183404; 
262144; 81; 75; 844; 429; 326; 2; 500000;   837.0; 19.697715603592208;  2.3533710398556997;434.4; 6.6211781428987395;  1.5242122796728221;311.6; 7.657675887630658;  2.4575339819097106; 
262144; 81; 80; 874; 438; 331; 2; 500000;   851.0; 13.206059215375342;  1.5518283449324726;444.8; 6.794115100585211;  1.5274539344840852;325.6; 5.851495535331117;  1.7971423634309327; 
262144; 81; 85; 848; 445; 336; 2; 500000;   855.2; 8.749857141690944;  1.0231357742856575;448.2; 7.19444229944198;  1.605185698224449;333.6; 6.945502141674134;  2.081985054458673; 
262144; 81; 90; 814; 444; 347; 2; 500000;   855.4; 25.397637685422634;  2.9690948895747757;463.2; 11.9565881421081;  2.581301412372215;347.4; 5.571355310873647;  1.6037292201708833; 
262144; 81; 95; 877; 464; 353; 2; 500000;   877.8; 8.23164625090267;  0.9377587435523662;469.4; 6.740919818541086;  1.4360715420837424;354.0; 3.7416573867739413;  1.0569653634954637; 
262144; 81; 100; 887; 472; 352; 2; 500000;   882.6; 12.84678948220138;  1.4555619173126422;473.2; 5.192301994298868;  1.0972743014156525;359.2; 6.794115100585211;  1.8914574333477758; 
