textSize; alphaSize; querySize; timeTree; timeArray; timeTray; expCount; iterations; avgTimeTree; standardDeviationTree; relativeStdDevTree; avgTimeArray; standardDeviationArray; relativeStdDevArray; avgTimeTray; standardDeviationTray; relativeStdDevTray; 
2097152; 81; 5; 298; 367; 102; 2; 500000;   289.6; 8.522910301065005;  2.942993888489297;353.4; 7.761443164772901;  2.1962204767325697;117.8; 10.186265262597475;  8.64708426366509; 
2097152; 81; 10; 849; 567; 327; 2; 500000;   856.0; 10.583005244258363;  1.2363323883479396;572.0; 8.94427190999916;  1.5636839003495033;322.4; 3.4985711369071804;  1.085164744698257; 
2097152; 81; 15; 1146; 645; 410; 2; 500000;   1148.8; 6.273754856543249;  0.5461137584038344;641.0; 3.63318042491699;  0.5667988182397801;402.0; 6.260990336999411;  1.5574602828356745; 
2097152; 81; 20; 1263; 662; 424; 2; 500000;   1257.2; 6.337191807101944;  0.5040718904789965;662.4; 3.8262252939417984;  0.5776306301240638;424.6; 3.9293765408777004;  0.9254301791987046; 
2097152; 81; 25; 1301; 678; 451; 2; 500000;   1304.8; 15.765785740013087;  1.2082913657275511;686.2; 9.765244492586962;  1.4230901329913963;449.6; 7.310266752998826;  1.6259490108983154; 
2097152; 81; 30; 1325; 703; 467; 2; 500000;   1331.4; 8.309031231136395;  0.6240822616145707;698.4; 16.353592877407703;  2.341579736169488;460.4; 6.858571279792899;  1.4896983665927235; 
2097152; 81; 35; 1368; 710; 482; 2; 500000;   1366.8; 11.214276615100948;  0.8204767789801689;709.8; 1.32664991614216;  0.18690475009047058;480.4; 8.357032966310472;  1.739598868923912; 
2097152; 81; 40; 1374; 715; 476; 2; 500000;   1378.8; 13.43726162579266;  0.9745620558306252;715.4; 10.762899237658969;  1.504458937330021;478.2; 6.8527366796047255;  1.4330273273953837; 
2097152; 81; 45; 1387; 732; 513; 2; 500000;   1392.4; 14.136477637657833;  1.0152598131038375;733.8; 6.910861017268399;  0.941790817289234;504.6; 7.605261336732617;  1.5071861547230712; 
2097152; 81; 50; 1399; 755; 518; 2; 500000;   1379.4; 23.87969849055888;  1.7311656148005568;749.6; 10.09158064923429;  1.3462620930141795;504.2; 13.51147660324363;  2.679785125593739; 
2097152; 81; 55; 1417; 768; 525; 2; 500000;   1406.8; 17.88183435780569;  1.271099968567365;755.2; 9.282241108697834;  1.229110316300031;517.8; 16.50939126679115;  3.1883722029337878; 
2097152; 81; 60; 1432; 779; 522; 2; 500000;   1410.6; 19.293522228976233;  1.3677528873512146;759.8; 10.264501936285072;  1.3509478726355715;529.4; 12.419339757008018;  2.3459274191552737; 
2097152; 81; 65; 1435; 778; 560; 2; 500000;   1416.4; 16.181470884935027;  1.1424365211052687;772.8; 10.628264204469138;  1.3752929871207478;527.6; 17.51113931187803;  3.3190180651777914; 
2097152; 81; 70; 1460; 776; 549; 2; 500000;   1448.6; 9.911609354691095;  0.6842198919433311;778.2; 6.079473661428265;  0.7812225213863101;543.6; 5.953150426454886;  1.095134368369184; 
2097152; 81; 75; 1453; 790; 570; 2; 500000;   1442.4; 12.705904139414873;  0.8808863102755735;793.6; 2.65329983228432;  0.33433717644711697;566.4; 12.026637102698325;  2.1233469460978682; 
2097152; 81; 80; 1457; 788; 560; 2; 500000;   1463.0; 9.402127418834526;  0.6426607941787099;800.4; 6.829348431585548;  0.8532419329817027;555.2; 13.287588193498472;  2.3932975852843064; 
2097152; 81; 85; 1503; 807; 591; 2; 500000;   1463.8; 30.537845372586457;  2.086203400231347;809.4; 9.00222194794152;  1.1122092844009783;582.0; 12.86856635371633;  2.2110938752089915; 
2097152; 81; 90; 1434; 806; 593; 2; 500000;   1474.0; 22.387496510329154;  1.5188260861824392;811.2; 11.838918869558992;  1.459432799501848;590.2; 14.133647795243801;  2.3947217545313113; 
2097152; 81; 95; 1505; 811; 606; 2; 500000;   1497.8; 11.754148203932091;  0.7847608628610022;820.2; 7.19444229944198;  0.8771570713779542;600.4; 10.518555033843766;  1.7519245559366698; 
2097152; 81; 100; 1505; 819; 601; 2; 500000;   1514.6; 24.727312834192073;  1.632596912332766;833.2; 15.91728620085723;  1.9103800049036521;600.2; 8.518215775618742;  1.419229552752206; 
