textSize; alphaSize; querySize; time; expCount; iterations; 
524288; 16; 5; 3545; 0; 10000000; 
524288; 16; 10; 3552; 0; 10000000; 
524288; 16; 15; 3769; 0; 10000000; 
524288; 16; 20; 3905; 0; 10000000; 
524288; 16; 25; 4178; 0; 10000000; 
524288; 16; 30; 2016; 0; 5000000; 
524288; 16; 35; 2635; 0; 5000000; 
524288; 16; 40; 2320; 0; 5000000; 
524288; 16; 45; 2542; 0; 5000000; 
524288; 16; 50; 2555; 0; 5000000; 
524288; 16; 55; 2619; 0; 5000000; 
524288; 16; 60; 2353; 0; 5000000; 
524288; 16; 65; 2758; 0; 5000000; 
524288; 16; 70; 2818; 0; 5000000; 
524288; 16; 75; 3031; 0; 5000000; 
524288; 16; 80; 3139; 0; 5000000; 
524288; 16; 85; 3515; 0; 5000000; 
524288; 16; 90; 3444; 0; 5000000; 
524288; 16; 95; 3254; 0; 5000000; 
524288; 16; 100; 3629; 0; 5000000; 
524288; 16; 105; 2173; 0; 3000000; 
524288; 16; 110; 2325; 0; 3000000; 
524288; 16; 115; 2071; 0; 3000000; 
524288; 16; 120; 2054; 0; 3000000; 
524288; 16; 125; 2192; 0; 3000000; 
524288; 16; 130; 2484; 0; 3000000; 
524288; 16; 135; 3068; 0; 3000000; 
524288; 16; 140; 2157; 0; 3000000; 
524288; 16; 145; 2119; 0; 3000000; 
524288; 16; 150; 2618; 0; 3000000; 
524288; 16; 155; 1546; 0; 2000000; 
524288; 16; 160; 1674; 0; 2000000; 
524288; 16; 165; 1717; 0; 2000000; 
524288; 16; 170; 1842; 0; 2000000; 
524288; 16; 175; 1876; 0; 2000000; 
524288; 16; 180; 2082; 0; 2000000; 
524288; 16; 185; 2229; 0; 2000000; 
524288; 16; 190; 2218; 0; 2000000; 
524288; 16; 195; 2034; 0; 2000000; 
524288; 16; 200; 1642; 0; 2000000; 
524288; 16; 5; 4085; 1; 10000000; 
524288; 16; 10; 4251; 1; 10000000; 
524288; 16; 15; 3879; 1; 10000000; 
524288; 16; 20; 4020; 1; 10000000; 
524288; 16; 25; 4347; 1; 10000000; 
524288; 16; 30; 2490; 1; 5000000; 
524288; 16; 35; 2194; 1; 5000000; 
524288; 16; 40; 2758; 1; 5000000; 
524288; 16; 45; 2624; 1; 5000000; 
524288; 16; 50; 2327; 1; 5000000; 
524288; 16; 55; 2568; 1; 5000000; 
524288; 16; 60; 2405; 1; 5000000; 
524288; 16; 65; 3126; 1; 5000000; 
524288; 16; 70; 2892; 1; 5000000; 
524288; 16; 75; 3146; 1; 5000000; 
524288; 16; 80; 3088; 1; 5000000; 
524288; 16; 85; 3336; 1; 5000000; 
524288; 16; 90; 3719; 1; 5000000; 
524288; 16; 95; 3227; 1; 5000000; 
524288; 16; 100; 3704; 1; 5000000; 
524288; 16; 105; 2453; 1; 3000000; 
524288; 16; 110; 2320; 1; 3000000; 
524288; 16; 115; 2044; 1; 3000000; 
524288; 16; 120; 2116; 1; 3000000; 
524288; 16; 125; 2301; 1; 3000000; 
524288; 16; 130; 2498; 1; 3000000; 
524288; 16; 135; 2259; 1; 3000000; 
524288; 16; 140; 2380; 1; 3000000; 
524288; 16; 145; 2600; 1; 3000000; 
524288; 16; 150; 2571; 1; 3000000; 
524288; 16; 155; 1857; 1; 2000000; 
524288; 16; 160; 1878; 1; 2000000; 
524288; 16; 165; 1835; 1; 2000000; 
524288; 16; 170; 1926; 1; 2000000; 
524288; 16; 175; 2110; 1; 2000000; 
524288; 16; 180; 2080; 1; 2000000; 
524288; 16; 185; 1756; 1; 2000000; 
524288; 16; 190; 2031; 1; 2000000; 
524288; 16; 195; 1922; 1; 2000000; 
524288; 16; 200; 1760; 1; 2000000; 
524288; 16; 5; 3606; 2; 10000000; 
524288; 16; 10; 3789; 2; 10000000; 
524288; 16; 15; 4124; 2; 10000000; 
524288; 16; 20; 4426; 2; 10000000; 
524288; 16; 25; 4443; 2; 10000000; 
524288; 16; 30; 2227; 2; 5000000; 
524288; 16; 35; 2101; 2; 5000000; 
524288; 16; 40; 2363; 2; 5000000; 
524288; 16; 45; 2334; 2; 5000000; 
524288; 16; 50; 2688; 2; 5000000; 
524288; 16; 55; 2272; 2; 5000000; 
524288; 16; 60; 2750; 2; 5000000; 
524288; 16; 65; 2512; 2; 5000000; 
524288; 16; 70; 2980; 2; 5000000; 
524288; 16; 75; 2988; 2; 5000000; 
524288; 16; 80; 3489; 2; 5000000; 
524288; 16; 85; 3367; 2; 5000000; 
524288; 16; 90; 3528; 2; 5000000; 
524288; 16; 95; 3419; 2; 5000000; 
524288; 16; 100; 3594; 2; 5000000; 
524288; 16; 105; 2455; 2; 3000000; 
524288; 16; 110; 2187; 2; 3000000; 
524288; 16; 115; 2291; 2; 3000000; 
524288; 16; 120; 2436; 2; 3000000; 
524288; 16; 125; 2144; 2; 3000000; 
524288; 16; 130; 2368; 2; 3000000; 
524288; 16; 135; 2386; 2; 3000000; 
524288; 16; 140; 2791; 2; 3000000; 
524288; 16; 145; 2410; 2; 3000000; 
524288; 16; 150; 2530; 2; 3000000; 
524288; 16; 155; 1751; 2; 2000000; 
524288; 16; 160; 1573; 2; 2000000; 
524288; 16; 165; 1764; 2; 2000000; 
524288; 16; 170; 2040; 2; 2000000; 
524288; 16; 175; 1825; 2; 2000000; 
524288; 16; 180; 2404; 2; 2000000; 
524288; 16; 185; 2023; 2; 2000000; 
524288; 16; 190; 1620; 2; 2000000; 
524288; 16; 195; 1907; 2; 2000000; 
524288; 16; 200; 2071; 2; 2000000; 
524288; 16; 5; 3458; 3; 10000000; 
524288; 16; 10; 3746; 3; 10000000; 
524288; 16; 15; 4463; 3; 10000000; 
524288; 16; 20; 4605; 3; 10000000; 
524288; 16; 25; 4544; 3; 10000000; 
524288; 16; 30; 2391; 3; 5000000; 
524288; 16; 35; 2409; 3; 5000000; 
524288; 16; 40; 2534; 3; 5000000; 
524288; 16; 45; 2443; 3; 5000000; 
524288; 16; 50; 2779; 3; 5000000; 
524288; 16; 55; 2976; 3; 5000000; 
524288; 16; 60; 3021; 3; 5000000; 
524288; 16; 65; 3302; 3; 5000000; 
524288; 16; 70; 2919; 3; 5000000; 
524288; 16; 75; 2857; 3; 5000000; 
524288; 16; 80; 2890; 3; 5000000; 
524288; 16; 85; 3134; 3; 5000000; 
524288; 16; 90; 3214; 3; 5000000; 
524288; 16; 95; 3300; 3; 5000000; 
524288; 16; 100; 3282; 3; 5000000; 
524288; 16; 105; 2203; 3; 3000000; 
524288; 16; 110; 2480; 3; 3000000; 
524288; 16; 115; 2483; 3; 3000000; 
524288; 16; 120; 2241; 3; 3000000; 
524288; 16; 125; 2414; 3; 3000000; 
524288; 16; 130; 2404; 3; 3000000; 
524288; 16; 135; 2415; 3; 3000000; 
524288; 16; 140; 2812; 3; 3000000; 
524288; 16; 145; 2439; 3; 3000000; 
524288; 16; 150; 2535; 3; 3000000; 
524288; 16; 155; 1606; 3; 2000000; 
524288; 16; 160; 2021; 3; 2000000; 
524288; 16; 165; 2052; 3; 2000000; 
524288; 16; 170; 2005; 3; 2000000; 
524288; 16; 175; 1824; 3; 2000000; 
524288; 16; 180; 2216; 3; 2000000; 
524288; 16; 185; 1936; 3; 2000000; 
524288; 16; 190; 1811; 3; 2000000; 
524288; 16; 195; 1994; 3; 2000000; 
524288; 16; 200; 2122; 3; 2000000; 
524288; 16; 5; 3399; 4; 10000000; 
524288; 16; 10; 3996; 4; 10000000; 
524288; 16; 15; 4303; 4; 10000000; 
524288; 16; 20; 4075; 4; 10000000; 
524288; 16; 25; 4228; 4; 10000000; 
524288; 16; 30; 2195; 4; 5000000; 
524288; 16; 35; 2173; 4; 5000000; 
524288; 16; 40; 2424; 4; 5000000; 
524288; 16; 45; 2203; 4; 5000000; 
524288; 16; 50; 2331; 4; 5000000; 
524288; 16; 55; 2451; 4; 5000000; 
524288; 16; 60; 2658; 4; 5000000; 
524288; 16; 65; 2594; 4; 5000000; 
524288; 16; 70; 2919; 4; 5000000; 
524288; 16; 75; 2969; 4; 5000000; 
524288; 16; 80; 3382; 4; 5000000; 
524288; 16; 85; 3564; 4; 5000000; 
524288; 16; 90; 3280; 4; 5000000; 
524288; 16; 95; 3393; 4; 5000000; 
524288; 16; 100; 2970; 4; 5000000; 
524288; 16; 105; 2055; 4; 3000000; 
524288; 16; 110; 2079; 4; 3000000; 
524288; 16; 115; 2729; 4; 3000000; 
524288; 16; 120; 2034; 4; 3000000; 
524288; 16; 125; 2299; 4; 3000000; 
524288; 16; 130; 2440; 4; 3000000; 
524288; 16; 135; 2614; 4; 3000000; 
524288; 16; 140; 2643; 4; 3000000; 
524288; 16; 145; 2588; 4; 3000000; 
524288; 16; 150; 2643; 4; 3000000; 
524288; 16; 155; 1609; 4; 2000000; 
524288; 16; 160; 2048; 4; 2000000; 
524288; 16; 165; 1831; 4; 2000000; 
524288; 16; 170; 1943; 4; 2000000; 
524288; 16; 175; 1735; 4; 2000000; 
524288; 16; 180; 2186; 4; 2000000; 
524288; 16; 185; 2118; 4; 2000000; 
524288; 16; 190; 1954; 4; 2000000; 
524288; 16; 195; 2142; 4; 2000000; 
524288; 16; 200; 2070; 4; 2000000; 
524288; 16; 5; 4160; 5; 10000000; 
524288; 16; 10; 4074; 5; 10000000; 
524288; 16; 15; 4478; 5; 10000000; 
524288; 16; 20; 4052; 5; 10000000; 
524288; 16; 25; 4497; 5; 10000000; 
524288; 16; 30; 2769; 5; 5000000; 
524288; 16; 35; 2273; 5; 5000000; 
524288; 16; 40; 1960; 5; 5000000; 
524288; 16; 45; 2150; 5; 5000000; 
524288; 16; 50; 2914; 5; 5000000; 
524288; 16; 55; 2956; 5; 5000000; 
524288; 16; 60; 3061; 5; 5000000; 
524288; 16; 65; 2594; 5; 5000000; 
524288; 16; 70; 3149; 5; 5000000; 
524288; 16; 75; 3010; 5; 5000000; 
524288; 16; 80; 3592; 5; 5000000; 
524288; 16; 85; 3182; 5; 5000000; 
524288; 16; 90; 2870; 5; 5000000; 
524288; 16; 95; 3621; 5; 5000000; 
524288; 16; 100; 3367; 5; 5000000; 
524288; 16; 105; 2036; 5; 3000000; 
524288; 16; 110; 2124; 5; 3000000; 
524288; 16; 115; 2181; 5; 3000000; 
524288; 16; 120; 2393; 5; 3000000; 
524288; 16; 125; 2608; 5; 3000000; 
524288; 16; 130; 2455; 5; 3000000; 
524288; 16; 135; 2091; 5; 3000000; 
524288; 16; 140; 2550; 5; 3000000; 
524288; 16; 145; 2832; 5; 3000000; 
524288; 16; 150; 2732; 5; 3000000; 
524288; 16; 155; 1945; 5; 2000000; 
524288; 16; 160; 1905; 5; 2000000; 
524288; 16; 165; 1992; 5; 2000000; 
524288; 16; 170; 1737; 5; 2000000; 
524288; 16; 175; 1957; 5; 2000000; 
524288; 16; 180; 1930; 5; 2000000; 
524288; 16; 185; 1644; 5; 2000000; 
524288; 16; 190; 2175; 5; 2000000; 
524288; 16; 195; 2241; 5; 2000000; 
524288; 16; 200; 2084; 5; 2000000; 
524288; 16; 5; 3313; 6; 10000000; 
524288; 16; 10; 3691; 6; 10000000; 
524288; 16; 15; 4036; 6; 10000000; 
524288; 16; 20; 4156; 6; 10000000; 
524288; 16; 25; 4345; 6; 10000000; 
524288; 16; 30; 2521; 6; 5000000; 
524288; 16; 35; 2422; 6; 5000000; 
524288; 16; 40; 2742; 6; 5000000; 
524288; 16; 45; 2605; 6; 5000000; 
524288; 16; 50; 2403; 6; 5000000; 
524288; 16; 55; 2645; 6; 5000000; 
524288; 16; 60; 2737; 6; 5000000; 
524288; 16; 65; 2534; 6; 5000000; 
524288; 16; 70; 2803; 6; 5000000; 
524288; 16; 75; 3169; 6; 5000000; 
524288; 16; 80; 3443; 6; 5000000; 
524288; 16; 85; 3274; 6; 5000000; 
524288; 16; 90; 3280; 6; 5000000; 
524288; 16; 95; 3353; 6; 5000000; 
524288; 16; 100; 3434; 6; 5000000; 
524288; 16; 105; 2322; 6; 3000000; 
524288; 16; 110; 2579; 6; 3000000; 
524288; 16; 115; 2440; 6; 3000000; 
524288; 16; 120; 2045; 6; 3000000; 
524288; 16; 125; 2314; 6; 3000000; 
524288; 16; 130; 2768; 6; 3000000; 
524288; 16; 135; 2715; 6; 3000000; 
524288; 16; 140; 2409; 6; 3000000; 
524288; 16; 145; 2658; 6; 3000000; 
524288; 16; 150; 2665; 6; 3000000; 
524288; 16; 155; 1594; 6; 2000000; 
524288; 16; 160; 2031; 6; 2000000; 
524288; 16; 165; 1826; 6; 2000000; 
524288; 16; 170; 2062; 6; 2000000; 
524288; 16; 175; 2298; 6; 2000000; 
524288; 16; 180; 1810; 6; 2000000; 
524288; 16; 185; 2017; 6; 2000000; 
524288; 16; 190; 1812; 6; 2000000; 
524288; 16; 195; 1852; 6; 2000000; 
524288; 16; 200; 1972; 6; 2000000; 
