textSize; alphaSize; querySize; time; expCount; iterations;   
65536; 16; 5; 2483; 2; 10000000;   
65536; 16; 5; 2508; 3; 10000000;   
65536; 16; 5; 2574; 4; 10000000;   
65536; 16; 5; 2612; 5; 10000000;   
65536; 16; 5; 2527; 6; 10000000;   
65536; 16; 10; 2741; 2; 10000000;   
65536; 16; 10; 3049; 3; 10000000;   
65536; 16; 10; 2734; 4; 10000000;   
65536; 16; 10; 2834; 5; 10000000;   
65536; 16; 10; 2520; 6; 10000000;   
65536; 16; 15; 3170; 2; 10000000;   
65536; 16; 15; 2802; 3; 10000000;   
65536; 16; 15; 3174; 4; 10000000;   
65536; 16; 15; 2930; 5; 10000000;   
65536; 16; 15; 2901; 6; 10000000;   
65536; 16; 20; 3247; 2; 10000000;   
65536; 16; 20; 2834; 3; 10000000;   
65536; 16; 20; 2942; 4; 10000000;   
65536; 16; 20; 3254; 5; 10000000;   
65536; 16; 20; 3480; 6; 10000000;   
65536; 16; 25; 3156; 2; 10000000;   
65536; 16; 25; 3249; 3; 10000000;   
65536; 16; 25; 2960; 4; 10000000;   
65536; 16; 25; 3124; 5; 10000000;   
65536; 16; 25; 3179; 6; 10000000;   
65536; 16; 30; 1774; 2; 5000000;   
65536; 16; 30; 1668; 3; 5000000;   
65536; 16; 30; 1560; 4; 5000000;   
65536; 16; 30; 1595; 5; 5000000;   
65536; 16; 30; 1997; 6; 5000000;   
65536; 16; 35; 1769; 2; 5000000;   
65536; 16; 35; 1765; 3; 5000000;   
65536; 16; 35; 1775; 4; 5000000;   
65536; 16; 35; 1683; 5; 5000000;   
65536; 16; 35; 1760; 6; 5000000;   
65536; 16; 40; 1828; 2; 5000000;   
65536; 16; 40; 1926; 3; 5000000;   
65536; 16; 40; 2014; 4; 5000000;   
65536; 16; 40; 1780; 5; 5000000;   
65536; 16; 40; 1792; 6; 5000000;   
65536; 16; 45; 2064; 2; 5000000;   
65536; 16; 45; 1982; 3; 5000000;   
65536; 16; 45; 2120; 4; 5000000;   
65536; 16; 45; 2047; 5; 5000000;   
65536; 16; 45; 2053; 6; 5000000;   
65536; 16; 50; 2001; 2; 5000000;   
65536; 16; 50; 2107; 3; 5000000;   
65536; 16; 50; 1872; 4; 5000000;   
65536; 16; 50; 1863; 5; 5000000;   
65536; 16; 50; 2196; 6; 5000000;   
65536; 16; 55; 2114; 2; 5000000;   
65536; 16; 55; 2080; 3; 5000000;   
65536; 16; 55; 2219; 4; 5000000;   
65536; 16; 55; 2185; 5; 5000000;   
65536; 16; 55; 2239; 6; 5000000;   
65536; 16; 60; 1968; 2; 5000000;   
65536; 16; 60; 2290; 3; 5000000;   
65536; 16; 60; 2346; 4; 5000000;   
65536; 16; 60; 2181; 5; 5000000;   
65536; 16; 60; 2387; 6; 5000000;   
65536; 16; 65; 2027; 2; 5000000;   
65536; 16; 65; 2082; 3; 5000000;   
65536; 16; 65; 2155; 4; 5000000;   
65536; 16; 65; 2478; 5; 5000000;   
65536; 16; 65; 2474; 6; 5000000;   
65536; 16; 70; 2674; 2; 5000000;   
65536; 16; 70; 2356; 3; 5000000;   
65536; 16; 70; 2222; 4; 5000000;   
65536; 16; 70; 2417; 5; 5000000;   
65536; 16; 70; 2513; 6; 5000000;   
65536; 16; 75; 2525; 2; 5000000;   
65536; 16; 75; 2467; 3; 5000000;   
65536; 16; 75; 2133; 4; 5000000;   
65536; 16; 75; 2284; 5; 5000000;   
65536; 16; 75; 2575; 6; 5000000;   
65536; 16; 80; 2704; 2; 5000000;   
65536; 16; 80; 2631; 3; 5000000;   
65536; 16; 80; 2648; 4; 5000000;   
65536; 16; 80; 2361; 5; 5000000;   
65536; 16; 80; 2275; 6; 5000000;   
65536; 16; 85; 2576; 2; 5000000;   
65536; 16; 85; 2716; 3; 5000000;   
65536; 16; 85; 2488; 4; 5000000;   
65536; 16; 85; 2927; 5; 5000000;   
65536; 16; 85; 2166; 6; 5000000;   
65536; 16; 90; 2610; 2; 5000000;   
65536; 16; 90; 2462; 3; 5000000;   
65536; 16; 90; 2761; 4; 5000000;   
65536; 16; 90; 2761; 5; 5000000;   
65536; 16; 90; 2656; 6; 5000000;   
65536; 16; 95; 2762; 2; 5000000;   
65536; 16; 95; 2627; 3; 5000000;   
65536; 16; 95; 2853; 4; 5000000;   
65536; 16; 95; 2647; 5; 5000000;   
65536; 16; 95; 2691; 6; 5000000;   
65536; 16; 100; 2687; 2; 5000000;   
65536; 16; 100; 2791; 3; 5000000;   
65536; 16; 100; 3192; 4; 5000000;   
65536; 16; 100; 2958; 5; 5000000;   
65536; 16; 100; 2659; 6; 5000000;   
65536; 16; 105; 2160; 2; 3000000;   
65536; 16; 105; 1807; 3; 3000000;   
65536; 16; 105; 1660; 4; 3000000;   
65536; 16; 105; 1809; 5; 3000000;   
65536; 16; 105; 1772; 6; 3000000;   
65536; 16; 110; 1923; 2; 3000000;   
65536; 16; 110; 2108; 3; 3000000;   
65536; 16; 110; 1733; 4; 3000000;   
65536; 16; 110; 1839; 5; 3000000;   
65536; 16; 110; 1659; 6; 3000000;   
65536; 16; 115; 1967; 2; 3000000;   
65536; 16; 115; 2072; 3; 3000000;   
65536; 16; 115; 1847; 4; 3000000;   
65536; 16; 115; 1873; 5; 3000000;   
65536; 16; 115; 1926; 6; 3000000;   
65536; 16; 120; 2144; 2; 3000000;   
65536; 16; 120; 1509; 3; 3000000;   
65536; 16; 120; 2125; 4; 3000000;   
65536; 16; 120; 2003; 5; 3000000;   
65536; 16; 120; 1958; 6; 3000000;   
65536; 16; 125; 2182; 2; 3000000;   
65536; 16; 125; 1703; 3; 3000000;   
65536; 16; 125; 1872; 4; 3000000;   
65536; 16; 125; 1990; 5; 3000000;   
65536; 16; 125; 1950; 6; 3000000;   
65536; 16; 130; 1889; 2; 3000000;   
65536; 16; 130; 2083; 3; 3000000;   
65536; 16; 130; 1652; 4; 3000000;   
65536; 16; 130; 2227; 5; 3000000;   
65536; 16; 130; 1876; 6; 3000000;   
65536; 16; 135; 2021; 2; 3000000;   
65536; 16; 135; 1975; 3; 3000000;   
65536; 16; 135; 2111; 4; 3000000;   
65536; 16; 135; 1850; 5; 3000000;   
65536; 16; 135; 1897; 6; 3000000;   
65536; 16; 140; 2373; 2; 3000000;   
65536; 16; 140; 1831; 3; 3000000;   
65536; 16; 140; 2307; 4; 3000000;   
65536; 16; 140; 2293; 5; 3000000;   
65536; 16; 140; 2288; 6; 3000000;   
65536; 16; 145; 2200; 2; 3000000;   
65536; 16; 145; 1951; 3; 3000000;   
65536; 16; 145; 2093; 4; 3000000;   
65536; 16; 145; 1872; 5; 3000000;   
65536; 16; 145; 2316; 6; 3000000;   
65536; 16; 150; 1813; 2; 3000000;   
65536; 16; 150; 2237; 3; 3000000;   
65536; 16; 150; 2315; 4; 3000000;   
65536; 16; 150; 1853; 5; 3000000;   
65536; 16; 150; 2072; 6; 3000000;   
65536; 16; 155; 1512; 2; 2000000;   
65536; 16; 155; 1534; 3; 2000000;   
65536; 16; 155; 1428; 4; 2000000;   
65536; 16; 155; 1546; 5; 2000000;   
65536; 16; 155; 1716; 6; 2000000;   
65536; 16; 160; 1607; 2; 2000000;   
65536; 16; 160; 1642; 3; 2000000;   
65536; 16; 160; 1674; 4; 2000000;   
65536; 16; 160; 1503; 5; 2000000;   
65536; 16; 160; 1291; 6; 2000000;   
65536; 16; 165; 1561; 2; 2000000;   
65536; 16; 165; 1399; 3; 2000000;   
65536; 16; 165; 1538; 4; 2000000;   
65536; 16; 165; 1466; 5; 2000000;   
65536; 16; 165; 1533; 6; 2000000;   
65536; 16; 170; 1733; 2; 2000000;   
65536; 16; 170; 1659; 3; 2000000;   
65536; 16; 170; 1643; 4; 2000000;   
65536; 16; 170; 1530; 5; 2000000;   
65536; 16; 170; 1639; 6; 2000000;   
65536; 16; 175; 1569; 2; 2000000;   
65536; 16; 175; 1576; 3; 2000000;   
65536; 16; 175; 1968; 4; 2000000;   
65536; 16; 175; 1764; 5; 2000000;   
65536; 16; 175; 1666; 6; 2000000;   
65536; 16; 180; 1673; 2; 2000000;   
65536; 16; 180; 1707; 3; 2000000;   
65536; 16; 180; 1491; 4; 2000000;   
65536; 16; 180; 1901; 5; 2000000;   
65536; 16; 180; 1622; 6; 2000000;   
65536; 16; 185; 2035; 2; 2000000;   
65536; 16; 185; 2083; 3; 2000000;   
65536; 16; 185; 1843; 4; 2000000;   
65536; 16; 185; 1469; 5; 2000000;   
65536; 16; 185; 1643; 6; 2000000;   
65536; 16; 190; 1833; 2; 2000000;   
65536; 16; 190; 1576; 3; 2000000;   
65536; 16; 190; 1391; 4; 2000000;   
65536; 16; 190; 1627; 5; 2000000;   
65536; 16; 190; 1743; 6; 2000000;   
65536; 16; 195; 1765; 2; 2000000;   
65536; 16; 195; 1549; 3; 2000000;   
65536; 16; 195; 1668; 4; 2000000;   
65536; 16; 195; 1837; 5; 2000000;   
65536; 16; 195; 1844; 6; 2000000;   
65536; 16; 200; 1690; 2; 2000000;   
65536; 16; 200; 1642; 3; 2000000;   
65536; 16; 200; 1582; 4; 2000000;   
65536; 16; 200; 1736; 5; 2000000;   
65536; 16; 200; 1686; 6; 2000000;   
