textSize; alphaSize; querySize; time; expCount; iterations; 
1024; 16; 5; 1648; 0; 10000000; 
1024; 16; 10; 1793; 0; 10000000; 
1024; 16; 15; 1762; 0; 10000000; 
1024; 16; 20; 2127; 0; 10000000; 
1024; 16; 25; 2275; 0; 10000000; 
1024; 16; 30; 1318; 0; 5000000; 
1024; 16; 35; 1596; 0; 5000000; 
1024; 16; 40; 1364; 0; 5000000; 
1024; 16; 45; 1465; 0; 5000000; 
1024; 16; 50; 1524; 0; 5000000; 
1024; 16; 55; 1835; 0; 5000000; 
1024; 16; 60; 1919; 0; 5000000; 
1024; 16; 65; 1954; 0; 5000000; 
1024; 16; 70; 1863; 0; 5000000; 
1024; 16; 75; 1939; 0; 5000000; 
1024; 16; 80; 2187; 0; 5000000; 
1024; 16; 85; 2276; 0; 5000000; 
1024; 16; 90; 1888; 0; 5000000; 
1024; 16; 95; 2294; 0; 5000000; 
1024; 16; 100; 2381; 0; 5000000; 
1024; 16; 105; 1576; 0; 3000000; 
1024; 16; 110; 1691; 0; 3000000; 
1024; 16; 115; 1565; 0; 3000000; 
1024; 16; 120; 1732; 0; 3000000; 
1024; 16; 125; 1715; 0; 3000000; 
1024; 16; 130; 1810; 0; 3000000; 
1024; 16; 135; 1670; 0; 3000000; 
1024; 16; 140; 1794; 0; 3000000; 
1024; 16; 145; 1741; 0; 3000000; 
1024; 16; 150; 1811; 0; 3000000; 
1024; 16; 155; 1338; 0; 2000000; 
1024; 16; 160; 1339; 0; 2000000; 
1024; 16; 165; 1437; 0; 2000000; 
1024; 16; 170; 1370; 0; 2000000; 
1024; 16; 175; 1439; 0; 2000000; 
1024; 16; 180; 1362; 0; 2000000; 
1024; 16; 185; 1515; 0; 2000000; 
1024; 16; 190; 1620; 0; 2000000; 
1024; 16; 195; 1719; 0; 2000000; 
1024; 16; 200; 1606; 0; 2000000; 
1024; 16; 5; 1664; 1; 10000000; 
1024; 16; 10; 1749; 1; 10000000; 
1024; 16; 15; 2017; 1; 10000000; 
1024; 16; 20; 1969; 1; 10000000; 
1024; 16; 25; 2058; 1; 10000000; 
1024; 16; 30; 1174; 1; 5000000; 
1024; 16; 35; 1489; 1; 5000000; 
1024; 16; 40; 1343; 1; 5000000; 
1024; 16; 45; 1226; 1; 5000000; 
1024; 16; 50; 1681; 1; 5000000; 
1024; 16; 55; 1572; 1; 5000000; 
1024; 16; 60; 1624; 1; 5000000; 
1024; 16; 65; 1877; 1; 5000000; 
1024; 16; 70; 1849; 1; 5000000; 
1024; 16; 75; 1957; 1; 5000000; 
1024; 16; 80; 1892; 1; 5000000; 
1024; 16; 85; 2012; 1; 5000000; 
1024; 16; 90; 2330; 1; 5000000; 
1024; 16; 95; 2450; 1; 5000000; 
1024; 16; 100; 2310; 1; 5000000; 
1024; 16; 105; 1531; 1; 3000000; 
1024; 16; 110; 1391; 1; 3000000; 
1024; 16; 115; 1518; 1; 3000000; 
1024; 16; 120; 1518; 1; 3000000; 
1024; 16; 125; 1736; 1; 3000000; 
1024; 16; 130; 1614; 1; 3000000; 
1024; 16; 135; 1716; 1; 3000000; 
1024; 16; 140; 2046; 1; 3000000; 
1024; 16; 145; 1928; 1; 3000000; 
1024; 16; 150; 2082; 1; 3000000; 
1024; 16; 155; 1218; 1; 2000000; 
1024; 16; 160; 1284; 1; 2000000; 
1024; 16; 165; 1515; 1; 2000000; 
1024; 16; 170; 1630; 1; 2000000; 
1024; 16; 175; 1428; 1; 2000000; 
1024; 16; 180; 1420; 1; 2000000; 
1024; 16; 185; 1513; 1; 2000000; 
1024; 16; 190; 1523; 1; 2000000; 
1024; 16; 195; 1387; 1; 2000000; 
1024; 16; 200; 1708; 1; 2000000; 
1024; 16; 5; 1433; 2; 10000000; 
1024; 16; 10; 2112; 2; 10000000; 
1024; 16; 15; 1742; 2; 10000000; 
1024; 16; 20; 2233; 2; 10000000; 
1024; 16; 25; 2183; 2; 10000000; 
1024; 16; 30; 1114; 2; 5000000; 
1024; 16; 35; 1269; 2; 5000000; 
1024; 16; 40; 1324; 2; 5000000; 
1024; 16; 45; 1342; 2; 5000000; 
1024; 16; 50; 1483; 2; 5000000; 
1024; 16; 55; 1667; 2; 5000000; 
1024; 16; 60; 1850; 2; 5000000; 
1024; 16; 65; 1805; 2; 5000000; 
1024; 16; 70; 1819; 2; 5000000; 
1024; 16; 75; 2061; 2; 5000000; 
1024; 16; 80; 1655; 2; 5000000; 
1024; 16; 85; 2078; 2; 5000000; 
1024; 16; 90; 2136; 2; 5000000; 
1024; 16; 95; 2319; 2; 5000000; 
1024; 16; 100; 2393; 2; 5000000; 
1024; 16; 105; 1441; 2; 3000000; 
1024; 16; 110; 1421; 2; 3000000; 
1024; 16; 115; 1710; 2; 3000000; 
1024; 16; 120; 1660; 2; 3000000; 
1024; 16; 125; 1567; 2; 3000000; 
1024; 16; 130; 1526; 2; 3000000; 
1024; 16; 135; 1557; 2; 3000000; 
1024; 16; 140; 1755; 2; 3000000; 
1024; 16; 145; 1718; 2; 3000000; 
1024; 16; 150; 1549; 2; 3000000; 
1024; 16; 155; 1122; 2; 2000000; 
1024; 16; 160; 1376; 2; 2000000; 
1024; 16; 165; 1466; 2; 2000000; 
1024; 16; 170; 1395; 2; 2000000; 
1024; 16; 175; 1472; 2; 2000000; 
1024; 16; 180; 1267; 2; 2000000; 
1024; 16; 185; 1663; 2; 2000000; 
1024; 16; 190; 1594; 2; 2000000; 
1024; 16; 195; 1833; 2; 2000000; 
1024; 16; 200; 1591; 2; 2000000; 
1024; 16; 5; 1887; 3; 10000000; 
1024; 16; 10; 1945; 3; 10000000; 
1024; 16; 15; 1925; 3; 10000000; 
1024; 16; 20; 2142; 3; 10000000; 
1024; 16; 25; 2315; 3; 10000000; 
1024; 16; 30; 1078; 3; 5000000; 
1024; 16; 35; 1218; 3; 5000000; 
1024; 16; 40; 1534; 3; 5000000; 
1024; 16; 45; 1358; 3; 5000000; 
1024; 16; 50; 1454; 3; 5000000; 
1024; 16; 55; 1552; 3; 5000000; 
1024; 16; 60; 1668; 3; 5000000; 
1024; 16; 65; 1853; 3; 5000000; 
1024; 16; 70; 1842; 3; 5000000; 
1024; 16; 75; 2117; 3; 5000000; 
1024; 16; 80; 1992; 3; 5000000; 
1024; 16; 85; 2177; 3; 5000000; 
1024; 16; 90; 2083; 3; 5000000; 
1024; 16; 95; 2519; 3; 5000000; 
1024; 16; 100; 2486; 3; 5000000; 
1024; 16; 105; 1354; 3; 3000000; 
1024; 16; 110; 1705; 3; 3000000; 
1024; 16; 115; 1541; 3; 3000000; 
1024; 16; 120; 1529; 3; 3000000; 
1024; 16; 125; 1825; 3; 3000000; 
1024; 16; 130; 1956; 3; 3000000; 
1024; 16; 135; 1848; 3; 3000000; 
1024; 16; 140; 1812; 3; 3000000; 
1024; 16; 145; 1943; 3; 3000000; 
1024; 16; 150; 2050; 3; 3000000; 
1024; 16; 155; 1283; 3; 2000000; 
1024; 16; 160; 1232; 3; 2000000; 
1024; 16; 165; 1467; 3; 2000000; 
1024; 16; 170; 1395; 3; 2000000; 
1024; 16; 175; 1533; 3; 2000000; 
1024; 16; 180; 1292; 3; 2000000; 
1024; 16; 185; 1582; 3; 2000000; 
1024; 16; 190; 1359; 3; 2000000; 
1024; 16; 195; 1561; 3; 2000000; 
1024; 16; 200; 1436; 3; 2000000; 
1024; 16; 5; 1348; 4; 10000000; 
1024; 16; 10; 1876; 4; 10000000; 
1024; 16; 15; 1818; 4; 10000000; 
1024; 16; 20; 2085; 4; 10000000; 
1024; 16; 25; 2092; 4; 10000000; 
1024; 16; 30; 1222; 4; 5000000; 
1024; 16; 35; 1339; 4; 5000000; 
1024; 16; 40; 1382; 4; 5000000; 
1024; 16; 45; 1327; 4; 5000000; 
1024; 16; 50; 1413; 4; 5000000; 
1024; 16; 55; 1527; 4; 5000000; 
1024; 16; 60; 1824; 4; 5000000; 
1024; 16; 65; 1661; 4; 5000000; 
1024; 16; 70; 1720; 4; 5000000; 
1024; 16; 75; 1694; 4; 5000000; 
1024; 16; 80; 1816; 4; 5000000; 
1024; 16; 85; 2216; 4; 5000000; 
1024; 16; 90; 2384; 4; 5000000; 
1024; 16; 95; 2219; 4; 5000000; 
1024; 16; 100; 2471; 4; 5000000; 
1024; 16; 105; 1562; 4; 3000000; 
1024; 16; 110; 1375; 4; 3000000; 
1024; 16; 115; 1841; 4; 3000000; 
1024; 16; 120; 1481; 4; 3000000; 
1024; 16; 125; 1677; 4; 3000000; 
1024; 16; 130; 1676; 4; 3000000; 
1024; 16; 135; 1830; 4; 3000000; 
1024; 16; 140; 1668; 4; 3000000; 
1024; 16; 145; 1544; 4; 3000000; 
1024; 16; 150; 1868; 4; 3000000; 
1024; 16; 155; 1426; 4; 2000000; 
1024; 16; 160; 1369; 4; 2000000; 
1024; 16; 165; 1299; 4; 2000000; 
1024; 16; 170; 1580; 4; 2000000; 
1024; 16; 175; 1500; 4; 2000000; 
1024; 16; 180; 1656; 4; 2000000; 
1024; 16; 185; 1478; 4; 2000000; 
1024; 16; 190; 1628; 4; 2000000; 
1024; 16; 195; 1384; 4; 2000000; 
1024; 16; 200; 1941; 4; 2000000; 
1024; 16; 5; 1699; 5; 10000000; 
1024; 16; 10; 1840; 5; 10000000; 
1024; 16; 15; 1986; 5; 10000000; 
1024; 16; 20; 1844; 5; 10000000; 
1024; 16; 25; 2292; 5; 10000000; 
1024; 16; 30; 1254; 5; 5000000; 
1024; 16; 35; 1502; 5; 5000000; 
1024; 16; 40; 1401; 5; 5000000; 
1024; 16; 45; 1595; 5; 5000000; 
1024; 16; 50; 1553; 5; 5000000; 
1024; 16; 55; 1830; 5; 5000000; 
1024; 16; 60; 1549; 5; 5000000; 
1024; 16; 65; 1611; 5; 5000000; 
1024; 16; 70; 1920; 5; 5000000; 
1024; 16; 75; 1957; 5; 5000000; 
1024; 16; 80; 2012; 5; 5000000; 
1024; 16; 85; 2188; 5; 5000000; 
1024; 16; 90; 2238; 5; 5000000; 
1024; 16; 95; 2347; 5; 5000000; 
1024; 16; 100; 2380; 5; 5000000; 
1024; 16; 105; 1232; 5; 3000000; 
1024; 16; 110; 1703; 5; 3000000; 
1024; 16; 115; 1670; 5; 3000000; 
1024; 16; 120; 1674; 5; 3000000; 
1024; 16; 125; 1484; 5; 3000000; 
1024; 16; 130; 2033; 5; 3000000; 
1024; 16; 135; 2065; 5; 3000000; 
1024; 16; 140; 1970; 5; 3000000; 
1024; 16; 145; 1772; 5; 3000000; 
1024; 16; 150; 2030; 5; 3000000; 
1024; 16; 155; 1127; 5; 2000000; 
1024; 16; 160; 1546; 5; 2000000; 
1024; 16; 165; 1593; 5; 2000000; 
1024; 16; 170; 1722; 5; 2000000; 
1024; 16; 175; 1282; 5; 2000000; 
1024; 16; 180; 1511; 5; 2000000; 
1024; 16; 185; 1891; 5; 2000000; 
1024; 16; 190; 1744; 5; 2000000; 
1024; 16; 195; 1707; 5; 2000000; 
1024; 16; 200; 1551; 5; 2000000; 
1024; 16; 5; 1625; 6; 10000000; 
1024; 16; 10; 1758; 6; 10000000; 
1024; 16; 15; 2046; 6; 10000000; 
1024; 16; 20; 1973; 6; 10000000; 
1024; 16; 25; 2084; 6; 10000000; 
1024; 16; 30; 1187; 6; 5000000; 
1024; 16; 35; 1271; 6; 5000000; 
1024; 16; 40; 1433; 6; 5000000; 
1024; 16; 45; 1462; 6; 5000000; 
1024; 16; 50; 1660; 6; 5000000; 
1024; 16; 55; 1800; 6; 5000000; 
1024; 16; 60; 1564; 6; 5000000; 
1024; 16; 65; 1748; 6; 5000000; 
1024; 16; 70; 1654; 6; 5000000; 
1024; 16; 75; 1983; 6; 5000000; 
1024; 16; 80; 2176; 6; 5000000; 
1024; 16; 85; 2453; 6; 5000000; 
1024; 16; 90; 2418; 6; 5000000; 
1024; 16; 95; 2511; 6; 5000000; 
1024; 16; 100; 2158; 6; 5000000; 
1024; 16; 105; 1726; 6; 3000000; 
1024; 16; 110; 1665; 6; 3000000; 
1024; 16; 115; 1578; 6; 3000000; 
1024; 16; 120; 1547; 6; 3000000; 
1024; 16; 125; 1446; 6; 3000000; 
1024; 16; 130; 1768; 6; 3000000; 
1024; 16; 135; 1675; 6; 3000000; 
1024; 16; 140; 1765; 6; 3000000; 
1024; 16; 145; 1578; 6; 3000000; 
1024; 16; 150; 1832; 6; 3000000; 
1024; 16; 155; 1344; 6; 2000000; 
1024; 16; 160; 1406; 6; 2000000; 
1024; 16; 165; 1289; 6; 2000000; 
1024; 16; 170; 1587; 6; 2000000; 
1024; 16; 175; 1511; 6; 2000000; 
1024; 16; 180; 1410; 6; 2000000; 
1024; 16; 185; 1439; 6; 2000000; 
1024; 16; 190; 1310; 6; 2000000; 
1024; 16; 195; 1475; 6; 2000000; 
1024; 16; 200; 1676; 6; 2000000; 
