textSize; alphaSize; querySize; time; expCount; iterations;   
2048; 16; 5; 2004; 2; 10000000;   
2048; 16; 5; 1778; 3; 10000000;   
2048; 16; 5; 1856; 4; 10000000;   
2048; 16; 5; 1656; 5; 10000000;   
2048; 16; 5; 2149; 6; 10000000;   
2048; 16; 10; 1774; 2; 10000000;   
2048; 16; 10; 1855; 3; 10000000;   
2048; 16; 10; 2084; 4; 10000000;   
2048; 16; 10; 1925; 5; 10000000;   
2048; 16; 10; 1926; 6; 10000000;   
2048; 16; 15; 2068; 2; 10000000;   
2048; 16; 15; 1828; 3; 10000000;   
2048; 16; 15; 2107; 4; 10000000;   
2048; 16; 15; 2304; 5; 10000000;   
2048; 16; 15; 1994; 6; 10000000;   
2048; 16; 20; 2054; 2; 10000000;   
2048; 16; 20; 2256; 3; 10000000;   
2048; 16; 20; 2609; 4; 10000000;   
2048; 16; 20; 2297; 5; 10000000;   
2048; 16; 20; 2312; 6; 10000000;   
2048; 16; 25; 2149; 2; 10000000;   
2048; 16; 25; 2339; 3; 10000000;   
2048; 16; 25; 2368; 4; 10000000;   
2048; 16; 25; 2110; 5; 10000000;   
2048; 16; 25; 2436; 6; 10000000;   
2048; 16; 30; 1721; 2; 5000000;   
2048; 16; 30; 1137; 3; 5000000;   
2048; 16; 30; 1417; 4; 5000000;   
2048; 16; 30; 1336; 5; 5000000;   
2048; 16; 30; 1239; 6; 5000000;   
2048; 16; 35; 1392; 2; 5000000;   
2048; 16; 35; 1360; 3; 5000000;   
2048; 16; 35; 1442; 4; 5000000;   
2048; 16; 35; 1375; 5; 5000000;   
2048; 16; 35; 1441; 6; 5000000;   
2048; 16; 40; 1406; 2; 5000000;   
2048; 16; 40; 1722; 3; 5000000;   
2048; 16; 40; 1254; 4; 5000000;   
2048; 16; 40; 1426; 5; 5000000;   
2048; 16; 40; 1240; 6; 5000000;   
2048; 16; 45; 1493; 2; 5000000;   
2048; 16; 45; 1736; 3; 5000000;   
2048; 16; 45; 1699; 4; 5000000;   
2048; 16; 45; 1418; 5; 5000000;   
2048; 16; 45; 1170; 6; 5000000;   
2048; 16; 50; 1625; 2; 5000000;   
2048; 16; 50; 1505; 3; 5000000;   
2048; 16; 50; 1875; 4; 5000000;   
2048; 16; 50; 1698; 5; 5000000;   
2048; 16; 50; 1497; 6; 5000000;   
2048; 16; 55; 1547; 2; 5000000;   
2048; 16; 55; 1522; 3; 5000000;   
2048; 16; 55; 1631; 4; 5000000;   
2048; 16; 55; 1573; 5; 5000000;   
2048; 16; 55; 1661; 6; 5000000;   
2048; 16; 60; 1666; 2; 5000000;   
2048; 16; 60; 1866; 3; 5000000;   
2048; 16; 60; 1693; 4; 5000000;   
2048; 16; 60; 1964; 5; 5000000;   
2048; 16; 60; 1933; 6; 5000000;   
2048; 16; 65; 1973; 2; 5000000;   
2048; 16; 65; 1813; 3; 5000000;   
2048; 16; 65; 1810; 4; 5000000;   
2048; 16; 65; 1947; 5; 5000000;   
2048; 16; 65; 1875; 6; 5000000;   
2048; 16; 70; 1956; 2; 5000000;   
2048; 16; 70; 1864; 3; 5000000;   
2048; 16; 70; 2118; 4; 5000000;   
2048; 16; 70; 1766; 5; 5000000;   
2048; 16; 70; 2357; 6; 5000000;   
2048; 16; 75; 2112; 2; 5000000;   
2048; 16; 75; 2120; 3; 5000000;   
2048; 16; 75; 2178; 4; 5000000;   
2048; 16; 75; 1982; 5; 5000000;   
2048; 16; 75; 1638; 6; 5000000;   
2048; 16; 80; 2253; 2; 5000000;   
2048; 16; 80; 2059; 3; 5000000;   
2048; 16; 80; 2282; 4; 5000000;   
2048; 16; 80; 2440; 5; 5000000;   
2048; 16; 80; 2330; 6; 5000000;   
2048; 16; 85; 2282; 2; 5000000;   
2048; 16; 85; 1972; 3; 5000000;   
2048; 16; 85; 2011; 4; 5000000;   
2048; 16; 85; 2076; 5; 5000000;   
2048; 16; 85; 2217; 6; 5000000;   
2048; 16; 90; 2185; 2; 5000000;   
2048; 16; 90; 2228; 3; 5000000;   
2048; 16; 90; 2121; 4; 5000000;   
2048; 16; 90; 2361; 5; 5000000;   
2048; 16; 90; 2621; 6; 5000000;   
2048; 16; 95; 2541; 2; 5000000;   
2048; 16; 95; 2699; 3; 5000000;   
2048; 16; 95; 2360; 4; 5000000;   
2048; 16; 95; 2594; 5; 5000000;   
2048; 16; 95; 2682; 6; 5000000;   
2048; 16; 100; 2632; 2; 5000000;   
2048; 16; 100; 2552; 3; 5000000;   
2048; 16; 100; 2644; 4; 5000000;   
2048; 16; 100; 2673; 5; 5000000;   
2048; 16; 100; 2497; 6; 5000000;   
2048; 16; 105; 1576; 2; 3000000;   
2048; 16; 105; 1431; 3; 3000000;   
2048; 16; 105; 1424; 4; 3000000;   
2048; 16; 105; 1701; 5; 3000000;   
2048; 16; 105; 1603; 6; 3000000;   
2048; 16; 110; 1652; 2; 3000000;   
2048; 16; 110; 1786; 3; 3000000;   
2048; 16; 110; 1663; 4; 3000000;   
2048; 16; 110; 1615; 5; 3000000;   
2048; 16; 110; 1778; 6; 3000000;   
2048; 16; 115; 1635; 2; 3000000;   
2048; 16; 115; 1588; 3; 3000000;   
2048; 16; 115; 1622; 4; 3000000;   
2048; 16; 115; 1581; 5; 3000000;   
2048; 16; 115; 1577; 6; 3000000;   
2048; 16; 120; 1756; 2; 3000000;   
2048; 16; 120; 1671; 3; 3000000;   
2048; 16; 120; 1604; 4; 3000000;   
2048; 16; 120; 1811; 5; 3000000;   
2048; 16; 120; 1740; 6; 3000000;   
2048; 16; 125; 1839; 2; 3000000;   
2048; 16; 125; 1476; 3; 3000000;   
2048; 16; 125; 1765; 4; 3000000;   
2048; 16; 125; 1748; 5; 3000000;   
2048; 16; 125; 1844; 6; 3000000;   
2048; 16; 130; 1921; 2; 3000000;   
2048; 16; 130; 1835; 3; 3000000;   
2048; 16; 130; 1578; 4; 3000000;   
2048; 16; 130; 1783; 5; 3000000;   
2048; 16; 130; 2036; 6; 3000000;   
2048; 16; 135; 1613; 2; 3000000;   
2048; 16; 135; 2039; 3; 3000000;   
2048; 16; 135; 1716; 4; 3000000;   
2048; 16; 135; 1575; 5; 3000000;   
2048; 16; 135; 2108; 6; 3000000;   
2048; 16; 140; 1831; 2; 3000000;   
2048; 16; 140; 1895; 3; 3000000;   
2048; 16; 140; 1933; 4; 3000000;   
2048; 16; 140; 1756; 5; 3000000;   
2048; 16; 140; 1927; 6; 3000000;   
2048; 16; 145; 2113; 2; 3000000;   
2048; 16; 145; 1785; 3; 3000000;   
2048; 16; 145; 1964; 4; 3000000;   
2048; 16; 145; 2036; 5; 3000000;   
2048; 16; 145; 2235; 6; 3000000;   
2048; 16; 150; 2019; 2; 3000000;   
2048; 16; 150; 1787; 3; 3000000;   
2048; 16; 150; 1890; 4; 3000000;   
2048; 16; 150; 2058; 5; 3000000;   
2048; 16; 150; 2058; 6; 3000000;   
2048; 16; 155; 1714; 2; 2000000;   
2048; 16; 155; 1387; 3; 2000000;   
2048; 16; 155; 1279; 4; 2000000;   
2048; 16; 155; 1280; 5; 2000000;   
2048; 16; 155; 1375; 6; 2000000;   
2048; 16; 160; 1355; 2; 2000000;   
2048; 16; 160; 1476; 3; 2000000;   
2048; 16; 160; 1284; 4; 2000000;   
2048; 16; 160; 1218; 5; 2000000;   
2048; 16; 160; 1361; 6; 2000000;   
2048; 16; 165; 1394; 2; 2000000;   
2048; 16; 165; 1501; 3; 2000000;   
2048; 16; 165; 1318; 4; 2000000;   
2048; 16; 165; 1439; 5; 2000000;   
2048; 16; 165; 1297; 6; 2000000;   
2048; 16; 170; 1572; 2; 2000000;   
2048; 16; 170; 1458; 3; 2000000;   
2048; 16; 170; 1735; 4; 2000000;   
2048; 16; 170; 1342; 5; 2000000;   
2048; 16; 170; 1538; 6; 2000000;   
2048; 16; 175; 1338; 2; 2000000;   
2048; 16; 175; 1504; 3; 2000000;   
2048; 16; 175; 1488; 4; 2000000;   
2048; 16; 175; 1666; 5; 2000000;   
2048; 16; 175; 1932; 6; 2000000;   
2048; 16; 180; 1501; 2; 2000000;   
2048; 16; 180; 1497; 3; 2000000;   
2048; 16; 180; 1786; 4; 2000000;   
2048; 16; 180; 1515; 5; 2000000;   
2048; 16; 180; 1467; 6; 2000000;   
2048; 16; 185; 1596; 2; 2000000;   
2048; 16; 185; 1449; 3; 2000000;   
2048; 16; 185; 1756; 4; 2000000;   
2048; 16; 185; 1718; 5; 2000000;   
2048; 16; 185; 1610; 6; 2000000;   
2048; 16; 190; 1460; 2; 2000000;   
2048; 16; 190; 1609; 3; 2000000;   
2048; 16; 190; 1567; 4; 2000000;   
2048; 16; 190; 1702; 5; 2000000;   
2048; 16; 190; 1568; 6; 2000000;   
2048; 16; 195; 1750; 2; 2000000;   
2048; 16; 195; 1498; 3; 2000000;   
2048; 16; 195; 1544; 4; 2000000;   
2048; 16; 195; 1472; 5; 2000000;   
2048; 16; 195; 1769; 6; 2000000;   
2048; 16; 200; 1587; 2; 2000000;   
2048; 16; 200; 1786; 3; 2000000;   
2048; 16; 200; 1881; 4; 2000000;   
2048; 16; 200; 1569; 5; 2000000;   
2048; 16; 200; 1597; 6; 2000000;   
