textSize; alphaSize; querySize; time; expCount; iterations; 
512; 16; 5; 1602; 0; 10000000; 
512; 16; 10; 1848; 0; 10000000; 
512; 16; 15; 1873; 0; 10000000; 
512; 16; 20; 2044; 0; 10000000; 
512; 16; 25; 2276; 0; 10000000; 
512; 16; 30; 1281; 0; 5000000; 
512; 16; 35; 1187; 0; 5000000; 
512; 16; 40; 1379; 0; 5000000; 
512; 16; 45; 1434; 0; 5000000; 
512; 16; 50; 1423; 0; 5000000; 
512; 16; 55; 1284; 0; 5000000; 
512; 16; 60; 1555; 0; 5000000; 
512; 16; 65; 1472; 0; 5000000; 
512; 16; 70; 1666; 0; 5000000; 
512; 16; 75; 2015; 0; 5000000; 
512; 16; 80; 1925; 0; 5000000; 
512; 16; 85; 2247; 0; 5000000; 
512; 16; 90; 2124; 0; 5000000; 
512; 16; 95; 2351; 0; 5000000; 
512; 16; 100; 2471; 0; 5000000; 
512; 16; 105; 1552; 0; 3000000; 
512; 16; 110; 1598; 0; 3000000; 
512; 16; 115; 1515; 0; 3000000; 
512; 16; 120; 1473; 0; 3000000; 
512; 16; 125; 1750; 0; 3000000; 
512; 16; 130; 1864; 0; 3000000; 
512; 16; 135; 1639; 0; 3000000; 
512; 16; 140; 1937; 0; 3000000; 
512; 16; 145; 1685; 0; 3000000; 
512; 16; 150; 1897; 0; 3000000; 
512; 16; 155; 1304; 0; 2000000; 
512; 16; 160; 1207; 0; 2000000; 
512; 16; 165; 1293; 0; 2000000; 
512; 16; 170; 1281; 0; 2000000; 
512; 16; 175; 1343; 0; 2000000; 
512; 16; 180; 1394; 0; 2000000; 
512; 16; 185; 1447; 0; 2000000; 
512; 16; 190; 1530; 0; 2000000; 
512; 16; 195; 1640; 0; 2000000; 
512; 16; 200; 1737; 0; 2000000; 
512; 16; 5; 1407; 1; 10000000; 
512; 16; 10; 1951; 1; 10000000; 
512; 16; 15; 1541; 1; 10000000; 
512; 16; 20; 1824; 1; 10000000; 
512; 16; 25; 1982; 1; 10000000; 
512; 16; 30; 1175; 1; 5000000; 
512; 16; 35; 1050; 1; 5000000; 
512; 16; 40; 1298; 1; 5000000; 
512; 16; 45; 1389; 1; 5000000; 
512; 16; 50; 1414; 1; 5000000; 
512; 16; 55; 1518; 1; 5000000; 
512; 16; 60; 1800; 1; 5000000; 
512; 16; 65; 1851; 1; 5000000; 
512; 16; 70; 1677; 1; 5000000; 
512; 16; 75; 1877; 1; 5000000; 
512; 16; 80; 2154; 1; 5000000; 
512; 16; 85; 2115; 1; 5000000; 
512; 16; 90; 1871; 1; 5000000; 
512; 16; 95; 2646; 1; 5000000; 
512; 16; 100; 2325; 1; 5000000; 
512; 16; 105; 1348; 1; 3000000; 
512; 16; 110; 1615; 1; 3000000; 
512; 16; 115; 1510; 1; 3000000; 
512; 16; 120; 1805; 1; 3000000; 
512; 16; 125; 1666; 1; 3000000; 
512; 16; 130; 1635; 1; 3000000; 
512; 16; 135; 1737; 1; 3000000; 
512; 16; 140; 1869; 1; 3000000; 
512; 16; 145; 1728; 1; 3000000; 
512; 16; 150; 1891; 1; 3000000; 
512; 16; 155; 1288; 1; 2000000; 
512; 16; 160; 1342; 1; 2000000; 
512; 16; 165; 1299; 1; 2000000; 
512; 16; 170; 1470; 1; 2000000; 
512; 16; 175; 1483; 1; 2000000; 
512; 16; 180; 1547; 1; 2000000; 
512; 16; 185; 1500; 1; 2000000; 
512; 16; 190; 1744; 1; 2000000; 
512; 16; 195; 1503; 1; 2000000; 
512; 16; 200; 1607; 1; 2000000; 
512; 16; 5; 1431; 2; 10000000; 
512; 16; 10; 1853; 2; 10000000; 
512; 16; 15; 1520; 2; 10000000; 
512; 16; 20; 1937; 2; 10000000; 
512; 16; 25; 2314; 2; 10000000; 
512; 16; 30; 1077; 2; 5000000; 
512; 16; 35; 1155; 2; 5000000; 
512; 16; 40; 1156; 2; 5000000; 
512; 16; 45; 1467; 2; 5000000; 
512; 16; 50; 1507; 2; 5000000; 
512; 16; 55; 1656; 2; 5000000; 
512; 16; 60; 1701; 2; 5000000; 
512; 16; 65; 1877; 2; 5000000; 
512; 16; 70; 1956; 2; 5000000; 
512; 16; 75; 1926; 2; 5000000; 
512; 16; 80; 2082; 2; 5000000; 
512; 16; 85; 1965; 2; 5000000; 
512; 16; 90; 2000; 2; 5000000; 
512; 16; 95; 2472; 2; 5000000; 
512; 16; 100; 2239; 2; 5000000; 
512; 16; 105; 1269; 2; 3000000; 
512; 16; 110; 1602; 2; 3000000; 
512; 16; 115; 1667; 2; 3000000; 
512; 16; 120; 1595; 2; 3000000; 
512; 16; 125; 1842; 2; 3000000; 
512; 16; 130; 1581; 2; 3000000; 
512; 16; 135; 1770; 2; 3000000; 
512; 16; 140; 1636; 2; 3000000; 
512; 16; 145; 1714; 2; 3000000; 
512; 16; 150; 1718; 2; 3000000; 
512; 16; 155; 1206; 2; 2000000; 
512; 16; 160; 1467; 2; 2000000; 
512; 16; 165; 1401; 2; 2000000; 
512; 16; 170; 1639; 2; 2000000; 
512; 16; 175; 1390; 2; 2000000; 
512; 16; 180; 1546; 2; 2000000; 
512; 16; 185; 1447; 2; 2000000; 
512; 16; 190; 1495; 2; 2000000; 
512; 16; 195; 1623; 2; 2000000; 
512; 16; 200; 1610; 2; 2000000; 
512; 16; 5; 1339; 3; 10000000; 
512; 16; 10; 1724; 3; 10000000; 
512; 16; 15; 1812; 3; 10000000; 
512; 16; 20; 2034; 3; 10000000; 
512; 16; 25; 1937; 3; 10000000; 
512; 16; 30; 1121; 3; 5000000; 
512; 16; 35; 1188; 3; 5000000; 
512; 16; 40; 1091; 3; 5000000; 
512; 16; 45; 1387; 3; 5000000; 
512; 16; 50; 1486; 3; 5000000; 
512; 16; 55; 1427; 3; 5000000; 
512; 16; 60; 1540; 3; 5000000; 
512; 16; 65; 1948; 3; 5000000; 
512; 16; 70; 1469; 3; 5000000; 
512; 16; 75; 1992; 3; 5000000; 
512; 16; 80; 1959; 3; 5000000; 
512; 16; 85; 1884; 3; 5000000; 
512; 16; 90; 2141; 3; 5000000; 
512; 16; 95; 2067; 3; 5000000; 
512; 16; 100; 2103; 3; 5000000; 
512; 16; 105; 1600; 3; 3000000; 
512; 16; 110; 1203; 3; 3000000; 
512; 16; 115; 1909; 3; 3000000; 
512; 16; 120; 1654; 3; 3000000; 
512; 16; 125; 1474; 3; 3000000; 
512; 16; 130; 1726; 3; 3000000; 
512; 16; 135; 1726; 3; 3000000; 
512; 16; 140; 1806; 3; 3000000; 
512; 16; 145; 1637; 3; 3000000; 
512; 16; 150; 1897; 3; 3000000; 
512; 16; 155; 1271; 3; 2000000; 
512; 16; 160; 1162; 3; 2000000; 
512; 16; 165; 1591; 3; 2000000; 
512; 16; 170; 1590; 3; 2000000; 
512; 16; 175; 1269; 3; 2000000; 
512; 16; 180; 1353; 3; 2000000; 
512; 16; 185; 1608; 3; 2000000; 
512; 16; 190; 1736; 3; 2000000; 
512; 16; 195; 1406; 3; 2000000; 
512; 16; 200; 1758; 3; 2000000; 
512; 16; 5; 1574; 4; 10000000; 
512; 16; 10; 1653; 4; 10000000; 
512; 16; 15; 1807; 4; 10000000; 
512; 16; 20; 2030; 4; 10000000; 
512; 16; 25; 2092; 4; 10000000; 
512; 16; 30; 1158; 4; 5000000; 
512; 16; 35; 1295; 4; 5000000; 
512; 16; 40; 1412; 4; 5000000; 
512; 16; 45; 1373; 4; 5000000; 
512; 16; 50; 1398; 4; 5000000; 
512; 16; 55; 1282; 4; 5000000; 
512; 16; 60; 1792; 4; 5000000; 
512; 16; 65; 1727; 4; 5000000; 
512; 16; 70; 1844; 4; 5000000; 
512; 16; 75; 1921; 4; 5000000; 
512; 16; 80; 1990; 4; 5000000; 
512; 16; 85; 2159; 4; 5000000; 
512; 16; 90; 2478; 4; 5000000; 
512; 16; 95; 2476; 4; 5000000; 
512; 16; 100; 2275; 4; 5000000; 
512; 16; 105; 1484; 4; 3000000; 
512; 16; 110; 1679; 4; 3000000; 
512; 16; 115; 1567; 4; 3000000; 
512; 16; 120; 1497; 4; 3000000; 
512; 16; 125; 1419; 4; 3000000; 
512; 16; 130; 1469; 4; 3000000; 
512; 16; 135; 1906; 4; 3000000; 
512; 16; 140; 1685; 4; 3000000; 
512; 16; 145; 2000; 4; 3000000; 
512; 16; 150; 2158; 4; 3000000; 
512; 16; 155; 1034; 4; 2000000; 
512; 16; 160; 1406; 4; 2000000; 
512; 16; 165; 1451; 4; 2000000; 
512; 16; 170; 1344; 4; 2000000; 
512; 16; 175; 1438; 4; 2000000; 
512; 16; 180; 1310; 4; 2000000; 
512; 16; 185; 1364; 4; 2000000; 
512; 16; 190; 1729; 4; 2000000; 
512; 16; 195; 1678; 4; 2000000; 
512; 16; 200; 1496; 4; 2000000; 
512; 16; 5; 1719; 5; 10000000; 
512; 16; 10; 1592; 5; 10000000; 
512; 16; 15; 1717; 5; 10000000; 
512; 16; 20; 1890; 5; 10000000; 
512; 16; 25; 1876; 5; 10000000; 
512; 16; 30; 1041; 5; 5000000; 
512; 16; 35; 1350; 5; 5000000; 
512; 16; 40; 1093; 5; 5000000; 
512; 16; 45; 1595; 5; 5000000; 
512; 16; 50; 1546; 5; 5000000; 
512; 16; 55; 1527; 5; 5000000; 
512; 16; 60; 1558; 5; 5000000; 
512; 16; 65; 1593; 5; 5000000; 
512; 16; 70; 2001; 5; 5000000; 
512; 16; 75; 1927; 5; 5000000; 
512; 16; 80; 2188; 5; 5000000; 
512; 16; 85; 2034; 5; 5000000; 
512; 16; 90; 2060; 5; 5000000; 
512; 16; 95; 2389; 5; 5000000; 
512; 16; 100; 2143; 5; 5000000; 
512; 16; 105; 1471; 5; 3000000; 
512; 16; 110; 1470; 5; 3000000; 
512; 16; 115; 1441; 5; 3000000; 
512; 16; 120; 1544; 5; 3000000; 
512; 16; 125; 1634; 5; 3000000; 
512; 16; 130; 1856; 5; 3000000; 
512; 16; 135; 1777; 5; 3000000; 
512; 16; 140; 1484; 5; 3000000; 
512; 16; 145; 1808; 5; 3000000; 
512; 16; 150; 1820; 5; 3000000; 
512; 16; 155; 1276; 5; 2000000; 
512; 16; 160; 1171; 5; 2000000; 
512; 16; 165; 1392; 5; 2000000; 
512; 16; 170; 1515; 5; 2000000; 
512; 16; 175; 1313; 5; 2000000; 
512; 16; 180; 1322; 5; 2000000; 
512; 16; 185; 1504; 5; 2000000; 
512; 16; 190; 1482; 5; 2000000; 
512; 16; 195; 1619; 5; 2000000; 
512; 16; 200; 1599; 5; 2000000; 
512; 16; 5; 1667; 6; 10000000; 
512; 16; 10; 1942; 6; 10000000; 
512; 16; 15; 1842; 6; 10000000; 
512; 16; 20; 2052; 6; 10000000; 
512; 16; 25; 2161; 6; 10000000; 
512; 16; 30; 1260; 6; 5000000; 
512; 16; 35; 1391; 6; 5000000; 
512; 16; 40; 1343; 6; 5000000; 
512; 16; 45; 1408; 6; 5000000; 
512; 16; 50; 1672; 6; 5000000; 
512; 16; 55; 1511; 6; 5000000; 
512; 16; 60; 1880; 6; 5000000; 
512; 16; 65; 1931; 6; 5000000; 
512; 16; 70; 1656; 6; 5000000; 
512; 16; 75; 1706; 6; 5000000; 
512; 16; 80; 1856; 6; 5000000; 
512; 16; 85; 2168; 6; 5000000; 
512; 16; 90; 2169; 6; 5000000; 
512; 16; 95; 2442; 6; 5000000; 
512; 16; 100; 2161; 6; 5000000; 
512; 16; 105; 1606; 6; 3000000; 
512; 16; 110; 1755; 6; 3000000; 
512; 16; 115; 1629; 6; 3000000; 
512; 16; 120; 1613; 6; 3000000; 
512; 16; 125; 1555; 6; 3000000; 
512; 16; 130; 1638; 6; 3000000; 
512; 16; 135; 1654; 6; 3000000; 
512; 16; 140; 1603; 6; 3000000; 
512; 16; 145; 2020; 6; 3000000; 
512; 16; 150; 1760; 6; 3000000; 
512; 16; 155; 1066; 6; 2000000; 
512; 16; 160; 1220; 6; 2000000; 
512; 16; 165; 1347; 6; 2000000; 
512; 16; 170; 1472; 6; 2000000; 
512; 16; 175; 1656; 6; 2000000; 
512; 16; 180; 1411; 6; 2000000; 
512; 16; 185; 1579; 6; 2000000; 
512; 16; 190; 1551; 6; 2000000; 
512; 16; 195; 1389; 6; 2000000; 
512; 16; 200; 1856; 6; 2000000; 
