textSize; alphaSize; querySize; time; expCount; iterations;  
8192; 16; 5; 2487; 0; 10000000;  
8192; 16; 5; 2194; 1; 10000000;  
8192; 16; 5; 2348; 2; 10000000;  
8192; 16; 5; 2078; 3; 10000000;  
8192; 16; 5; 2192; 4; 10000000;  
8192; 16; 5; 1992; 5; 10000000;  
8192; 16; 5; 1908; 6; 10000000;  
8192; 16; 10; 2649; 0; 10000000;  
8192; 16; 10; 2611; 1; 10000000;  
8192; 16; 10; 2043; 2; 10000000;  
8192; 16; 10; 2143; 3; 10000000;  
8192; 16; 10; 2225; 4; 10000000;  
8192; 16; 10; 2250; 5; 10000000;  
8192; 16; 10; 2206; 6; 10000000;  
8192; 16; 15; 1848; 0; 10000000;  
8192; 16; 15; 2274; 1; 10000000;  
8192; 16; 15; 2641; 2; 10000000;  
8192; 16; 15; 2554; 3; 10000000;  
8192; 16; 15; 2580; 4; 10000000;  
8192; 16; 15; 2270; 5; 10000000;  
8192; 16; 15; 2605; 6; 10000000;  
8192; 16; 20; 2550; 0; 10000000;  
8192; 16; 20; 2602; 1; 10000000;  
8192; 16; 20; 2326; 2; 10000000;  
8192; 16; 20; 2266; 3; 10000000;  
8192; 16; 20; 2784; 4; 10000000;  
8192; 16; 20; 2458; 5; 10000000;  
8192; 16; 20; 2479; 6; 10000000;  
8192; 16; 25; 2431; 0; 10000000;  
8192; 16; 25; 2895; 1; 10000000;  
8192; 16; 25; 2861; 2; 10000000;  
8192; 16; 25; 2628; 3; 10000000;  
8192; 16; 25; 2610; 4; 10000000;  
8192; 16; 25; 2759; 5; 10000000;  
8192; 16; 25; 2628; 6; 10000000;  
8192; 16; 30; 1283; 0; 5000000;  
8192; 16; 30; 1361; 1; 5000000;  
8192; 16; 30; 1284; 2; 5000000;  
8192; 16; 30; 1454; 3; 5000000;  
8192; 16; 30; 1502; 4; 5000000;  
8192; 16; 30; 1456; 5; 5000000;  
8192; 16; 30; 1393; 6; 5000000;  
8192; 16; 35; 1262; 0; 5000000;  
8192; 16; 35; 1422; 1; 5000000;  
8192; 16; 35; 1517; 2; 5000000;  
8192; 16; 35; 1315; 3; 5000000;  
8192; 16; 35; 1316; 4; 5000000;  
8192; 16; 35; 1360; 5; 5000000;  
8192; 16; 35; 1516; 6; 5000000;  
8192; 16; 40; 1418; 0; 5000000;  
8192; 16; 40; 1250; 1; 5000000;  
8192; 16; 40; 1411; 2; 5000000;  
8192; 16; 40; 1515; 3; 5000000;  
8192; 16; 40; 1604; 4; 5000000;  
8192; 16; 40; 1519; 5; 5000000;  
8192; 16; 40; 1576; 6; 5000000;  
8192; 16; 45; 1646; 0; 5000000;  
8192; 16; 45; 1823; 1; 5000000;  
8192; 16; 45; 1924; 2; 5000000;  
8192; 16; 45; 1671; 3; 5000000;  
8192; 16; 45; 1784; 4; 5000000;  
8192; 16; 45; 1750; 5; 5000000;  
8192; 16; 45; 1530; 6; 5000000;  
8192; 16; 50; 1587; 0; 5000000;  
8192; 16; 50; 1761; 1; 5000000;  
8192; 16; 50; 1700; 2; 5000000;  
8192; 16; 50; 1849; 3; 5000000;  
8192; 16; 50; 1605; 4; 5000000;  
8192; 16; 50; 1894; 5; 5000000;  
8192; 16; 50; 2167; 6; 5000000;  
8192; 16; 55; 1887; 0; 5000000;  
8192; 16; 55; 2253; 1; 5000000;  
8192; 16; 55; 2135; 2; 5000000;  
8192; 16; 55; 1892; 3; 5000000;  
8192; 16; 55; 1779; 4; 5000000;  
8192; 16; 55; 1859; 5; 5000000;  
8192; 16; 55; 1811; 6; 5000000;  
8192; 16; 60; 1604; 0; 5000000;  
8192; 16; 60; 1753; 1; 5000000;  
8192; 16; 60; 1984; 2; 5000000;  
8192; 16; 60; 2045; 3; 5000000;  
8192; 16; 60; 2056; 4; 5000000;  
8192; 16; 60; 2007; 5; 5000000;  
8192; 16; 60; 1853; 6; 5000000;  
8192; 16; 65; 1958; 0; 5000000;  
8192; 16; 65; 1909; 1; 5000000;  
8192; 16; 65; 1764; 2; 5000000;  
8192; 16; 65; 2138; 3; 5000000;  
8192; 16; 65; 2095; 4; 5000000;  
8192; 16; 65; 1990; 5; 5000000;  
8192; 16; 65; 2047; 6; 5000000;  
8192; 16; 70; 2194; 0; 5000000;  
8192; 16; 70; 2341; 1; 5000000;  
8192; 16; 70; 2173; 2; 5000000;  
8192; 16; 70; 2299; 3; 5000000;  
8192; 16; 70; 2238; 4; 5000000;  
8192; 16; 70; 1694; 5; 5000000;  
8192; 16; 70; 2217; 6; 5000000;  
8192; 16; 75; 1858; 0; 5000000;  
8192; 16; 75; 2251; 1; 5000000;  
8192; 16; 75; 2232; 2; 5000000;  
8192; 16; 75; 2296; 3; 5000000;  
8192; 16; 75; 2047; 4; 5000000;  
8192; 16; 75; 2181; 5; 5000000;  
8192; 16; 75; 1941; 6; 5000000;  
8192; 16; 80; 2363; 0; 5000000;  
8192; 16; 80; 2336; 1; 5000000;  
8192; 16; 80; 2045; 2; 5000000;  
8192; 16; 80; 2153; 3; 5000000;  
8192; 16; 80; 2422; 4; 5000000;  
8192; 16; 80; 2289; 5; 5000000;  
8192; 16; 80; 2515; 6; 5000000;  
8192; 16; 85; 2512; 0; 5000000;  
8192; 16; 85; 2285; 1; 5000000;  
8192; 16; 85; 1950; 2; 5000000;  
8192; 16; 85; 2436; 3; 5000000;  
8192; 16; 85; 2230; 4; 5000000;  
8192; 16; 85; 2151; 5; 5000000;  
8192; 16; 85; 2105; 6; 5000000;  
8192; 16; 90; 2595; 0; 5000000;  
8192; 16; 90; 2447; 1; 5000000;  
8192; 16; 90; 2931; 2; 5000000;  
8192; 16; 90; 2702; 3; 5000000;  
8192; 16; 90; 2344; 4; 5000000;  
8192; 16; 90; 2287; 5; 5000000;  
8192; 16; 90; 2330; 6; 5000000;  
8192; 16; 95; 2450; 0; 5000000;  
8192; 16; 95; 2279; 1; 5000000;  
8192; 16; 95; 2626; 2; 5000000;  
8192; 16; 95; 2302; 3; 5000000;  
8192; 16; 95; 2275; 4; 5000000;  
8192; 16; 95; 2565; 5; 5000000;  
8192; 16; 95; 2459; 6; 5000000;  
8192; 16; 100; 2526; 0; 5000000;  
8192; 16; 100; 2686; 1; 5000000;  
8192; 16; 100; 2696; 2; 5000000;  
8192; 16; 100; 2811; 3; 5000000;  
8192; 16; 100; 2503; 4; 5000000;  
8192; 16; 100; 2402; 5; 5000000;  
8192; 16; 100; 2547; 6; 5000000;  
8192; 16; 105; 1624; 0; 3000000;  
8192; 16; 105; 1696; 1; 3000000;  
8192; 16; 105; 1857; 2; 3000000;  
8192; 16; 105; 1727; 3; 3000000;  
8192; 16; 105; 1546; 4; 3000000;  
8192; 16; 105; 1674; 5; 3000000;  
8192; 16; 105; 1625; 6; 3000000;  
8192; 16; 110; 1867; 0; 3000000;  
8192; 16; 110; 1974; 1; 3000000;  
8192; 16; 110; 1643; 2; 3000000;  
8192; 16; 110; 1748; 3; 3000000;  
8192; 16; 110; 1710; 4; 3000000;  
8192; 16; 110; 1444; 5; 3000000;  
8192; 16; 110; 1683; 6; 3000000;  
8192; 16; 115; 1583; 0; 3000000;  
8192; 16; 115; 1687; 1; 3000000;  
8192; 16; 115; 1751; 2; 3000000;  
8192; 16; 115; 1923; 3; 3000000;  
8192; 16; 115; 2025; 4; 3000000;  
8192; 16; 115; 1669; 5; 3000000;  
8192; 16; 115; 1982; 6; 3000000;  
8192; 16; 120; 1876; 0; 3000000;  
8192; 16; 120; 1810; 1; 3000000;  
8192; 16; 120; 2033; 2; 3000000;  
8192; 16; 120; 1579; 3; 3000000;  
8192; 16; 120; 1937; 4; 3000000;  
8192; 16; 120; 1840; 5; 3000000;  
8192; 16; 120; 1821; 6; 3000000;  
8192; 16; 125; 1947; 0; 3000000;  
8192; 16; 125; 1664; 1; 3000000;  
8192; 16; 125; 1811; 2; 3000000;  
8192; 16; 125; 2012; 3; 3000000;  
8192; 16; 125; 1733; 4; 3000000;  
8192; 16; 125; 1796; 5; 3000000;  
8192; 16; 125; 1747; 6; 3000000;  
8192; 16; 130; 1907; 0; 3000000;  
8192; 16; 130; 2033; 1; 3000000;  
8192; 16; 130; 1802; 2; 3000000;  
8192; 16; 130; 2081; 3; 3000000;  
8192; 16; 130; 1811; 4; 3000000;  
8192; 16; 130; 1783; 5; 3000000;  
8192; 16; 130; 2045; 6; 3000000;  
8192; 16; 135; 1859; 0; 3000000;  
8192; 16; 135; 1830; 1; 3000000;  
8192; 16; 135; 1910; 2; 3000000;  
8192; 16; 135; 1965; 3; 3000000;  
8192; 16; 135; 1784; 4; 3000000;  
8192; 16; 135; 2161; 5; 3000000;  
8192; 16; 135; 1782; 6; 3000000;  
8192; 16; 140; 2095; 0; 3000000;  
8192; 16; 140; 1920; 1; 3000000;  
8192; 16; 140; 1827; 2; 3000000;  
8192; 16; 140; 1861; 3; 3000000;  
8192; 16; 140; 1985; 4; 3000000;  
8192; 16; 140; 2081; 5; 3000000;  
8192; 16; 140; 2055; 6; 3000000;  
8192; 16; 145; 2093; 0; 3000000;  
8192; 16; 145; 1973; 1; 3000000;  
8192; 16; 145; 1936; 2; 3000000;  
8192; 16; 145; 1864; 3; 3000000;  
8192; 16; 145; 2183; 4; 3000000;  
8192; 16; 145; 2216; 5; 3000000;  
8192; 16; 145; 2049; 6; 3000000;  
8192; 16; 150; 2236; 0; 3000000;  
8192; 16; 150; 1857; 1; 3000000;  
8192; 16; 150; 1751; 2; 3000000;  
8192; 16; 150; 2030; 3; 3000000;  
8192; 16; 150; 2059; 4; 3000000;  
8192; 16; 150; 2044; 5; 3000000;  
8192; 16; 150; 2075; 6; 3000000;  
8192; 16; 155; 1236; 0; 2000000;  
8192; 16; 155; 1340; 1; 2000000;  
8192; 16; 155; 1228; 2; 2000000;  
8192; 16; 155; 1342; 3; 2000000;  
8192; 16; 155; 1545; 4; 2000000;  
8192; 16; 155; 1456; 5; 2000000;  
8192; 16; 155; 1500; 6; 2000000;  
8192; 16; 160; 1454; 0; 2000000;  
8192; 16; 160; 1476; 1; 2000000;  
8192; 16; 160; 1131; 2; 2000000;  
8192; 16; 160; 1094; 3; 2000000;  
8192; 16; 160; 1532; 4; 2000000;  
8192; 16; 160; 1443; 5; 2000000;  
8192; 16; 160; 1443; 6; 2000000;  
8192; 16; 165; 1354; 0; 2000000;  
8192; 16; 165; 1547; 1; 2000000;  
8192; 16; 165; 1638; 2; 2000000;  
8192; 16; 165; 1311; 3; 2000000;  
8192; 16; 165; 1319; 4; 2000000;  
8192; 16; 165; 1382; 5; 2000000;  
8192; 16; 165; 1177; 6; 2000000;  
8192; 16; 170; 1359; 0; 2000000;  
8192; 16; 170; 1614; 1; 2000000;  
8192; 16; 170; 1787; 2; 2000000;  
8192; 16; 170; 1392; 3; 2000000;  
8192; 16; 170; 1456; 4; 2000000;  
8192; 16; 170; 1298; 5; 2000000;  
8192; 16; 170; 1487; 6; 2000000;  
8192; 16; 175; 1580; 0; 2000000;  
8192; 16; 175; 1477; 1; 2000000;  
8192; 16; 175; 1678; 2; 2000000;  
8192; 16; 175; 1511; 3; 2000000;  
8192; 16; 175; 1686; 4; 2000000;  
8192; 16; 175; 1485; 5; 2000000;  
8192; 16; 175; 1519; 6; 2000000;  
8192; 16; 180; 1437; 0; 2000000;  
8192; 16; 180; 1373; 1; 2000000;  
8192; 16; 180; 1626; 2; 2000000;  
8192; 16; 180; 1664; 3; 2000000;  
8192; 16; 180; 1484; 4; 2000000;  
8192; 16; 180; 1423; 5; 2000000;  
8192; 16; 180; 1471; 6; 2000000;  
8192; 16; 185; 1503; 0; 2000000;  
8192; 16; 185; 1809; 1; 2000000;  
8192; 16; 185; 1387; 2; 2000000;  
8192; 16; 185; 1468; 3; 2000000;  
8192; 16; 185; 1642; 4; 2000000;  
8192; 16; 185; 1614; 5; 2000000;  
8192; 16; 185; 1697; 6; 2000000;  
8192; 16; 190; 1632; 0; 2000000;  
8192; 16; 190; 1429; 1; 2000000;  
8192; 16; 190; 1490; 2; 2000000;  
8192; 16; 190; 1619; 3; 2000000;  
8192; 16; 190; 1970; 4; 2000000;  
8192; 16; 190; 1890; 5; 2000000;  
8192; 16; 190; 1496; 6; 2000000;  
8192; 16; 195; 1525; 0; 2000000;  
8192; 16; 195; 1738; 1; 2000000;  
8192; 16; 195; 1720; 2; 2000000;  
8192; 16; 195; 1860; 3; 2000000;  
8192; 16; 195; 1390; 4; 2000000;  
8192; 16; 195; 1851; 5; 2000000;  
8192; 16; 195; 1615; 6; 2000000;  
8192; 16; 200; 1692; 0; 2000000;  
8192; 16; 200; 1686; 1; 2000000;  
8192; 16; 200; 1608; 2; 2000000;  
8192; 16; 200; 1522; 3; 2000000;  
8192; 16; 200; 1496; 4; 2000000;  
8192; 16; 200; 1653; 5; 2000000;  
8192; 16; 200; 1763; 6; 2000000;  
