textSize; alphaSize; querySize; time; expCount; iterations;   
1048576; 16; 5; 4100; 2; 10000000;   
1048576; 16; 5; 4362; 3; 10000000;   
1048576; 16; 5; 4546; 4; 10000000;   
1048576; 16; 5; 3942; 5; 10000000;   
1048576; 16; 5; 4714; 6; 10000000;   
1048576; 16; 10; 4200; 2; 10000000;   
1048576; 16; 10; 4098; 3; 10000000;   
1048576; 16; 10; 4039; 4; 10000000;   
1048576; 16; 10; 4795; 5; 10000000;   
1048576; 16; 10; 3810; 6; 10000000;   
1048576; 16; 15; 4425; 2; 10000000;   
1048576; 16; 15; 4418; 3; 10000000;   
1048576; 16; 15; 5237; 4; 10000000;   
1048576; 16; 15; 4077; 5; 10000000;   
1048576; 16; 15; 4196; 6; 10000000;   
1048576; 16; 20; 4915; 2; 10000000;   
1048576; 16; 20; 4473; 3; 10000000;   
1048576; 16; 20; 4858; 4; 10000000;   
1048576; 16; 20; 4151; 5; 10000000;   
1048576; 16; 20; 4156; 6; 10000000;   
1048576; 16; 25; 5030; 2; 10000000;   
1048576; 16; 25; 4681; 3; 10000000;   
1048576; 16; 25; 4433; 4; 10000000;   
1048576; 16; 25; 5526; 5; 10000000;   
1048576; 16; 25; 4355; 6; 10000000;   
1048576; 16; 30; 2342; 2; 5000000;   
1048576; 16; 30; 2654; 3; 5000000;   
1048576; 16; 30; 2794; 4; 5000000;   
1048576; 16; 30; 2001; 5; 5000000;   
1048576; 16; 30; 2470; 6; 5000000;   
1048576; 16; 35; 2362; 2; 5000000;   
1048576; 16; 35; 2537; 3; 5000000;   
1048576; 16; 35; 2685; 4; 5000000;   
1048576; 16; 35; 2558; 5; 5000000;   
1048576; 16; 35; 2697; 6; 5000000;   
1048576; 16; 40; 2929; 2; 5000000;   
1048576; 16; 40; 2460; 3; 5000000;   
1048576; 16; 40; 2773; 4; 5000000;   
1048576; 16; 40; 2905; 5; 5000000;   
1048576; 16; 40; 2543; 6; 5000000;   
1048576; 16; 45; 2091; 2; 5000000;   
1048576; 16; 45; 2540; 3; 5000000;   
1048576; 16; 45; 2659; 4; 5000000;   
1048576; 16; 45; 2907; 5; 5000000;   
1048576; 16; 45; 2945; 6; 5000000;   
1048576; 16; 50; 2750; 2; 5000000;   
1048576; 16; 50; 3167; 3; 5000000;   
1048576; 16; 50; 2735; 4; 5000000;   
1048576; 16; 50; 2918; 5; 5000000;   
1048576; 16; 50; 2929; 6; 5000000;   
1048576; 16; 55; 3025; 2; 5000000;   
1048576; 16; 55; 3022; 3; 5000000;   
1048576; 16; 55; 3030; 4; 5000000;   
1048576; 16; 55; 2808; 5; 5000000;   
1048576; 16; 55; 2750; 6; 5000000;   
1048576; 16; 60; 2950; 2; 5000000;   
1048576; 16; 60; 3127; 3; 5000000;   
1048576; 16; 60; 3011; 4; 5000000;   
1048576; 16; 60; 2810; 5; 5000000;   
1048576; 16; 60; 3621; 6; 5000000;   
1048576; 16; 65; 2631; 2; 5000000;   
1048576; 16; 65; 3323; 3; 5000000;   
1048576; 16; 65; 3421; 4; 5000000;   
1048576; 16; 65; 2958; 5; 5000000;   
1048576; 16; 65; 3060; 6; 5000000;   
1048576; 16; 70; 3206; 2; 5000000;   
1048576; 16; 70; 3241; 3; 5000000;   
1048576; 16; 70; 3243; 4; 5000000;   
1048576; 16; 70; 3633; 5; 5000000;   
1048576; 16; 70; 3254; 6; 5000000;   
1048576; 16; 75; 2990; 2; 5000000;   
1048576; 16; 75; 3314; 3; 5000000;   
1048576; 16; 75; 3227; 4; 5000000;   
1048576; 16; 75; 3513; 5; 5000000;   
1048576; 16; 75; 3443; 6; 5000000;   
1048576; 16; 80; 3544; 2; 5000000;   
1048576; 16; 80; 3320; 3; 5000000;   
1048576; 16; 80; 3081; 4; 5000000;   
1048576; 16; 80; 3254; 5; 5000000;   
1048576; 16; 80; 3584; 6; 5000000;   
1048576; 16; 85; 3781; 2; 5000000;   
1048576; 16; 85; 3250; 3; 5000000;   
1048576; 16; 85; 3483; 4; 5000000;   
1048576; 16; 85; 3661; 5; 5000000;   
1048576; 16; 85; 3951; 6; 5000000;   
1048576; 16; 90; 3838; 2; 5000000;   
1048576; 16; 90; 3887; 3; 5000000;   
1048576; 16; 90; 3660; 4; 5000000;   
1048576; 16; 90; 3955; 5; 5000000;   
1048576; 16; 90; 3678; 6; 5000000;   
1048576; 16; 95; 3703; 2; 5000000;   
1048576; 16; 95; 3574; 3; 5000000;   
1048576; 16; 95; 3337; 4; 5000000;   
1048576; 16; 95; 3474; 5; 5000000;   
1048576; 16; 95; 3675; 6; 5000000;   
1048576; 16; 100; 4300; 2; 5000000;   
1048576; 16; 100; 3757; 3; 5000000;   
1048576; 16; 100; 3710; 4; 5000000;   
1048576; 16; 100; 3712; 5; 5000000;   
1048576; 16; 100; 3973; 6; 5000000;   
1048576; 16; 105; 2515; 2; 3000000;   
1048576; 16; 105; 2564; 3; 3000000;   
1048576; 16; 105; 2604; 4; 3000000;   
1048576; 16; 105; 2266; 5; 3000000;   
1048576; 16; 105; 2554; 6; 3000000;   
1048576; 16; 110; 2404; 2; 3000000;   
1048576; 16; 110; 2735; 3; 3000000;   
1048576; 16; 110; 2280; 4; 3000000;   
1048576; 16; 110; 2429; 5; 3000000;   
1048576; 16; 110; 2587; 6; 3000000;   
1048576; 16; 115; 2280; 2; 3000000;   
1048576; 16; 115; 3157; 3; 3000000;   
1048576; 16; 115; 2651; 4; 3000000;   
1048576; 16; 115; 2529; 5; 3000000;   
1048576; 16; 115; 2465; 6; 3000000;   
1048576; 16; 120; 2874; 2; 3000000;   
1048576; 16; 120; 2351; 3; 3000000;   
1048576; 16; 120; 2721; 4; 3000000;   
1048576; 16; 120; 2398; 5; 3000000;   
1048576; 16; 120; 2759; 6; 3000000;   
1048576; 16; 125; 2745; 2; 3000000;   
1048576; 16; 125; 2949; 3; 3000000;   
1048576; 16; 125; 2330; 4; 3000000;   
1048576; 16; 125; 2556; 5; 3000000;   
1048576; 16; 125; 3129; 6; 3000000;   
1048576; 16; 130; 2766; 2; 3000000;   
1048576; 16; 130; 3036; 3; 3000000;   
1048576; 16; 130; 2740; 4; 3000000;   
1048576; 16; 130; 3004; 5; 3000000;   
1048576; 16; 130; 2879; 6; 3000000;   
1048576; 16; 135; 2506; 2; 3000000;   
1048576; 16; 135; 2296; 3; 3000000;   
1048576; 16; 135; 2546; 4; 3000000;   
1048576; 16; 135; 2453; 5; 3000000;   
1048576; 16; 135; 2315; 6; 3000000;   
1048576; 16; 140; 2999; 2; 3000000;   
1048576; 16; 140; 2823; 3; 3000000;   
1048576; 16; 140; 2475; 4; 3000000;   
1048576; 16; 140; 2658; 5; 3000000;   
1048576; 16; 140; 2820; 6; 3000000;   
1048576; 16; 145; 2583; 2; 3000000;   
1048576; 16; 145; 2769; 3; 3000000;   
1048576; 16; 145; 2877; 4; 3000000;   
1048576; 16; 145; 2771; 5; 3000000;   
1048576; 16; 145; 2949; 6; 3000000;   
1048576; 16; 150; 2669; 2; 3000000;   
1048576; 16; 150; 2848; 3; 3000000;   
1048576; 16; 150; 2690; 4; 3000000;   
1048576; 16; 150; 2610; 5; 3000000;   
1048576; 16; 150; 2858; 6; 3000000;   
1048576; 16; 155; 1883; 2; 2000000;   
1048576; 16; 155; 1765; 3; 2000000;   
1048576; 16; 155; 2017; 4; 2000000;   
1048576; 16; 155; 1808; 5; 2000000;   
1048576; 16; 155; 1701; 6; 2000000;   
1048576; 16; 160; 1965; 2; 2000000;   
1048576; 16; 160; 1763; 3; 2000000;   
1048576; 16; 160; 1844; 4; 2000000;   
1048576; 16; 160; 1976; 5; 2000000;   
1048576; 16; 160; 1664; 6; 2000000;   
1048576; 16; 165; 1915; 2; 2000000;   
1048576; 16; 165; 1943; 3; 2000000;   
1048576; 16; 165; 2067; 4; 2000000;   
1048576; 16; 165; 1907; 5; 2000000;   
1048576; 16; 165; 2018; 6; 2000000;   
1048576; 16; 170; 2086; 2; 2000000;   
1048576; 16; 170; 2321; 3; 2000000;   
1048576; 16; 170; 1965; 4; 2000000;   
1048576; 16; 170; 1952; 5; 2000000;   
1048576; 16; 170; 2219; 6; 2000000;   
1048576; 16; 175; 2301; 2; 2000000;   
1048576; 16; 175; 1934; 3; 2000000;   
1048576; 16; 175; 2055; 4; 2000000;   
1048576; 16; 175; 1937; 5; 2000000;   
1048576; 16; 175; 2436; 6; 2000000;   
1048576; 16; 180; 2156; 2; 2000000;   
1048576; 16; 180; 1857; 3; 2000000;   
1048576; 16; 180; 2733; 4; 2000000;   
1048576; 16; 180; 2137; 5; 2000000;   
1048576; 16; 180; 1900; 6; 2000000;   
1048576; 16; 185; 1911; 2; 2000000;   
1048576; 16; 185; 2185; 3; 2000000;   
1048576; 16; 185; 2042; 4; 2000000;   
1048576; 16; 185; 2130; 5; 2000000;   
1048576; 16; 185; 1981; 6; 2000000;   
1048576; 16; 190; 2245; 2; 2000000;   
1048576; 16; 190; 2343; 3; 2000000;   
1048576; 16; 190; 1735; 4; 2000000;   
1048576; 16; 190; 2198; 5; 2000000;   
1048576; 16; 190; 2185; 6; 2000000;   
1048576; 16; 195; 2036; 2; 2000000;   
1048576; 16; 195; 1892; 3; 2000000;   
1048576; 16; 195; 2586; 4; 2000000;   
1048576; 16; 195; 2078; 5; 2000000;   
1048576; 16; 195; 2341; 6; 2000000;   
1048576; 16; 200; 2479; 2; 2000000;   
1048576; 16; 200; 1945; 3; 2000000;   
1048576; 16; 200; 2094; 4; 2000000;   
1048576; 16; 200; 2094; 5; 2000000;   
1048576; 16; 200; 2228; 6; 2000000;   
