textSize; alphaSize; querySize; time; expCount; iterations; 
4096; 16; 5; 2115; 0; 10000000; 
4096; 16; 10; 2042; 0; 10000000; 
4096; 16; 15; 1734; 0; 10000000; 
4096; 16; 20; 2323; 0; 10000000; 
4096; 16; 25; 2379; 0; 10000000; 
4096; 16; 30; 1142; 0; 5000000; 
4096; 16; 35; 1482; 0; 5000000; 
4096; 16; 40; 1590; 0; 5000000; 
4096; 16; 45; 1698; 0; 5000000; 
4096; 16; 50; 1583; 0; 5000000; 
4096; 16; 55; 1992; 0; 5000000; 
4096; 16; 60; 1584; 0; 5000000; 
4096; 16; 65; 1796; 0; 5000000; 
4096; 16; 70; 1774; 0; 5000000; 
4096; 16; 75; 2366; 0; 5000000; 
4096; 16; 80; 2090; 0; 5000000; 
4096; 16; 85; 2236; 0; 5000000; 
4096; 16; 90; 2590; 0; 5000000; 
4096; 16; 95; 2924; 0; 5000000; 
4096; 16; 100; 2492; 0; 5000000; 
4096; 16; 105; 1452; 0; 3000000; 
4096; 16; 110; 1687; 0; 3000000; 
4096; 16; 115; 1737; 0; 3000000; 
4096; 16; 120; 1547; 0; 3000000; 
4096; 16; 125; 1381; 0; 3000000; 
4096; 16; 130; 1961; 0; 3000000; 
4096; 16; 135; 1702; 0; 3000000; 
4096; 16; 140; 1810; 0; 3000000; 
4096; 16; 145; 2007; 0; 3000000; 
4096; 16; 150; 1656; 0; 3000000; 
4096; 16; 155; 1362; 0; 2000000; 
4096; 16; 160; 1394; 0; 2000000; 
4096; 16; 165; 1596; 0; 2000000; 
4096; 16; 170; 1231; 0; 2000000; 
4096; 16; 175; 1640; 0; 2000000; 
4096; 16; 180; 1597; 0; 2000000; 
4096; 16; 185; 1581; 0; 2000000; 
4096; 16; 190; 1595; 0; 2000000; 
4096; 16; 195; 1940; 0; 2000000; 
4096; 16; 200; 1711; 0; 2000000; 
4096; 16; 5; 1994; 1; 10000000; 
4096; 16; 10; 2341; 1; 10000000; 
4096; 16; 15; 2500; 1; 10000000; 
4096; 16; 20; 2573; 1; 10000000; 
4096; 16; 25; 2343; 1; 10000000; 
4096; 16; 30; 1375; 1; 5000000; 
4096; 16; 35; 1284; 1; 5000000; 
4096; 16; 40; 1558; 1; 5000000; 
4096; 16; 45; 1379; 1; 5000000; 
4096; 16; 50; 1623; 1; 5000000; 
4096; 16; 55; 1871; 1; 5000000; 
4096; 16; 60; 1687; 1; 5000000; 
4096; 16; 65; 2191; 1; 5000000; 
4096; 16; 70; 1904; 1; 5000000; 
4096; 16; 75; 2368; 1; 5000000; 
4096; 16; 80; 2180; 1; 5000000; 
4096; 16; 85; 2268; 1; 5000000; 
4096; 16; 90; 2529; 1; 5000000; 
4096; 16; 95; 2864; 1; 5000000; 
4096; 16; 100; 2721; 1; 5000000; 
4096; 16; 105; 1738; 1; 3000000; 
4096; 16; 110; 1870; 1; 3000000; 
4096; 16; 115; 2062; 1; 3000000; 
4096; 16; 120; 2123; 1; 3000000; 
4096; 16; 125; 1551; 1; 3000000; 
4096; 16; 130; 1828; 1; 3000000; 
4096; 16; 135; 1966; 1; 3000000; 
4096; 16; 140; 1728; 1; 3000000; 
4096; 16; 145; 1892; 1; 3000000; 
4096; 16; 150; 2092; 1; 3000000; 
4096; 16; 155; 1363; 1; 2000000; 
4096; 16; 160; 1376; 1; 2000000; 
4096; 16; 165; 1517; 1; 2000000; 
4096; 16; 170; 1248; 1; 2000000; 
4096; 16; 175; 1567; 1; 2000000; 
4096; 16; 180; 1634; 1; 2000000; 
4096; 16; 185; 1404; 1; 2000000; 
4096; 16; 190; 1438; 1; 2000000; 
4096; 16; 195; 1653; 1; 2000000; 
4096; 16; 200; 1766; 1; 2000000; 
4096; 16; 5; 2198; 2; 10000000; 
4096; 16; 10; 1988; 2; 10000000; 
4096; 16; 15; 2422; 2; 10000000; 
4096; 16; 20; 2247; 2; 10000000; 
4096; 16; 25; 2625; 2; 10000000; 
4096; 16; 30; 1356; 2; 5000000; 
4096; 16; 35; 1158; 2; 5000000; 
4096; 16; 40; 1525; 2; 5000000; 
4096; 16; 45; 1583; 2; 5000000; 
4096; 16; 50; 1977; 2; 5000000; 
4096; 16; 55; 1693; 2; 5000000; 
4096; 16; 60; 1761; 2; 5000000; 
4096; 16; 65; 2109; 2; 5000000; 
4096; 16; 70; 1804; 2; 5000000; 
4096; 16; 75; 2317; 2; 5000000; 
4096; 16; 80; 2094; 2; 5000000; 
4096; 16; 85; 2179; 2; 5000000; 
4096; 16; 90; 2339; 2; 5000000; 
4096; 16; 95; 2389; 2; 5000000; 
4096; 16; 100; 2822; 2; 5000000; 
4096; 16; 105; 1446; 2; 3000000; 
4096; 16; 110; 1596; 2; 3000000; 
4096; 16; 115; 1833; 2; 3000000; 
4096; 16; 120; 1786; 2; 3000000; 
4096; 16; 125; 1908; 2; 3000000; 
4096; 16; 130; 1737; 2; 3000000; 
4096; 16; 135; 1904; 2; 3000000; 
4096; 16; 140; 1956; 2; 3000000; 
4096; 16; 145; 1940; 2; 3000000; 
4096; 16; 150; 2124; 2; 3000000; 
4096; 16; 155; 1278; 2; 2000000; 
4096; 16; 160; 1491; 2; 2000000; 
4096; 16; 165; 1555; 2; 2000000; 
4096; 16; 170; 1531; 2; 2000000; 
4096; 16; 175; 1487; 2; 2000000; 
4096; 16; 180; 1769; 2; 2000000; 
4096; 16; 185; 1403; 2; 2000000; 
4096; 16; 190; 1590; 2; 2000000; 
4096; 16; 195; 1735; 2; 2000000; 
4096; 16; 200; 1734; 2; 2000000; 
4096; 16; 5; 1997; 3; 10000000; 
4096; 16; 10; 2183; 3; 10000000; 
4096; 16; 15; 2331; 3; 10000000; 
4096; 16; 20; 2466; 3; 10000000; 
4096; 16; 25; 2891; 3; 10000000; 
4096; 16; 30; 1248; 3; 5000000; 
4096; 16; 35; 1368; 3; 5000000; 
4096; 16; 40; 1483; 3; 5000000; 
4096; 16; 45; 1575; 3; 5000000; 
4096; 16; 50; 1564; 3; 5000000; 
4096; 16; 55; 1758; 3; 5000000; 
4096; 16; 60; 1922; 3; 5000000; 
4096; 16; 65; 1933; 3; 5000000; 
4096; 16; 70; 2231; 3; 5000000; 
4096; 16; 75; 2512; 3; 5000000; 
4096; 16; 80; 2495; 3; 5000000; 
4096; 16; 85; 2375; 3; 5000000; 
4096; 16; 90; 2296; 3; 5000000; 
4096; 16; 95; 2701; 3; 5000000; 
4096; 16; 100; 2443; 3; 5000000; 
4096; 16; 105; 1499; 3; 3000000; 
4096; 16; 110; 1842; 3; 3000000; 
4096; 16; 115; 1825; 3; 3000000; 
4096; 16; 120; 1833; 3; 3000000; 
4096; 16; 125; 1651; 3; 3000000; 
4096; 16; 130; 1613; 3; 3000000; 
4096; 16; 135; 1888; 3; 3000000; 
4096; 16; 140; 1976; 3; 3000000; 
4096; 16; 145; 1925; 3; 3000000; 
4096; 16; 150; 2014; 3; 3000000; 
4096; 16; 155; 1407; 3; 2000000; 
4096; 16; 160; 1610; 3; 2000000; 
4096; 16; 165; 1443; 3; 2000000; 
4096; 16; 170; 1460; 3; 2000000; 
4096; 16; 175; 1593; 3; 2000000; 
4096; 16; 180; 1378; 3; 2000000; 
4096; 16; 185; 1556; 3; 2000000; 
4096; 16; 190; 1623; 3; 2000000; 
4096; 16; 195; 1698; 3; 2000000; 
4096; 16; 200; 1805; 3; 2000000; 
4096; 16; 5; 1624; 4; 10000000; 
4096; 16; 10; 2155; 4; 10000000; 
4096; 16; 15; 2388; 4; 10000000; 
4096; 16; 20; 2382; 4; 10000000; 
4096; 16; 25; 2347; 4; 10000000; 
4096; 16; 30; 1441; 4; 5000000; 
4096; 16; 35; 1362; 4; 5000000; 
4096; 16; 40; 1492; 4; 5000000; 
4096; 16; 45; 1713; 4; 5000000; 
4096; 16; 50; 1705; 4; 5000000; 
4096; 16; 55; 1744; 4; 5000000; 
4096; 16; 60; 1738; 4; 5000000; 
4096; 16; 65; 1933; 4; 5000000; 
4096; 16; 70; 2010; 4; 5000000; 
4096; 16; 75; 2111; 4; 5000000; 
4096; 16; 80; 2072; 4; 5000000; 
4096; 16; 85; 2348; 4; 5000000; 
4096; 16; 90; 2391; 4; 5000000; 
4096; 16; 95; 2583; 4; 5000000; 
4096; 16; 100; 2888; 4; 5000000; 
4096; 16; 105; 1638; 4; 3000000; 
4096; 16; 110; 1778; 4; 3000000; 
4096; 16; 115; 1888; 4; 3000000; 
4096; 16; 120; 1814; 4; 3000000; 
4096; 16; 125; 1845; 4; 3000000; 
4096; 16; 130; 1833; 4; 3000000; 
4096; 16; 135; 2007; 4; 3000000; 
4096; 16; 140; 2057; 4; 3000000; 
4096; 16; 145; 2005; 4; 3000000; 
4096; 16; 150; 1997; 4; 3000000; 
4096; 16; 155; 1449; 4; 2000000; 
4096; 16; 160; 1441; 4; 2000000; 
4096; 16; 165; 1686; 4; 2000000; 
4096; 16; 170; 1590; 4; 2000000; 
4096; 16; 175; 1484; 4; 2000000; 
4096; 16; 180; 1597; 4; 2000000; 
4096; 16; 185; 1686; 4; 2000000; 
4096; 16; 190; 1531; 4; 2000000; 
4096; 16; 195; 1613; 4; 2000000; 
4096; 16; 200; 1512; 4; 2000000; 
4096; 16; 5; 1958; 5; 10000000; 
4096; 16; 10; 1759; 5; 10000000; 
4096; 16; 15; 2164; 5; 10000000; 
4096; 16; 20; 2284; 5; 10000000; 
4096; 16; 25; 2677; 5; 10000000; 
4096; 16; 30; 1400; 5; 5000000; 
4096; 16; 35; 1381; 5; 5000000; 
4096; 16; 40; 1504; 5; 5000000; 
4096; 16; 45; 1412; 5; 5000000; 
4096; 16; 50; 1642; 5; 5000000; 
4096; 16; 55; 1571; 5; 5000000; 
4096; 16; 60; 1591; 5; 5000000; 
4096; 16; 65; 1785; 5; 5000000; 
4096; 16; 70; 1819; 5; 5000000; 
4096; 16; 75; 1933; 5; 5000000; 
4096; 16; 80; 2142; 5; 5000000; 
4096; 16; 85; 2268; 5; 5000000; 
4096; 16; 90; 2175; 5; 5000000; 
4096; 16; 95; 2588; 5; 5000000; 
4096; 16; 100; 2460; 5; 5000000; 
4096; 16; 105; 1716; 5; 3000000; 
4096; 16; 110; 1567; 5; 3000000; 
4096; 16; 115; 1680; 5; 3000000; 
4096; 16; 120; 1817; 5; 3000000; 
4096; 16; 125; 1657; 5; 3000000; 
4096; 16; 130; 1736; 5; 3000000; 
4096; 16; 135; 1878; 5; 3000000; 
4096; 16; 140; 1878; 5; 3000000; 
4096; 16; 145; 1981; 5; 3000000; 
4096; 16; 150; 2060; 5; 3000000; 
4096; 16; 155; 1266; 5; 2000000; 
4096; 16; 160; 1451; 5; 2000000; 
4096; 16; 165; 1594; 5; 2000000; 
4096; 16; 170; 1326; 5; 2000000; 
4096; 16; 175; 1434; 5; 2000000; 
4096; 16; 180; 1735; 5; 2000000; 
4096; 16; 185; 1561; 5; 2000000; 
4096; 16; 190; 1400; 5; 2000000; 
4096; 16; 195; 1671; 5; 2000000; 
4096; 16; 200; 1564; 5; 2000000; 
4096; 16; 5; 1809; 6; 10000000; 
4096; 16; 10; 2164; 6; 10000000; 
4096; 16; 15; 2495; 6; 10000000; 
4096; 16; 20; 2531; 6; 10000000; 
4096; 16; 25; 2200; 6; 10000000; 
4096; 16; 30; 1333; 6; 5000000; 
4096; 16; 35; 1347; 6; 5000000; 
4096; 16; 40; 1130; 6; 5000000; 
4096; 16; 45; 1795; 6; 5000000; 
4096; 16; 50; 1751; 6; 5000000; 
4096; 16; 55; 1919; 6; 5000000; 
4096; 16; 60; 1563; 6; 5000000; 
4096; 16; 65; 1962; 6; 5000000; 
4096; 16; 70; 1875; 6; 5000000; 
4096; 16; 75; 2302; 6; 5000000; 
4096; 16; 80; 2117; 6; 5000000; 
4096; 16; 85; 2285; 6; 5000000; 
4096; 16; 90; 2550; 6; 5000000; 
4096; 16; 95; 2404; 6; 5000000; 
4096; 16; 100; 2919; 6; 5000000; 
4096; 16; 105; 1625; 6; 3000000; 
4096; 16; 110; 1687; 6; 3000000; 
4096; 16; 115; 2062; 6; 3000000; 
4096; 16; 120; 1922; 6; 3000000; 
4096; 16; 125; 2002; 6; 3000000; 
4096; 16; 130; 2014; 6; 3000000; 
4096; 16; 135; 1653; 6; 3000000; 
4096; 16; 140; 1770; 6; 3000000; 
4096; 16; 145; 2030; 6; 3000000; 
4096; 16; 150; 1858; 6; 3000000; 
4096; 16; 155; 1366; 6; 2000000; 
4096; 16; 160; 1320; 6; 2000000; 
4096; 16; 165; 1547; 6; 2000000; 
4096; 16; 170; 1426; 6; 2000000; 
4096; 16; 175; 1330; 6; 2000000; 
4096; 16; 180; 1348; 6; 2000000; 
4096; 16; 185; 1365; 6; 2000000; 
4096; 16; 190; 1512; 6; 2000000; 
4096; 16; 195; 1656; 6; 2000000; 
4096; 16; 200; 1671; 6; 2000000; 
