textSize; alphaSize; querySize; time; expCount; iterations;   
200000; 2; 50; 9235; 2; 20000000;   
200000; 2; 50; 9126; 3; 20000000;   
200000; 2; 50; 9108; 4; 20000000;   
200000; 2; 50; 9096; 5; 20000000;   
200000; 2; 50; 8927; 6; 20000000;   
200000; 4; 50; 8954; 2; 20000000;   
200000; 4; 50; 9124; 3; 20000000;   
200000; 4; 50; 8970; 4; 20000000;   
200000; 4; 50; 9109; 5; 20000000;   
200000; 4; 50; 8983; 6; 20000000;   
200000; 6; 50; 9156; 2; 20000000;   
200000; 6; 50; 9098; 3; 20000000;   
200000; 6; 50; 8828; 4; 20000000;   
200000; 6; 50; 9687; 5; 20000000;   
200000; 6; 50; 9232; 6; 20000000;   
200000; 8; 50; 9001; 2; 20000000;   
200000; 8; 50; 9143; 3; 20000000;   
200000; 8; 50; 9000; 4; 20000000;   
200000; 8; 50; 9019; 5; 20000000;   
200000; 8; 50; 9042; 6; 20000000;   
200000; 10; 50; 9013; 2; 20000000;   
200000; 10; 50; 8810; 3; 20000000;   
200000; 10; 50; 9060; 4; 20000000;   
200000; 10; 50; 8984; 5; 20000000;   
200000; 10; 50; 9170; 6; 20000000;   
200000; 12; 50; 8736; 2; 20000000;   
200000; 12; 50; 8937; 3; 20000000;   
200000; 12; 50; 9029; 4; 20000000;   
200000; 12; 50; 9047; 5; 20000000;   
200000; 12; 50; 9174; 6; 20000000;   
200000; 14; 50; 9049; 2; 20000000;   
200000; 14; 50; 9080; 3; 20000000;   
200000; 14; 50; 9410; 4; 20000000;   
200000; 14; 50; 8890; 5; 20000000;   
200000; 14; 50; 9049; 6; 20000000;   
200000; 16; 50; 8938; 2; 20000000;   
200000; 16; 50; 9093; 3; 20000000;   
200000; 16; 50; 9248; 4; 20000000;   
200000; 16; 50; 9378; 5; 20000000;   
200000; 16; 50; 9095; 6; 20000000;   
200000; 18; 50; 9110; 2; 20000000;   
200000; 18; 50; 8956; 3; 20000000;   
200000; 18; 50; 9176; 4; 20000000;   
200000; 18; 50; 9033; 5; 20000000;   
200000; 18; 50; 9050; 6; 20000000;   
200000; 20; 50; 9190; 2; 20000000;   
200000; 20; 50; 9125; 3; 20000000;   
200000; 20; 50; 9029; 4; 20000000;   
200000; 20; 50; 9019; 5; 20000000;   
200000; 20; 50; 9156; 6; 20000000;   
200000; 22; 50; 9163; 2; 20000000;   
200000; 22; 50; 9018; 3; 20000000;   
200000; 22; 50; 8928; 4; 20000000;   
200000; 22; 50; 8986; 5; 20000000;   
200000; 22; 50; 9002; 6; 20000000;   
200000; 24; 50; 8988; 2; 20000000;   
200000; 24; 50; 8969; 3; 20000000;   
200000; 24; 50; 9044; 4; 20000000;   
200000; 24; 50; 9044; 5; 20000000;   
200000; 24; 50; 9000; 6; 20000000;   
200000; 26; 50; 9156; 2; 20000000;   
200000; 26; 50; 9127; 3; 20000000;   
200000; 26; 50; 9142; 4; 20000000;   
200000; 26; 50; 9015; 5; 20000000;   
200000; 26; 50; 9186; 6; 20000000;   
200000; 28; 50; 8979; 2; 20000000;   
200000; 28; 50; 9034; 3; 20000000;   
200000; 28; 50; 9049; 4; 20000000;   
200000; 28; 50; 9091; 5; 20000000;   
200000; 28; 50; 8984; 6; 20000000;   
200000; 30; 50; 9016; 2; 20000000;   
200000; 30; 50; 9059; 3; 20000000;   
200000; 30; 50; 8936; 4; 20000000;   
200000; 30; 50; 8982; 5; 20000000;   
200000; 30; 50; 9080; 6; 20000000;   
200000; 32; 50; 8971; 2; 20000000;   
200000; 32; 50; 8972; 3; 20000000;   
200000; 32; 50; 8797; 4; 20000000;   
200000; 32; 50; 9017; 5; 20000000;   
200000; 32; 50; 8924; 6; 20000000;   
200000; 34; 50; 9205; 2; 20000000;   
200000; 34; 50; 9096; 3; 20000000;   
200000; 34; 50; 9070; 4; 20000000;   
200000; 34; 50; 9153; 5; 20000000;   
200000; 34; 50; 9152; 6; 20000000;   
200000; 36; 50; 8968; 2; 20000000;   
200000; 36; 50; 9175; 3; 20000000;   
200000; 36; 50; 8941; 4; 20000000;   
200000; 36; 50; 9124; 5; 20000000;   
200000; 36; 50; 9109; 6; 20000000;   
200000; 38; 50; 9048; 2; 20000000;   
200000; 38; 50; 9125; 3; 20000000;   
200000; 38; 50; 9142; 4; 20000000;   
200000; 38; 50; 9124; 5; 20000000;   
200000; 38; 50; 9057; 6; 20000000;   
200000; 40; 50; 9128; 2; 20000000;   
200000; 40; 50; 9016; 3; 20000000;   
200000; 40; 50; 9096; 4; 20000000;   
200000; 40; 50; 8877; 5; 20000000;   
200000; 40; 50; 9030; 6; 20000000;   
200000; 42; 50; 9223; 2; 20000000;   
200000; 42; 50; 9160; 3; 20000000;   
200000; 42; 50; 8986; 4; 20000000;   
200000; 42; 50; 9048; 5; 20000000;   
200000; 42; 50; 8995; 6; 20000000;   
200000; 44; 50; 9031; 2; 20000000;   
200000; 44; 50; 9060; 3; 20000000;   
200000; 44; 50; 9145; 4; 20000000;   
200000; 44; 50; 9035; 5; 20000000;   
200000; 44; 50; 8921; 6; 20000000;   
200000; 46; 50; 9205; 2; 20000000;   
200000; 46; 50; 8828; 3; 20000000;   
200000; 46; 50; 9048; 4; 20000000;   
200000; 46; 50; 9142; 5; 20000000;   
200000; 46; 50; 9078; 6; 20000000;   
200000; 48; 50; 8994; 2; 20000000;   
200000; 48; 50; 8967; 3; 20000000;   
200000; 48; 50; 9031; 4; 20000000;   
200000; 48; 50; 8992; 5; 20000000;   
200000; 48; 50; 8923; 6; 20000000;   
200000; 50; 50; 8923; 2; 20000000;   
200000; 50; 50; 9265; 3; 20000000;   
200000; 50; 50; 8971; 4; 20000000;   
200000; 50; 50; 9016; 5; 20000000;   
200000; 50; 50; 8889; 6; 20000000;   
200000; 52; 50; 9074; 2; 20000000;   
200000; 52; 50; 9064; 3; 20000000;   
200000; 52; 50; 8986; 4; 20000000;   
200000; 52; 50; 9144; 5; 20000000;   
200000; 52; 50; 9032; 6; 20000000;   
200000; 54; 50; 9035; 2; 20000000;   
200000; 54; 50; 9247; 3; 20000000;   
200000; 54; 50; 9265; 4; 20000000;   
200000; 54; 50; 9057; 5; 20000000;   
200000; 54; 50; 9046; 6; 20000000;   
200000; 56; 50; 8968; 2; 20000000;   
200000; 56; 50; 8855; 3; 20000000;   
200000; 56; 50; 9170; 4; 20000000;   
200000; 56; 50; 9113; 5; 20000000;   
200000; 56; 50; 9028; 6; 20000000;   
200000; 58; 50; 9048; 2; 20000000;   
200000; 58; 50; 9064; 3; 20000000;   
200000; 58; 50; 8969; 4; 20000000;   
200000; 58; 50; 8952; 5; 20000000;   
200000; 58; 50; 9028; 6; 20000000;   
200000; 60; 50; 9038; 2; 20000000;   
200000; 60; 50; 9144; 3; 20000000;   
200000; 60; 50; 9002; 4; 20000000;   
200000; 60; 50; 9031; 5; 20000000;   
200000; 60; 50; 9013; 6; 20000000;   
200000; 62; 50; 9098; 2; 20000000;   
200000; 62; 50; 8920; 3; 20000000;   
200000; 62; 50; 9014; 4; 20000000;   
200000; 62; 50; 8955; 5; 20000000;   
200000; 62; 50; 9017; 6; 20000000;   
200000; 64; 50; 8751; 2; 20000000;   
200000; 64; 50; 8814; 3; 20000000;   
200000; 64; 50; 9034; 4; 20000000;   
200000; 64; 50; 9006; 5; 20000000;   
200000; 64; 50; 9190; 6; 20000000;   
