textSize; alphaSize; querySize; time; expCount; iterations; index;   avgTime; standardDeviation; relativeStdDev; 
200000; 2; 100; 14468; 2; 7500000; 20000;    14477.6; 76.81041596033705;  0.5305466096613876; 
200000; 2; 100; 14410; 2; 7500000; 100000;    14391.2; 39.11725961771862;  0.2718137446336554; 
200000; 2; 100; 14470; 2; 7500000; 130000;    14438.0; 35.50774563387544;  0.24593257815400638; 
200000; 2; 100; 14470; 2; 7500000; 150000;    14830.8; 712.2627043444013;  4.802591258356942; 
200000; 2; 100; 14813; 2; 7500000; 170000;    14518.2; 150.34546883760748;  1.0355654890937407; 
