textSize; alphaSize; querySize; timeArray; timeTray; expCount; iterations; ;  avgTimeArray; standardDeviationArray; relativeStdDevArray; avgTimeTray; standardDeviationTray; relativeStdDevTray; 
65536; 54; 4000; 896; 890; 2; 62500;   859.8; 39.91190298645255;  4.641998486444819;884.4; 24.719223288768603;  2.7950275089064456; 
65536; 54; 8000; 1593; 1689; 2; 62500;   1601.8; 48.05580089853877;  3.000112429675289;1669.2; 23.301502097504358;  1.3959682541040233; 
65536; 54; 12000; 2302; 2438; 2; 62500;   2311.4; 55.01127157228781;  2.3799979048320417;2423.2; 113.80931420582412;  4.696653772112254; 
65536; 54; 16000; 3129; 3078; 2; 62500;   3193.0; 118.39256733427145;  3.707878713882601;3129.4; 64.57739542595381;  2.0635711454577175; 
65536; 54; 20000; 4036; 4020; 2; 62500;   4052.8; 69.56263364767035;  1.7164092392338717;4091.2; 88.81756583018925;  2.1709416755521427; 
65536; 54; 24000; 4773; 4766; 2; 62500;   4703.0; 46.97658991455212;  0.9988643400925392;4822.6; 70.7858742970658;  1.4677948471170281; 
65536; 54; 28000; 5567; 5670; 2; 62500;   5610.8; 128.6349874645308;  2.2926318433116633;5640.0; 114.42202585166896;  2.028759323611152; 
65536; 54; 32000; 6205; 6540; 2; 62500;   6265.0; 122.62136844775465;  1.9572445083440488;6415.8; 118.2580229836437;  1.8432311322616617; 
65536; 54; 36000; 7036; 6966; 2; 62500;   7053.6; 198.2176581437688;  2.8101630109981968;7223.2; 145.4886937187904;  2.0141861462896; 
65536; 54; 40000; 7873; 8128; 2; 62500;   7875.6; 89.89905450003353;  1.1414883246994962;8102.8; 102.4468642760724;  1.2643390467007998; 
65536; 54; 44000; 8895; 9080; 2; 62500;   8784.4; 138.12110627995997;  1.5723453654200625;8962.4; 83.10619712151434;  0.9272761439069261; 
65536; 54; 48000; 9130; 9559; 2; 62500;   9378.8; 228.4761694356766;  2.4360917114735003;9482.6; 55.185505343341745;  0.5819659728696955; 
65536; 54; 52000; 10037; 10483; 2; 62500;   10251.0; 189.48667499325646;  1.848470149187947;10305.6; 125.65763009065546;  1.2193140631370853; 
65536; 54; 56000; 10894; 11091; 2; 62500;   11083.8; 102.95902097436631;  0.9289144605132384;11229.6; 104.23933998256129;  0.9282551469559136; 
65536; 54; 60000; 11991; 11821; 2; 62500;   11935.8; 162.6571855160417;  1.3627673512964502;11878.2; 71.60837939794476;  0.6028554780854402; 
