textSize; alphaSize; querySize; timeArray; timeTray; expCount; iterations; ; 
262144; 55; 4000; 844; 922; 0; 62500; 
262144; 55; 4000; 938; 858; 1; 62500; 
262144; 55; 4000; 904; 937; 2; 62500; 
262144; 55; 4000; 859; 860; 3; 62500; 
262144; 55; 4000; 905; 877; 4; 62500; 
262144; 55; 4000; 940; 907; 5; 62500; 
262144; 55; 4000; 783; 783; 6; 62500; 
262144; 55; 8000; 1627; 1752; 0; 62500; 
262144; 55; 8000; 1737; 1734; 1; 62500; 
262144; 55; 8000; 1641; 1612; 2; 62500; 
262144; 55; 8000; 1608; 1643; 3; 62500; 
262144; 55; 8000; 1752; 1720; 4; 62500; 
262144; 55; 8000; 1674; 1590; 5; 62500; 
262144; 55; 8000; 1641; 1701; 6; 62500; 
262144; 55; 12000; 2454; 2518; 0; 62500; 
262144; 55; 12000; 2356; 2458; 1; 62500; 
262144; 55; 12000; 2592; 2453; 2; 62500; 
262144; 55; 12000; 2334; 2500; 3; 62500; 
262144; 55; 12000; 2560; 2407; 4; 62500; 
262144; 55; 12000; 2531; 2532; 5; 62500; 
262144; 55; 12000; 2532; 2579; 6; 62500; 
262144; 55; 16000; 3168; 3330; 0; 62500; 
262144; 55; 16000; 3191; 3250; 1; 62500; 
262144; 55; 16000; 3248; 3292; 2; 62500; 
262144; 55; 16000; 3362; 3220; 3; 62500; 
262144; 55; 16000; 3329; 3374; 4; 62500; 
262144; 55; 16000; 3186; 3252; 5; 62500; 
262144; 55; 16000; 3118; 3422; 6; 62500; 
262144; 55; 20000; 4023; 3926; 0; 62500; 
262144; 55; 20000; 3902; 4224; 1; 62500; 
262144; 55; 20000; 4083; 4166; 2; 62500; 
262144; 55; 20000; 4140; 4329; 3; 62500; 
262144; 55; 20000; 4034; 4063; 4; 62500; 
262144; 55; 20000; 3920; 4078; 5; 62500; 
262144; 55; 20000; 4029; 4011; 6; 62500; 
262144; 55; 24000; 4860; 4736; 0; 62500; 
262144; 55; 24000; 5052; 4967; 1; 62500; 
262144; 55; 24000; 4857; 4679; 2; 62500; 
262144; 55; 24000; 4818; 5066; 3; 62500; 
262144; 55; 24000; 4861; 4652; 4; 62500; 
262144; 55; 24000; 4715; 5112; 5; 62500; 
262144; 55; 24000; 5065; 4911; 6; 62500; 
262144; 55; 28000; 5598; 5733; 0; 62500; 
262144; 55; 28000; 5482; 5717; 1; 62500; 
262144; 55; 28000; 5557; 5767; 2; 62500; 
262144; 55; 28000; 5675; 5693; 3; 62500; 
262144; 55; 28000; 5407; 5633; 4; 62500; 
262144; 55; 28000; 5776; 5780; 5; 62500; 
262144; 55; 28000; 5688; 5494; 6; 62500; 
262144; 55; 32000; 6252; 6514; 0; 62500; 
262144; 55; 32000; 6582; 6512; 1; 62500; 
262144; 55; 32000; 6604; 6279; 2; 62500; 
262144; 55; 32000; 6610; 6684; 3; 62500; 
262144; 55; 32000; 6316; 6295; 4; 62500; 
262144; 55; 32000; 6297; 6630; 5; 62500; 
262144; 55; 32000; 6475; 6647; 6; 62500; 
262144; 55; 36000; 6970; 7359; 0; 62500; 
262144; 55; 36000; 6890; 7219; 1; 62500; 
262144; 55; 36000; 7093; 7144; 2; 62500; 
262144; 55; 36000; 7217; 7246; 3; 62500; 
262144; 55; 36000; 7115; 7249; 4; 62500; 
262144; 55; 36000; 6884; 7107; 5; 62500; 
262144; 55; 36000; 7114; 7137; 6; 62500; 
262144; 55; 40000; 8154; 7907; 0; 62500; 
262144; 55; 40000; 7924; 8075; 1; 62500; 
262144; 55; 40000; 8080; 8168; 2; 62500; 
262144; 55; 40000; 7810; 8289; 3; 62500; 
262144; 55; 40000; 7716; 7648; 4; 62500; 
262144; 55; 40000; 7983; 7888; 5; 62500; 
262144; 55; 40000; 7830; 7848; 6; 62500; 
262144; 55; 44000; 8624; 8866; 0; 62500; 
262144; 55; 44000; 8636; 8718; 1; 62500; 
262144; 55; 44000; 8737; 8913; 2; 62500; 
262144; 55; 44000; 8926; 8886; 3; 62500; 
262144; 55; 44000; 8859; 9098; 4; 62500; 
262144; 55; 44000; 8824; 8921; 5; 62500; 
262144; 55; 44000; 8714; 8707; 6; 62500; 
262144; 55; 48000; 9691; 9437; 0; 62500; 
262144; 55; 48000; 9756; 9786; 1; 62500; 
262144; 55; 48000; 9808; 9795; 2; 62500; 
262144; 55; 48000; 9355; 9589; 3; 62500; 
262144; 55; 48000; 9392; 9469; 4; 62500; 
262144; 55; 48000; 9332; 9318; 5; 62500; 
262144; 55; 48000; 9608; 9614; 6; 62500; 
262144; 55; 52000; 10204; 10450; 0; 62500; 
262144; 55; 52000; 10512; 10272; 1; 62500; 
262144; 55; 52000; 10040; 10566; 2; 62500; 
262144; 55; 52000; 10629; 10396; 3; 62500; 
262144; 55; 52000; 9788; 10250; 4; 62500; 
262144; 55; 52000; 9999; 10035; 5; 62500; 
262144; 55; 52000; 10419; 10325; 6; 62500; 
262144; 55; 56000; 10759; 11558; 0; 62500; 
262144; 55; 56000; 10846; 11049; 1; 62500; 
262144; 55; 56000; 11155; 11590; 2; 62500; 
262144; 55; 56000; 11302; 11390; 3; 62500; 
262144; 55; 56000; 11306; 11357; 4; 62500; 
262144; 55; 56000; 10892; 11361; 5; 62500; 
262144; 55; 56000; 10974; 11454; 6; 62500; 
262144; 55; 60000; 11735; 12160; 0; 62500; 
262144; 55; 60000; 11861; 12004; 1; 62500; 
262144; 55; 60000; 11785; 11975; 2; 62500; 
262144; 55; 60000; 11661; 12048; 3; 62500; 
262144; 55; 60000; 11653; 11834; 4; 62500; 
262144; 55; 60000; 11865; 11972; 5; 62500; 
262144; 55; 60000; 11705; 11829; 6; 62500; 
