textSize; alphaSize; querySize; time; expCount; iterations;  
1300000; 2; 50; 10342; 0; 20000000;  
1300000; 2; 50; 9938; 1; 20000000;  
1300000; 2; 50; 10441; 2; 20000000;  
1300000; 2; 50; 10016; 3; 20000000;  
1300000; 2; 50; 10122; 4; 20000000;  
1300000; 2; 50; 10246; 5; 20000000;  
1300000; 2; 50; 10298; 6; 20000000;  
1400000; 2; 50; 9990; 0; 20000000;  
1400000; 2; 50; 10497; 1; 20000000;  
1400000; 2; 50; 10331; 2; 20000000;  
1400000; 2; 50; 10834; 3; 20000000;  
1400000; 2; 50; 10705; 4; 20000000;  
1400000; 2; 50; 10484; 5; 20000000;  
1400000; 2; 50; 10409; 6; 20000000;  
1500000; 2; 50; 10280; 0; 20000000;  
1500000; 2; 50; 10346; 1; 20000000;  
1500000; 2; 50; 10658; 2; 20000000;  
1500000; 2; 50; 10298; 3; 20000000;  
1500000; 2; 50; 9955; 4; 20000000;  
1500000; 2; 50; 10624; 5; 20000000;  
1500000; 2; 50; 10249; 6; 20000000;  
1600000; 2; 50; 10033; 0; 20000000;  
1600000; 2; 50; 10050; 1; 20000000;  
1600000; 2; 50; 9866; 2; 20000000;  
1600000; 2; 50; 9777; 3; 20000000;  
1600000; 2; 50; 9973; 4; 20000000;  
1600000; 2; 50; 10034; 5; 20000000;  
1600000; 2; 50; 10173; 6; 20000000;  
1700000; 2; 50; 9938; 0; 20000000;  
1700000; 2; 50; 10051; 1; 20000000;  
1700000; 2; 50; 9940; 2; 20000000;  
1700000; 2; 50; 9938; 3; 20000000;  
1700000; 2; 50; 9924; 4; 20000000;  
1700000; 2; 50; 9938; 5; 20000000;  
1700000; 2; 50; 10033; 6; 20000000;  
