textSize; alphaSize; querySize; timeArray; timeTray; expCount; iterations;  avgTimeArray; standardDeviationArray; relativeStdDevArray; avgTimeTray; standardDeviationTray; relativeStdDevTray; 
65536; 54; 10; 235; 156; 2; 500000;   237.4; 26.92656680678025;  11.342277509174496;150.2; 23.310083654933546;  15.519363285574933; 
65536; 54; 15; 157; 155; 2; 500000;   228.6; 38.92865268667797;  17.02915690580839;174.4; 18.128430709799456;  10.394742379472165; 
65536; 54; 20; 280; 188; 2; 500000;   268.6; 17.5681530047982;  6.540637753089426;183.8; 11.72006825918689;  6.376533329263813; 
65536; 54; 25; 279; 203; 2; 500000;   268.4; 11.46472851837321;  4.2715083898558905;194.0; 23.392306427541513;  12.057889911103873; 
65536; 54; 30; 250; 172; 2; 500000;   284.8; 18.400000000000002;  6.460674157303371;190.6; 29.43874997346185;  15.44530428828009; 
65536; 54; 35; 268; 187; 2; 500000;   288.2; 27.271963625672427;  9.462860383647616;206.4; 27.052541470257466;  13.106851487527843; 
65536; 54; 40; 265; 155; 2; 500000;   265.4; 26.78507046845313;  10.09234004086403;181.0; 13.007690033207279;  7.186569079120043; 
65536; 54; 45; 281; 234; 2; 500000;   303.0; 21.531372459738837;  7.106063518065622;212.0; 13.038404810405298;  6.150190948304386; 
65536; 54; 50; 296; 250; 2; 500000;   308.8; 30.201986689620274;  9.780436104151642;221.6; 29.179444819941313;  13.167619503583625; 
65536; 54; 55; 390; 218; 2; 500000;   324.2; 41.48927572276961;  12.797432363593341;222.4; 35.56740080466943;  15.992536333034815; 
65536; 54; 60; 344; 217; 2; 500000;   309.0; 25.25866188063018;  8.174324233213651;234.0; 20.09975124224178;  8.589637283009308; 
65536; 54; 65; 374; 312; 2; 500000;   343.6; 25.943014474035202;  7.550353455772759;262.0; 35.38926390870542;  13.507352636910467; 
65536; 54; 70; 314; 249; 2; 500000;   347.0; 28.71933146854223;  8.276464400156263;268.8; 23.318662054243163;  8.675097490417844; 
65536; 54; 75; 360; 296; 2; 500000;   344.0; 28.064212085857676;  8.158201187749324;255.6; 31.019993552546072;  12.136147712263721; 
65536; 54; 80; 313; 281; 2; 500000;   362.6; 45.692887849204716;  12.601458314728273;268.8; 14.971973817770321;  5.569930735777649; 
65536; 54; 85; 406; 268; 2; 500000;   387.2; 33.736626980182834;  8.712971844055485;284.8; 30.062601351180508;  10.555688676678548; 
65536; 54; 90; 376; 328; 2; 500000;   390.6; 24.021656895393374;  6.149937761237423;315.2; 11.72006825918689;  3.718295767508531; 
65536; 54; 95; 422; 315; 2; 500000;   384.4; 21.35977527971678;  5.556653298573564;291.0; 28.192197502145874;  9.688040378744287; 
65536; 54; 100; 373; 358; 2; 500000;   387.8; 18.356470248934023;  4.733488976001553;324.8; 22.15761720041214;  6.821926477959403; 
