textSize; alphaSize; querySize; timeArray; timeTray; expCount; iterations; 
262144; 55; 10; 281; 220; 0; 500000; 
262144; 55; 10; 343; 204; 1; 500000; 
262144; 55; 10; 296; 235; 2; 500000; 
262144; 55; 10; 298; 187; 3; 500000; 
262144; 55; 10; 249; 205; 4; 500000; 
262144; 55; 10; 297; 172; 5; 500000; 
262144; 55; 10; 329; 188; 6; 500000; 
262144; 55; 15; 297; 156; 0; 500000; 
262144; 55; 15; 314; 173; 1; 500000; 
262144; 55; 15; 331; 235; 2; 500000; 
262144; 55; 15; 342; 205; 3; 500000; 
262144; 55; 15; 297; 235; 4; 500000; 
262144; 55; 15; 330; 234; 5; 500000; 
262144; 55; 15; 359; 186; 6; 500000; 
262144; 55; 20; 313; 205; 0; 500000; 
262144; 55; 20; 296; 217; 1; 500000; 
262144; 55; 20; 297; 219; 2; 500000; 
262144; 55; 20; 327; 203; 3; 500000; 
262144; 55; 20; 375; 204; 4; 500000; 
262144; 55; 20; 375; 203; 5; 500000; 
262144; 55; 20; 312; 250; 6; 500000; 
262144; 55; 25; 328; 172; 0; 500000; 
262144; 55; 25; 312; 219; 1; 500000; 
262144; 55; 25; 346; 264; 2; 500000; 
262144; 55; 25; 393; 219; 3; 500000; 
262144; 55; 25; 374; 235; 4; 500000; 
262144; 55; 25; 342; 218; 5; 500000; 
262144; 55; 25; 362; 249; 6; 500000; 
262144; 55; 30; 407; 234; 0; 500000; 
262144; 55; 30; 375; 266; 1; 500000; 
262144; 55; 30; 344; 219; 2; 500000; 
262144; 55; 30; 391; 250; 3; 500000; 
262144; 55; 30; 391; 250; 4; 500000; 
262144; 55; 30; 297; 235; 5; 500000; 
262144; 55; 30; 374; 265; 6; 500000; 
262144; 55; 35; 404; 281; 0; 500000; 
262144; 55; 35; 390; 297; 1; 500000; 
262144; 55; 35; 390; 251; 2; 500000; 
262144; 55; 35; 358; 173; 3; 500000; 
262144; 55; 35; 375; 266; 4; 500000; 
262144; 55; 35; 405; 268; 5; 500000; 
262144; 55; 35; 359; 202; 6; 500000; 
262144; 55; 40; 328; 266; 0; 500000; 
262144; 55; 40; 343; 313; 1; 500000; 
262144; 55; 40; 437; 265; 2; 500000; 
262144; 55; 40; 359; 281; 3; 500000; 
262144; 55; 40; 358; 202; 4; 500000; 
262144; 55; 40; 360; 297; 5; 500000; 
262144; 55; 40; 374; 296; 6; 500000; 
262144; 55; 45; 405; 264; 0; 500000; 
262144; 55; 45; 375; 298; 1; 500000; 
262144; 55; 45; 344; 297; 2; 500000; 
262144; 55; 45; 360; 283; 3; 500000; 
262144; 55; 45; 421; 313; 4; 500000; 
262144; 55; 45; 391; 265; 5; 500000; 
262144; 55; 45; 422; 282; 6; 500000; 
262144; 55; 50; 407; 315; 0; 500000; 
262144; 55; 50; 344; 327; 1; 500000; 
262144; 55; 50; 391; 298; 2; 500000; 
262144; 55; 50; 390; 296; 3; 500000; 
262144; 55; 50; 360; 343; 4; 500000; 
262144; 55; 50; 406; 297; 5; 500000; 
262144; 55; 50; 423; 235; 6; 500000; 
262144; 55; 55; 422; 252; 0; 500000; 
262144; 55; 55; 406; 281; 1; 500000; 
262144; 55; 55; 423; 296; 2; 500000; 
262144; 55; 55; 361; 249; 3; 500000; 
262144; 55; 55; 374; 311; 4; 500000; 
262144; 55; 55; 420; 328; 5; 500000; 
262144; 55; 55; 453; 281; 6; 500000; 
262144; 55; 60; 405; 265; 0; 500000; 
262144; 55; 60; 486; 234; 1; 500000; 
262144; 55; 60; 452; 279; 2; 500000; 
262144; 55; 60; 437; 296; 3; 500000; 
262144; 55; 60; 420; 328; 4; 500000; 
262144; 55; 60; 407; 298; 5; 500000; 
262144; 55; 60; 359; 296; 6; 500000; 
262144; 55; 65; 407; 311; 0; 500000; 
262144; 55; 65; 390; 345; 1; 500000; 
262144; 55; 65; 485; 269; 2; 500000; 
262144; 55; 65; 453; 359; 3; 500000; 
262144; 55; 65; 440; 343; 4; 500000; 
262144; 55; 65; 421; 327; 5; 500000; 
262144; 55; 65; 391; 329; 6; 500000; 
262144; 55; 70; 391; 361; 0; 500000; 
262144; 55; 70; 375; 344; 1; 500000; 
262144; 55; 70; 437; 344; 2; 500000; 
262144; 55; 70; 484; 249; 3; 500000; 
262144; 55; 70; 422; 282; 4; 500000; 
262144; 55; 70; 421; 359; 5; 500000; 
262144; 55; 70; 406; 298; 6; 500000; 
262144; 55; 75; 436; 330; 0; 500000; 
262144; 55; 75; 454; 328; 1; 500000; 
262144; 55; 75; 422; 360; 2; 500000; 
262144; 55; 75; 423; 406; 3; 500000; 
262144; 55; 75; 375; 327; 4; 500000; 
262144; 55; 75; 483; 313; 5; 500000; 
262144; 55; 75; 470; 281; 6; 500000; 
262144; 55; 80; 407; 344; 0; 500000; 
262144; 55; 80; 421; 360; 1; 500000; 
262144; 55; 80; 376; 407; 2; 500000; 
262144; 55; 80; 483; 375; 3; 500000; 
262144; 55; 80; 438; 296; 4; 500000; 
262144; 55; 80; 407; 344; 5; 500000; 
262144; 55; 80; 485; 328; 6; 500000; 
262144; 55; 85; 518; 359; 0; 500000; 
262144; 55; 85; 452; 360; 1; 500000; 
262144; 55; 85; 437; 346; 2; 500000; 
262144; 55; 85; 438; 313; 3; 500000; 
262144; 55; 85; 484; 374; 4; 500000; 
262144; 55; 85; 469; 330; 5; 500000; 
262144; 55; 85; 453; 390; 6; 500000; 
262144; 55; 90; 468; 313; 0; 500000; 
262144; 55; 90; 468; 360; 1; 500000; 
262144; 55; 90; 469; 359; 2; 500000; 
262144; 55; 90; 500; 313; 3; 500000; 
262144; 55; 90; 531; 374; 4; 500000; 
262144; 55; 90; 436; 328; 5; 500000; 
262144; 55; 90; 500; 423; 6; 500000; 
262144; 55; 95; 485; 392; 0; 500000; 
262144; 55; 95; 437; 357; 1; 500000; 
262144; 55; 95; 470; 390; 2; 500000; 
262144; 55; 95; 483; 361; 3; 500000; 
262144; 55; 95; 499; 345; 4; 500000; 
262144; 55; 95; 439; 375; 5; 500000; 
262144; 55; 95; 470; 438; 6; 500000; 
262144; 55; 100; 390; 375; 0; 500000; 
262144; 55; 100; 409; 376; 1; 500000; 
262144; 55; 100; 514; 421; 2; 500000; 
262144; 55; 100; 485; 344; 3; 500000; 
262144; 55; 100; 516; 438; 4; 500000; 
262144; 55; 100; 517; 404; 5; 500000; 
262144; 55; 100; 483; 342; 6; 500000; 
