log2(x) = log(x)/log(2)

if (!exists("directory")) directory='./'

set terminal pdf enhanced font "Helvetica, 10" size 7,4
set output (directory . "plot_bibleLowerCase_262144.pdf")

set xlabel "m"
set xtics 0, 5 rotate


set ylabel "Running time [milliseconds]"

set ytics nomirror tc lt 1


set xrange [10:100]
set yrange [0:1500]

set grid mytics


set key vert left top reverse
set pointsize 2

set datafile separator ";"


plot (directory .  'AV1611Bible_2pow21_lowerCase.txt_0_compare_NotIn_262144_Exp12Removed_avgANDstdDev.csv') using ($3):($8) title 'Array'  with linespoints ls 2,\
(directory .  'AV1611Bible_2pow21_lowerCase.txt_0_compare_NotIn_262144_Exp12Removed_avgANDstdDev.csv') using ($3):($11) title 'Tray'  with linespoints ls 3

