textSize; alphaSize; querySize; timeArray; timeTray; expCount; iterations;  
2097152; 55; 100; 407; 344; 2; 250000;  
2097152; 55; 100; 437; 359; 3; 250000;  
2097152; 55; 100; 390; 344; 4; 250000;  
2097152; 55; 100; 437; 359; 5; 250000;  
2097152; 55; 100; 374; 313; 6; 250000;  
2097152; 55; 200; 562; 422; 2; 250000;  
2097152; 55; 200; 548; 404; 3; 250000;  
2097152; 55; 200; 469; 453; 4; 250000;  
2097152; 55; 200; 437; 469; 5; 250000;  
2097152; 55; 200; 531; 454; 6; 250000;  
2097152; 55; 300; 578; 467; 2; 250000;  
2097152; 55; 300; 516; 422; 3; 250000;  
2097152; 55; 300; 577; 469; 4; 250000;  
2097152; 55; 300; 564; 482; 5; 250000;  
2097152; 55; 300; 547; 547; 6; 250000;  
2097152; 55; 400; 655; 581; 2; 250000;  
2097152; 55; 400; 658; 657; 3; 250000;  
2097152; 55; 400; 704; 624; 4; 250000;  
2097152; 55; 400; 704; 656; 5; 250000;  
2097152; 55; 400; 705; 563; 6; 250000;  
2097152; 55; 500; 800; 702; 2; 250000;  
2097152; 55; 500; 670; 579; 3; 250000;  
2097152; 55; 500; 765; 656; 4; 250000;  
2097152; 55; 500; 719; 626; 5; 250000;  
2097152; 55; 500; 733; 719; 6; 250000;  
2097152; 55; 600; 892; 828; 2; 250000;  
2097152; 55; 600; 762; 763; 3; 250000;  
2097152; 55; 600; 859; 768; 4; 250000;  
2097152; 55; 600; 767; 719; 5; 250000;  
2097152; 55; 600; 920; 767; 6; 250000;  
2097152; 55; 700; 907; 797; 2; 250000;  
2097152; 55; 700; 856; 892; 3; 250000;  
2097152; 55; 700; 999; 908; 4; 250000;  
2097152; 55; 700; 953; 875; 5; 250000;  
2097152; 55; 700; 938; 704; 6; 250000;  
2097152; 55; 800; 1003; 906; 2; 250000;  
2097152; 55; 800; 1030; 954; 3; 250000;  
2097152; 55; 800; 968; 874; 4; 250000;  
2097152; 55; 800; 891; 809; 5; 250000;  
2097152; 55; 800; 999; 892; 6; 250000;  
2097152; 55; 900; 1027; 1028; 2; 250000;  
2097152; 55; 900; 1170; 997; 3; 250000;  
2097152; 55; 900; 1092; 1016; 4; 250000;  
2097152; 55; 900; 1077; 1048; 5; 250000;  
2097152; 55; 900; 1142; 1065; 6; 250000;  
2097152; 55; 1000; 1175; 1203; 2; 250000;  
2097152; 55; 1000; 1125; 1128; 3; 250000;  
2097152; 55; 1000; 1123; 1094; 4; 250000;  
2097152; 55; 1000; 1171; 1047; 5; 250000;  
2097152; 55; 1000; 1156; 1201; 6; 250000;  
2097152; 55; 1100; 1159; 1282; 2; 250000;  
2097152; 55; 1100; 1202; 1203; 3; 250000;  
2097152; 55; 1100; 1192; 1159; 4; 250000;  
2097152; 55; 1100; 1171; 1186; 5; 250000;  
2097152; 55; 1100; 1282; 1233; 6; 250000;  
2097152; 55; 1200; 1376; 1251; 2; 250000;  
2097152; 55; 1200; 1331; 1263; 3; 250000;  
2097152; 55; 1200; 1421; 1269; 4; 250000;  
2097152; 55; 1200; 1346; 1390; 5; 250000;  
2097152; 55; 1200; 1421; 1252; 6; 250000;  
2097152; 55; 1300; 1392; 1345; 2; 250000;  
2097152; 55; 1300; 1436; 1410; 3; 250000;  
2097152; 55; 1300; 1406; 1390; 4; 250000;  
2097152; 55; 1300; 1438; 1375; 5; 250000;  
2097152; 55; 1300; 1341; 1344; 6; 250000;  
2097152; 55; 1400; 1440; 1512; 2; 250000;  
2097152; 55; 1400; 1342; 1454; 3; 250000;  
2097152; 55; 1400; 1472; 1473; 4; 250000;  
2097152; 55; 1400; 1625; 1424; 5; 250000;  
2097152; 55; 1400; 1500; 1453; 6; 250000;  
2097152; 55; 1500; 1593; 1593; 2; 250000;  
2097152; 55; 1500; 1657; 1564; 3; 250000;  
2097152; 55; 1500; 1529; 1563; 4; 250000;  
2097152; 55; 1500; 1596; 1517; 5; 250000;  
2097152; 55; 1500; 1611; 1563; 6; 250000;  
2097152; 55; 1600; 1531; 1578; 2; 250000;  
2097152; 55; 1600; 1716; 1625; 3; 250000;  
2097152; 55; 1600; 1581; 1642; 4; 250000;  
2097152; 55; 1600; 1519; 1595; 5; 250000;  
2097152; 55; 1600; 1497; 1639; 6; 250000;  
2097152; 55; 1700; 1909; 1684; 2; 250000;  
2097152; 55; 1700; 1733; 1590; 3; 250000;  
2097152; 55; 1700; 1640; 1642; 4; 250000;  
2097152; 55; 1700; 1717; 1748; 5; 250000;  
2097152; 55; 1700; 1765; 1700; 6; 250000;  
2097152; 55; 1800; 1941; 1768; 2; 250000;  
2097152; 55; 1800; 1971; 1863; 3; 250000;  
2097152; 55; 1800; 1809; 1782; 4; 250000;  
2097152; 55; 1800; 2050; 1924; 5; 250000;  
2097152; 55; 1800; 1966; 1765; 6; 250000;  
2097152; 55; 1900; 1827; 1876; 2; 250000;  
2097152; 55; 1900; 2015; 1936; 3; 250000;  
2097152; 55; 1900; 1921; 1989; 4; 250000;  
2097152; 55; 1900; 1952; 1860; 5; 250000;  
2097152; 55; 1900; 1893; 1844; 6; 250000;  
2097152; 55; 2000; 1954; 1985; 2; 250000;  
2097152; 55; 2000; 2140; 1957; 3; 250000;  
2097152; 55; 2000; 1975; 2031; 4; 250000;  
2097152; 55; 2000; 2032; 1967; 5; 250000;  
2097152; 55; 2000; 2058; 1905; 6; 250000;  
