textSize; alphaSize; querySize; timeArray; timeTray; expCount; iterations;  
262144; 55; 100; 234; 156; 2; 250000;  
262144; 55; 100; 251; 171; 3; 250000;  
262144; 55; 100; 282; 203; 4; 250000;  
262144; 55; 100; 249; 188; 5; 250000;  
262144; 55; 100; 233; 157; 6; 250000;  
262144; 55; 200; 359; 313; 2; 250000;  
262144; 55; 200; 344; 281; 3; 250000;  
262144; 55; 200; 374; 249; 4; 250000;  
262144; 55; 200; 360; 296; 5; 250000;  
262144; 55; 200; 312; 185; 6; 250000;  
262144; 55; 300; 421; 362; 2; 250000;  
262144; 55; 300; 470; 392; 3; 250000;  
262144; 55; 300; 500; 407; 4; 250000;  
262144; 55; 300; 406; 422; 5; 250000;  
262144; 55; 300; 406; 359; 6; 250000;  
262144; 55; 400; 391; 502; 2; 250000;  
262144; 55; 400; 467; 483; 3; 250000;  
262144; 55; 400; 546; 466; 4; 250000;  
262144; 55; 400; 500; 452; 5; 250000;  
262144; 55; 400; 436; 483; 6; 250000;  
262144; 55; 500; 487; 501; 2; 250000;  
262144; 55; 500; 610; 501; 3; 250000;  
262144; 55; 500; 563; 515; 4; 250000;  
262144; 55; 500; 611; 531; 5; 250000;  
262144; 55; 500; 466; 595; 6; 250000;  
262144; 55; 600; 674; 623; 2; 250000;  
262144; 55; 600; 764; 641; 3; 250000;  
262144; 55; 600; 625; 592; 4; 250000;  
262144; 55; 600; 559; 689; 5; 250000;  
262144; 55; 600; 721; 530; 6; 250000;  
262144; 55; 700; 749; 657; 2; 250000;  
262144; 55; 700; 684; 735; 3; 250000;  
262144; 55; 700; 781; 704; 4; 250000;  
262144; 55; 700; 715; 720; 5; 250000;  
262144; 55; 700; 843; 752; 6; 250000;  
262144; 55; 800; 690; 892; 2; 250000;  
262144; 55; 800; 779; 782; 3; 250000;  
262144; 55; 800; 845; 750; 4; 250000;  
262144; 55; 800; 922; 752; 5; 250000;  
262144; 55; 800; 796; 797; 6; 250000;  
262144; 55; 900; 905; 857; 2; 250000;  
262144; 55; 900; 813; 861; 3; 250000;  
262144; 55; 900; 842; 832; 4; 250000;  
262144; 55; 900; 906; 782; 5; 250000;  
262144; 55; 900; 780; 860; 6; 250000;  
262144; 55; 1000; 952; 983; 2; 250000;  
262144; 55; 1000; 939; 969; 3; 250000;  
262144; 55; 1000; 973; 969; 4; 250000;  
262144; 55; 1000; 1082; 1002; 5; 250000;  
262144; 55; 1000; 907; 953; 6; 250000;  
262144; 55; 1100; 1126; 1033; 2; 250000;  
262144; 55; 1100; 1093; 1032; 3; 250000;  
262144; 55; 1100; 1142; 1111; 4; 250000;  
262144; 55; 1100; 1044; 1116; 5; 250000;  
262144; 55; 1100; 984; 1062; 6; 250000;  
262144; 55; 1200; 1141; 1094; 2; 250000;  
262144; 55; 1200; 1079; 1092; 3; 250000;  
262144; 55; 1200; 1232; 1142; 4; 250000;  
262144; 55; 1200; 1206; 1238; 5; 250000;  
262144; 55; 1200; 1124; 1140; 6; 250000;  
262144; 55; 1300; 1237; 1296; 2; 250000;  
262144; 55; 1300; 1238; 1249; 3; 250000;  
262144; 55; 1300; 1204; 1232; 4; 250000;  
262144; 55; 1300; 1282; 1218; 5; 250000;  
262144; 55; 1300; 1314; 1156; 6; 250000;  
262144; 55; 1400; 1372; 1221; 2; 250000;  
262144; 55; 1400; 1345; 1347; 3; 250000;  
262144; 55; 1400; 1266; 1314; 4; 250000;  
262144; 55; 1400; 1344; 1177; 5; 250000;  
262144; 55; 1400; 1452; 1237; 6; 250000;  
262144; 55; 1500; 1421; 1424; 2; 250000;  
262144; 55; 1500; 1441; 1265; 3; 250000;  
262144; 55; 1500; 1374; 1327; 4; 250000;  
262144; 55; 1500; 1532; 1284; 5; 250000;  
262144; 55; 1500; 1312; 1297; 6; 250000;  
262144; 55; 1600; 1502; 1578; 2; 250000;  
262144; 55; 1600; 1423; 1576; 3; 250000;  
262144; 55; 1600; 1346; 1548; 4; 250000;  
262144; 55; 1600; 1549; 1579; 5; 250000;  
262144; 55; 1600; 1469; 1550; 6; 250000;  
262144; 55; 1700; 1609; 1487; 2; 250000;  
262144; 55; 1700; 1689; 1516; 3; 250000;  
262144; 55; 1700; 1689; 1456; 4; 250000;  
262144; 55; 1700; 1592; 1469; 5; 250000;  
262144; 55; 1700; 1519; 1579; 6; 250000;  
262144; 55; 1800; 1593; 1685; 2; 250000;  
262144; 55; 1800; 1644; 1722; 3; 250000;  
262144; 55; 1800; 1643; 1736; 4; 250000;  
262144; 55; 1800; 1717; 1781; 5; 250000;  
262144; 55; 1800; 1671; 1562; 6; 250000;  
262144; 55; 1900; 1703; 1747; 2; 250000;  
262144; 55; 1900; 1671; 1736; 3; 250000;  
262144; 55; 1900; 1856; 1688; 4; 250000;  
262144; 55; 1900; 1800; 1767; 5; 250000;  
262144; 55; 1900; 1609; 1594; 6; 250000;  
262144; 55; 2000; 1781; 1826; 2; 250000;  
262144; 55; 2000; 1829; 1875; 3; 250000;  
262144; 55; 2000; 1890; 1796; 4; 250000;  
262144; 55; 2000; 1813; 1766; 5; 250000;  
262144; 55; 2000; 1967; 1923; 6; 250000;  
