textSize; alphaSize; querySize; timeArray; timeTray; expCount; iterations;  avgTimeArray; standardDeviationArray; relativeStdDevArray; avgTimeTray; standardDeviationTray; relativeStdDevTray; 
2097152; 55; 100; 407; 344; 2; 250000;   409.0; 25.13165334791963;  6.144658520273748;343.8; 16.79761887887685;  4.885869365583726; 
2097152; 55; 200; 562; 422; 2; 250000;   509.4; 48.16056478074152;  9.454370785383102;440.4; 23.77057003944163;  5.397495467629798; 
2097152; 55; 300; 578; 467; 2; 250000;   556.4; 23.104977818643324;  4.152584079554876;477.4; 40.28200590834573;  8.437789256042256; 
2097152; 55; 400; 655; 581; 2; 250000;   685.2; 23.45548976252681;  3.423159626755226;616.2; 38.415621822378455;  6.234278127617405; 
2097152; 55; 500; 800; 702; 2; 250000;   737.4; 43.77487864060848;  5.936381697939853;656.4; 50.81968122686328;  7.742181783495321; 
2097152; 55; 600; 892; 828; 2; 250000;   840.0; 64.61888268919543;  7.692724129666123;769.0; 34.70446657132191;  4.5129345346322385; 
2097152; 55; 700; 907; 797; 2; 250000;   930.6; 47.65962651972841;  5.121386903044102;835.2; 75.87199746942214;  9.08429088474882; 
2097152; 55; 800; 1003; 906; 2; 250000;   978.2; 47.83053418058385;  4.889647738763427;887.0; 47.17626521885767;  5.31863192997268; 
2097152; 55; 900; 1027; 1028; 2; 250000;   1101.6; 50.14618629566958;  4.552122938967827;1030.8; 23.81092186371624;  2.3099458540663793; 
2097152; 55; 1000; 1175; 1203; 2; 250000;   1150.0; 22.16303228351211;  1.9272201985662702;1134.6; 60.75063785673365;  5.354366107591543; 
2097152; 55; 1100; 1159; 1282; 2; 250000;   1201.2; 43.14348154704253;  3.5916984304897213;1212.6; 42.20236960171786;  3.480320765439375; 
2097152; 55; 1200; 1376; 1251; 2; 250000;   1379.0; 37.22902093797257;  2.699711453079954;1285.0; 52.933921071464184;  4.119371289608107; 
2097152; 55; 1300; 1392; 1345; 2; 250000;   1402.6; 35.4604004489515;  2.5281905353594403;1372.8; 25.639032743065794;  1.8676451590228582; 
2097152; 55; 1400; 1440; 1512; 2; 250000;   1475.8; 91.700381678595;  6.213604938243326;1463.2; 28.99241280059319;  1.9814388190673313; 
2097152; 55; 1500; 1593; 1593; 2; 250000;   1597.2; 41.077487751808775;  2.571843710982267;1560.0; 24.380319932273242;  1.562841021299567; 
2097152; 55; 1600; 1531; 1578; 2; 250000;   1568.8; 78.58854878415812;  5.009468943406305;1615.8; 25.182533629482162;  1.5585179867237382; 
2097152; 55; 1700; 1909; 1684; 2; 250000;   1752.8; 88.2550848393451;  5.035091558611656;1672.8; 53.525321110666866;  3.1997442079547382; 
2097152; 55; 1800; 1941; 1768; 2; 250000;   1947.4; 78.26263476270141;  4.018826885216257;1820.4; 62.987617830808624;  3.4600976615473864; 
2097152; 55; 1900; 1827; 1876; 2; 250000;   1921.6; 62.31404336102738;  3.242820741102591;1901.0; 53.8961965262856;  2.8351497383632616; 
2097152; 55; 2000; 1954; 1985; 2; 250000;   2031.8; 65.83737540333757;  3.240347248909222;1969.0; 40.85094858139772;  2.0747053621837335; 
