textSize; alphaSize; querySize; timeArray; timeTray; expCount; iterations; avgTimeArray; standardDeviationArray; relativeStdDevArray; avgTimeTray; standardDeviationTray; relativeStdDevTray; 
65536; 5; 10; 266; 125; 2; 500000;   241.0; 12.521980673998822;  5.195842603319013;115.2; 7.678541528180987;  6.665400632101551; 
65536; 5; 15; 250; 141; 2; 500000;   281.2; 22.21170862405682;  7.898900648668855;171.6; 29.2;  17.016317016317018; 
65536; 5; 20; 249; 139; 2; 500000;   255.6; 21.058015101143795;  8.238660055220578;127.2; 11.196428001822724;  8.80222327187321; 
65536; 5; 25; 267; 124; 2; 500000;   259.8; 16.216041440499588;  6.241740354310849;153.0; 21.109239683134017;  13.796888681786939; 
65536; 5; 30; 282; 158; 2; 500000;   265.8; 33.41496670655232;  12.571469791780407;159.6; 23.618636709175235;  14.798644554621074; 
65536; 5; 35; 266; 173; 2; 500000;   269.2; 20.932271735289508;  7.775732442529535;168.2; 35.05652578336878;  20.842167528756704; 
65536; 5; 40; 266; 203; 2; 500000;   291.2; 21.160340261914506;  7.266600364668443;177.8; 44.48100718284153;  25.017439360428305; 
65536; 5; 45; 282; 155; 2; 500000;   290.2; 30.889480410003664;  10.644204138526419;176.8; 25.1666445916018;  14.234527483937667; 
65536; 5; 50; 345; 236; 2; 500000;   300.2; 43.4391528462515;  14.470070901482845;209.2; 16.424372134118247;  7.851038305027844; 
65536; 5; 55; 296; 221; 2; 500000;   328.2; 22.630952255705015;  6.895476007222736;218.8; 22.112439937736408;  10.106233975199455; 
65536; 5; 60; 298; 219; 2; 500000;   321.8; 41.76793028149707;  12.979468701521773;222.4; 37.30201066966766;  16.772486811900926; 
65536; 5; 65; 312; 220; 2; 500000;   318.6; 29.028262090590268;  9.111193374322117;218.4; 27.310071402323356;  12.504611447950253; 
65536; 5; 70; 327; 281; 2; 500000;   333.4; 21.114923632350653;  6.333210447615673;272.6; 16.05739704933524;  5.890461133285121; 
65536; 5; 75; 298; 216; 2; 500000;   334.2; 20.903588208726273;  6.254813946357353;246.4; 23.618636709175235;  9.585485677425014; 
65536; 5; 80; 297; 217; 2; 500000;   328.4; 19.945926902503178;  6.073668362516194;268.0; 36.6333181680284;  13.669148570159853; 
65536; 5; 85; 376; 312; 2; 500000;   346.4; 23.260266550493352;  6.714857549218635;306.6; 13.078226179417452;  4.265566268564074; 
65536; 5; 90; 359; 329; 2; 500000;   383.8; 23.20689552697646;  6.046611653719766;300.0; 33.538038106007335;  11.179346035335778; 
65536; 5; 95; 407; 295; 2; 500000;   409.4; 27.507089995126712;  6.718878845902959;330.8; 23.86964599653711;  7.215733372592838; 
65536; 5; 100; 374; 279; 2; 500000;   372.2; 32.596932371006936;  8.757907676251191;308.2; 51.607751355779875;  16.74489012192728; 
