textSize; alphaSize; querySize; timeArray; timeTray; expCount; iterations; avgTimeArray; standardDeviationArray; relativeStdDevArray; avgTimeTray; standardDeviationTray; relativeStdDevTray; 
262144; 5; 10; 266; 187; 2; 500000;   300.0; 24.503061033266842;  8.167687011088947;197.2; 25.779061270729002;  13.072546283331137; 
262144; 5; 15; 343; 233; 2; 500000;   328.4; 13.455110553243328;  4.097171301231221;237.8; 12.106196760337244;  5.090915374405905; 
262144; 5; 20; 331; 233; 2; 500000;   335.8; 43.860688549086866;  13.061551086684595;224.4; 18.24938355123263;  8.132523864185663; 
262144; 5; 25; 314; 266; 2; 500000;   331.6; 32.246550203083736;  9.724532630604262;259.2; 7.934733769950949;  3.0612398803823107; 
262144; 5; 30; 329; 218; 2; 500000;   372.2; 24.652788888886384;  6.623532748223101;234.0; 14.324803663575986;  6.1217109673401655; 
262144; 5; 35; 313; 297; 2; 500000;   316.4; 18.650469162999627;  5.894585702591539;247.2; 35.425414605901224;  14.330669338956806; 
262144; 5; 40; 422; 281; 2; 500000;   379.2; 24.862823652996457;  6.556651807224805;283.8; 20.232646885664764;  7.129191996358267; 
262144; 5; 45; 391; 280; 2; 500000;   372.2; 37.10741165858918;  9.969750579954106;303.0; 27.09243436828813;  8.94139748128321; 
262144; 5; 50; 421; 328; 2; 500000;   409.4; 20.771133815947554;  5.073554913519188;327.8; 29.835549265934418;  9.101753894427828; 
262144; 5; 55; 341; 282; 2; 500000;   393.4; 35.8920604033817;  9.123553737514413;316.4; 25.33456137374397;  8.007130649097336; 
262144; 5; 60; 407; 360; 2; 500000;   409.4; 25.08066984751404;  6.126201721425022;328.8; 33.24093861490677;  10.109774517915683; 
262144; 5; 65; 454; 326; 2; 500000;   422.6; 17.176728442867113;  4.0645358359836985;305.8; 23.63387399475592;  7.728539566630451; 
262144; 5; 70; 392; 423; 2; 500000;   403.4; 26.211447880649402;  6.497632097335003;340.6; 58.36642870692022;  17.136356050182094; 
262144; 5; 75; 469; 359; 2; 500000;   453.2; 19.009471323527123;  4.194499409427873;375.6; 19.022092419079453;  5.06445485066013; 
262144; 5; 80; 470; 343; 2; 500000;   440.8; 60.66761904014365;  13.763071470087034;349.6; 28.359125515431536;  8.111878007846549; 
262144; 5; 85; 471; 406; 2; 500000;   475.4; 20.69396047159654;  4.352957608665658;363.0; 39.02307009962184;  10.750157052237421; 
262144; 5; 90; 486; 346; 2; 500000;   456.4; 18.97998946258928;  4.158630469454269;359.6; 12.753038853543888;  3.5464512940889565; 
262144; 5; 95; 468; 311; 2; 500000;   468.6; 30.903721458749914;  6.5949042805697635;391.2; 53.014714938401774;  13.551818747035218; 
262144; 5; 100; 501; 409; 2; 500000;   487.4; 27.163210414087654;  5.573083794437352;414.0; 28.58671019897183;  6.905002463519766; 
