textSize; alphaSize; querySize; timeArray; timeTray; expCount; iterations; 
1852441; 5; 10; 484; 235; 2; 500000;  
1852441; 5; 10; 485; 328; 3; 500000;  
1852441; 5; 10; 498; 296; 4; 500000;  
1852441; 5; 10; 501; 265; 5; 500000;  
1852441; 5; 10; 454; 283; 6; 500000;  
1852441; 5; 15; 515; 377; 2; 500000;  
1852441; 5; 15; 516; 377; 3; 500000;  
1852441; 5; 15; 515; 389; 4; 500000;  
1852441; 5; 15; 499; 379; 5; 500000;  
1852441; 5; 15; 530; 454; 6; 500000;  
1852441; 5; 20; 517; 499; 2; 500000;  
1852441; 5; 20; 564; 499; 3; 500000;  
1852441; 5; 20; 530; 373; 4; 500000;  
1852441; 5; 20; 514; 409; 5; 500000;  
1852441; 5; 20; 499; 437; 6; 500000;  
1852441; 5; 25; 533; 421; 2; 500000;  
1852441; 5; 25; 577; 453; 3; 500000;  
1852441; 5; 25; 608; 371; 4; 500000;  
1852441; 5; 25; 625; 377; 5; 500000;  
1852441; 5; 25; 562; 437; 6; 500000;  
1852441; 5; 30; 502; 438; 2; 500000;  
1852441; 5; 30; 516; 436; 3; 500000;  
1852441; 5; 30; 501; 469; 4; 500000;  
1852441; 5; 30; 593; 390; 5; 500000;  
1852441; 5; 30; 530; 421; 6; 500000;  
1852441; 5; 35; 656; 485; 2; 500000;  
1852441; 5; 35; 608; 531; 3; 500000;  
1852441; 5; 35; 561; 436; 4; 500000;  
1852441; 5; 35; 563; 405; 5; 500000;  
1852441; 5; 35; 513; 532; 6; 500000;  
1852441; 5; 40; 625; 467; 2; 500000;  
1852441; 5; 40; 530; 501; 3; 500000;  
1852441; 5; 40; 626; 422; 4; 500000;  
1852441; 5; 40; 532; 514; 5; 500000;  
1852441; 5; 40; 625; 438; 6; 500000;  
1852441; 5; 45; 561; 519; 2; 500000;  
1852441; 5; 45; 656; 500; 3; 500000;  
1852441; 5; 45; 612; 500; 4; 500000;  
1852441; 5; 45; 593; 532; 5; 500000;  
1852441; 5; 45; 625; 469; 6; 500000;  
1852441; 5; 50; 595; 546; 2; 500000;  
1852441; 5; 50; 579; 532; 3; 500000;  
1852441; 5; 50; 625; 482; 4; 500000;  
1852441; 5; 50; 608; 452; 5; 500000;  
1852441; 5; 50; 643; 516; 6; 500000;  
1852441; 5; 55; 577; 594; 2; 500000;  
1852441; 5; 55; 639; 436; 3; 500000;  
1852441; 5; 55; 594; 548; 4; 500000;  
1852441; 5; 55; 641; 516; 5; 500000;  
1852441; 5; 55; 610; 470; 6; 500000;  
1852441; 5; 60; 640; 563; 2; 500000;  
1852441; 5; 60; 641; 580; 3; 500000;  
1852441; 5; 60; 610; 609; 4; 500000;  
1852441; 5; 60; 657; 529; 5; 500000;  
1852441; 5; 60; 563; 465; 6; 500000;  
1852441; 5; 65; 640; 514; 2; 500000;  
1852441; 5; 65; 593; 545; 3; 500000;  
1852441; 5; 65; 626; 452; 4; 500000;  
1852441; 5; 65; 565; 516; 5; 500000;  
1852441; 5; 65; 671; 549; 6; 500000;  
1852441; 5; 70; 656; 515; 2; 500000;  
1852441; 5; 70; 624; 484; 3; 500000;  
1852441; 5; 70; 671; 578; 4; 500000;  
1852441; 5; 70; 625; 595; 5; 500000;  
1852441; 5; 70; 672; 595; 6; 500000;  
1852441; 5; 75; 575; 609; 2; 500000;  
1852441; 5; 75; 656; 593; 3; 500000;  
1852441; 5; 75; 589; 501; 4; 500000;  
1852441; 5; 75; 657; 533; 5; 500000;  
1852441; 5; 75; 656; 578; 6; 500000;  
1852441; 5; 80; 595; 533; 2; 500000;  
1852441; 5; 80; 717; 577; 3; 500000;  
1852441; 5; 80; 610; 546; 4; 500000;  
1852441; 5; 80; 610; 514; 5; 500000;  
1852441; 5; 80; 658; 611; 6; 500000;  
1852441; 5; 85; 688; 673; 2; 500000;  
1852441; 5; 85; 641; 577; 3; 500000;  
1852441; 5; 85; 701; 565; 4; 500000;  
1852441; 5; 85; 609; 578; 5; 500000;  
1852441; 5; 85; 702; 657; 6; 500000;  
1852441; 5; 90; 671; 594; 2; 500000;  
1852441; 5; 90; 610; 547; 3; 500000;  
1852441; 5; 90; 703; 471; 4; 500000;  
1852441; 5; 90; 656; 578; 5; 500000;  
1852441; 5; 90; 671; 626; 6; 500000;  
1852441; 5; 95; 610; 518; 2; 500000;  
1852441; 5; 95; 607; 623; 3; 500000;  
1852441; 5; 95; 705; 609; 4; 500000;  
1852441; 5; 95; 655; 625; 5; 500000;  
1852441; 5; 95; 733; 625; 6; 500000;  
1852441; 5; 100; 717; 609; 2; 500000;  
1852441; 5; 100; 704; 513; 3; 500000;  
1852441; 5; 100; 688; 642; 4; 500000;  
1852441; 5; 100; 750; 625; 5; 500000;  
1852441; 5; 100; 734; 642; 6; 500000;  
