textSize; alphaSize; querySize; timeArray; timeTray; expCount; iterations; avgTimeArray; standardDeviationArray; relativeStdDevArray; avgTimeTray; standardDeviationTray; relativeStdDevTray; 
1852441; 5; 10; 484; 235; 2; 500000;   484.4; 16.644518617250544;  3.4361103668973048;281.4; 31.013545427764303;  11.021160422091082; 
1852441; 5; 15; 515; 377; 2; 500000;   515.0; 9.818350166906862;  1.9064757605644393;395.2; 29.734828064073284;  7.523994955484131; 
1852441; 5; 20; 517; 499; 2; 500000;   524.8; 21.939917957914062;  4.180624610883015;443.4; 49.72564730599291;  11.214625012628082; 
1852441; 5; 25; 533; 421; 2; 500000;   581.0; 32.69862382425291;  5.627990331196715;411.8; 32.535519052260405;  7.900805986464402; 
1852441; 5; 30; 502; 438; 2; 500000;   528.4; 33.99176370828675;  6.43296058067501;430.8; 25.685793738952277;  5.962347664566452; 
1852441; 5; 35; 656; 485; 2; 500000;   580.2; 48.3710657314887;  8.336964104013909;477.8; 50.7282958515265;  10.617056477925177; 
1852441; 5; 40; 625; 467; 2; 500000;   587.6; 46.21947641416982;  7.8658060609547;468.4; 35.27378630087788;  7.530697331528156; 
1852441; 5; 45; 561; 519; 2; 500000;   609.4; 31.727590516772622;  5.20636536212219;504.0; 21.288494545176274;  4.223907647852435; 
1852441; 5; 50; 595; 546; 2; 500000;   610.0; 22.378561169118985;  3.668616585101473;505.6; 34.25551050561063;  6.7752196411413435; 
1852441; 5; 55; 577; 594; 2; 500000;   612.2; 24.991198450654583;  4.082195107914829;512.8; 55.8082431187365;  10.883042729862813; 
1852441; 5; 60; 640; 563; 2; 500000;   622.2; 33.27100840070827;  5.347317325732605;549.2; 49.42226219023164;  8.998955242212608; 
1852441; 5; 65; 640; 514; 2; 500000;   619.0; 36.840195439221006;  5.95156630682084;515.2; 34.71829488900629;  6.738799473797803; 
1852441; 5; 70; 656; 515; 2; 500000;   649.6; 21.265935201631738;  3.273696921433457;553.4; 45.513075044430906;  8.224263650963302; 
1852441; 5; 75; 575; 609; 2; 500000;   626.6; 36.68569203381613;  5.854722635463794;562.8; 39.96198193283211;  7.1005653754143765; 
1852441; 5; 80; 595; 533; 2; 500000;   638.0; 44.85086398275957;  7.029915984758553;556.2; 34.23098012035296;  6.1544372744252; 
1852441; 5; 85; 688; 673; 2; 500000;   668.2; 37.026477013078086;  5.541226730481605;610.0; 45.42246140402345;  7.446305148200566; 
1852441; 5; 90; 671; 594; 2; 500000;   662.2; 30.274741947702875;  4.571842637828884;563.2; 52.677889099697225;  9.353318377076922; 
1852441; 5; 95; 610; 518; 2; 500000;   662.0; 50.33487856347723;  7.603455976356077;600.0; 41.43428532025139;  6.905714220041899; 
1852441; 5; 100; 717; 609; 2; 500000;   718.6; 21.795412361320444;  3.033038179977796;606.2; 48.18879537817894;  7.949322893134103; 
