textSize; alphaSize; querySize; timeArray; timeTray; expCount; iterations; 
262144; 5; 10; 266; 187; 2; 500000;  
262144; 5; 10; 282; 235; 3; 500000;  
262144; 5; 10; 327; 220; 4; 500000;  
262144; 5; 10; 297; 172; 5; 500000;  
262144; 5; 10; 328; 172; 6; 500000;  
262144; 5; 15; 343; 233; 2; 500000;  
262144; 5; 15; 328; 251; 3; 500000;  
262144; 5; 15; 315; 219; 4; 500000;  
262144; 5; 15; 312; 235; 5; 500000;  
262144; 5; 15; 344; 251; 6; 500000;  
262144; 5; 20; 331; 233; 2; 500000;  
262144; 5; 20; 360; 205; 3; 500000;  
262144; 5; 20; 359; 232; 4; 500000;  
262144; 5; 20; 253; 250; 5; 500000;  
262144; 5; 20; 376; 202; 6; 500000;  
262144; 5; 25; 314; 266; 2; 500000;  
262144; 5; 25; 327; 266; 3; 500000;  
262144; 5; 25; 295; 265; 4; 500000;  
262144; 5; 25; 391; 250; 5; 500000;  
262144; 5; 25; 331; 249; 6; 500000;  
262144; 5; 30; 329; 218; 2; 500000;  
262144; 5; 30; 391; 234; 3; 500000;  
262144; 5; 30; 391; 249; 4; 500000;  
262144; 5; 30; 390; 251; 5; 500000;  
262144; 5; 30; 360; 218; 6; 500000;  
262144; 5; 35; 313; 297; 2; 500000;  
262144; 5; 35; 297; 252; 3; 500000;  
262144; 5; 35; 331; 249; 4; 500000;  
262144; 5; 35; 344; 252; 5; 500000;  
262144; 5; 35; 297; 186; 6; 500000;  
262144; 5; 40; 422; 281; 2; 500000;  
262144; 5; 40; 361; 311; 3; 500000;  
262144; 5; 40; 360; 250; 4; 500000;  
262144; 5; 40; 360; 296; 5; 500000;  
262144; 5; 40; 393; 281; 6; 500000;  
262144; 5; 45; 391; 280; 2; 500000;  
262144; 5; 45; 390; 313; 3; 500000;  
262144; 5; 45; 328; 311; 4; 500000;  
262144; 5; 45; 422; 267; 5; 500000;  
262144; 5; 45; 330; 344; 6; 500000;  
262144; 5; 50; 421; 328; 2; 500000;  
262144; 5; 50; 405; 359; 3; 500000;  
262144; 5; 50; 438; 359; 4; 500000;  
262144; 5; 50; 375; 313; 5; 500000;  
262144; 5; 50; 408; 280; 6; 500000;  
262144; 5; 55; 341; 282; 2; 500000;  
262144; 5; 55; 422; 312; 3; 500000;  
262144; 5; 55; 422; 361; 4; 500000;  
262144; 5; 55; 423; 313; 5; 500000;  
262144; 5; 55; 359; 314; 6; 500000;  
262144; 5; 60; 407; 360; 2; 500000;  
262144; 5; 60; 437; 284; 3; 500000;  
262144; 5; 60; 438; 312; 4; 500000;  
262144; 5; 60; 390; 314; 5; 500000;  
262144; 5; 60; 375; 374; 6; 500000;  
262144; 5; 65; 454; 326; 2; 500000;  
262144; 5; 65; 408; 329; 3; 500000;  
262144; 5; 65; 422; 312; 4; 500000;  
262144; 5; 65; 406; 298; 5; 500000;  
262144; 5; 65; 423; 264; 6; 500000;  
262144; 5; 70; 392; 423; 2; 500000;  
262144; 5; 70; 436; 392; 3; 500000;  
262144; 5; 70; 360; 312; 4; 500000;  
262144; 5; 70; 407; 263; 5; 500000;  
262144; 5; 70; 422; 313; 6; 500000;  
262144; 5; 75; 469; 359; 2; 500000;  
262144; 5; 75; 440; 390; 3; 500000;  
262144; 5; 75; 422; 360; 4; 500000;  
262144; 5; 75; 467; 406; 5; 500000;  
262144; 5; 75; 468; 363; 6; 500000;  
262144; 5; 80; 470; 343; 2; 500000;  
262144; 5; 80; 390; 405; 3; 500000;  
262144; 5; 80; 406; 328; 4; 500000;  
262144; 5; 80; 547; 330; 5; 500000;  
262144; 5; 80; 391; 342; 6; 500000;  
262144; 5; 85; 471; 406; 2; 500000;  
262144; 5; 85; 484; 391; 3; 500000;  
262144; 5; 85; 485; 343; 4; 500000;  
262144; 5; 85; 438; 378; 5; 500000;  
262144; 5; 85; 499; 297; 6; 500000;  
262144; 5; 90; 486; 346; 2; 500000;  
262144; 5; 90; 436; 374; 3; 500000;  
262144; 5; 90; 453; 345; 4; 500000;  
262144; 5; 90; 438; 374; 5; 500000;  
262144; 5; 90; 469; 359; 6; 500000;  
262144; 5; 95; 468; 311; 2; 500000;  
262144; 5; 95; 422; 407; 3; 500000;  
262144; 5; 95; 515; 470; 4; 500000;  
262144; 5; 95; 484; 361; 5; 500000;  
262144; 5; 95; 454; 407; 6; 500000;  
262144; 5; 100; 501; 409; 2; 500000;  
262144; 5; 100; 484; 393; 3; 500000;  
262144; 5; 100; 531; 438; 4; 500000;  
262144; 5; 100; 452; 454; 5; 500000;  
262144; 5; 100; 469; 376; 6; 500000;  
