textSize; alphaSize; querySize; time; expCount; 
6085126; 64; 5000; 4409; 0; 
6085126; 64; 10000; 10161; 0; 
6085126; 64; 15000; 13492; 0; 
6085126; 64; 20000; 16328; 0; 
6085126; 64; 25000; 19808; 0; 
6085126; 64; 30000; 23062; 0; 
6085126; 64; 35000; 26256; 0; 
6085126; 64; 40000; 29469; 0; 
6085126; 64; 45000; 31488; 0; 
6085126; 64; 50000; 34522; 0; 
6085126; 64; 55000; 38292; 0; 
6085126; 64; 60000; 41823; 0; 
6085126; 64; 65000; 45054; 0; 
6085126; 64; 70000; 47919; 0; 
6085126; 64; 75000; 50750; 0; 
6085126; 64; 80000; 53391; 0; 
6085126; 64; 85000; 56774; 0; 
6085126; 64; 90000; 62806; 0; 
6085126; 64; 95000; 68450; 0; 
6085126; 64; 5000; 4060; 1; 
6085126; 64; 10000; 9733; 1; 
6085126; 64; 15000; 12753; 1; 
6085126; 64; 20000; 15431; 1; 
6085126; 64; 25000; 19098; 1; 
6085126; 64; 30000; 22159; 1; 
6085126; 64; 35000; 25457; 1; 
6085126; 64; 40000; 28349; 1; 
6085126; 64; 45000; 31373; 1; 
6085126; 64; 50000; 34667; 1; 
6085126; 64; 55000; 38177; 1; 
6085126; 64; 60000; 42018; 1; 
6085126; 64; 65000; 44936; 1; 
6085126; 64; 70000; 48105; 1; 
6085126; 64; 75000; 50688; 1; 
6085126; 64; 80000; 53237; 1; 
6085126; 64; 85000; 56351; 1; 
6085126; 64; 90000; 62658; 1; 
6085126; 64; 95000; 68665; 1; 
6085126; 64; 5000; 4042; 2; 
6085126; 64; 10000; 9751; 2; 
6085126; 64; 15000; 12765; 2; 
6085126; 64; 20000; 15624; 2; 
6085126; 64; 25000; 18877; 2; 
6085126; 64; 30000; 22082; 2; 
6085126; 64; 35000; 25340; 2; 
6085126; 64; 40000; 28328; 2; 
6085126; 64; 45000; 31347; 2; 
6085126; 64; 50000; 35065; 2; 
6085126; 64; 55000; 38887; 2; 
6085126; 64; 60000; 42030; 2; 
6085126; 64; 65000; 44843; 2; 
6085126; 64; 70000; 47875; 2; 
6085126; 64; 75000; 50595; 2; 
6085126; 64; 80000; 53566; 2; 
6085126; 64; 85000; 56709; 2; 
6085126; 64; 90000; 62706; 2; 
6085126; 64; 95000; 68616; 2; 
6085126; 64; 5000; 4359; 3; 
6085126; 64; 10000; 9582; 3; 
6085126; 64; 15000; 12714; 3; 
6085126; 64; 20000; 15437; 3; 
6085126; 64; 25000; 18562; 3; 
6085126; 64; 30000; 22064; 3; 
6085126; 64; 35000; 25096; 3; 
6085126; 64; 40000; 28312; 3; 
6085126; 64; 45000; 31504; 3; 
6085126; 64; 50000; 34396; 3; 
6085126; 64; 55000; 38597; 3; 
6085126; 64; 60000; 41924; 3; 
6085126; 64; 65000; 44964; 3; 
6085126; 64; 70000; 47873; 3; 
6085126; 64; 75000; 50641; 3; 
6085126; 64; 80000; 53317; 3; 
6085126; 64; 85000; 56661; 3; 
6085126; 64; 90000; 62591; 3; 
6085126; 64; 95000; 68630; 3; 
6085126; 64; 5000; 4279; 4; 
6085126; 64; 10000; 9776; 4; 
6085126; 64; 15000; 12889; 4; 
6085126; 64; 20000; 15527; 4; 
6085126; 64; 25000; 19111; 4; 
6085126; 64; 30000; 21713; 4; 
6085126; 64; 35000; 25282; 4; 
6085126; 64; 40000; 28388; 4; 
6085126; 64; 45000; 31355; 4; 
6085126; 64; 50000; 34780; 4; 
6085126; 64; 55000; 38827; 4; 
6085126; 64; 60000; 42031; 4; 
6085126; 64; 65000; 45110; 4; 
6085126; 64; 70000; 47664; 4; 
6085126; 64; 75000; 50794; 4; 
6085126; 64; 80000; 53331; 4; 
6085126; 64; 85000; 56814; 4; 
6085126; 64; 90000; 62517; 4; 
6085126; 64; 95000; 68264; 4; 
6085126; 64; 5000; 4312; 5; 
6085126; 64; 10000; 9686; 5; 
6085126; 64; 15000; 12905; 5; 
6085126; 64; 20000; 15449; 5; 
6085126; 64; 25000; 18829; 5; 
6085126; 64; 30000; 22276; 5; 
6085126; 64; 35000; 25168; 5; 
6085126; 64; 40000; 28248; 5; 
6085126; 64; 45000; 31288; 5; 
6085126; 64; 50000; 34820; 5; 
6085126; 64; 55000; 38796; 5; 
6085126; 64; 60000; 41971; 5; 
6085126; 64; 65000; 45108; 5; 
6085126; 64; 70000; 47991; 5; 
6085126; 64; 75000; 50537; 5; 
6085126; 64; 80000; 53314; 5; 
6085126; 64; 85000; 56812; 5; 
6085126; 64; 90000; 62780; 5; 
6085126; 64; 95000; 68569; 5; 
6085126; 64; 5000; 4232; 6; 
6085126; 64; 10000; 9711; 6; 
6085126; 64; 15000; 12735; 6; 
6085126; 64; 20000; 15587; 6; 
6085126; 64; 25000; 19254; 6; 
6085126; 64; 30000; 22312; 6; 
6085126; 64; 35000; 25317; 6; 
6085126; 64; 40000; 28598; 6; 
6085126; 64; 45000; 31295; 6; 
6085126; 64; 50000; 34712; 6; 
6085126; 64; 55000; 38904; 6; 
6085126; 64; 60000; 41977; 6; 
6085126; 64; 65000; 44746; 6; 
6085126; 64; 70000; 47956; 6; 
6085126; 64; 75000; 50518; 6; 
6085126; 64; 80000; 53737; 6; 
6085126; 64; 85000; 56657; 6; 
6085126; 64; 90000; 62576; 6; 
6085126; 64; 95000; 68517; 6; 
