textSize; alphaSize; querySize; timeTree; timeArray; timeTray; expCount; iterations; avgTimeTree; standardDeviationTree; relativeStdDevTree; avgTimeArray; standardDeviationArray; relativeStdDevArray; avgTimeTray; standardDeviationTray; relativeStdDevTray; 
262144; 81; 100; 424; 218; 141; 2; 250000;   413.2; 12.687001221722964;  3.0704262395263706;237.6; 15.200000000000001;  6.397306397306397;156.4; 16.799999999999997;  10.74168797953964; 
262144; 81; 200; 530; 313; 282; 2; 250000;   527.6; 11.943198901466893;  2.2636844013394413;312.4; 35.79161913074064;  11.456984356831192;275.2; 15.778466338652816;  5.733454338173262; 
262144; 81; 300; 625; 358; 345; 2; 250000;   622.0; 18.35211159512714;  2.950500256451309;390.4; 22.222511109233356;  5.692241575111003;331.8; 27.22792683991934;  8.206126232645973; 
262144; 81; 400; 703; 516; 469; 2; 250000;   697.2; 20.439178065665946;  2.931609016876928;500.2; 31.102411482070004;  6.217995098374651;419.0; 26.630809225406576;  6.35580172444071; 
262144; 81; 500; 781; 530; 547; 2; 250000;   762.6; 24.952755358877706;  3.272063383015697;568.4; 32.56132675429551;  5.728593728764164;522.2; 16.004999218994044;  3.0649175065097745; 
262144; 81; 600; 828; 625; 579; 2; 250000;   853.8; 21.618510586994656;  2.5320345030445837;650.6; 21.4158819570897;  3.291712566414033;597.0; 18.18790807102345;  3.0465507656655695; 
262144; 81; 700; 969; 703; 687; 2; 250000;   934.6; 55.40613684421609;  5.9283262191543;744.2; 27.46197370911275;  3.6901335271583915;665.6; 18.87432117984644;  2.8356852734144287; 
262144; 81; 800; 1046; 735; 767; 2; 250000;   1009.0; 42.67551991481768;  4.229486611974002;802.8; 39.856743469581154;  4.964716426205924;769.0; 14.710540438746634;  1.912944140279146; 
262144; 81; 900; 1078; 938; 828; 2; 250000;   1062.0; 27.254357449773053;  2.5663236770031124;887.6; 36.081019941237805;  4.065009006448603;874.6; 39.76732326923702;  4.546915535014523; 
262144; 81; 1000; 1186; 952; 937; 2; 250000;   1159.6; 26.92656680678025;  2.3220564683322054;1015.8; 35.89094593348022;  3.533268944032311;931.0; 12.016655108639842;  1.2907255755789304; 
262144; 81; 1100; 1235; 1062; 1033; 2; 250000;   1250.2; 17.232527382830412;  1.378381649562503;1052.6; 7.683749084919419;  0.729978062409217;1031.2; 33.01151314314447;  3.201271639172272; 
262144; 81; 1200; 1344; 1140; 1014; 2; 250000;   1341.0; 29.93325909419153;  2.2321595148539544;1141.8; 18.72324758154952;  1.6398009792914274;1087.4; 69.1508495970946;  6.359283575234008; 
262144; 81; 1300; 1358; 1156; 1141; 2; 250000;   1384.6; 32.041223447303004;  2.3141140724615776;1200.0; 27.09243436828813;  2.257702864024011;1191.2; 36.19060651605607;  3.038163743792484; 
262144; 81; 1400; 1501; 1297; 1218; 2; 250000;   1506.2; 15.84171707865028;  1.051767167617201;1297.2; 16.98705389406886;  1.309516951439166;1239.8; 19.281078807992046;  1.5551765452485922; 
262144; 81; 1500; 1486; 1422; 1312; 2; 250000;   1518.8; 57.43657371396731;  3.7817075134295046;1388.0; 30.139674848942878;  2.1714463147653373;1337.8; 47.604201495246194;  3.5583944905999547; 
262144; 81; 1600; 1687; 1483; 1469; 2; 250000;   1621.4; 37.70729372415899;  2.3256009451189703;1447.0; 20.813457185196313;  1.4383868130750734;1408.8; 51.46804834069386;  3.6533254074882073; 
262144; 81; 1700; 1705; 1609; 1514; 2; 250000;   1741.0; 36.753231150471656;  2.1110414216238746;1572.4; 20.78076033257686;  1.3215950351422578;1487.4; 14.677874505527019;  0.9868142063686309; 
262144; 81; 1800; 1796; 1576; 1608; 2; 250000;   1813.8; 22.38213573366045;  1.2339913845881825;1624.2; 44.732091388621654;  2.7540999500444316;1581.8; 41.6;  2.6299152863826025; 
262144; 81; 1900; 1861; 1607; 1674; 2; 250000;   1878.6; 18.095303258028036;  0.9632334322382644;1687.8; 67.75662329248706;  4.014493618467061;1648.6; 46.75724542784787;  2.836178905001084; 
262144; 81; 2000; 1938; 1718; 1673; 2; 250000;   1960.0; 39.824615503479755;  2.0318681379326406;1759.2; 47.788701593577535;  2.7165019095939935;1728.8; 64.2102795508632;  3.714153143849098; 
