textLength; logTextLength; gradient; constant; stdDev;gradientAVG; constantAVG; 
128; 7; 50.6082; 1578;                        109.66;50.363080000000004; 208.41316200244543; 
256; 8; 50.8272; 1670.3;                       75.027;50.363080000000004; 208.41316200244543; 
512; 9; 51.552; 1778.94;                       84.6141;50.363080000000004; 208.41316200244543; 
1024; 10; 50.6754; 2007.97;                    95.4996;50.363080000000004; 208.41316200244543; 
2048; 11; 50.225; 2223.78;                     73.4964;50.363080000000004; 208.41316200244543; 
4096; 12; 50.3738; 2410.25;                    87.6909;50.363080000000004; 208.41316200244543; 
8192; 13; 50.4508; 2602;                       57.2919;50.363080000000004; 208.41316200244543; 
16384; 14; 50.1818;2863.55;                   103.644;50.363080000000004; 208.41316200244543; 
32768; 15; 49.9247; 3072.74;                   91.0661;50.363080000000004; 208.41316200244543; 
65536; 16; 50.6003; 3269.42;                  121.776;50.363080000000004; 208.41316200244543; 
131072; 17; 50.0897; 3549.37;                  96.8662;50.363080000000004; 208.41316200244543; 
262144; 18; 50.676; 3719.31;                   68.2982;50.363080000000004; 208.41316200244543; 
524288; 19; 51.0508; 3865.35;                 120.425;50.363080000000004; 208.41316200244543; 
1048576; 20; 49.8726;4344.41;                 156.031;50.363080000000004; 208.41316200244543; 
2097152;21; 48.3379;5051.6;                   172.992;50.363080000000004; 208.41316200244543; 
