textSize; alphaSize; querySize; time; expCount; iterations;  
256; 16; 10; 2221; 0; 15000000;  
256; 16; 10; 2262; 1; 15000000;  
256; 16; 10; 2310; 2; 15000000;  
256; 16; 10; 2240; 3; 15000000;  
256; 16; 10; 2122; 4; 15000000;  
256; 16; 10; 2269; 5; 15000000;  
256; 16; 10; 2346; 6; 15000000;  
256; 16; 20; 2756; 0; 15000000;  
256; 16; 20; 2393; 1; 15000000;  
256; 16; 20; 2535; 2; 15000000;  
256; 16; 20; 2797; 3; 15000000;  
256; 16; 20; 2859; 4; 15000000;  
256; 16; 20; 2471; 5; 15000000;  
256; 16; 20; 2426; 6; 15000000;  
256; 16; 30; 2882; 0; 15000000;  
256; 16; 30; 3608; 1; 15000000;  
256; 16; 30; 3051; 2; 15000000;  
256; 16; 30; 2808; 3; 15000000;  
256; 16; 30; 3194; 4; 15000000;  
256; 16; 30; 3059; 5; 15000000;  
256; 16; 30; 3002; 6; 15000000;  
256; 16; 40; 3736; 0; 15000000;  
256; 16; 40; 3589; 1; 15000000;  
256; 16; 40; 3828; 2; 15000000;  
256; 16; 40; 3592; 3; 15000000;  
256; 16; 40; 3663; 4; 15000000;  
256; 16; 40; 3798; 5; 15000000;  
256; 16; 40; 3700; 6; 15000000;  
256; 16; 50; 3997; 0; 15000000;  
256; 16; 50; 3953; 1; 15000000;  
256; 16; 50; 4207; 2; 15000000;  
256; 16; 50; 4012; 3; 15000000;  
256; 16; 50; 4408; 4; 15000000;  
256; 16; 50; 4248; 5; 15000000;  
256; 16; 50; 4106; 6; 15000000;  
256; 16; 60; 4501; 0; 15000000;  
256; 16; 60; 4730; 1; 15000000;  
256; 16; 60; 4772; 2; 15000000;  
256; 16; 60; 4833; 3; 15000000;  
256; 16; 60; 4733; 4; 15000000;  
256; 16; 60; 4524; 5; 15000000;  
256; 16; 60; 4599; 6; 15000000;  
256; 16; 70; 5155; 0; 15000000;  
256; 16; 70; 5562; 1; 15000000;  
256; 16; 70; 5240; 2; 15000000;  
256; 16; 70; 5447; 3; 15000000;  
256; 16; 70; 5485; 4; 15000000;  
256; 16; 70; 5407; 5; 15000000;  
256; 16; 70; 5364; 6; 15000000;  
256; 16; 80; 5714; 0; 15000000;  
256; 16; 80; 5600; 1; 15000000;  
256; 16; 80; 5658; 2; 15000000;  
256; 16; 80; 5532; 3; 15000000;  
256; 16; 80; 5720; 4; 15000000;  
256; 16; 80; 5715; 5; 15000000;  
256; 16; 80; 5987; 6; 15000000;  
256; 16; 90; 6490; 0; 15000000;  
256; 16; 90; 6532; 1; 15000000;  
256; 16; 90; 6476; 2; 15000000;  
256; 16; 90; 6058; 3; 15000000;  
256; 16; 90; 6396; 4; 15000000;  
256; 16; 90; 6174; 5; 15000000;  
256; 16; 90; 6263; 6; 15000000;  
256; 16; 100; 6817; 0; 15000000;  
256; 16; 100; 6725; 1; 15000000;  
256; 16; 100; 6732; 2; 15000000;  
256; 16; 100; 6596; 3; 15000000;  
256; 16; 100; 6875; 4; 15000000;  
256; 16; 100; 6933; 5; 15000000;  
256; 16; 100; 6813; 6; 15000000;  
256; 16; 110; 7330; 0; 15000000;  
256; 16; 110; 7168; 1; 15000000;  
256; 16; 110; 7381; 2; 15000000;  
256; 16; 110; 7124; 3; 15000000;  
256; 16; 110; 7211; 4; 15000000;  
256; 16; 110; 7373; 5; 15000000;  
256; 16; 110; 7592; 6; 15000000;  
256; 16; 120; 7416; 0; 15000000;  
256; 16; 120; 7779; 1; 15000000;  
256; 16; 120; 7564; 2; 15000000;  
256; 16; 120; 8015; 3; 15000000;  
256; 16; 120; 8015; 4; 15000000;  
256; 16; 120; 7672; 5; 15000000;  
256; 16; 120; 7624; 6; 15000000;  
256; 16; 130; 8154; 0; 15000000;  
256; 16; 130; 8326; 1; 15000000;  
256; 16; 130; 8373; 2; 15000000;  
256; 16; 130; 8217; 3; 15000000;  
256; 16; 130; 8576; 4; 15000000;  
256; 16; 130; 8045; 5; 15000000;  
256; 16; 130; 8315; 6; 15000000;  
256; 16; 140; 8688; 0; 15000000;  
256; 16; 140; 8714; 1; 15000000;  
256; 16; 140; 9017; 2; 15000000;  
256; 16; 140; 8697; 3; 15000000;  
256; 16; 140; 8814; 4; 15000000;  
256; 16; 140; 8792; 5; 15000000;  
256; 16; 140; 8832; 6; 15000000;  
256; 16; 150; 9471; 0; 15000000;  
256; 16; 150; 9075; 1; 15000000;  
256; 16; 150; 9324; 2; 15000000;  
256; 16; 150; 9241; 3; 15000000;  
256; 16; 150; 9245; 4; 15000000;  
256; 16; 150; 9397; 5; 15000000;  
256; 16; 150; 8916; 6; 15000000;  
256; 16; 160; 9733; 0; 15000000;  
256; 16; 160; 9849; 1; 15000000;  
256; 16; 160; 9706; 2; 15000000;  
256; 16; 160; 9806; 3; 15000000;  
256; 16; 160; 9797; 4; 15000000;  
256; 16; 160; 9831; 5; 15000000;  
256; 16; 160; 9693; 6; 15000000;  
256; 16; 170; 10152; 0; 15000000;  
256; 16; 170; 10076; 1; 15000000;  
256; 16; 170; 10323; 2; 15000000;  
256; 16; 170; 10117; 3; 15000000;  
256; 16; 170; 10137; 4; 15000000;  
256; 16; 170; 10301; 5; 15000000;  
256; 16; 170; 10397; 6; 15000000;  
256; 16; 180; 10826; 0; 15000000;  
256; 16; 180; 10777; 1; 15000000;  
256; 16; 180; 10620; 2; 15000000;  
256; 16; 180; 10764; 3; 15000000;  
256; 16; 180; 10950; 4; 15000000;  
256; 16; 180; 10832; 5; 15000000;  
256; 16; 180; 10594; 6; 15000000;  
256; 16; 190; 11332; 0; 15000000;  
256; 16; 190; 11436; 1; 15000000;  
256; 16; 190; 11391; 2; 15000000;  
256; 16; 190; 11251; 3; 15000000;  
256; 16; 190; 11327; 4; 15000000;  
256; 16; 190; 11387; 5; 15000000;  
256; 16; 190; 11728; 6; 15000000;  
256; 16; 200; 11590; 0; 15000000;  
256; 16; 200; 11525; 1; 15000000;  
256; 16; 200; 11790; 2; 15000000;  
256; 16; 200; 11717; 3; 15000000;  
256; 16; 200; 11711; 4; 15000000;  
256; 16; 200; 11875; 5; 15000000;  
256; 16; 200; 11915; 6; 15000000;  
