textSize; alphaSize; querySize; time; expCount; iterations;   ConstantAvgTime; ConstantStandardDeviation; ConstantRelativeStdDev; 
512; 16; 10; 2405; 2; 15000000;    2425.0; 121.61743296090408;  5.015151874676457; 
512; 16; 20; 2681; 2; 15000000;    2754.2; 117.66630783703548;  4.272249939620779; 
512; 16; 30; 3282; 2; 15000000;    3351.2; 85.99395327579725;  2.566064492593616; 
512; 16; 40; 3760; 2; 15000000;    3790.4; 96.76073583845877;  2.552784292909951; 
512; 16; 50; 4335; 2; 15000000;    4419.4; 228.65922242498772;  5.17398792652821; 
512; 16; 60; 4782; 2; 15000000;    4824.6; 63.4999212597937;  1.3161696567548336; 
512; 16; 70; 5536; 2; 15000000;    5440.4; 80.69349416154935;  1.483227228908708; 
512; 16; 80; 6212; 2; 15000000;    5979.0; 135.32036062618218;  2.2632607564171634; 
512; 16; 90; 6362; 2; 15000000;    6448.4; 56.61307269527066;  0.8779398408174224; 
512; 16; 100; 6922; 2; 15000000;    6798.8; 133.60149699760103;  1.9650746749073518; 
512; 16; 110; 7314; 2; 15000000;    7364.8; 114.3737732174645;  1.5529786717557095; 
512; 16; 120; 8020; 2; 15000000;    7883.8; 96.30451702801899;  1.2215494688858037; 
512; 16; 130; 8494; 2; 15000000;    8382.0; 73.10266752998827;  0.8721387202336944; 
512; 16; 140; 9062; 2; 15000000;    9039.0; 24.322828782853364;  0.2690876068464804; 
512; 16; 150; 9541; 2; 15000000;    9463.8; 111.53008562715264;  1.1784915744960023; 
512; 16; 160; 9989; 2; 15000000;    10026.8; 96.05290209046262;  0.9579616835925983; 
512; 16; 170; 10639; 2; 15000000;    10633.0; 120.03332870498926;  1.128875469810865; 
512; 16; 180; 10920; 2; 15000000;    11011.4; 137.92113688626554;  1.2525304401462625; 
512; 16; 190; 11645; 2; 15000000;    11534.0; 105.62007384962388;  0.9157280548779598; 
512; 16; 200; 12238; 2; 15000000;    12268.0; 41.264997273718556;  0.3363628731147583; 
