textSize; alphaSize; querySize; time; expCount; iterations; 
65536; 16; 10; 3807; 0; 15000000; 
65536; 16; 20; 4183; 0; 15000000; 
65536; 16; 30; 4807; 0; 15000000; 
65536; 16; 40; 5276; 0; 15000000; 
65536; 16; 50; 5563; 0; 15000000; 
65536; 16; 60; 6443; 0; 15000000; 
65536; 16; 70; 6594; 0; 15000000; 
65536; 16; 80; 7327; 0; 15000000; 
65536; 16; 90; 7622; 0; 15000000; 
65536; 16; 100; 8191; 0; 15000000; 
65536; 16; 110; 8782; 0; 15000000; 
65536; 16; 120; 9167; 0; 15000000; 
65536; 16; 130; 10018; 0; 15000000; 
65536; 16; 140; 10449; 0; 15000000; 
65536; 16; 150; 10944; 0; 15000000; 
65536; 16; 160; 11070; 0; 15000000; 
65536; 16; 170; 11907; 0; 15000000; 
65536; 16; 180; 12469; 0; 15000000; 
65536; 16; 190; 12936; 0; 15000000; 
65536; 16; 200; 13389; 0; 15000000; 
65536; 16; 10; 3605; 1; 15000000; 
65536; 16; 20; 4051; 1; 15000000; 
65536; 16; 30; 4677; 1; 15000000; 
65536; 16; 40; 5098; 1; 15000000; 
65536; 16; 50; 5561; 1; 15000000; 
65536; 16; 60; 6068; 1; 15000000; 
65536; 16; 70; 6962; 1; 15000000; 
65536; 16; 80; 7314; 1; 15000000; 
65536; 16; 90; 7866; 1; 15000000; 
65536; 16; 100; 8278; 1; 15000000; 
65536; 16; 110; 8733; 1; 15000000; 
65536; 16; 120; 9395; 1; 15000000; 
65536; 16; 130; 10049; 1; 15000000; 
65536; 16; 140; 10296; 1; 15000000; 
65536; 16; 150; 10783; 1; 15000000; 
65536; 16; 160; 11190; 1; 15000000; 
65536; 16; 170; 11965; 1; 15000000; 
65536; 16; 180; 12258; 1; 15000000; 
65536; 16; 190; 12579; 1; 15000000; 
65536; 16; 200; 13112; 1; 15000000; 
65536; 16; 10; 3704; 2; 15000000; 
65536; 16; 20; 4282; 2; 15000000; 
65536; 16; 30; 4823; 2; 15000000; 
65536; 16; 40; 5396; 2; 15000000; 
65536; 16; 50; 5698; 2; 15000000; 
65536; 16; 60; 6060; 2; 15000000; 
65536; 16; 70; 6728; 2; 15000000; 
65536; 16; 80; 7453; 2; 15000000; 
65536; 16; 90; 7820; 2; 15000000; 
65536; 16; 100; 8340; 2; 15000000; 
65536; 16; 110; 8753; 2; 15000000; 
65536; 16; 120; 9299; 2; 15000000; 
65536; 16; 130; 9934; 2; 15000000; 
65536; 16; 140; 10177; 2; 15000000; 
65536; 16; 150; 11075; 2; 15000000; 
65536; 16; 160; 11553; 2; 15000000; 
65536; 16; 170; 12059; 2; 15000000; 
65536; 16; 180; 12253; 2; 15000000; 
65536; 16; 190; 12684; 2; 15000000; 
65536; 16; 200; 13102; 2; 15000000; 
65536; 16; 10; 3958; 3; 15000000; 
65536; 16; 20; 4351; 3; 15000000; 
65536; 16; 30; 5116; 3; 15000000; 
65536; 16; 40; 5603; 3; 15000000; 
65536; 16; 50; 5709; 3; 15000000; 
65536; 16; 60; 6406; 3; 15000000; 
65536; 16; 70; 7149; 3; 15000000; 
65536; 16; 80; 7333; 3; 15000000; 
65536; 16; 90; 8246; 3; 15000000; 
65536; 16; 100; 8329; 3; 15000000; 
65536; 16; 110; 9000; 3; 15000000; 
65536; 16; 120; 9605; 3; 15000000; 
65536; 16; 130; 10373; 3; 15000000; 
65536; 16; 140; 10155; 3; 15000000; 
65536; 16; 150; 10973; 3; 15000000; 
65536; 16; 160; 11230; 3; 15000000; 
65536; 16; 170; 11906; 3; 15000000; 
65536; 16; 180; 12274; 3; 15000000; 
65536; 16; 190; 12658; 3; 15000000; 
65536; 16; 200; 13177; 3; 15000000; 
65536; 16; 10; 3415; 4; 15000000; 
65536; 16; 20; 3819; 4; 15000000; 
65536; 16; 30; 4770; 4; 15000000; 
65536; 16; 40; 5022; 4; 15000000; 
65536; 16; 50; 5719; 4; 15000000; 
65536; 16; 60; 6313; 4; 15000000; 
65536; 16; 70; 6945; 4; 15000000; 
65536; 16; 80; 7483; 4; 15000000; 
65536; 16; 90; 7946; 4; 15000000; 
65536; 16; 100; 8453; 4; 15000000; 
65536; 16; 110; 8928; 4; 15000000; 
65536; 16; 120; 9435; 4; 15000000; 
65536; 16; 130; 9862; 4; 15000000; 
65536; 16; 140; 10704; 4; 15000000; 
65536; 16; 150; 10815; 4; 15000000; 
65536; 16; 160; 11374; 4; 15000000; 
65536; 16; 170; 12011; 4; 15000000; 
65536; 16; 180; 12314; 4; 15000000; 
65536; 16; 190; 12701; 4; 15000000; 
65536; 16; 200; 13173; 4; 15000000; 
65536; 16; 10; 3563; 5; 15000000; 
65536; 16; 20; 4310; 5; 15000000; 
65536; 16; 30; 4879; 5; 15000000; 
65536; 16; 40; 4992; 5; 15000000; 
65536; 16; 50; 5914; 5; 15000000; 
65536; 16; 60; 6113; 5; 15000000; 
65536; 16; 70; 6967; 5; 15000000; 
65536; 16; 80; 7110; 5; 15000000; 
65536; 16; 90; 7904; 5; 15000000; 
65536; 16; 100; 8374; 5; 15000000; 
65536; 16; 110; 8884; 5; 15000000; 
65536; 16; 120; 9267; 5; 15000000; 
65536; 16; 130; 10064; 5; 15000000; 
65536; 16; 140; 10519; 5; 15000000; 
65536; 16; 150; 11016; 5; 15000000; 
65536; 16; 160; 11323; 5; 15000000; 
65536; 16; 170; 12094; 5; 15000000; 
65536; 16; 180; 12083; 5; 15000000; 
65536; 16; 190; 12804; 5; 15000000; 
65536; 16; 200; 12940; 5; 15000000; 
65536; 16; 10; 3484; 6; 15000000; 
65536; 16; 20; 4422; 6; 15000000; 
65536; 16; 30; 4648; 6; 15000000; 
65536; 16; 40; 4773; 6; 15000000; 
65536; 16; 50; 5436; 6; 15000000; 
65536; 16; 60; 6265; 6; 15000000; 
65536; 16; 70; 7039; 6; 15000000; 
65536; 16; 80; 7449; 6; 15000000; 
65536; 16; 90; 7721; 6; 15000000; 
65536; 16; 100; 8605; 6; 15000000; 
65536; 16; 110; 8778; 6; 15000000; 
65536; 16; 120; 9376; 6; 15000000; 
65536; 16; 130; 9913; 6; 15000000; 
65536; 16; 140; 10452; 6; 15000000; 
65536; 16; 150; 10755; 6; 15000000; 
65536; 16; 160; 11458; 6; 15000000; 
65536; 16; 170; 12022; 6; 15000000; 
65536; 16; 180; 12463; 6; 15000000; 
65536; 16; 190; 12730; 6; 15000000; 
65536; 16; 200; 13390; 6; 15000000; 
