textSize; alphaSize; querySize; time; expCount; iterations;   
8192; 16; 10; 3097; 2; 15000000;   
8192; 16; 10; 3139; 3; 15000000;   
8192; 16; 10; 3108; 4; 15000000;   
8192; 16; 10; 3078; 5; 15000000;   
8192; 16; 10; 3175; 6; 15000000;   
8192; 16; 20; 3675; 2; 15000000;   
8192; 16; 20; 3500; 3; 15000000;   
8192; 16; 20; 3564; 4; 15000000;   
8192; 16; 20; 3813; 5; 15000000;   
8192; 16; 20; 3624; 6; 15000000;   
8192; 16; 30; 4184; 2; 15000000;   
8192; 16; 30; 4158; 3; 15000000;   
8192; 16; 30; 4182; 4; 15000000;   
8192; 16; 30; 3876; 5; 15000000;   
8192; 16; 30; 4083; 6; 15000000;   
8192; 16; 40; 4732; 2; 15000000;   
8192; 16; 40; 4766; 3; 15000000;   
8192; 16; 40; 4551; 4; 15000000;   
8192; 16; 40; 4509; 5; 15000000;   
8192; 16; 40; 4564; 6; 15000000;   
8192; 16; 50; 5012; 2; 15000000;   
8192; 16; 50; 5059; 3; 15000000;   
8192; 16; 50; 5591; 4; 15000000;   
8192; 16; 50; 4986; 5; 15000000;   
8192; 16; 50; 5060; 6; 15000000;   
8192; 16; 60; 5767; 2; 15000000;   
8192; 16; 60; 5639; 3; 15000000;   
8192; 16; 60; 5782; 4; 15000000;   
8192; 16; 60; 5624; 5; 15000000;   
8192; 16; 60; 5402; 6; 15000000;   
8192; 16; 70; 5892; 2; 15000000;   
8192; 16; 70; 6056; 3; 15000000;   
8192; 16; 70; 6033; 4; 15000000;   
8192; 16; 70; 5691; 5; 15000000;   
8192; 16; 70; 6088; 6; 15000000;   
8192; 16; 80; 6679; 2; 15000000;   
8192; 16; 80; 6733; 3; 15000000;   
8192; 16; 80; 6526; 4; 15000000;   
8192; 16; 80; 6600; 5; 15000000;   
8192; 16; 80; 6986; 6; 15000000;   
8192; 16; 90; 7202; 2; 15000000;   
8192; 16; 90; 7081; 3; 15000000;   
8192; 16; 90; 6968; 4; 15000000;   
8192; 16; 90; 7180; 5; 15000000;   
8192; 16; 90; 7190; 6; 15000000;   
8192; 16; 100; 7692; 2; 15000000;   
8192; 16; 100; 7891; 3; 15000000;   
8192; 16; 100; 7657; 4; 15000000;   
8192; 16; 100; 7375; 5; 15000000;   
8192; 16; 100; 7559; 6; 15000000;   
8192; 16; 110; 8421; 2; 15000000;   
8192; 16; 110; 7997; 3; 15000000;   
8192; 16; 110; 8148; 4; 15000000;   
8192; 16; 110; 8039; 5; 15000000;   
8192; 16; 110; 8267; 6; 15000000;   
8192; 16; 120; 8639; 2; 15000000;   
8192; 16; 120; 8729; 3; 15000000;   
8192; 16; 120; 8248; 4; 15000000;   
8192; 16; 120; 8749; 5; 15000000;   
8192; 16; 120; 8829; 6; 15000000;   
8192; 16; 130; 9144; 2; 15000000;   
8192; 16; 130; 9439; 3; 15000000;   
8192; 16; 130; 8894; 4; 15000000;   
8192; 16; 130; 9153; 5; 15000000;   
8192; 16; 130; 9254; 6; 15000000;   
8192; 16; 140; 9830; 2; 15000000;   
8192; 16; 140; 9790; 3; 15000000;   
8192; 16; 140; 9593; 4; 15000000;   
8192; 16; 140; 9649; 5; 15000000;   
8192; 16; 140; 9830; 6; 15000000;   
8192; 16; 150; 9951; 2; 15000000;   
8192; 16; 150; 10276; 3; 15000000;   
8192; 16; 150; 10108; 4; 15000000;   
8192; 16; 150; 10492; 5; 15000000;   
8192; 16; 150; 10160; 6; 15000000;   
8192; 16; 160; 10858; 2; 15000000;   
8192; 16; 160; 10983; 3; 15000000;   
8192; 16; 160; 10585; 4; 15000000;   
8192; 16; 160; 10721; 5; 15000000;   
8192; 16; 160; 10588; 6; 15000000;   
8192; 16; 170; 11184; 2; 15000000;   
8192; 16; 170; 11037; 3; 15000000;   
8192; 16; 170; 11206; 4; 15000000;   
8192; 16; 170; 11244; 5; 15000000;   
8192; 16; 170; 11350; 6; 15000000;   
8192; 16; 180; 11521; 2; 15000000;   
8192; 16; 180; 11704; 3; 15000000;   
8192; 16; 180; 11903; 4; 15000000;   
8192; 16; 180; 11572; 5; 15000000;   
8192; 16; 180; 11466; 6; 15000000;   
8192; 16; 190; 12243; 2; 15000000;   
8192; 16; 190; 12334; 3; 15000000;   
8192; 16; 190; 12118; 4; 15000000;   
8192; 16; 190; 12097; 5; 15000000;   
8192; 16; 190; 12045; 6; 15000000;   
8192; 16; 200; 12828; 2; 15000000;   
8192; 16; 200; 12307; 3; 15000000;   
8192; 16; 200; 12615; 4; 15000000;   
8192; 16; 200; 12769; 5; 15000000;   
8192; 16; 200; 12647; 6; 15000000;   
