textSize; alphaSize; querySize; time; expCount; iterations;   ConstantAvgTime; ConstantStandardDeviation; ConstantRelativeStdDev; 
65536; 16; 10; 3704; 2; 15000000;    3624.8; 192.33034082016286;  5.3059573168219725; 
65536; 16; 20; 4282; 2; 15000000;    4236.8; 214.14892014670536;  5.054496793492857; 
65536; 16; 30; 4823; 2; 15000000;    4847.2; 154.5902972375692;  3.189270037084692; 
65536; 16; 40; 5396; 2; 15000000;    5157.2; 299.6473927802476;  5.8102728763718225; 
65536; 16; 50; 5698; 2; 15000000;    5695.2; 152.19908015490765;  2.6724097512801595; 
65536; 16; 60; 6060; 2; 15000000;    6231.4; 127.8039123031842;  2.0509662724778415; 
65536; 16; 70; 6728; 2; 15000000;    6965.6; 138.49418760366802;  1.988259268457391; 
65536; 16; 80; 7453; 2; 15000000;    7365.6; 137.6743984915133;  1.869153884157615; 
65536; 16; 90; 7820; 2; 15000000;    7927.4; 176.93795522724906;  2.231979655716238; 
65536; 16; 100; 8340; 2; 15000000;    8420.2; 102.08898079616624;  1.2124294054317741; 
65536; 16; 110; 8753; 2; 15000000;    8868.6; 92.30731281973277;  1.0408329704771075; 
65536; 16; 120; 9299; 2; 15000000;    9396.4; 119.70898044841915;  1.273987702188276; 
65536; 16; 130; 9934; 2; 15000000;    10029.2; 184.35335635675312;  1.8381661185015066; 
65536; 16; 140; 10177; 2; 15000000;    10401.4; 209.29653604395847;  2.0121958202161103; 
65536; 16; 150; 11075; 2; 15000000;    10926.8; 121.7117907188946;  1.1138832111770565; 
65536; 16; 160; 11553; 2; 15000000;    11387.6; 110.91366011452331;  0.9739862667684438; 
65536; 16; 170; 12059; 2; 15000000;    12018.4; 63.34855957320577;  0.5270964485555962; 
65536; 16; 180; 12253; 2; 15000000;    12277.4; 121.80738893843836;  0.9921269074758367; 
65536; 16; 190; 12684; 2; 15000000;    12715.4; 50.10229535660018;  0.3940284643550355; 
65536; 16; 200; 13102; 2; 15000000;    13156.4; 144.95323383767607;  1.1017697382085987; 
