textSize; alphaSize; querySize; time; expCount; iterations;   
131072; 16; 10; 3927; 2; 15000000;   
131072; 16; 10; 4075; 3; 15000000;   
131072; 16; 10; 3961; 4; 15000000;   
131072; 16; 10; 4071; 5; 15000000;   
131072; 16; 10; 4153; 6; 15000000;   
131072; 16; 20; 4389; 2; 15000000;   
131072; 16; 20; 4718; 3; 15000000;   
131072; 16; 20; 4610; 4; 15000000;   
131072; 16; 20; 4334; 5; 15000000;   
131072; 16; 20; 4476; 6; 15000000;   
131072; 16; 30; 4928; 2; 15000000;   
131072; 16; 30; 5188; 3; 15000000;   
131072; 16; 30; 5142; 4; 15000000;   
131072; 16; 30; 4998; 5; 15000000;   
131072; 16; 30; 5046; 6; 15000000;   
131072; 16; 40; 5573; 2; 15000000;   
131072; 16; 40; 5283; 3; 15000000;   
131072; 16; 40; 5270; 4; 15000000;   
131072; 16; 40; 5185; 5; 15000000;   
131072; 16; 40; 5364; 6; 15000000;   
131072; 16; 50; 5891; 2; 15000000;   
131072; 16; 50; 5989; 3; 15000000;   
131072; 16; 50; 6513; 4; 15000000;   
131072; 16; 50; 5598; 5; 15000000;   
131072; 16; 50; 6154; 6; 15000000;   
131072; 16; 60; 6454; 2; 15000000;   
131072; 16; 60; 6736; 3; 15000000;   
131072; 16; 60; 6417; 4; 15000000;   
131072; 16; 60; 6585; 5; 15000000;   
131072; 16; 60; 6537; 6; 15000000;   
131072; 16; 70; 7112; 2; 15000000;   
131072; 16; 70; 7097; 3; 15000000;   
131072; 16; 70; 7193; 4; 15000000;   
131072; 16; 70; 7263; 5; 15000000;   
131072; 16; 70; 6941; 6; 15000000;   
131072; 16; 80; 7505; 2; 15000000;   
131072; 16; 80; 7845; 3; 15000000;   
131072; 16; 80; 7551; 4; 15000000;   
131072; 16; 80; 7810; 5; 15000000;   
131072; 16; 80; 7664; 6; 15000000;   
131072; 16; 90; 7984; 2; 15000000;   
131072; 16; 90; 8302; 3; 15000000;   
131072; 16; 90; 8082; 4; 15000000;   
131072; 16; 90; 8221; 5; 15000000;   
131072; 16; 90; 8141; 6; 15000000;   
131072; 16; 100; 8575; 2; 15000000;   
131072; 16; 100; 8326; 3; 15000000;   
131072; 16; 100; 8703; 4; 15000000;   
131072; 16; 100; 8904; 5; 15000000;   
131072; 16; 100; 8515; 6; 15000000;   
131072; 16; 110; 9038; 2; 15000000;   
131072; 16; 110; 9156; 3; 15000000;   
131072; 16; 110; 9107; 4; 15000000;   
131072; 16; 110; 9318; 5; 15000000;   
131072; 16; 110; 9059; 6; 15000000;   
131072; 16; 120; 9665; 2; 15000000;   
131072; 16; 120; 9809; 3; 15000000;   
131072; 16; 120; 9453; 4; 15000000;   
131072; 16; 120; 9345; 5; 15000000;   
131072; 16; 120; 9932; 6; 15000000;   
131072; 16; 130; 10019; 2; 15000000;   
131072; 16; 130; 10029; 3; 15000000;   
131072; 16; 130; 10235; 4; 15000000;   
131072; 16; 130; 9938; 5; 15000000;   
131072; 16; 130; 10035; 6; 15000000;   
131072; 16; 140; 10517; 2; 15000000;   
131072; 16; 140; 10262; 3; 15000000;   
131072; 16; 140; 10535; 4; 15000000;   
131072; 16; 140; 10635; 5; 15000000;   
131072; 16; 140; 10549; 6; 15000000;   
131072; 16; 150; 11456; 2; 15000000;   
131072; 16; 150; 11381; 3; 15000000;   
131072; 16; 150; 11159; 4; 15000000;   
131072; 16; 150; 11136; 5; 15000000;   
131072; 16; 150; 11091; 6; 15000000;   
131072; 16; 160; 11574; 2; 15000000;   
131072; 16; 160; 11423; 3; 15000000;   
131072; 16; 160; 11454; 4; 15000000;   
131072; 16; 160; 11145; 5; 15000000;   
131072; 16; 160; 11552; 6; 15000000;   
131072; 16; 170; 12190; 2; 15000000;   
131072; 16; 170; 12229; 3; 15000000;   
131072; 16; 170; 11843; 4; 15000000;   
131072; 16; 170; 11891; 5; 15000000;   
131072; 16; 170; 12240; 6; 15000000;   
131072; 16; 180; 12194; 2; 15000000;   
131072; 16; 180; 12732; 3; 15000000;   
131072; 16; 180; 12664; 4; 15000000;   
131072; 16; 180; 12615; 5; 15000000;   
131072; 16; 180; 12724; 6; 15000000;   
131072; 16; 190; 12843; 2; 15000000;   
131072; 16; 190; 13062; 3; 15000000;   
131072; 16; 190; 12949; 4; 15000000;   
131072; 16; 190; 13070; 5; 15000000;   
131072; 16; 190; 12693; 6; 15000000;   
131072; 16; 200; 13374; 2; 15000000;   
131072; 16; 200; 13750; 3; 15000000;   
131072; 16; 200; 13461; 4; 15000000;   
131072; 16; 200; 13482; 5; 15000000;   
131072; 16; 200; 13567; 6; 15000000;   
