textSize; alphaSize; querySize; time; expCount; iterations; 
2097152; 16; 10; 5616; 0; 15000000; 
2097152; 16; 20; 5637; 0; 15000000; 
2097152; 16; 30; 6096; 0; 15000000; 
2097152; 16; 40; 6657; 0; 15000000; 
2097152; 16; 50; 7338; 0; 15000000; 
2097152; 16; 60; 7506; 0; 15000000; 
2097152; 16; 70; 8593; 0; 15000000; 
2097152; 16; 80; 8800; 0; 15000000; 
2097152; 16; 90; 9083; 0; 15000000; 
2097152; 16; 100; 10300; 0; 15000000; 
2097152; 16; 110; 9984; 0; 15000000; 
2097152; 16; 120; 10884; 0; 15000000; 
2097152; 16; 130; 10899; 0; 15000000; 
2097152; 16; 140; 11724; 0; 15000000; 
2097152; 16; 150; 11936; 0; 15000000; 
2097152; 16; 160; 12662; 0; 15000000; 
2097152; 16; 170; 13038; 0; 15000000; 
2097152; 16; 180; 13070; 0; 15000000; 
2097152; 16; 190; 14370; 0; 15000000; 
2097152; 16; 200; 14790; 0; 15000000; 
2097152; 16; 10; 5956; 1; 15000000; 
2097152; 16; 20; 6017; 1; 15000000; 
2097152; 16; 30; 6277; 1; 15000000; 
2097152; 16; 40; 6478; 1; 15000000; 
2097152; 16; 50; 7657; 1; 15000000; 
2097152; 16; 60; 7701; 1; 15000000; 
2097152; 16; 70; 8058; 1; 15000000; 
2097152; 16; 80; 9006; 1; 15000000; 
2097152; 16; 90; 10001; 1; 15000000; 
2097152; 16; 100; 10061; 1; 15000000; 
2097152; 16; 110; 10648; 1; 15000000; 
2097152; 16; 120; 11292; 1; 15000000; 
2097152; 16; 130; 11130; 1; 15000000; 
2097152; 16; 140; 11832; 1; 15000000; 
2097152; 16; 150; 11814; 1; 15000000; 
2097152; 16; 160; 12897; 1; 15000000; 
2097152; 16; 170; 12940; 1; 15000000; 
2097152; 16; 180; 13297; 1; 15000000; 
2097152; 16; 190; 14345; 1; 15000000; 
2097152; 16; 200; 14955; 1; 15000000; 
2097152; 16; 10; 5405; 2; 15000000; 
2097152; 16; 20; 5442; 2; 15000000; 
2097152; 16; 30; 6443; 2; 15000000; 
2097152; 16; 40; 6805; 2; 15000000; 
2097152; 16; 50; 7226; 2; 15000000; 
2097152; 16; 60; 7786; 2; 15000000; 
2097152; 16; 70; 8644; 2; 15000000; 
2097152; 16; 80; 9287; 2; 15000000; 
2097152; 16; 90; 9489; 2; 15000000; 
2097152; 16; 100; 10232; 2; 15000000; 
2097152; 16; 110; 10328; 2; 15000000; 
2097152; 16; 120; 11076; 2; 15000000; 
2097152; 16; 130; 11455; 2; 15000000; 
2097152; 16; 140; 12001; 2; 15000000; 
2097152; 16; 150; 11971; 2; 15000000; 
2097152; 16; 160; 12542; 2; 15000000; 
2097152; 16; 170; 13128; 2; 15000000; 
2097152; 16; 180; 13471; 2; 15000000; 
2097152; 16; 190; 14375; 2; 15000000; 
2097152; 16; 200; 14173; 2; 15000000; 
2097152; 16; 10; 5747; 3; 15000000; 
2097152; 16; 20; 5406; 3; 15000000; 
2097152; 16; 30; 6047; 3; 15000000; 
2097152; 16; 40; 6703; 3; 15000000; 
2097152; 16; 50; 7807; 3; 15000000; 
2097152; 16; 60; 7959; 3; 15000000; 
2097152; 16; 70; 8364; 3; 15000000; 
2097152; 16; 80; 9021; 3; 15000000; 
2097152; 16; 90; 10195; 3; 15000000; 
2097152; 16; 100; 10393; 3; 15000000; 
2097152; 16; 110; 10065; 3; 15000000; 
2097152; 16; 120; 10784; 3; 15000000; 
2097152; 16; 130; 11944; 3; 15000000; 
2097152; 16; 140; 11652; 3; 15000000; 
2097152; 16; 150; 12379; 3; 15000000; 
2097152; 16; 160; 12935; 3; 15000000; 
2097152; 16; 170; 13767; 3; 15000000; 
2097152; 16; 180; 13554; 3; 15000000; 
2097152; 16; 190; 14033; 3; 15000000; 
2097152; 16; 200; 14458; 3; 15000000; 
2097152; 16; 10; 5795; 4; 15000000; 
2097152; 16; 20; 5841; 4; 15000000; 
2097152; 16; 30; 7192; 4; 15000000; 
2097152; 16; 40; 7421; 4; 15000000; 
2097152; 16; 50; 7254; 4; 15000000; 
2097152; 16; 60; 7767; 4; 15000000; 
2097152; 16; 70; 8378; 4; 15000000; 
2097152; 16; 80; 9298; 4; 15000000; 
2097152; 16; 90; 9378; 4; 15000000; 
2097152; 16; 100; 9725; 4; 15000000; 
2097152; 16; 110; 11465; 4; 15000000; 
2097152; 16; 120; 10817; 4; 15000000; 
2097152; 16; 130; 11289; 4; 15000000; 
2097152; 16; 140; 11548; 4; 15000000; 
2097152; 16; 150; 12219; 4; 15000000; 
2097152; 16; 160; 12818; 4; 15000000; 
2097152; 16; 170; 13382; 4; 15000000; 
2097152; 16; 180; 13528; 4; 15000000; 
2097152; 16; 190; 14106; 4; 15000000; 
2097152; 16; 200; 14498; 4; 15000000; 
2097152; 16; 10; 5559; 5; 15000000; 
2097152; 16; 20; 6433; 5; 15000000; 
2097152; 16; 30; 6293; 5; 15000000; 
2097152; 16; 40; 6360; 5; 15000000; 
2097152; 16; 50; 7047; 5; 15000000; 
2097152; 16; 60; 8272; 5; 15000000; 
2097152; 16; 70; 8145; 5; 15000000; 
2097152; 16; 80; 9160; 5; 15000000; 
2097152; 16; 90; 10069; 5; 15000000; 
2097152; 16; 100; 9876; 5; 15000000; 
2097152; 16; 110; 10507; 5; 15000000; 
2097152; 16; 120; 11204; 5; 15000000; 
2097152; 16; 130; 11614; 5; 15000000; 
2097152; 16; 140; 11613; 5; 15000000; 
2097152; 16; 150; 12465; 5; 15000000; 
2097152; 16; 160; 12749; 5; 15000000; 
2097152; 16; 170; 12964; 5; 15000000; 
2097152; 16; 180; 13779; 5; 15000000; 
2097152; 16; 190; 14041; 5; 15000000; 
2097152; 16; 200; 15111; 5; 15000000; 
2097152; 16; 10; 5657; 6; 15000000; 
2097152; 16; 20; 5875; 6; 15000000; 
2097152; 16; 30; 6044; 6; 15000000; 
2097152; 16; 40; 6905; 6; 15000000; 
2097152; 16; 50; 6859; 6; 15000000; 
2097152; 16; 60; 7642; 6; 15000000; 
2097152; 16; 70; 8933; 6; 15000000; 
2097152; 16; 80; 8583; 6; 15000000; 
2097152; 16; 90; 9735; 6; 15000000; 
2097152; 16; 100; 10162; 6; 15000000; 
2097152; 16; 110; 10803; 6; 15000000; 
2097152; 16; 120; 10525; 6; 15000000; 
2097152; 16; 130; 11318; 6; 15000000; 
2097152; 16; 140; 11223; 6; 15000000; 
2097152; 16; 150; 12139; 6; 15000000; 
2097152; 16; 160; 12551; 6; 15000000; 
2097152; 16; 170; 13205; 6; 15000000; 
2097152; 16; 180; 14278; 6; 15000000; 
2097152; 16; 190; 13855; 6; 15000000; 
2097152; 16; 200; 14944; 6; 15000000; 
