textSize; alphaSize; querySize; time; expCount; iterations; 
512; 16; 10; 2603; 0; 15000000; 
512; 16; 20; 2701; 0; 15000000; 
512; 16; 30; 3294; 0; 15000000; 
512; 16; 40; 3966; 0; 15000000; 
512; 16; 50; 4316; 0; 15000000; 
512; 16; 60; 4705; 0; 15000000; 
512; 16; 70; 5640; 0; 15000000; 
512; 16; 80; 5953; 0; 15000000; 
512; 16; 90; 6513; 0; 15000000; 
512; 16; 100; 6959; 0; 15000000; 
512; 16; 110; 7240; 0; 15000000; 
512; 16; 120; 7997; 0; 15000000; 
512; 16; 130; 8403; 0; 15000000; 
512; 16; 140; 9128; 0; 15000000; 
512; 16; 150; 9566; 0; 15000000; 
512; 16; 160; 10155; 0; 15000000; 
512; 16; 170; 10348; 0; 15000000; 
512; 16; 180; 10880; 0; 15000000; 
512; 16; 190; 11439; 0; 15000000; 
512; 16; 200; 11946; 0; 15000000; 
512; 16; 10; 2300; 1; 15000000; 
512; 16; 20; 2644; 1; 15000000; 
512; 16; 30; 3614; 1; 15000000; 
512; 16; 40; 4131; 1; 15000000; 
512; 16; 50; 4730; 1; 15000000; 
512; 16; 60; 5003; 1; 15000000; 
512; 16; 70; 5750; 1; 15000000; 
512; 16; 80; 5927; 1; 15000000; 
512; 16; 90; 6095; 1; 15000000; 
512; 16; 100; 6876; 1; 15000000; 
512; 16; 110; 7254; 1; 15000000; 
512; 16; 120; 7534; 1; 15000000; 
512; 16; 130; 8453; 1; 15000000; 
512; 16; 140; 9162; 1; 15000000; 
512; 16; 150; 9553; 1; 15000000; 
512; 16; 160; 10182; 1; 15000000; 
512; 16; 170; 10336; 1; 15000000; 
512; 16; 180; 10842; 1; 15000000; 
512; 16; 190; 11597; 1; 15000000; 
512; 16; 200; 12345; 1; 15000000; 
512; 16; 10; 2405; 2; 15000000; 
512; 16; 20; 2681; 2; 15000000; 
512; 16; 30; 3282; 2; 15000000; 
512; 16; 40; 3760; 2; 15000000; 
512; 16; 50; 4335; 2; 15000000; 
512; 16; 60; 4782; 2; 15000000; 
512; 16; 70; 5536; 2; 15000000; 
512; 16; 80; 6212; 2; 15000000; 
512; 16; 90; 6362; 2; 15000000; 
512; 16; 100; 6922; 2; 15000000; 
512; 16; 110; 7314; 2; 15000000; 
512; 16; 120; 8020; 2; 15000000; 
512; 16; 130; 8494; 2; 15000000; 
512; 16; 140; 9062; 2; 15000000; 
512; 16; 150; 9541; 2; 15000000; 
512; 16; 160; 9989; 2; 15000000; 
512; 16; 170; 10639; 2; 15000000; 
512; 16; 180; 10920; 2; 15000000; 
512; 16; 190; 11645; 2; 15000000; 
512; 16; 200; 12238; 2; 15000000; 
512; 16; 10; 2200; 3; 15000000; 
512; 16; 20; 2885; 3; 15000000; 
512; 16; 30; 3497; 3; 15000000; 
512; 16; 40; 3856; 3; 15000000; 
512; 16; 50; 4768; 3; 15000000; 
512; 16; 60; 4862; 3; 15000000; 
512; 16; 70; 5512; 3; 15000000; 
512; 16; 80; 5875; 3; 15000000; 
512; 16; 90; 6517; 3; 15000000; 
512; 16; 100; 6679; 3; 15000000; 
512; 16; 110; 7299; 3; 15000000; 
512; 16; 120; 7840; 3; 15000000; 
512; 16; 130; 8358; 3; 15000000; 
512; 16; 140; 9050; 3; 15000000; 
512; 16; 150; 9391; 3; 15000000; 
512; 16; 160; 10081; 3; 15000000; 
512; 16; 170; 10596; 3; 15000000; 
512; 16; 180; 10797; 3; 15000000; 
512; 16; 190; 11678; 3; 15000000; 
512; 16; 200; 12202; 3; 15000000; 
512; 16; 10; 2547; 4; 15000000; 
512; 16; 20; 2904; 4; 15000000; 
512; 16; 30; 3400; 4; 15000000; 
512; 16; 40; 3935; 4; 15000000; 
512; 16; 50; 4332; 4; 15000000; 
512; 16; 60; 4733; 4; 15000000; 
512; 16; 70; 5329; 4; 15000000; 
512; 16; 80; 5859; 4; 15000000; 
512; 16; 90; 6472; 4; 15000000; 
512; 16; 100; 6614; 4; 15000000; 
512; 16; 110; 7500; 4; 15000000; 
512; 16; 120; 7886; 4; 15000000; 
512; 16; 130; 8430; 4; 15000000; 
512; 16; 140; 9015; 4; 15000000; 
512; 16; 150; 9619; 4; 15000000; 
512; 16; 160; 9940; 4; 15000000; 
512; 16; 170; 10782; 4; 15000000; 
512; 16; 180; 11036; 4; 15000000; 
512; 16; 190; 11466; 4; 15000000; 
512; 16; 200; 12304; 4; 15000000; 
512; 16; 10; 2502; 5; 15000000; 
512; 16; 20; 2688; 5; 15000000; 
512; 16; 30; 3307; 5; 15000000; 
512; 16; 40; 3653; 5; 15000000; 
512; 16; 50; 4097; 5; 15000000; 
512; 16; 60; 4829; 5; 15000000; 
512; 16; 70; 5366; 5; 15000000; 
512; 16; 80; 6052; 5; 15000000; 
512; 16; 90; 6486; 5; 15000000; 
512; 16; 100; 6957; 5; 15000000; 
512; 16; 110; 7214; 5; 15000000; 
512; 16; 120; 7940; 5; 15000000; 
512; 16; 130; 8282; 5; 15000000; 
512; 16; 140; 9005; 5; 15000000; 
512; 16; 150; 9300; 5; 15000000; 
512; 16; 160; 9936; 5; 15000000; 
512; 16; 170; 10430; 5; 15000000; 
512; 16; 180; 11134; 5; 15000000; 
512; 16; 190; 11458; 5; 15000000; 
512; 16; 200; 12307; 5; 15000000; 
512; 16; 10; 2471; 6; 15000000; 
512; 16; 20; 2613; 6; 15000000; 
512; 16; 30; 3270; 6; 15000000; 
512; 16; 40; 3748; 6; 15000000; 
512; 16; 50; 4565; 6; 15000000; 
512; 16; 60; 4917; 6; 15000000; 
512; 16; 70; 5459; 6; 15000000; 
512; 16; 80; 5897; 6; 15000000; 
512; 16; 90; 6405; 6; 15000000; 
512; 16; 100; 6822; 6; 15000000; 
512; 16; 110; 7497; 6; 15000000; 
512; 16; 120; 7733; 6; 15000000; 
512; 16; 130; 8346; 6; 15000000; 
512; 16; 140; 9063; 6; 15000000; 
512; 16; 150; 9468; 6; 15000000; 
512; 16; 160; 10188; 6; 15000000; 
512; 16; 170; 10718; 6; 15000000; 
512; 16; 180; 11170; 6; 15000000; 
512; 16; 190; 11423; 6; 15000000; 
512; 16; 200; 12289; 6; 15000000; 
