textSize; alphaSize; querySize; time; expCount; iterations;  
524288; 16; 10; 4435; 0; 15000000;  
524288; 16; 10; 4425; 1; 15000000;  
524288; 16; 10; 4278; 2; 15000000;  
524288; 16; 10; 4310; 3; 15000000;  
524288; 16; 10; 4535; 4; 15000000;  
524288; 16; 10; 4381; 5; 15000000;  
524288; 16; 10; 4626; 6; 15000000;  
524288; 16; 20; 5495; 0; 15000000;  
524288; 16; 20; 5148; 1; 15000000;  
524288; 16; 20; 4808; 2; 15000000;  
524288; 16; 20; 4735; 3; 15000000;  
524288; 16; 20; 4596; 4; 15000000;  
524288; 16; 20; 4927; 5; 15000000;  
524288; 16; 20; 4765; 6; 15000000;  
524288; 16; 30; 5562; 0; 15000000;  
524288; 16; 30; 5664; 1; 15000000;  
524288; 16; 30; 5067; 2; 15000000;  
524288; 16; 30; 5517; 3; 15000000;  
524288; 16; 30; 5432; 4; 15000000;  
524288; 16; 30; 5179; 5; 15000000;  
524288; 16; 30; 5542; 6; 15000000;  
524288; 16; 40; 6125; 0; 15000000;  
524288; 16; 40; 6002; 1; 15000000;  
524288; 16; 40; 6199; 2; 15000000;  
524288; 16; 40; 5665; 3; 15000000;  
524288; 16; 40; 5897; 4; 15000000;  
524288; 16; 40; 6092; 5; 15000000;  
524288; 16; 40; 5829; 6; 15000000;  
524288; 16; 50; 6017; 0; 15000000;  
524288; 16; 50; 6875; 1; 15000000;  
524288; 16; 50; 6767; 2; 15000000;  
524288; 16; 50; 6409; 3; 15000000;  
524288; 16; 50; 6300; 4; 15000000;  
524288; 16; 50; 6085; 5; 15000000;  
524288; 16; 50; 6216; 6; 15000000;  
524288; 16; 60; 7083; 0; 15000000;  
524288; 16; 60; 7057; 1; 15000000;  
524288; 16; 60; 6703; 2; 15000000;  
524288; 16; 60; 6680; 3; 15000000;  
524288; 16; 60; 6853; 4; 15000000;  
524288; 16; 60; 6924; 5; 15000000;  
524288; 16; 60; 6690; 6; 15000000;  
524288; 16; 70; 7570; 0; 15000000;  
524288; 16; 70; 7341; 1; 15000000;  
524288; 16; 70; 7528; 2; 15000000;  
524288; 16; 70; 7711; 3; 15000000;  
524288; 16; 70; 7224; 4; 15000000;  
524288; 16; 70; 7234; 5; 15000000;  
524288; 16; 70; 7234; 6; 15000000;  
524288; 16; 80; 8206; 0; 15000000;  
524288; 16; 80; 8023; 1; 15000000;  
524288; 16; 80; 8376; 2; 15000000;  
524288; 16; 80; 8213; 3; 15000000;  
524288; 16; 80; 8270; 4; 15000000;  
524288; 16; 80; 8098; 5; 15000000;  
524288; 16; 80; 8482; 6; 15000000;  
524288; 16; 90; 8860; 0; 15000000;  
524288; 16; 90; 8825; 1; 15000000;  
524288; 16; 90; 8642; 2; 15000000;  
524288; 16; 90; 8388; 3; 15000000;  
524288; 16; 90; 8385; 4; 15000000;  
524288; 16; 90; 8606; 5; 15000000;  
524288; 16; 90; 8534; 6; 15000000;  
524288; 16; 100; 9108; 0; 15000000;  
524288; 16; 100; 8719; 1; 15000000;  
524288; 16; 100; 8775; 2; 15000000;  
524288; 16; 100; 9141; 3; 15000000;  
524288; 16; 100; 9227; 4; 15000000;  
524288; 16; 100; 8985; 5; 15000000;  
524288; 16; 100; 8785; 6; 15000000;  
524288; 16; 110; 9890; 0; 15000000;  
524288; 16; 110; 9417; 1; 15000000;  
524288; 16; 110; 9315; 2; 15000000;  
524288; 16; 110; 9331; 3; 15000000;  
524288; 16; 110; 9180; 4; 15000000;  
524288; 16; 110; 9658; 5; 15000000;  
524288; 16; 110; 9242; 6; 15000000;  
524288; 16; 120; 9897; 0; 15000000;  
524288; 16; 120; 10286; 1; 15000000;  
524288; 16; 120; 9840; 2; 15000000;  
524288; 16; 120; 10235; 3; 15000000;  
524288; 16; 120; 10032; 4; 15000000;  
524288; 16; 120; 10048; 5; 15000000;  
524288; 16; 120; 10067; 6; 15000000;  
524288; 16; 130; 10505; 0; 15000000;  
524288; 16; 130; 10350; 1; 15000000;  
524288; 16; 130; 10755; 2; 15000000;  
524288; 16; 130; 10605; 3; 15000000;  
524288; 16; 130; 10444; 4; 15000000;  
524288; 16; 130; 10621; 5; 15000000;  
524288; 16; 130; 10389; 6; 15000000;  
524288; 16; 140; 11154; 0; 15000000;  
524288; 16; 140; 11044; 1; 15000000;  
524288; 16; 140; 11175; 2; 15000000;  
524288; 16; 140; 10964; 3; 15000000;  
524288; 16; 140; 11249; 4; 15000000;  
524288; 16; 140; 11444; 5; 15000000;  
524288; 16; 140; 11109; 6; 15000000;  
524288; 16; 150; 11657; 0; 15000000;  
524288; 16; 150; 11369; 1; 15000000;  
524288; 16; 150; 11067; 2; 15000000;  
524288; 16; 150; 11889; 3; 15000000;  
524288; 16; 150; 11835; 4; 15000000;  
524288; 16; 150; 11415; 5; 15000000;  
524288; 16; 150; 11369; 6; 15000000;  
524288; 16; 160; 12020; 0; 15000000;  
524288; 16; 160; 11779; 1; 15000000;  
524288; 16; 160; 11965; 2; 15000000;  
524288; 16; 160; 12139; 3; 15000000;  
524288; 16; 160; 12276; 4; 15000000;  
524288; 16; 160; 11915; 5; 15000000;  
524288; 16; 160; 11893; 6; 15000000;  
524288; 16; 170; 12628; 0; 15000000;  
524288; 16; 170; 12437; 1; 15000000;  
524288; 16; 170; 12747; 2; 15000000;  
524288; 16; 170; 12538; 3; 15000000;  
524288; 16; 170; 12579; 4; 15000000;  
524288; 16; 170; 12377; 5; 15000000;  
524288; 16; 170; 12710; 6; 15000000;  
524288; 16; 180; 13072; 0; 15000000;  
524288; 16; 180; 13091; 1; 15000000;  
524288; 16; 180; 13209; 2; 15000000;  
524288; 16; 180; 13115; 3; 15000000;  
524288; 16; 180; 12923; 4; 15000000;  
524288; 16; 180; 13003; 5; 15000000;  
524288; 16; 180; 12746; 6; 15000000;  
524288; 16; 190; 13248; 0; 15000000;  
524288; 16; 190; 13706; 1; 15000000;  
524288; 16; 190; 13418; 2; 15000000;  
524288; 16; 190; 13708; 3; 15000000;  
524288; 16; 190; 13680; 4; 15000000;  
524288; 16; 190; 13541; 5; 15000000;  
524288; 16; 190; 13462; 6; 15000000;  
524288; 16; 200; 14044; 0; 15000000;  
524288; 16; 200; 14014; 1; 15000000;  
524288; 16; 200; 13832; 2; 15000000;  
524288; 16; 200; 13986; 3; 15000000;  
524288; 16; 200; 13837; 4; 15000000;  
524288; 16; 200; 13760; 5; 15000000;  
524288; 16; 200; 14087; 6; 15000000;  
