textSize; alphaSize; querySize; time; expCount; iterations;   ConstantAvgTime; ConstantStandardDeviation; ConstantRelativeStdDev; 
16384; 16; 10; 3297; 2; 15000000;    3269.4; 99.736853770309;  3.0506164363586286; 
16384; 16; 20; 4001; 2; 15000000;    3850.2; 89.60223211505392;  2.327209810270997; 
16384; 16; 30; 4406; 2; 15000000;    4365.8; 47.00808441108827;  1.0767347201220456; 
16384; 16; 40; 4844; 2; 15000000;    4756.6; 100.39043779165424;  2.110550346710975; 
16384; 16; 50; 5110; 2; 15000000;    5381.2; 190.83333042212516;  3.5462969304639334; 
16384; 16; 60; 5952; 2; 15000000;    5778.4; 103.6987945928013;  1.7945935655683463; 
16384; 16; 70; 6570; 2; 15000000;    6505.8; 79.88842218995191;  1.2279569336584573; 
16384; 16; 80; 6887; 2; 15000000;    6944.0; 109.6065691461967;  1.57843561558463; 
16384; 16; 90; 7540; 2; 15000000;    7420.0; 185.22094913912952;  2.4962392067268127; 
16384; 16; 100; 8020; 2; 15000000;    7956.4; 210.42490346914738;  2.644725044858823; 
16384; 16; 110; 8398; 2; 15000000;    8393.2; 128.77639535256452;  1.5342943734518957; 
16384; 16; 120; 8658; 2; 15000000;    8832.8; 140.71446265398592;  1.593090103409858; 
16384; 16; 130; 9565; 2; 15000000;    9484.6; 125.79602537441316;  1.326318720604065; 
16384; 16; 140; 10201; 2; 15000000;    9997.6; 206.00932017751043;  2.060587742833384; 
16384; 16; 150; 10406; 2; 15000000;    10446.2; 78.79441604580873;  0.7542878371638368; 
16384; 16; 160; 11019; 2; 15000000;    10872.4; 225.22752940082614;  2.0715530094627326; 
16384; 16; 170; 11718; 2; 15000000;    11582.8; 72.502137899513;  0.6259465578229185; 
16384; 16; 180; 12073; 2; 15000000;    11831.6; 165.01951399758758;  1.3947354034753336; 
16384; 16; 190; 12311; 2; 15000000;    12332.0; 183.4589872423807;  1.4876661307361392; 
16384; 16; 200; 12637; 2; 15000000;    12651.8; 104.91406006822918;  0.8292421637097422; 
