textSize; alphaSize; querySize; timeTree; timeArray; timeTray; expCount; iterations; avgTimeTree; standardDeviationTree; relativeStdDevTree; avgTimeArray; standardDeviationArray; relativeStdDevArray; avgTimeTray; standardDeviationTray; relativeStdDevTray; 
262144; 5; 5; 107; 140; 32; 2; 500000;   100.0; 3.63318042491699;  3.6331804249169903;139.0; 2.6832815729997477;  1.9304183978415452;40.2; 4.166533331199933;  10.364510774129185; 
262144; 5; 10; 631; 281; 190; 2; 500000;   621.6; 5.571355310873647;  0.89629268192948;286.8; 9.10823802938856;  3.175815212478577;192.6; 3.1999999999999997;  1.6614745586708204; 
262144; 5; 15; 724; 307; 215; 2; 500000;   728.4; 21.152777595389217;  2.9040057105147197;314.8; 20.409801566894274;  6.483418540944813;220.6; 23.465719677862005;  10.637225601932006; 
262144; 5; 20; 732; 320; 228; 2; 500000;   730.6; 7.059745037889115;  0.9662941469872864;320.4; 8.114185110040317;  2.5325172003871153;226.6; 3.0724582991474434;  1.3558951011242029; 
262144; 5; 25; 741; 323; 226; 2; 500000;   741.8; 5.075431016179809;  0.6842047743569438;328.6; 8.35703296631047;  2.5432236659496255;231.6; 5.6780278266313555;  2.4516527748840047; 
262144; 5; 30; 751; 342; 241; 2; 500000;   731.4; 18.227451824103117;  2.4921317779741754;342.6; 8.452218643646175;  2.4670807482913526;249.2; 5.2306787322488075;  2.0989882553165358; 
262144; 5; 35; 746; 346; 253; 2; 500000;   758.2; 7.277362159464101;  0.9598209126172647;351.0; 5.761944116355173;  1.6415795203291093;253.8; 2.7856776554368237;  1.097587728698512; 
262144; 5; 40; 775; 362; 264; 2; 500000;   772.8; 2.5612496949731396;  0.33142464997064436;366.0; 9.38083151964686;  2.563068721214989;263.4; 8.039900496896712;  3.052354023119481; 
262144; 5; 45; 775; 359; 276; 2; 500000;   786.4; 9.32952303175248;  1.186358473010234;362.0; 6.099180272790763;  1.6848564289477244;280.4; 4.758150901348127;  1.6969154427061797; 
262144; 5; 50; 788; 365; 299; 2; 500000;   783.6; 3.2619012860600183;  0.4162712207835654;376.2; 6.794115100585211;  1.8059848752220127;292.8; 4.707440918375927;  1.607732554090139; 
262144; 5; 55; 794; 385; 298; 2; 500000;   801.4; 6.086049621881176;  0.7594272051261762;380.8; 6.99714227381436;  1.8374848408125946;302.0; 5.585696017507576;  1.8495682177177404; 
262144; 5; 60; 810; 386; 316; 2; 500000;   811.4; 8.616263691415206;  1.0619008739727887;390.0; 5.656854249492381;  1.4504754485877898;313.4; 3.7735924528226414;  1.2040818292350484; 
262144; 5; 65; 825; 404; 318; 2; 500000;   819.6; 4.409081537009721;  0.5379552875804929;401.6; 3.9293765408777004;  0.9784304135651644;322.8; 6.1773780845922;  1.91368589981171; 
262144; 5; 70; 832; 406; 339; 2; 500000;   828.2; 2.4;  0.28978507606858245;409.0; 6.324555320336759;  1.546346044092117;338.0; 5.692099788303083;  1.684053191805646; 
262144; 5; 75; 839; 426; 342; 2; 500000;   842.6; 3.4985711369071804;  0.41521138581855926;419.0; 6.511528238439882;  1.5540640187207357;337.2; 3.4292856398964493;  1.0169886239313313; 
262144; 5; 80; 850; 437; 343; 2; 500000;   845.2; 11.196428001822724;  1.3247075250618463;426.0; 11.882760622010357;  2.789380427701962;347.4; 4.758150901348127;  1.3696462007334853; 
262144; 5; 85; 866; 435; 359; 2; 500000;   855.0; 8.246211251235321;  0.9644691521912656;436.8; 5.706137047074842;  1.306350056564753;359.4; 8.06473806146238;  2.2439449252816863; 
262144; 5; 90; 878; 448; 381; 2; 500000;   868.2; 5.114684741017769;  0.5891136536532792;446.0; 4.0;  0.8968609865470852;378.4; 3.2;  0.8456659619450317; 
262144; 5; 95; 880; 459; 373; 2; 500000;   878.4; 7.863841300534999;  0.8952460496966075;462.0; 6.324555320336759;  1.3689513680382597;383.6; 6.974238309665077;  1.818101749130625; 
262144; 5; 100; 896; 464; 393; 2; 500000;   888.4; 6.406246951218787;  0.7210993866747847;465.8; 2.7856776554368237;  0.5980415748039553;395.4; 4.673328578219169;  1.1819242737023696; 
