textSize; alphaSize; querySize; time; expCount; iterations;  
16384; 4; 500; 954; 0; 500000;  
16384; 4; 500; 947; 1; 500000;  
16384; 4; 500; 939; 2; 500000;  
16384; 4; 500; 1011; 3; 500000;  
16384; 4; 500; 960; 4; 500000;  
16384; 4; 1000; 1779; 0; 500000;  
16384; 4; 1000; 1802; 1; 500000;  
16384; 4; 1000; 1775; 2; 500000;  
16384; 4; 1000; 1790; 3; 500000;  
16384; 4; 1000; 1774; 4; 500000;  
16384; 4; 1500; 2601; 0; 500000;  
16384; 4; 1500; 2614; 1; 500000;  
16384; 4; 1500; 2593; 2; 500000;  
16384; 4; 1500; 2634; 3; 500000;  
16384; 4; 1500; 2589; 4; 500000;  
16384; 4; 2000; 3430; 0; 500000;  
16384; 4; 2000; 3449; 1; 500000;  
16384; 4; 2000; 3406; 2; 500000;  
16384; 4; 2000; 3453; 3; 500000;  
16384; 4; 2000; 3440; 4; 500000;  
16384; 4; 2500; 4297; 0; 500000;  
16384; 4; 2500; 4254; 1; 500000;  
16384; 4; 2500; 4251; 2; 500000;  
16384; 4; 2500; 4275; 3; 500000;  
16384; 4; 2500; 4248; 4; 500000;  
16384; 4; 3000; 5048; 0; 500000;  
16384; 4; 3000; 5013; 1; 500000;  
16384; 4; 3000; 5071; 2; 500000;  
16384; 4; 3000; 5059; 3; 500000;  
16384; 4; 3000; 5137; 4; 500000;  
16384; 4; 3500; 5876; 0; 500000;  
16384; 4; 3500; 5887; 1; 500000;  
16384; 4; 3500; 5867; 2; 500000;  
16384; 4; 3500; 5908; 3; 500000;  
16384; 4; 3500; 5871; 4; 500000;  
16384; 4; 4000; 6659; 0; 500000;  
16384; 4; 4000; 6675; 1; 500000;  
16384; 4; 4000; 6832; 2; 500000;  
16384; 4; 4000; 6901; 3; 500000;  
16384; 4; 4000; 6721; 4; 500000;  
16384; 4; 4500; 7490; 0; 500000;  
16384; 4; 4500; 7531; 1; 500000;  
16384; 4; 4500; 7501; 2; 500000;  
16384; 4; 4500; 7492; 3; 500000;  
16384; 4; 4500; 7557; 4; 500000;  
16384; 4; 5000; 8244; 0; 500000;  
16384; 4; 5000; 8278; 1; 500000;  
16384; 4; 5000; 8296; 2; 500000;  
16384; 4; 5000; 8381; 3; 500000;  
16384; 4; 5000; 8354; 4; 500000;  
16384; 4; 5500; 9079; 0; 500000;  
16384; 4; 5500; 9125; 1; 500000;  
16384; 4; 5500; 9166; 2; 500000;  
16384; 4; 5500; 9170; 3; 500000;  
16384; 4; 5500; 9179; 4; 500000;  
16384; 4; 6000; 9822; 0; 500000;  
16384; 4; 6000; 10034; 1; 500000;  
16384; 4; 6000; 10014; 2; 500000;  
16384; 4; 6000; 9991; 3; 500000;  
16384; 4; 6000; 10124; 4; 500000;  
16384; 4; 6500; 10727; 0; 500000;  
16384; 4; 6500; 10616; 1; 500000;  
16384; 4; 6500; 10769; 2; 500000;  
16384; 4; 6500; 10750; 3; 500000;  
16384; 4; 6500; 10794; 4; 500000;  
16384; 4; 7000; 11530; 0; 500000;  
16384; 4; 7000; 11523; 1; 500000;  
16384; 4; 7000; 11636; 2; 500000;  
16384; 4; 7000; 11607; 3; 500000;  
16384; 4; 7000; 11988; 4; 500000;  
16384; 4; 7500; 12230; 0; 500000;  
16384; 4; 7500; 12523; 1; 500000;  
16384; 4; 7500; 12464; 2; 500000;  
16384; 4; 7500; 12464; 3; 500000;  
16384; 4; 7500; 13139; 4; 500000;  
16384; 4; 8000; 13113; 0; 500000;  
16384; 4; 8000; 13222; 1; 500000;  
16384; 4; 8000; 13259; 2; 500000;  
16384; 4; 8000; 13215; 3; 500000;  
16384; 4; 8000; 14461; 4; 500000;  
16384; 4; 8500; 13888; 0; 500000;  
16384; 4; 8500; 14002; 1; 500000;  
16384; 4; 8500; 14003; 2; 500000;  
16384; 4; 8500; 14097; 3; 500000;  
16384; 4; 8500; 14478; 4; 500000;  
16384; 4; 9000; 14719; 0; 500000;  
16384; 4; 9000; 14944; 1; 500000;  
16384; 4; 9000; 14849; 2; 500000;  
16384; 4; 9000; 14919; 3; 500000;  
16384; 4; 9000; 15055; 4; 500000;  
16384; 4; 9500; 15552; 0; 500000;  
16384; 4; 9500; 15526; 1; 500000;  
16384; 4; 9500; 15737; 2; 500000;  
16384; 4; 9500; 15731; 3; 500000;  
16384; 4; 9500; 15821; 4; 500000;  
16384; 4; 10000; 16531; 0; 500000;  
16384; 4; 10000; 16822; 1; 500000;  
16384; 4; 10000; 16554; 2; 500000;  
16384; 4; 10000; 16464; 3; 500000;  
16384; 4; 10000; 16829; 4; 500000;  
16384; 4; 10500; 17121; 0; 500000;  
16384; 4; 10500; 17295; 1; 500000;  
16384; 4; 10500; 17697; 2; 500000;  
16384; 4; 10500; 17257; 3; 500000;  
16384; 4; 10500; 17791; 4; 500000;  
16384; 4; 11000; 18225; 0; 500000;  
16384; 4; 11000; 18093; 1; 500000;  
16384; 4; 11000; 19026; 2; 500000;  
16384; 4; 11000; 18217; 3; 500000;  
16384; 4; 11000; 18336; 4; 500000;  
16384; 4; 11500; 18925; 0; 500000;  
16384; 4; 11500; 19030; 1; 500000;  
16384; 4; 11500; 19560; 2; 500000;  
16384; 4; 11500; 19033; 3; 500000;  
16384; 4; 11500; 19283; 4; 500000;  
16384; 4; 12000; 19850; 0; 500000;  
16384; 4; 12000; 19769; 1; 500000;  
16384; 4; 12000; 20044; 2; 500000;  
16384; 4; 12000; 19773; 3; 500000;  
16384; 4; 12000; 20307; 4; 500000;  
16384; 4; 12500; 21194; 0; 500000;  
16384; 4; 12500; 20604; 1; 500000;  
16384; 4; 12500; 21131; 2; 500000;  
16384; 4; 12500; 21358; 3; 500000;  
16384; 4; 12500; 21116; 4; 500000;  
16384; 4; 13000; 22536; 0; 500000;  
16384; 4; 13000; 21455; 1; 500000;  
16384; 4; 13000; 21833; 2; 500000;  
16384; 4; 13000; 21475; 3; 500000;  
16384; 4; 13000; 22004; 4; 500000;  
16384; 4; 13500; 22820; 0; 500000;  
16384; 4; 13500; 22471; 1; 500000;  
16384; 4; 13500; 22463; 2; 500000;  
16384; 4; 13500; 22149; 3; 500000;  
16384; 4; 13500; 22712; 4; 500000;  
16384; 4; 14000; 23628; 0; 500000;  
16384; 4; 14000; 23139; 1; 500000;  
16384; 4; 14000; 23856; 2; 500000;  
16384; 4; 14000; 22913; 3; 500000;  
16384; 4; 14000; 23975; 4; 500000;  
16384; 4; 14500; 24599; 0; 500000;  
16384; 4; 14500; 23727; 1; 500000;  
16384; 4; 14500; 25117; 2; 500000;  
16384; 4; 14500; 24018; 3; 500000;  
16384; 4; 14500; 24671; 4; 500000;  
16384; 4; 15000; 25505; 0; 500000;  
16384; 4; 15000; 24792; 1; 500000;  
16384; 4; 15000; 25289; 2; 500000;  
16384; 4; 15000; 24662; 3; 500000;  
16384; 4; 15000; 25378; 4; 500000;  
16384; 4; 15500; 26010; 0; 500000;  
16384; 4; 15500; 25606; 1; 500000;  
16384; 4; 15500; 26749; 2; 500000;  
16384; 4; 15500; 25714; 3; 500000;  
16384; 4; 15500; 26082; 4; 500000;  
16384; 4; 16000; 26514; 0; 500000;  
16384; 4; 16000; 26379; 1; 500000;  
16384; 4; 16000; 27060; 2; 500000;  
16384; 4; 16000; 26412; 3; 500000;  
16384; 4; 16000; 27829; 4; 500000;  
