textSize; alphaSize; querySize; time; expCount; iterations; index;   
200000; 2; 50; 8876; 2; 20000000; 0;   
200000; 2; 50; 8952; 3; 20000000; 0;   
200000; 2; 50; 8814; 4; 20000000; 0;   
200000; 2; 50; 9300; 5; 20000000; 0;   
200000; 2; 50; 9030; 6; 20000000; 0;   
200000; 2; 50; 8971; 2; 20000000; 10000;   
200000; 2; 50; 8968; 3; 20000000; 10000;   
200000; 2; 50; 8971; 4; 20000000; 10000;   
200000; 2; 50; 9190; 5; 20000000; 10000;   
200000; 2; 50; 9017; 6; 20000000; 10000;   
200000; 2; 50; 9049; 2; 20000000; 20000;   
200000; 2; 50; 8923; 3; 20000000; 20000;   
200000; 2; 50; 8989; 4; 20000000; 20000;   
200000; 2; 50; 9109; 5; 20000000; 20000;   
200000; 2; 50; 9000; 6; 20000000; 20000;   
200000; 2; 50; 9094; 2; 20000000; 30000;   
200000; 2; 50; 9000; 3; 20000000; 30000;   
200000; 2; 50; 8924; 4; 20000000; 30000;   
200000; 2; 50; 8957; 5; 20000000; 30000;   
200000; 2; 50; 9033; 6; 20000000; 30000;   
200000; 2; 50; 9062; 2; 20000000; 40000;   
200000; 2; 50; 8940; 3; 20000000; 40000;   
200000; 2; 50; 8885; 4; 20000000; 40000;   
200000; 2; 50; 8893; 5; 20000000; 40000;   
200000; 2; 50; 8952; 6; 20000000; 40000;   
200000; 2; 50; 8920; 2; 20000000; 50000;   
200000; 2; 50; 8969; 3; 20000000; 50000;   
200000; 2; 50; 9081; 4; 20000000; 50000;   
200000; 2; 50; 9082; 5; 20000000; 50000;   
200000; 2; 50; 8814; 6; 20000000; 50000;   
200000; 2; 50; 8908; 2; 20000000; 60000;   
200000; 2; 50; 8970; 3; 20000000; 60000;   
200000; 2; 50; 8971; 4; 20000000; 60000;   
200000; 2; 50; 8925; 5; 20000000; 60000;   
200000; 2; 50; 9093; 6; 20000000; 60000;   
200000; 2; 50; 8988; 2; 20000000; 70000;   
200000; 2; 50; 9294; 3; 20000000; 70000;   
200000; 2; 50; 8940; 4; 20000000; 70000;   
200000; 2; 50; 8935; 5; 20000000; 70000;   
200000; 2; 50; 9006; 6; 20000000; 70000;   
200000; 2; 50; 9066; 2; 20000000; 80000;   
200000; 2; 50; 8887; 3; 20000000; 80000;   
200000; 2; 50; 9107; 4; 20000000; 80000;   
200000; 2; 50; 8972; 5; 20000000; 80000;   
200000; 2; 50; 8922; 6; 20000000; 80000;   
200000; 2; 50; 9108; 2; 20000000; 90000;   
200000; 2; 50; 9002; 3; 20000000; 90000;   
200000; 2; 50; 9094; 4; 20000000; 90000;   
200000; 2; 50; 9156; 5; 20000000; 90000;   
200000; 2; 50; 9003; 6; 20000000; 90000;   
200000; 2; 50; 9064; 2; 20000000; 100000;   
200000; 2; 50; 9001; 3; 20000000; 100000;   
200000; 2; 50; 9065; 4; 20000000; 100000;   
200000; 2; 50; 9115; 5; 20000000; 100000;   
200000; 2; 50; 8950; 6; 20000000; 100000;   
200000; 2; 50; 9157; 2; 20000000; 110000;   
200000; 2; 50; 8953; 3; 20000000; 110000;   
200000; 2; 50; 9080; 4; 20000000; 110000;   
200000; 2; 50; 8873; 5; 20000000; 110000;   
200000; 2; 50; 9223; 6; 20000000; 110000;   
200000; 2; 50; 9171; 2; 20000000; 120000;   
200000; 2; 50; 8999; 3; 20000000; 120000;   
200000; 2; 50; 9141; 4; 20000000; 120000;   
200000; 2; 50; 8941; 5; 20000000; 120000;   
200000; 2; 50; 9251; 6; 20000000; 120000;   
200000; 2; 50; 9032; 2; 20000000; 130000;   
200000; 2; 50; 8967; 3; 20000000; 130000;   
200000; 2; 50; 9250; 4; 20000000; 130000;   
200000; 2; 50; 8996; 5; 20000000; 130000;   
200000; 2; 50; 9142; 6; 20000000; 130000;   
200000; 2; 50; 8937; 2; 20000000; 140000;   
200000; 2; 50; 9107; 3; 20000000; 140000;   
200000; 2; 50; 8974; 4; 20000000; 140000;   
200000; 2; 50; 9061; 5; 20000000; 140000;   
200000; 2; 50; 8949; 6; 20000000; 140000;   
200000; 2; 50; 9114; 2; 20000000; 150000;   
200000; 2; 50; 8873; 3; 20000000; 150000;   
200000; 2; 50; 9045; 4; 20000000; 150000;   
200000; 2; 50; 9159; 5; 20000000; 150000;   
200000; 2; 50; 8978; 6; 20000000; 150000;   
200000; 2; 50; 9044; 2; 20000000; 160000;   
200000; 2; 50; 9002; 3; 20000000; 160000;   
200000; 2; 50; 9078; 4; 20000000; 160000;   
200000; 2; 50; 9028; 5; 20000000; 160000;   
200000; 2; 50; 9111; 6; 20000000; 160000;   
200000; 2; 50; 9107; 2; 20000000; 170000;   
200000; 2; 50; 9016; 3; 20000000; 170000;   
200000; 2; 50; 9047; 4; 20000000; 170000;   
200000; 2; 50; 8985; 5; 20000000; 170000;   
200000; 2; 50; 9032; 6; 20000000; 170000;   
200000; 2; 50; 9046; 2; 20000000; 180000;   
200000; 2; 50; 9125; 3; 20000000; 180000;   
200000; 2; 50; 9034; 4; 20000000; 180000;   
200000; 2; 50; 8970; 5; 20000000; 180000;   
200000; 2; 50; 9033; 6; 20000000; 180000;   
200000; 2; 50; 9002; 2; 20000000; 190000;   
200000; 2; 50; 9043; 3; 20000000; 190000;   
200000; 2; 50; 9000; 4; 20000000; 190000;   
200000; 2; 50; 8999; 5; 20000000; 190000;   
200000; 2; 50; 9016; 6; 20000000; 190000;   
