textSize; alphaSize; querySize; time; expCount; iterations; index;   avgTime; standardDeviation; relativeStdDev; 
200000; 2; 50; 8876; 2; 20000000; 0;    8994.4; 169.1266980698198;  1.8803555331074873; 
200000; 2; 50; 8971; 2; 20000000; 10000;    9023.4; 85.27273890288735;  0.9450178303398649; 
200000; 2; 50; 9049; 2; 20000000; 20000;    9014.0; 62.21253892906156;  0.6901768241520031; 
200000; 2; 50; 9094; 2; 20000000; 30000;    9001.6; 59.22364392706683;  0.6579235238964942; 
200000; 2; 50; 9062; 2; 20000000; 40000;    8946.4; 63.33592977133911;  0.7079487813124733; 
200000; 2; 50; 8920; 2; 20000000; 50000;    8973.2; 101.63739469309512;  1.132677246613194; 
200000; 2; 50; 8908; 2; 20000000; 60000;    8973.4; 64.71661301397037;  0.7212050394941758; 
200000; 2; 50; 8988; 2; 20000000; 70000;    9032.6; 133.51194703096797;  1.4781120278875182; 
200000; 2; 50; 9066; 2; 20000000; 80000;    8990.8; 83.68846993463318;  0.9308233965234817; 
200000; 2; 50; 9108; 2; 20000000; 90000;    9072.6; 60.81973363966666;  0.6703671895560992; 
200000; 2; 50; 9064; 2; 20000000; 100000;    9039.0; 57.344572541784636;  0.6344127950191906; 
200000; 2; 50; 9157; 2; 20000000; 110000;    9057.2; 128.65208898420576;  1.4204399702358979; 
200000; 2; 50; 9171; 2; 20000000; 120000;    9100.6; 114.02034906103384;  1.252888260785375; 
200000; 2; 50; 9032; 2; 20000000; 130000;    9077.4; 104.72745580792078;  1.1537164365117851; 
200000; 2; 50; 8937; 2; 20000000; 140000;    9005.6; 66.72211027837774;  0.7408957790527865; 
200000; 2; 50; 9114; 2; 20000000; 150000;    9033.8; 101.19565208051185;  1.120189201449134; 
200000; 2; 50; 9044; 2; 20000000; 160000;    9052.6; 38.197382109249325;  0.4219492975415828; 
200000; 2; 50; 9107; 2; 20000000; 170000;    9037.4; 40.420786731581565;  0.4472612336687716; 
200000; 2; 50; 9046; 2; 20000000; 180000;    9041.6; 49.46352191261759;  0.5470660271701644; 
200000; 2; 50; 9002; 2; 20000000; 190000;    9012.0; 16.673332000533065;  0.18501256103565317; 
