textSize; alphaSize; querySize; timeTree; timeArray; timeTray; expCount; iterations;
2232098; 51; 100; 642; 329; 313; 0; 250000; 
2232098; 51; 100; 687; 390; 250; 1; 250000; 
2232098; 51; 100; 640; 281; 329; 2; 250000; 
2232098; 51; 100; 639; 329; 281; 3; 250000; 
2232098; 51; 100; 639; 313; 251; 4; 250000; 
2232098; 51; 100; 625; 360; 266; 5; 250000; 
2232098; 51; 100; 673; 327; 313; 6; 250000; 
2232098; 51; 200; 766; 389; 406; 0; 250000; 
2232098; 51; 200; 765; 453; 360; 1; 250000; 
2232098; 51; 200; 734; 454; 312; 2; 250000; 
2232098; 51; 200; 734; 406; 328; 3; 250000; 
2232098; 51; 200; 750; 423; 407; 4; 250000; 
2232098; 51; 200; 719; 437; 342; 5; 250000; 
2232098; 51; 200; 734; 438; 345; 6; 250000; 
2232098; 51; 300; 830; 532; 453; 0; 250000; 
2232098; 51; 300; 750; 546; 452; 1; 250000; 
2232098; 51; 300; 844; 498; 484; 2; 250000; 
2232098; 51; 300; 876; 500; 500; 3; 250000; 
2232098; 51; 300; 891; 437; 437; 4; 250000; 
2232098; 51; 300; 874; 532; 453; 5; 250000; 
2232098; 51; 300; 874; 547; 437; 6; 250000; 
2232098; 51; 400; 984; 611; 530; 0; 250000; 
2232098; 51; 400; 968; 624; 530; 1; 250000; 
2232098; 51; 400; 936; 624; 563; 2; 250000; 
2232098; 51; 400; 953; 656; 579; 3; 250000; 
2232098; 51; 400; 937; 610; 514; 4; 250000; 
2232098; 51; 400; 953; 610; 562; 5; 250000; 
2232098; 51; 400; 954; 625; 564; 6; 250000; 
2232098; 51; 500; 1033; 718; 671; 0; 250000; 
2232098; 51; 500; 1063; 720; 610; 1; 250000; 
2232098; 51; 500; 1001; 673; 671; 2; 250000; 
2232098; 51; 500; 1062; 686; 672; 3; 250000; 
2232098; 51; 500; 1046; 610; 672; 4; 250000; 
2232098; 51; 500; 1047; 655; 639; 5; 250000; 
2232098; 51; 500; 970; 671; 624; 6; 250000; 
2232098; 51; 600; 1111; 781; 719; 0; 250000; 
2232098; 51; 600; 1125; 764; 720; 1; 250000; 
2232098; 51; 600; 1078; 752; 668; 2; 250000; 
2232098; 51; 600; 1094; 813; 750; 3; 250000; 
2232098; 51; 600; 1110; 736; 705; 4; 250000; 
2232098; 51; 600; 1143; 768; 735; 5; 250000; 
2232098; 51; 600; 1093; 844; 673; 6; 250000; 
2232098; 51; 700; 1188; 828; 859; 0; 250000; 
2232098; 51; 700; 1221; 889; 797; 1; 250000; 
2232098; 51; 700; 1234; 905; 783; 2; 250000; 
2232098; 51; 700; 1219; 860; 829; 3; 250000; 
2232098; 51; 700; 1283; 922; 797; 4; 250000; 
2232098; 51; 700; 1266; 857; 859; 5; 250000; 
2232098; 51; 700; 1234; 766; 750; 6; 250000; 
2232098; 51; 800; 1297; 953; 939; 0; 250000; 
2232098; 51; 800; 1298; 924; 875; 1; 250000; 
2232098; 51; 800; 1236; 955; 906; 2; 250000; 
2232098; 51; 800; 1329; 872; 984; 3; 250000; 
2232098; 51; 800; 1298; 954; 858; 4; 250000; 
2232098; 51; 800; 1344; 968; 922; 5; 250000; 
2232098; 51; 800; 1375; 938; 905; 6; 250000; 
2232098; 51; 900; 1356; 998; 954; 0; 250000; 
2232098; 51; 900; 1378; 985; 999; 1; 250000; 
2232098; 51; 900; 1406; 1030; 970; 2; 250000; 
2232098; 51; 900; 1344; 1061; 953; 3; 250000; 
2232098; 51; 900; 1405; 1063; 984; 4; 250000; 
2232098; 51; 900; 1219; 967; 970; 5; 250000; 
2232098; 51; 900; 1484; 1031; 907; 6; 250000; 
2232098; 51; 1000; 1452; 1031; 1015; 0; 250000; 
2232098; 51; 1000; 1499; 1063; 1046; 1; 250000; 
2232098; 51; 1000; 1468; 1110; 1079; 2; 250000; 
2232098; 51; 1000; 1419; 1107; 1109; 3; 250000; 
2232098; 51; 1000; 1454; 1111; 1093; 4; 250000; 
2232098; 51; 1000; 1515; 1078; 1079; 5; 250000; 
2232098; 51; 1000; 1516; 1095; 1044; 6; 250000; 
2232098; 51; 1100; 1514; 1171; 1139; 0; 250000; 
2232098; 51; 1100; 1545; 1170; 1155; 1; 250000; 
2232098; 51; 1100; 1465; 1171; 1174; 2; 250000; 
2232098; 51; 1100; 1639; 1204; 1110; 3; 250000; 
2232098; 51; 1100; 1607; 1203; 1093; 4; 250000; 
2232098; 51; 1100; 1517; 1108; 1123; 5; 250000; 
2232098; 51; 1100; 1546; 1142; 1109; 6; 250000; 
2232098; 51; 1200; 1639; 1235; 1202; 0; 250000; 
2232098; 51; 1200; 1704; 1268; 1233; 1; 250000; 
2232098; 51; 1200; 1610; 1252; 1234; 2; 250000; 
2232098; 51; 1200; 1671; 1237; 1232; 3; 250000; 
2232098; 51; 1200; 1580; 1203; 1250; 4; 250000; 
2232098; 51; 1200; 1657; 1278; 1156; 5; 250000; 
2232098; 51; 1200; 1658; 1201; 1233; 6; 250000; 
2232098; 51; 1300; 1750; 1378; 1297; 0; 250000; 
2232098; 51; 1300; 1719; 1374; 1329; 1; 250000; 
2232098; 51; 1300; 1782; 1299; 1280; 2; 250000; 
2232098; 51; 1300; 1736; 1407; 1311; 3; 250000; 
2232098; 51; 1300; 1732; 1423; 1328; 4; 250000; 
2232098; 51; 1300; 1750; 1375; 1342; 5; 250000; 
2232098; 51; 1300; 1751; 1391; 1358; 6; 250000; 
2232098; 51; 1400; 1827; 1425; 1469; 0; 250000; 
2232098; 51; 1400; 1811; 1453; 1345; 1; 250000; 
2232098; 51; 1400; 1922; 1407; 1329; 2; 250000; 
2232098; 51; 1400; 1863; 1439; 1358; 3; 250000; 
2232098; 51; 1400; 1921; 1470; 1359; 4; 250000; 
2232098; 51; 1400; 1858; 1376; 1424; 5; 250000; 
2232098; 51; 1400; 1814; 1405; 1421; 6; 250000; 
2232098; 51; 1500; 1919; 1471; 1409; 0; 250000; 
2232098; 51; 1500; 1922; 1532; 1392; 1; 250000; 
2232098; 51; 1500; 1906; 1498; 1454; 2; 250000; 
2232098; 51; 1500; 1887; 1501; 1485; 3; 250000; 
2232098; 51; 1500; 1795; 1499; 1485; 4; 250000; 
2232098; 51; 1500; 1859; 1548; 1531; 5; 250000; 
2232098; 51; 1500; 1781; 1532; 1453; 6; 250000; 
2232098; 51; 1600; 1968; 1545; 1534; 0; 250000; 
2232098; 51; 1600; 2029; 1450; 1515; 1; 250000; 
2232098; 51; 1600; 1987; 1515; 1563; 2; 250000; 
2232098; 51; 1600; 2014; 1561; 1517; 3; 250000; 
2232098; 51; 1600; 1922; 1640; 1644; 4; 250000; 
2232098; 51; 1600; 1951; 1503; 1483; 5; 250000; 
2232098; 51; 1600; 1906; 1627; 1531; 6; 250000; 
2232098; 51; 1700; 2061; 1752; 1626; 0; 250000; 
2232098; 51; 1700; 2094; 1677; 1687; 1; 250000; 
2232098; 51; 1700; 1985; 1640; 1626; 2; 250000; 
2232098; 51; 1700; 2015; 1653; 1672; 3; 250000; 
2232098; 51; 1700; 2095; 1576; 1673; 4; 250000; 
2232098; 51; 1700; 2017; 1722; 1607; 5; 250000; 
2232098; 51; 1700; 2049; 1703; 1609; 6; 250000; 
2232098; 51; 1800; 2185; 1765; 1671; 0; 250000; 
2232098; 51; 1800; 2221; 1813; 1719; 1; 250000; 
2232098; 51; 1800; 2249; 1705; 1750; 2; 250000; 
2232098; 51; 1800; 2127; 1782; 1672; 3; 250000; 
2232098; 51; 1800; 2173; 1780; 1767; 4; 250000; 
2232098; 51; 1800; 2077; 1799; 1796; 5; 250000; 
2232098; 51; 1800; 2092; 1685; 1595; 6; 250000; 
2232098; 51; 1900; 2280; 1844; 1890; 0; 250000; 
2232098; 51; 1900; 2249; 1845; 1813; 1; 250000; 
2232098; 51; 1900; 2157; 1842; 1781; 2; 250000; 
2232098; 51; 1900; 2189; 1861; 1845; 3; 250000; 
2232098; 51; 1900; 2219; 1798; 1811; 4; 250000; 
2232098; 51; 1900; 2187; 1779; 1799; 5; 250000; 
2232098; 51; 1900; 2298; 1890; 1826; 6; 250000; 
2232098; 51; 2000; 2254; 1969; 1795; 0; 250000; 
2232098; 51; 2000; 2358; 1970; 1861; 1; 250000; 
2232098; 51; 2000; 2268; 1876; 1859; 2; 250000; 
2232098; 51; 2000; 2392; 1906; 1905; 3; 250000; 
2232098; 51; 2000; 2283; 1829; 1953; 4; 250000; 
2232098; 51; 2000; 2310; 1888; 1815; 5; 250000; 
2232098; 51; 2000; 2186; 1876; 1920; 6; 250000; 
