textSize; alphaSize; querySize; time; expCount; iterations; 
1300000; 2; 50; 10530; 0; 20000000; 
1400000; 2; 50; 9907; 0; 20000000; 
1500000; 2; 50; 10281; 0; 20000000; 
1600000; 2; 50; 9877; 0; 20000000; 
1700000; 2; 50; 9921; 0; 20000000; 
1300000; 2; 50; 9922; 1; 20000000; 
1400000; 2; 50; 10604; 1; 20000000; 
1500000; 2; 50; 10516; 1; 20000000; 
1600000; 2; 50; 9860; 1; 20000000; 
1700000; 2; 50; 9843; 1; 20000000; 
1300000; 2; 50; 9855; 2; 20000000; 
1400000; 2; 50; 10220; 2; 20000000; 
1500000; 2; 50; 10531; 2; 20000000; 
1600000; 2; 50; 9844; 2; 20000000; 
1700000; 2; 50; 9938; 2; 20000000; 
1300000; 2; 50; 9980; 3; 20000000; 
1400000; 2; 50; 10313; 3; 20000000; 
1500000; 2; 50; 10251; 3; 20000000; 
1600000; 2; 50; 9754; 3; 20000000; 
1700000; 2; 50; 9861; 3; 20000000; 
1300000; 2; 50; 10123; 4; 20000000; 
1400000; 2; 50; 9871; 4; 20000000; 
1500000; 2; 50; 9891; 4; 20000000; 
1600000; 2; 50; 10677; 4; 20000000; 
1700000; 2; 50; 9827; 4; 20000000; 
1300000; 2; 50; 9986; 5; 20000000; 
1400000; 2; 50; 10093; 5; 20000000; 
1500000; 2; 50; 10126; 5; 20000000; 
1600000; 2; 50; 10361; 5; 20000000; 
1700000; 2; 50; 9810; 5; 20000000; 
1300000; 2; 50; 10074; 6; 20000000; 
1400000; 2; 50; 9878; 6; 20000000; 
1500000; 2; 50; 9877; 6; 20000000; 
1600000; 2; 50; 10583; 6; 20000000; 
1700000; 2; 50; 10096; 6; 20000000; 
