textSize; alphaSize; querySize; time; expCount; iterations;  
100000; 2; 100; 14627; 0; 7500000;  
100000; 2; 100; 14420; 1; 7500000;  
100000; 2; 100; 14404; 2; 7500000;  
100000; 2; 100; 14406; 3; 7500000;  
100000; 2; 100; 14378; 4; 7500000;  
100000; 2; 100; 14393; 5; 7500000;  
100000; 2; 100; 14453; 6; 7500000;  
200000; 2; 100; 14785; 0; 7500000;  
200000; 2; 100; 14468; 1; 7500000;  
200000; 2; 100; 14422; 2; 7500000;  
200000; 2; 100; 14390; 3; 7500000;  
200000; 2; 100; 14408; 4; 7500000;  
200000; 2; 100; 14361; 5; 7500000;  
200000; 2; 100; 14424; 6; 7500000;  
300000; 2; 100; 14688; 0; 7500000;  
300000; 2; 100; 14438; 1; 7500000;  
300000; 2; 100; 15267; 2; 7500000;  
300000; 2; 100; 14486; 3; 7500000;  
300000; 2; 100; 14424; 4; 7500000;  
300000; 2; 100; 14375; 5; 7500000;  
300000; 2; 100; 14610; 6; 7500000;  
400000; 2; 100; 15065; 0; 7500000;  
400000; 2; 100; 15331; 1; 7500000;  
400000; 2; 100; 14485; 2; 7500000;  
400000; 2; 100; 14346; 3; 7500000;  
400000; 2; 100; 14328; 4; 7500000;  
400000; 2; 100; 14422; 5; 7500000;  
400000; 2; 100; 14469; 6; 7500000;  
500000; 2; 100; 14657; 0; 7500000;  
500000; 2; 100; 14393; 1; 7500000;  
500000; 2; 100; 14422; 2; 7500000;  
500000; 2; 100; 14348; 3; 7500000;  
500000; 2; 100; 14533; 4; 7500000;  
500000; 2; 100; 14531; 5; 7500000;  
500000; 2; 100; 14597; 6; 7500000;  
600000; 2; 100; 14645; 0; 7500000;  
600000; 2; 100; 14407; 1; 7500000;  
600000; 2; 100; 14389; 2; 7500000;  
600000; 2; 100; 14561; 3; 7500000;  
600000; 2; 100; 14595; 4; 7500000;  
600000; 2; 100; 14501; 5; 7500000;  
600000; 2; 100; 14298; 6; 7500000;  
700000; 2; 100; 15029; 0; 7500000;  
700000; 2; 100; 14343; 1; 7500000;  
700000; 2; 100; 14469; 2; 7500000;  
700000; 2; 100; 14501; 3; 7500000;  
700000; 2; 100; 14468; 4; 7500000;  
700000; 2; 100; 14393; 5; 7500000;  
700000; 2; 100; 14348; 6; 7500000;  
800000; 2; 100; 14500; 0; 7500000;  
800000; 2; 100; 14376; 1; 7500000;  
800000; 2; 100; 14515; 2; 7500000;  
800000; 2; 100; 14451; 3; 7500000;  
800000; 2; 100; 14504; 4; 7500000;  
800000; 2; 100; 14393; 5; 7500000;  
800000; 2; 100; 14406; 6; 7500000;  
900000; 2; 100; 14862; 0; 7500000;  
900000; 2; 100; 14452; 1; 7500000;  
900000; 2; 100; 14453; 2; 7500000;  
900000; 2; 100; 14376; 3; 7500000;  
900000; 2; 100; 14406; 4; 7500000;  
900000; 2; 100; 14562; 5; 7500000;  
900000; 2; 100; 14391; 6; 7500000;  
1000000; 2; 100; 14483; 0; 7500000;  
1000000; 2; 100; 14484; 1; 7500000;  
1000000; 2; 100; 14470; 2; 7500000;  
1000000; 2; 100; 15091; 3; 7500000;  
1000000; 2; 100; 14517; 4; 7500000;  
1000000; 2; 100; 14297; 5; 7500000;  
1000000; 2; 100; 14377; 6; 7500000;  
1100000; 2; 100; 14450; 0; 7500000;  
1100000; 2; 100; 14392; 1; 7500000;  
1100000; 2; 100; 14485; 2; 7500000;  
1100000; 2; 100; 14409; 3; 7500000;  
1100000; 2; 100; 14423; 4; 7500000;  
1100000; 2; 100; 14423; 5; 7500000;  
1100000; 2; 100; 14437; 6; 7500000;  
1200000; 2; 100; 14439; 0; 7500000;  
1200000; 2; 100; 14440; 1; 7500000;  
1200000; 2; 100; 14468; 2; 7500000;  
1200000; 2; 100; 14612; 3; 7500000;  
1200000; 2; 100; 14874; 4; 7500000;  
1200000; 2; 100; 14410; 5; 7500000;  
1200000; 2; 100; 14422; 6; 7500000;  
1300000; 2; 100; 14392; 0; 7500000;  
1300000; 2; 100; 14469; 1; 7500000;  
1300000; 2; 100; 14471; 2; 7500000;  
1300000; 2; 100; 14564; 3; 7500000;  
1300000; 2; 100; 14545; 4; 7500000;  
1300000; 2; 100; 14330; 5; 7500000;  
1300000; 2; 100; 14422; 6; 7500000;  
1400000; 2; 100; 14688; 0; 7500000;  
1400000; 2; 100; 14516; 1; 7500000;  
1400000; 2; 100; 14520; 2; 7500000;  
1400000; 2; 100; 14438; 3; 7500000;  
1400000; 2; 100; 14531; 4; 7500000;  
1400000; 2; 100; 14517; 5; 7500000;  
1400000; 2; 100; 14499; 6; 7500000;  
1500000; 2; 100; 14546; 0; 7500000;  
1500000; 2; 100; 14626; 1; 7500000;  
1500000; 2; 100; 14438; 2; 7500000;  
1500000; 2; 100; 14485; 3; 7500000;  
1500000; 2; 100; 14468; 4; 7500000;  
1500000; 2; 100; 14847; 5; 7500000;  
1500000; 2; 100; 14547; 6; 7500000;  
1600000; 2; 100; 14504; 0; 7500000;  
1600000; 2; 100; 14531; 1; 7500000;  
1600000; 2; 100; 14440; 2; 7500000;  
1600000; 2; 100; 14427; 3; 7500000;  
1600000; 2; 100; 14375; 4; 7500000;  
1600000; 2; 100; 14408; 5; 7500000;  
1600000; 2; 100; 14328; 6; 7500000;  
1700000; 2; 100; 14437; 0; 7500000;  
1700000; 2; 100; 14485; 1; 7500000;  
1700000; 2; 100; 14755; 2; 7500000;  
1700000; 2; 100; 14532; 3; 7500000;  
1700000; 2; 100; 14454; 4; 7500000;  
1700000; 2; 100; 14357; 5; 7500000;  
1700000; 2; 100; 14437; 6; 7500000;  
1800000; 2; 100; 14419; 0; 7500000;  
1800000; 2; 100; 14392; 1; 7500000;  
1800000; 2; 100; 14532; 2; 7500000;  
1800000; 2; 100; 14437; 3; 7500000;  
1800000; 2; 100; 14452; 4; 7500000;  
1800000; 2; 100; 14485; 5; 7500000;  
1800000; 2; 100; 14455; 6; 7500000;  
1900000; 2; 100; 14609; 0; 7500000;  
1900000; 2; 100; 14407; 1; 7500000;  
1900000; 2; 100; 14455; 2; 7500000;  
1900000; 2; 100; 14485; 3; 7500000;  
1900000; 2; 100; 14408; 4; 7500000;  
1900000; 2; 100; 14437; 5; 7500000;  
1900000; 2; 100; 14408; 6; 7500000;  
2000000; 2; 100; 14408; 0; 7500000;  
2000000; 2; 100; 14422; 1; 7500000;  
2000000; 2; 100; 14452; 2; 7500000;  
2000000; 2; 100; 14438; 3; 7500000;  
2000000; 2; 100; 14438; 4; 7500000;  
2000000; 2; 100; 14487; 5; 7500000;  
2000000; 2; 100; 14295; 6; 7500000;  
