textSize; alphaSize; querySize; time; expCount; iterations;  
512; 4; 5; 1503; 0; 10000000;  
512; 4; 5; 1530; 1; 10000000;  
512; 4; 5; 1484; 2; 10000000;  
512; 4; 5; 1392; 3; 10000000;  
512; 4; 5; 1313; 4; 10000000;  
512; 4; 5; 1422; 5; 10000000;  
512; 4; 5; 1392; 6; 10000000;  
512; 4; 10; 1667; 0; 10000000;  
512; 4; 10; 1466; 1; 10000000;  
512; 4; 10; 1564; 2; 10000000;  
512; 4; 10; 1500; 3; 10000000;  
512; 4; 10; 1562; 4; 10000000;  
512; 4; 10; 1611; 5; 10000000;  
512; 4; 10; 1673; 6; 10000000;  
512; 4; 15; 1816; 0; 10000000;  
512; 4; 15; 1845; 1; 10000000;  
512; 4; 15; 1752; 2; 10000000;  
512; 4; 15; 1764; 3; 10000000;  
512; 4; 15; 1750; 4; 10000000;  
512; 4; 15; 1718; 5; 10000000;  
512; 4; 15; 1876; 6; 10000000;  
512; 4; 20; 1952; 0; 10000000;  
512; 4; 20; 1952; 1; 10000000;  
512; 4; 20; 1907; 2; 10000000;  
512; 4; 20; 1841; 3; 10000000;  
512; 4; 20; 1969; 4; 10000000;  
512; 4; 20; 2015; 5; 10000000;  
512; 4; 20; 1895; 6; 10000000;  
512; 4; 25; 2123; 0; 10000000;  
512; 4; 25; 2092; 1; 10000000;  
512; 4; 25; 2109; 2; 10000000;  
512; 4; 25; 2124; 3; 10000000;  
512; 4; 25; 2144; 4; 10000000;  
512; 4; 25; 2125; 5; 10000000;  
512; 4; 25; 2032; 6; 10000000;  
512; 4; 30; 2326; 0; 10000000;  
512; 4; 30; 2315; 1; 10000000;  
512; 4; 30; 2170; 2; 10000000;  
512; 4; 30; 2002; 3; 10000000;  
512; 4; 30; 2187; 4; 10000000;  
512; 4; 30; 2299; 5; 10000000;  
512; 4; 30; 2251; 6; 10000000;  
512; 4; 35; 2283; 0; 10000000;  
512; 4; 35; 2469; 1; 10000000;  
512; 4; 35; 2328; 2; 10000000;  
512; 4; 35; 2406; 3; 10000000;  
512; 4; 35; 2452; 4; 10000000;  
512; 4; 35; 2285; 5; 10000000;  
512; 4; 35; 2455; 6; 10000000;  
512; 4; 40; 2639; 0; 10000000;  
512; 4; 40; 2547; 1; 10000000;  
512; 4; 40; 2485; 2; 10000000;  
512; 4; 40; 2563; 3; 10000000;  
512; 4; 40; 2643; 4; 10000000;  
512; 4; 40; 2624; 5; 10000000;  
512; 4; 40; 2659; 6; 10000000;  
512; 4; 45; 2860; 0; 10000000;  
512; 4; 45; 2674; 1; 10000000;  
512; 4; 45; 2638; 2; 10000000;  
512; 4; 45; 2702; 3; 10000000;  
512; 4; 45; 2656; 4; 10000000;  
512; 4; 45; 2751; 5; 10000000;  
512; 4; 45; 2752; 6; 10000000;  
512; 4; 50; 2938; 0; 10000000;  
512; 4; 50; 2904; 1; 10000000;  
512; 4; 50; 2999; 2; 10000000;  
512; 4; 50; 2957; 3; 10000000;  
512; 4; 50; 2863; 4; 10000000;  
512; 4; 50; 2955; 5; 10000000;  
512; 4; 50; 2809; 6; 10000000;  
512; 4; 55; 3079; 0; 10000000;  
512; 4; 55; 3081; 1; 10000000;  
512; 4; 55; 3080; 2; 10000000;  
512; 4; 55; 3216; 3; 10000000;  
512; 4; 55; 3001; 4; 10000000;  
512; 4; 55; 3123; 5; 10000000;  
512; 4; 55; 3186; 6; 10000000;  
512; 4; 60; 3201; 0; 10000000;  
512; 4; 60; 3281; 1; 10000000;  
512; 4; 60; 3282; 2; 10000000;  
512; 4; 60; 3239; 3; 10000000;  
512; 4; 60; 3269; 4; 10000000;  
512; 4; 60; 3233; 5; 10000000;  
512; 4; 60; 3297; 6; 10000000;  
512; 4; 65; 3467; 0; 10000000;  
512; 4; 65; 3311; 1; 10000000;  
512; 4; 65; 3375; 2; 10000000;  
512; 4; 65; 3406; 3; 10000000;  
512; 4; 65; 3520; 4; 10000000;  
512; 4; 65; 3454; 5; 10000000;  
512; 4; 65; 3469; 6; 10000000;  
512; 4; 70; 3643; 0; 10000000;  
512; 4; 70; 3543; 1; 10000000;  
512; 4; 70; 3675; 2; 10000000;  
512; 4; 70; 3595; 3; 10000000;  
512; 4; 70; 3703; 4; 10000000;  
512; 4; 70; 3671; 5; 10000000;  
512; 4; 70; 3420; 6; 10000000;  
512; 4; 75; 3781; 0; 10000000;  
512; 4; 75; 3903; 1; 10000000;  
512; 4; 75; 3658; 2; 10000000;  
512; 4; 75; 3892; 3; 10000000;  
512; 4; 75; 3937; 4; 10000000;  
512; 4; 75; 3829; 5; 10000000;  
512; 4; 75; 3825; 6; 10000000;  
512; 4; 80; 4045; 0; 10000000;  
512; 4; 80; 4002; 1; 10000000;  
512; 4; 80; 3954; 2; 10000000;  
512; 4; 80; 4013; 3; 10000000;  
512; 4; 80; 4045; 4; 10000000;  
512; 4; 80; 4049; 5; 10000000;  
512; 4; 80; 4017; 6; 10000000;  
512; 4; 85; 4077; 0; 10000000;  
512; 4; 85; 4094; 1; 10000000;  
512; 4; 85; 4110; 2; 10000000;  
512; 4; 85; 4029; 3; 10000000;  
512; 4; 85; 4033; 4; 10000000;  
512; 4; 85; 4285; 5; 10000000;  
512; 4; 85; 4140; 6; 10000000;  
512; 4; 90; 4300; 0; 10000000;  
512; 4; 90; 4340; 1; 10000000;  
512; 4; 90; 4329; 2; 10000000;  
512; 4; 90; 4264; 3; 10000000;  
512; 4; 90; 4297; 4; 10000000;  
512; 4; 90; 4190; 5; 10000000;  
512; 4; 90; 4262; 6; 10000000;  
512; 4; 95; 4390; 0; 10000000;  
512; 4; 95; 4436; 1; 10000000;  
512; 4; 95; 4405; 2; 10000000;  
512; 4; 95; 4358; 3; 10000000;  
512; 4; 95; 4295; 4; 10000000;  
512; 4; 95; 4518; 5; 10000000;  
512; 4; 95; 4452; 6; 10000000;  
512; 4; 100; 4563; 0; 10000000;  
512; 4; 100; 4530; 1; 10000000;  
512; 4; 100; 4497; 2; 10000000;  
512; 4; 100; 4422; 3; 10000000;  
512; 4; 100; 4686; 4; 10000000;  
512; 4; 100; 4471; 5; 10000000;  
512; 4; 100; 4550; 6; 10000000;  
512; 4; 105; 4629; 0; 10000000;  
512; 4; 105; 4828; 1; 10000000;  
512; 4; 105; 4612; 2; 10000000;  
512; 4; 105; 4530; 3; 10000000;  
512; 4; 105; 4528; 4; 10000000;  
512; 4; 105; 4687; 5; 10000000;  
512; 4; 105; 4672; 6; 10000000;  
512; 4; 110; 4738; 0; 10000000;  
512; 4; 110; 4924; 1; 10000000;  
512; 4; 110; 4862; 2; 10000000;  
512; 4; 110; 4829; 3; 10000000;  
512; 4; 110; 4896; 4; 10000000;  
512; 4; 110; 4813; 5; 10000000;  
512; 4; 110; 4781; 6; 10000000;  
512; 4; 115; 4921; 0; 10000000;  
512; 4; 115; 4985; 1; 10000000;  
512; 4; 115; 4984; 2; 10000000;  
512; 4; 115; 5047; 3; 10000000;  
512; 4; 115; 5078; 4; 10000000;  
512; 4; 115; 4973; 5; 10000000;  
512; 4; 115; 5113; 6; 10000000;  
512; 4; 120; 5219; 0; 10000000;  
512; 4; 120; 5108; 1; 10000000;  
512; 4; 120; 5156; 2; 10000000;  
512; 4; 120; 5220; 3; 10000000;  
512; 4; 120; 5126; 4; 10000000;  
512; 4; 120; 5093; 5; 10000000;  
512; 4; 120; 5172; 6; 10000000;  
512; 4; 125; 5394; 0; 10000000;  
512; 4; 125; 5238; 1; 10000000;  
512; 4; 125; 5252; 2; 10000000;  
512; 4; 125; 5486; 3; 10000000;  
512; 4; 125; 5300; 4; 10000000;  
512; 4; 125; 5220; 5; 10000000;  
512; 4; 125; 5317; 6; 10000000;  
512; 4; 130; 5515; 0; 10000000;  
512; 4; 130; 5514; 1; 10000000;  
512; 4; 130; 5547; 2; 10000000;  
512; 4; 130; 5497; 3; 10000000;  
512; 4; 130; 5439; 4; 10000000;  
512; 4; 130; 5580; 5; 10000000;  
512; 4; 130; 5658; 6; 10000000;  
512; 4; 135; 5749; 0; 10000000;  
512; 4; 135; 5859; 1; 10000000;  
512; 4; 135; 5705; 2; 10000000;  
512; 4; 135; 5688; 3; 10000000;  
512; 4; 135; 5639; 4; 10000000;  
512; 4; 135; 5721; 5; 10000000;  
512; 4; 135; 5653; 6; 10000000;  
512; 4; 140; 5893; 0; 10000000;  
512; 4; 140; 5810; 1; 10000000;  
512; 4; 140; 5856; 2; 10000000;  
512; 4; 140; 5984; 3; 10000000;  
512; 4; 140; 5624; 4; 10000000;  
512; 4; 140; 6018; 5; 10000000;  
512; 4; 140; 5845; 6; 10000000;  
512; 4; 145; 6000; 0; 10000000;  
512; 4; 145; 6046; 1; 10000000;  
512; 4; 145; 6013; 2; 10000000;  
512; 4; 145; 6078; 3; 10000000;  
512; 4; 145; 6029; 4; 10000000;  
512; 4; 145; 5973; 5; 10000000;  
512; 4; 145; 6076; 6; 10000000;  
512; 4; 150; 6171; 0; 10000000;  
512; 4; 150; 6312; 1; 10000000;  
512; 4; 150; 6172; 2; 10000000;  
512; 4; 150; 6206; 3; 10000000;  
512; 4; 150; 6092; 4; 10000000;  
512; 4; 150; 6205; 5; 10000000;  
512; 4; 150; 6189; 6; 10000000;  
512; 4; 155; 6298; 0; 10000000;  
512; 4; 155; 6216; 1; 10000000;  
512; 4; 155; 6438; 2; 10000000;  
512; 4; 155; 6503; 3; 10000000;  
512; 4; 155; 6377; 4; 10000000;  
512; 4; 155; 6221; 5; 10000000;  
512; 4; 155; 6468; 6; 10000000;  
512; 4; 160; 6529; 0; 10000000;  
512; 4; 160; 6437; 1; 10000000;  
512; 4; 160; 6753; 2; 10000000;  
512; 4; 160; 6548; 3; 10000000;  
512; 4; 160; 6611; 4; 10000000;  
512; 4; 160; 6612; 5; 10000000;  
512; 4; 160; 6657; 6; 10000000;  
512; 4; 165; 6641; 0; 10000000;  
512; 4; 165; 6735; 1; 10000000;  
512; 4; 165; 6843; 2; 10000000;  
512; 4; 165; 6747; 3; 10000000;  
512; 4; 165; 6702; 4; 10000000;  
512; 4; 165; 6686; 5; 10000000;  
512; 4; 165; 6640; 6; 10000000;  
512; 4; 170; 6936; 0; 10000000;  
512; 4; 170; 6891; 1; 10000000;  
512; 4; 170; 6689; 2; 10000000;  
512; 4; 170; 6778; 3; 10000000;  
512; 4; 170; 6938; 4; 10000000;  
512; 4; 170; 6749; 5; 10000000;  
512; 4; 170; 6691; 6; 10000000;  
512; 4; 175; 7000; 0; 10000000;  
512; 4; 175; 7066; 1; 10000000;  
512; 4; 175; 6985; 2; 10000000;  
512; 4; 175; 6859; 3; 10000000;  
512; 4; 175; 7065; 4; 10000000;  
512; 4; 175; 7002; 5; 10000000;  
512; 4; 175; 7091; 6; 10000000;  
512; 4; 180; 7266; 0; 10000000;  
512; 4; 180; 7333; 1; 10000000;  
512; 4; 180; 7112; 2; 10000000;  
512; 4; 180; 7108; 3; 10000000;  
512; 4; 180; 7114; 4; 10000000;  
512; 4; 180; 7264; 5; 10000000;  
512; 4; 180; 7096; 6; 10000000;  
512; 4; 185; 7250; 0; 10000000;  
512; 4; 185; 7326; 1; 10000000;  
512; 4; 185; 7375; 2; 10000000;  
512; 4; 185; 7346; 3; 10000000;  
512; 4; 185; 7421; 4; 10000000;  
512; 4; 185; 7312; 5; 10000000;  
512; 4; 185; 7376; 6; 10000000;  
512; 4; 190; 7439; 0; 10000000;  
512; 4; 190; 7612; 1; 10000000;  
512; 4; 190; 7504; 2; 10000000;  
512; 4; 190; 7438; 3; 10000000;  
512; 4; 190; 7518; 4; 10000000;  
512; 4; 190; 7530; 5; 10000000;  
512; 4; 190; 7517; 6; 10000000;  
512; 4; 195; 7734; 0; 10000000;  
512; 4; 195; 7669; 1; 10000000;  
512; 4; 195; 7700; 2; 10000000;  
512; 4; 195; 7686; 3; 10000000;  
512; 4; 195; 7766; 4; 10000000;  
512; 4; 195; 7595; 5; 10000000;  
512; 4; 195; 7685; 6; 10000000;  
512; 4; 200; 7861; 0; 10000000;  
512; 4; 200; 7896; 1; 10000000;  
512; 4; 200; 7907; 2; 10000000;  
512; 4; 200; 7874; 3; 10000000;  
512; 4; 200; 7873; 4; 10000000;  
512; 4; 200; 7925; 5; 10000000;  
512; 4; 200; 7813; 6; 10000000;  
