textSize; alphaSize; querySize; time; expCount; iterations;   ConstantAvgTime; ConstantStandardDeviation; ConstantRelativeStdDev; 
131072; 4; 5; 2453; 2; 10000000;    2502.4; 37.58510343207798;  1.50196225351974; 
131072; 4; 10; 2624; 2; 10000000;    2631.2; 19.72206885699368;  0.7495465512691426; 
131072; 4; 15; 2886; 2; 10000000;    2792.2; 92.59676020250384;  3.3162653177603274; 
131072; 4; 20; 2877; 2; 10000000;    2953.8; 50.24499975121902;  1.7010291743252426; 
131072; 4; 25; 3185; 2; 10000000;    3208.4; 49.03305007849298;  1.5282711033067253; 
131072; 4; 30; 3435; 2; 10000000;    3362.2; 66.43613474608529;  1.9759721237905328; 
131072; 4; 35; 3453; 2; 10000000;    3532.2; 60.429793976150535;  1.7108259434955704; 
131072; 4; 40; 3482; 2; 10000000;    3669.2; 107.39720666758517;  2.9269924416108464; 
131072; 4; 45; 3861; 2; 10000000;    3772.2; 57.10131347000697;  1.5137403496635113; 
131072; 4; 50; 3959; 2; 10000000;    3959.4; 96.55381918909268;  2.438597241730885; 
131072; 4; 55; 4109; 2; 10000000;    4183.8; 58.83672322623007;  1.4062986573504963; 
131072; 4; 60; 4297; 2; 10000000;    4282.8; 31.927417684491804;  0.7454800057086907; 
131072; 4; 65; 4501; 2; 10000000;    4478.0; 94.98631480376528;  2.121177195260502; 
131072; 4; 70; 4624; 2; 10000000;    4752.8; 72.77746904090579;  1.5312546086708; 
131072; 4; 75; 4798; 2; 10000000;    4854.6; 66.20755243927992;  1.363810662861614; 
131072; 4; 80; 4957; 2; 10000000;    4970.2; 79.59497471574447;  1.60144410115779; 
131072; 4; 85; 5249; 2; 10000000;    5177.2; 97.55285746711883;  1.8842783254871134; 
131072; 4; 90; 5126; 2; 10000000;    5309.0; 111.26544836560899;  2.095789195057619; 
131072; 4; 95; 5435; 2; 10000000;    5416.4; 52.992829703649534;  0.978377330028239; 
131072; 4; 100; 5639; 2; 10000000;    5706.2; 67.42521783427918;  1.1816132949121865; 
131072; 4; 105; 5763; 2; 10000000;    5805.8; 45.40660744869627;  0.782090451767134; 
131072; 4; 110; 5906; 2; 10000000;    6063.2; 268.53930810963226;  4.429002970537542; 
131072; 4; 115; 6282; 2; 10000000;    6124.4; 93.33080948968566;  1.5239175999230237; 
131072; 4; 120; 6267; 2; 10000000;    6264.2; 46.17531808228288;  0.7371303292085643; 
131072; 4; 125; 6531; 2; 10000000;    6548.0; 69.33108970728789;  1.0588132209420875; 
131072; 4; 130; 6625; 2; 10000000;    6653.0; 65.54998093058457;  0.985269516467527; 
131072; 4; 135; 6861; 2; 10000000;    6954.0; 216.36173413984275;  3.1113277845821505; 
131072; 4; 140; 7144; 2; 10000000;    7017.2; 105.11213060346556;  1.497921259241087; 
131072; 4; 145; 7124; 2; 10000000;    7104.4; 74.17438911106717;  1.0440626810296039; 
131072; 4; 150; 7407; 2; 10000000;    7328.2; 45.09279321576786;  0.6153324583904352; 
131072; 4; 155; 7498; 2; 10000000;    7458.0; 99.06765365143156;  1.3283407569245314; 
131072; 4; 160; 7577; 2; 10000000;    7622.4; 85.66819713289175;  1.1239005711179124; 
131072; 4; 165; 7701; 2; 10000000;    7725.8; 90.66950975934523;  1.1735937994686019; 
131072; 4; 170; 7830; 2; 10000000;    7870.8; 65.81002963074853;  0.8361288513333908; 
131072; 4; 175; 8063; 2; 10000000;    8025.8; 112.19162179057757;  1.3978870865281663; 
131072; 4; 180; 8312; 2; 10000000;    8329.2; 90.40884912440818;  1.0854445699996178; 
131072; 4; 185; 8375; 2; 10000000;    8394.2; 81.1995073876683;  0.9673287196834517; 
131072; 4; 190; 8452; 2; 10000000;    8562.4; 81.6960219349755;  0.9541252678568568; 
131072; 4; 195; 8860; 2; 10000000;    8749.6; 71.28702546747199;  0.8147461080217608; 
131072; 4; 200; 9077; 2; 10000000;    8993.6; 96.53103128010184;  1.073330271305171; 
