textSize; alphaSize; querySize; time; expCount; iterations;   
256; 4; 5; 1422; 2; 10000000;   
256; 4; 5; 1406; 3; 10000000;   
256; 4; 5; 1374; 4; 10000000;   
256; 4; 5; 1330; 5; 10000000;   
256; 4; 5; 1423; 6; 10000000;   
256; 4; 10; 1485; 2; 10000000;   
256; 4; 10; 1419; 3; 10000000;   
256; 4; 10; 1453; 4; 10000000;   
256; 4; 10; 1339; 5; 10000000;   
256; 4; 10; 1534; 6; 10000000;   
256; 4; 15; 1440; 2; 10000000;   
256; 4; 15; 1640; 3; 10000000;   
256; 4; 15; 1718; 4; 10000000;   
256; 4; 15; 1612; 5; 10000000;   
256; 4; 15; 1639; 6; 10000000;   
256; 4; 20; 1875; 2; 10000000;   
256; 4; 20; 1861; 3; 10000000;   
256; 4; 20; 1861; 4; 10000000;   
256; 4; 20; 1921; 5; 10000000;   
256; 4; 20; 1842; 6; 10000000;   
256; 4; 25; 1906; 2; 10000000;   
256; 4; 25; 1987; 3; 10000000;   
256; 4; 25; 2014; 4; 10000000;   
256; 4; 25; 1951; 5; 10000000;   
256; 4; 25; 2033; 6; 10000000;   
256; 4; 30; 2074; 2; 10000000;   
256; 4; 30; 2063; 3; 10000000;   
256; 4; 30; 2105; 4; 10000000;   
256; 4; 30; 2140; 5; 10000000;   
256; 4; 30; 2186; 6; 10000000;   
256; 4; 35; 2314; 2; 10000000;   
256; 4; 35; 2153; 3; 10000000;   
256; 4; 35; 2216; 4; 10000000;   
256; 4; 35; 2172; 5; 10000000;   
256; 4; 35; 2344; 6; 10000000;   
256; 4; 40; 2419; 2; 10000000;   
256; 4; 40; 2342; 3; 10000000;   
256; 4; 40; 2440; 4; 10000000;   
256; 4; 40; 2419; 5; 10000000;   
256; 4; 40; 2377; 6; 10000000;   
256; 4; 45; 2579; 2; 10000000;   
256; 4; 45; 2534; 3; 10000000;   
256; 4; 45; 2690; 4; 10000000;   
256; 4; 45; 2641; 5; 10000000;   
256; 4; 45; 2484; 6; 10000000;   
256; 4; 50; 2832; 2; 10000000;   
256; 4; 50; 2782; 3; 10000000;   
256; 4; 50; 2753; 4; 10000000;   
256; 4; 50; 2751; 5; 10000000;   
256; 4; 50; 2842; 6; 10000000;   
256; 4; 55; 2924; 2; 10000000;   
256; 4; 55; 3062; 3; 10000000;   
256; 4; 55; 2844; 4; 10000000;   
256; 4; 55; 2937; 5; 10000000;   
256; 4; 55; 2920; 6; 10000000;   
256; 4; 60; 3081; 2; 10000000;   
256; 4; 60; 3062; 3; 10000000;   
256; 4; 60; 3127; 4; 10000000;   
256; 4; 60; 3158; 5; 10000000;   
256; 4; 60; 3063; 6; 10000000;   
256; 4; 65; 3240; 2; 10000000;   
256; 4; 65; 3234; 3; 10000000;   
256; 4; 65; 3357; 4; 10000000;   
256; 4; 65; 3253; 5; 10000000;   
256; 4; 65; 3297; 6; 10000000;   
256; 4; 70; 3532; 2; 10000000;   
256; 4; 70; 3520; 3; 10000000;   
256; 4; 70; 3469; 4; 10000000;   
256; 4; 70; 3500; 5; 10000000;   
256; 4; 70; 3380; 6; 10000000;   
256; 4; 75; 3815; 2; 10000000;   
256; 4; 75; 3849; 3; 10000000;   
256; 4; 75; 3611; 4; 10000000;   
256; 4; 75; 3626; 5; 10000000;   
256; 4; 75; 3638; 6; 10000000;   
256; 4; 80; 3875; 2; 10000000;   
256; 4; 80; 3909; 3; 10000000;   
256; 4; 80; 3908; 4; 10000000;   
256; 4; 80; 3906; 5; 10000000;   
256; 4; 80; 3831; 6; 10000000;   
256; 4; 85; 4013; 2; 10000000;   
256; 4; 85; 3986; 3; 10000000;   
256; 4; 85; 4097; 4; 10000000;   
256; 4; 85; 4108; 5; 10000000;   
256; 4; 85; 4000; 6; 10000000;   
256; 4; 90; 4202; 2; 10000000;   
256; 4; 90; 4247; 3; 10000000;   
256; 4; 90; 4185; 4; 10000000;   
256; 4; 90; 4236; 5; 10000000;   
256; 4; 90; 4330; 6; 10000000;   
256; 4; 95; 4143; 2; 10000000;   
256; 4; 95; 4251; 3; 10000000;   
256; 4; 95; 4254; 4; 10000000;   
256; 4; 95; 4187; 5; 10000000;   
256; 4; 95; 4293; 6; 10000000;   
256; 4; 100; 4421; 2; 10000000;   
256; 4; 100; 4200; 3; 10000000;   
256; 4; 100; 4312; 4; 10000000;   
256; 4; 100; 4483; 5; 10000000;   
256; 4; 100; 4299; 6; 10000000;   
256; 4; 105; 4580; 2; 10000000;   
256; 4; 105; 4640; 3; 10000000;   
256; 4; 105; 4577; 4; 10000000;   
256; 4; 105; 4361; 5; 10000000;   
256; 4; 105; 4563; 6; 10000000;   
256; 4; 110; 4712; 2; 10000000;   
256; 4; 110; 4812; 3; 10000000;   
256; 4; 110; 4811; 4; 10000000;   
256; 4; 110; 4704; 5; 10000000;   
256; 4; 110; 4669; 6; 10000000;   
256; 4; 115; 4910; 2; 10000000;   
256; 4; 115; 4861; 3; 10000000;   
256; 4; 115; 4952; 4; 10000000;   
256; 4; 115; 4893; 5; 10000000;   
256; 4; 115; 4860; 6; 10000000;   
256; 4; 120; 5096; 2; 10000000;   
256; 4; 120; 5031; 3; 10000000;   
256; 4; 120; 5016; 4; 10000000;   
256; 4; 120; 5076; 5; 10000000;   
256; 4; 120; 4952; 6; 10000000;   
256; 4; 125; 5265; 2; 10000000;   
256; 4; 125; 5328; 3; 10000000;   
256; 4; 125; 5169; 4; 10000000;   
256; 4; 125; 5299; 5; 10000000;   
256; 4; 125; 5064; 6; 10000000;   
256; 4; 130; 5365; 2; 10000000;   
256; 4; 130; 5314; 3; 10000000;   
256; 4; 130; 5255; 4; 10000000;   
256; 4; 130; 5362; 5; 10000000;   
256; 4; 130; 5234; 6; 10000000;   
256; 4; 135; 5639; 2; 10000000;   
256; 4; 135; 5530; 3; 10000000;   
256; 4; 135; 5520; 4; 10000000;   
256; 4; 135; 5626; 5; 10000000;   
256; 4; 135; 5562; 6; 10000000;   
256; 4; 140; 5670; 2; 10000000;   
256; 4; 140; 5621; 3; 10000000;   
256; 4; 140; 5784; 4; 10000000;   
256; 4; 140; 5795; 5; 10000000;   
256; 4; 140; 5642; 6; 10000000;   
256; 4; 145; 6000; 2; 10000000;   
256; 4; 145; 5876; 3; 10000000;   
256; 4; 145; 5936; 4; 10000000;   
256; 4; 145; 5983; 5; 10000000;   
256; 4; 145; 5941; 6; 10000000;   
256; 4; 150; 6111; 2; 10000000;   
256; 4; 150; 6125; 3; 10000000;   
256; 4; 150; 6122; 4; 10000000;   
256; 4; 150; 6126; 5; 10000000;   
256; 4; 150; 6158; 6; 10000000;   
256; 4; 155; 6247; 2; 10000000;   
256; 4; 155; 6326; 3; 10000000;   
256; 4; 155; 6268; 4; 10000000;   
256; 4; 155; 6327; 5; 10000000;   
256; 4; 155; 6360; 6; 10000000;   
256; 4; 160; 6313; 2; 10000000;   
256; 4; 160; 6456; 3; 10000000;   
256; 4; 160; 6331; 4; 10000000;   
256; 4; 160; 6375; 5; 10000000;   
256; 4; 160; 6470; 6; 10000000;   
256; 4; 165; 6646; 2; 10000000;   
256; 4; 165; 6656; 3; 10000000;   
256; 4; 165; 6635; 4; 10000000;   
256; 4; 165; 6531; 5; 10000000;   
256; 4; 165; 6564; 6; 10000000;   
256; 4; 170; 6766; 2; 10000000;   
256; 4; 170; 6687; 3; 10000000;   
256; 4; 170; 6720; 4; 10000000;   
256; 4; 170; 6812; 5; 10000000;   
256; 4; 170; 6674; 6; 10000000;   
256; 4; 175; 6895; 2; 10000000;   
256; 4; 175; 6810; 3; 10000000;   
256; 4; 175; 6875; 4; 10000000;   
256; 4; 175; 6861; 5; 10000000;   
256; 4; 175; 6873; 6; 10000000;   
256; 4; 180; 7233; 2; 10000000;   
256; 4; 180; 7047; 3; 10000000;   
256; 4; 180; 7062; 4; 10000000;   
256; 4; 180; 7137; 5; 10000000;   
256; 4; 180; 7047; 6; 10000000;   
256; 4; 185; 7236; 2; 10000000;   
256; 4; 185; 7342; 3; 10000000;   
256; 4; 185; 7342; 4; 10000000;   
256; 4; 185; 7234; 5; 10000000;   
256; 4; 185; 7096; 6; 10000000;   
256; 4; 190; 7450; 2; 10000000;   
256; 4; 190; 7376; 3; 10000000;   
256; 4; 190; 7438; 4; 10000000;   
256; 4; 190; 7375; 5; 10000000;   
256; 4; 190; 7409; 6; 10000000;   
256; 4; 195; 7596; 2; 10000000;   
256; 4; 195; 7549; 3; 10000000;   
256; 4; 195; 7487; 4; 10000000;   
256; 4; 195; 7622; 5; 10000000;   
256; 4; 195; 7564; 6; 10000000;   
256; 4; 200; 7655; 2; 10000000;   
256; 4; 200; 7747; 3; 10000000;   
256; 4; 200; 7610; 4; 10000000;   
256; 4; 200; 7690; 5; 10000000;   
256; 4; 200; 7658; 6; 10000000;   
