textSize; alphaSize; querySize; time; expCount; iterations;  
16384; 4; 5; 2033; 0; 10000000;  
16384; 4; 5; 1956; 1; 10000000;  
16384; 4; 5; 2078; 2; 10000000;  
16384; 4; 5; 1923; 3; 10000000;  
16384; 4; 5; 2002; 4; 10000000;  
16384; 4; 5; 2236; 5; 10000000;  
16384; 4; 5; 2096; 6; 10000000;  
16384; 4; 10; 2111; 0; 10000000;  
16384; 4; 10; 2054; 1; 10000000;  
16384; 4; 10; 2111; 2; 10000000;  
16384; 4; 10; 2110; 3; 10000000;  
16384; 4; 10; 2250; 4; 10000000;  
16384; 4; 10; 2224; 5; 10000000;  
16384; 4; 10; 1971; 6; 10000000;  
16384; 4; 15; 2341; 0; 10000000;  
16384; 4; 15; 2185; 1; 10000000;  
16384; 4; 15; 2326; 2; 10000000;  
16384; 4; 15; 2404; 3; 10000000;  
16384; 4; 15; 2233; 4; 10000000;  
16384; 4; 15; 2424; 5; 10000000;  
16384; 4; 15; 2271; 6; 10000000;  
16384; 4; 20; 2470; 0; 10000000;  
16384; 4; 20; 2500; 1; 10000000;  
16384; 4; 20; 2550; 2; 10000000;  
16384; 4; 20; 2593; 3; 10000000;  
16384; 4; 20; 2435; 4; 10000000;  
16384; 4; 20; 2565; 5; 10000000;  
16384; 4; 20; 2376; 6; 10000000;  
16384; 4; 25; 2620; 0; 10000000;  
16384; 4; 25; 2783; 1; 10000000;  
16384; 4; 25; 2748; 2; 10000000;  
16384; 4; 25; 2640; 3; 10000000;  
16384; 4; 25; 2686; 4; 10000000;  
16384; 4; 25; 2737; 5; 10000000;  
16384; 4; 25; 2529; 6; 10000000;  
16384; 4; 30; 2859; 0; 10000000;  
16384; 4; 30; 2984; 1; 10000000;  
16384; 4; 30; 2907; 2; 10000000;  
16384; 4; 30; 2778; 3; 10000000;  
16384; 4; 30; 2935; 4; 10000000;  
16384; 4; 30; 2893; 5; 10000000;  
16384; 4; 30; 2824; 6; 10000000;  
16384; 4; 35; 3011; 0; 10000000;  
16384; 4; 35; 2926; 1; 10000000;  
16384; 4; 35; 2998; 2; 10000000;  
16384; 4; 35; 3046; 3; 10000000;  
16384; 4; 35; 3003; 4; 10000000;  
16384; 4; 35; 3015; 5; 10000000;  
16384; 4; 35; 2862; 6; 10000000;  
16384; 4; 40; 3083; 0; 10000000;  
16384; 4; 40; 3126; 1; 10000000;  
16384; 4; 40; 3280; 2; 10000000;  
16384; 4; 40; 3373; 3; 10000000;  
16384; 4; 40; 3284; 4; 10000000;  
16384; 4; 40; 3125; 5; 10000000;  
16384; 4; 40; 3172; 6; 10000000;  
16384; 4; 45; 3363; 0; 10000000;  
16384; 4; 45; 3347; 1; 10000000;  
16384; 4; 45; 3486; 2; 10000000;  
16384; 4; 45; 3295; 3; 10000000;  
16384; 4; 45; 3221; 4; 10000000;  
16384; 4; 45; 3284; 5; 10000000;  
16384; 4; 45; 3453; 6; 10000000;  
16384; 4; 50; 3548; 0; 10000000;  
16384; 4; 50; 3500; 1; 10000000;  
16384; 4; 50; 3453; 2; 10000000;  
16384; 4; 50; 3547; 3; 10000000;  
16384; 4; 50; 3597; 4; 10000000;  
16384; 4; 50; 3516; 5; 10000000;  
16384; 4; 50; 3597; 6; 10000000;  
16384; 4; 55; 3592; 0; 10000000;  
16384; 4; 55; 3625; 1; 10000000;  
16384; 4; 55; 3560; 2; 10000000;  
16384; 4; 55; 3658; 3; 10000000;  
16384; 4; 55; 3610; 4; 10000000;  
16384; 4; 55; 3624; 5; 10000000;  
16384; 4; 55; 3749; 6; 10000000;  
16384; 4; 60; 3897; 0; 10000000;  
16384; 4; 60; 3859; 1; 10000000;  
16384; 4; 60; 3719; 2; 10000000;  
16384; 4; 60; 3674; 3; 10000000;  
16384; 4; 60; 3779; 4; 10000000;  
16384; 4; 60; 3794; 5; 10000000;  
16384; 4; 60; 3937; 6; 10000000;  
16384; 4; 65; 4219; 0; 10000000;  
16384; 4; 65; 3987; 1; 10000000;  
16384; 4; 65; 3951; 2; 10000000;  
16384; 4; 65; 4112; 3; 10000000;  
16384; 4; 65; 4124; 4; 10000000;  
16384; 4; 65; 4046; 5; 10000000;  
16384; 4; 65; 4110; 6; 10000000;  
16384; 4; 70; 4171; 0; 10000000;  
16384; 4; 70; 4172; 1; 10000000;  
16384; 4; 70; 4235; 2; 10000000;  
16384; 4; 70; 4327; 3; 10000000;  
16384; 4; 70; 4230; 4; 10000000;  
16384; 4; 70; 4254; 5; 10000000;  
16384; 4; 70; 4159; 6; 10000000;  
16384; 4; 75; 4470; 0; 10000000;  
16384; 4; 75; 4482; 1; 10000000;  
16384; 4; 75; 4405; 2; 10000000;  
16384; 4; 75; 4328; 3; 10000000;  
16384; 4; 75; 4421; 4; 10000000;  
16384; 4; 75; 4471; 5; 10000000;  
16384; 4; 75; 4409; 6; 10000000;  
16384; 4; 80; 4451; 0; 10000000;  
16384; 4; 80; 4468; 1; 10000000;  
16384; 4; 80; 4718; 2; 10000000;  
16384; 4; 80; 4687; 3; 10000000;  
16384; 4; 80; 4799; 4; 10000000;  
16384; 4; 80; 4565; 5; 10000000;  
16384; 4; 80; 4704; 6; 10000000;  
16384; 4; 85; 4640; 0; 10000000;  
16384; 4; 85; 4905; 1; 10000000;  
16384; 4; 85; 4814; 2; 10000000;  
16384; 4; 85; 4625; 3; 10000000;  
16384; 4; 85; 4797; 4; 10000000;  
16384; 4; 85; 4687; 5; 10000000;  
16384; 4; 85; 4749; 6; 10000000;  
16384; 4; 90; 4857; 0; 10000000;  
16384; 4; 90; 4841; 1; 10000000;  
16384; 4; 90; 4879; 2; 10000000;  
16384; 4; 90; 4954; 3; 10000000;  
16384; 4; 90; 4809; 4; 10000000;  
16384; 4; 90; 4795; 5; 10000000;  
16384; 4; 90; 4718; 6; 10000000;  
16384; 4; 95; 4893; 0; 10000000;  
16384; 4; 95; 4765; 1; 10000000;  
16384; 4; 95; 4904; 2; 10000000;  
16384; 4; 95; 4998; 3; 10000000;  
16384; 4; 95; 4973; 4; 10000000;  
16384; 4; 95; 4954; 5; 10000000;  
16384; 4; 95; 4922; 6; 10000000;  
16384; 4; 100; 5136; 0; 10000000;  
16384; 4; 100; 5153; 1; 10000000;  
16384; 4; 100; 5094; 2; 10000000;  
16384; 4; 100; 5266; 3; 10000000;  
16384; 4; 100; 5250; 4; 10000000;  
16384; 4; 100; 5043; 5; 10000000;  
16384; 4; 100; 5203; 6; 10000000;  
16384; 4; 105; 5171; 0; 10000000;  
16384; 4; 105; 5200; 1; 10000000;  
16384; 4; 105; 5234; 2; 10000000;  
16384; 4; 105; 5327; 3; 10000000;  
16384; 4; 105; 5358; 4; 10000000;  
16384; 4; 105; 5349; 5; 10000000;  
16384; 4; 105; 5280; 6; 10000000;  
16384; 4; 110; 5439; 0; 10000000;  
16384; 4; 110; 5529; 1; 10000000;  
16384; 4; 110; 5440; 2; 10000000;  
16384; 4; 110; 5387; 3; 10000000;  
16384; 4; 110; 5359; 4; 10000000;  
16384; 4; 110; 5437; 5; 10000000;  
16384; 4; 110; 5405; 6; 10000000;  
16384; 4; 115; 5720; 0; 10000000;  
16384; 4; 115; 5611; 1; 10000000;  
16384; 4; 115; 5564; 2; 10000000;  
16384; 4; 115; 5675; 3; 10000000;  
16384; 4; 115; 5614; 4; 10000000;  
16384; 4; 115; 5720; 5; 10000000;  
16384; 4; 115; 5672; 6; 10000000;  
16384; 4; 120; 5656; 0; 10000000;  
16384; 4; 120; 5781; 1; 10000000;  
16384; 4; 120; 5843; 2; 10000000;  
16384; 4; 120; 5843; 3; 10000000;  
16384; 4; 120; 5794; 4; 10000000;  
16384; 4; 120; 5794; 5; 10000000;  
16384; 4; 120; 5818; 6; 10000000;  
16384; 4; 125; 6016; 0; 10000000;  
16384; 4; 125; 5954; 1; 10000000;  
16384; 4; 125; 5952; 2; 10000000;  
16384; 4; 125; 5942; 3; 10000000;  
16384; 4; 125; 6043; 4; 10000000;  
16384; 4; 125; 6091; 5; 10000000;  
16384; 4; 125; 6005; 6; 10000000;  
16384; 4; 130; 5907; 0; 10000000;  
16384; 4; 130; 6127; 1; 10000000;  
16384; 4; 130; 6109; 2; 10000000;  
16384; 4; 130; 6109; 3; 10000000;  
16384; 4; 130; 6110; 4; 10000000;  
16384; 4; 130; 6125; 5; 10000000;  
16384; 4; 130; 6176; 6; 10000000;  
16384; 4; 135; 6267; 0; 10000000;  
16384; 4; 135; 6407; 1; 10000000;  
16384; 4; 135; 6375; 2; 10000000;  
16384; 4; 135; 6359; 3; 10000000;  
16384; 4; 135; 6296; 4; 10000000;  
16384; 4; 135; 6295; 5; 10000000;  
16384; 4; 135; 6314; 6; 10000000;  
16384; 4; 140; 6531; 0; 10000000;  
16384; 4; 140; 6499; 1; 10000000;  
16384; 4; 140; 6488; 2; 10000000;  
16384; 4; 140; 6578; 3; 10000000;  
16384; 4; 140; 6561; 4; 10000000;  
16384; 4; 140; 6625; 5; 10000000;  
16384; 4; 140; 6717; 6; 10000000;  
16384; 4; 145; 6674; 0; 10000000;  
16384; 4; 145; 6768; 1; 10000000;  
16384; 4; 145; 6578; 2; 10000000;  
16384; 4; 145; 6641; 3; 10000000;  
16384; 4; 145; 6704; 4; 10000000;  
16384; 4; 145; 6704; 5; 10000000;  
16384; 4; 145; 6657; 6; 10000000;  
16384; 4; 150; 6860; 0; 10000000;  
16384; 4; 150; 6845; 1; 10000000;  
16384; 4; 150; 6908; 2; 10000000;  
16384; 4; 150; 6952; 3; 10000000;  
16384; 4; 150; 6858; 4; 10000000;  
16384; 4; 150; 6827; 5; 10000000;  
16384; 4; 150; 6972; 6; 10000000;  
16384; 4; 155; 6892; 0; 10000000;  
16384; 4; 155; 6955; 1; 10000000;  
16384; 4; 155; 7047; 2; 10000000;  
16384; 4; 155; 7125; 3; 10000000;  
16384; 4; 155; 6954; 4; 10000000;  
16384; 4; 155; 7031; 5; 10000000;  
16384; 4; 155; 6872; 6; 10000000;  
16384; 4; 160; 7200; 0; 10000000;  
16384; 4; 160; 7142; 1; 10000000;  
16384; 4; 160; 7139; 2; 10000000;  
16384; 4; 160; 7187; 3; 10000000;  
16384; 4; 160; 7250; 4; 10000000;  
16384; 4; 160; 7269; 5; 10000000;  
16384; 4; 160; 7044; 6; 10000000;  
16384; 4; 165; 7393; 0; 10000000;  
16384; 4; 165; 7174; 1; 10000000;  
16384; 4; 165; 7483; 2; 10000000;  
16384; 4; 165; 7297; 3; 10000000;  
16384; 4; 165; 7391; 4; 10000000;  
16384; 4; 165; 7392; 5; 10000000;  
16384; 4; 165; 7089; 6; 10000000;  
16384; 4; 170; 7424; 0; 10000000;  
16384; 4; 170; 7461; 1; 10000000;  
16384; 4; 170; 7456; 2; 10000000;  
16384; 4; 170; 7519; 3; 10000000;  
16384; 4; 170; 7474; 4; 10000000;  
16384; 4; 170; 7489; 5; 10000000;  
16384; 4; 170; 7485; 6; 10000000;  
16384; 4; 175; 7549; 0; 10000000;  
16384; 4; 175; 7690; 1; 10000000;  
16384; 4; 175; 7596; 2; 10000000;  
16384; 4; 175; 7638; 3; 10000000;  
16384; 4; 175; 7565; 4; 10000000;  
16384; 4; 175; 7595; 5; 10000000;  
16384; 4; 175; 7595; 6; 10000000;  
16384; 4; 180; 7784; 0; 10000000;  
16384; 4; 180; 7815; 1; 10000000;  
16384; 4; 180; 7813; 2; 10000000;  
16384; 4; 180; 8015; 3; 10000000;  
16384; 4; 180; 7690; 4; 10000000;  
16384; 4; 180; 7767; 5; 10000000;  
16384; 4; 180; 7704; 6; 10000000;  
16384; 4; 185; 7874; 0; 10000000;  
16384; 4; 185; 7848; 1; 10000000;  
16384; 4; 185; 7862; 2; 10000000;  
16384; 4; 185; 7987; 3; 10000000;  
16384; 4; 185; 8037; 4; 10000000;  
16384; 4; 185; 7967; 5; 10000000;  
16384; 4; 185; 7997; 6; 10000000;  
16384; 4; 190; 8030; 0; 10000000;  
16384; 4; 190; 8174; 1; 10000000;  
16384; 4; 190; 8156; 2; 10000000;  
16384; 4; 190; 8219; 3; 10000000;  
16384; 4; 190; 8127; 4; 10000000;  
16384; 4; 190; 7968; 5; 10000000;  
16384; 4; 190; 8107; 6; 10000000;  
16384; 4; 195; 8331; 0; 10000000;  
16384; 4; 195; 8264; 1; 10000000;  
16384; 4; 195; 8235; 2; 10000000;  
16384; 4; 195; 8251; 3; 10000000;  
16384; 4; 195; 8279; 4; 10000000;  
16384; 4; 195; 8392; 5; 10000000;  
16384; 4; 195; 8282; 6; 10000000;  
16384; 4; 200; 8299; 0; 10000000;  
16384; 4; 200; 8349; 1; 10000000;  
16384; 4; 200; 8392; 2; 10000000;  
16384; 4; 200; 8441; 3; 10000000;  
16384; 4; 200; 8550; 4; 10000000;  
16384; 4; 200; 8422; 5; 10000000;  
16384; 4; 200; 8450; 6; 10000000;  
