textSize; alphaSize; querySize; time; expCount; iterations; 
524288; 4; 5; 2671; 0; 10000000; 
524288; 4; 10; 3141; 0; 10000000; 
524288; 4; 15; 3315; 0; 10000000; 
524288; 4; 20; 3296; 0; 10000000; 
524288; 4; 25; 3455; 0; 10000000; 
524288; 4; 30; 3923; 0; 10000000; 
524288; 4; 35; 3841; 0; 10000000; 
524288; 4; 40; 3906; 0; 10000000; 
524288; 4; 45; 4266; 0; 10000000; 
524288; 4; 50; 4331; 0; 10000000; 
524288; 4; 55; 4438; 0; 10000000; 
524288; 4; 60; 4517; 0; 10000000; 
524288; 4; 65; 4800; 0; 10000000; 
524288; 4; 70; 5004; 0; 10000000; 
524288; 4; 75; 5264; 0; 10000000; 
524288; 4; 80; 5346; 0; 10000000; 
524288; 4; 85; 5708; 0; 10000000; 
524288; 4; 90; 5781; 0; 10000000; 
524288; 4; 95; 5797; 0; 10000000; 
524288; 4; 100; 5886; 0; 10000000; 
524288; 4; 105; 6237; 0; 10000000; 
524288; 4; 110; 6250; 0; 10000000; 
524288; 4; 115; 6519; 0; 10000000; 
524288; 4; 120; 6639; 0; 10000000; 
524288; 4; 125; 6750; 0; 10000000; 
524288; 4; 130; 7111; 0; 10000000; 
524288; 4; 135; 7158; 0; 10000000; 
524288; 4; 140; 7466; 0; 10000000; 
524288; 4; 145; 7531; 0; 10000000; 
524288; 4; 150; 7517; 0; 10000000; 
524288; 4; 155; 7640; 0; 10000000; 
524288; 4; 160; 7906; 0; 10000000; 
524288; 4; 165; 8063; 0; 10000000; 
524288; 4; 170; 8404; 0; 10000000; 
524288; 4; 175; 8373; 0; 10000000; 
524288; 4; 180; 8609; 0; 10000000; 
524288; 4; 185; 8768; 0; 10000000; 
524288; 4; 190; 8860; 0; 10000000; 
524288; 4; 195; 9126; 0; 10000000; 
524288; 4; 200; 9217; 0; 10000000; 
524288; 4; 5; 2720; 1; 10000000; 
524288; 4; 10; 2936; 1; 10000000; 
524288; 4; 15; 3360; 1; 10000000; 
524288; 4; 20; 3300; 1; 10000000; 
524288; 4; 25; 3499; 1; 10000000; 
524288; 4; 30; 3720; 1; 10000000; 
524288; 4; 35; 3893; 1; 10000000; 
524288; 4; 40; 4014; 1; 10000000; 
524288; 4; 45; 4017; 1; 10000000; 
524288; 4; 50; 4345; 1; 10000000; 
524288; 4; 55; 4252; 1; 10000000; 
524288; 4; 60; 4605; 1; 10000000; 
524288; 4; 65; 4880; 1; 10000000; 
524288; 4; 70; 4956; 1; 10000000; 
524288; 4; 75; 5090; 1; 10000000; 
524288; 4; 80; 5265; 1; 10000000; 
524288; 4; 85; 5532; 1; 10000000; 
524288; 4; 90; 5891; 1; 10000000; 
524288; 4; 95; 5953; 1; 10000000; 
524288; 4; 100; 5985; 1; 10000000; 
524288; 4; 105; 6250; 1; 10000000; 
524288; 4; 110; 6281; 1; 10000000; 
524288; 4; 115; 6490; 1; 10000000; 
524288; 4; 120; 6813; 1; 10000000; 
524288; 4; 125; 6845; 1; 10000000; 
524288; 4; 130; 6892; 1; 10000000; 
524288; 4; 135; 7172; 1; 10000000; 
524288; 4; 140; 7498; 1; 10000000; 
524288; 4; 145; 7482; 1; 10000000; 
524288; 4; 150; 7628; 1; 10000000; 
524288; 4; 155; 7748; 1; 10000000; 
524288; 4; 160; 7908; 1; 10000000; 
524288; 4; 165; 8187; 1; 10000000; 
524288; 4; 170; 8204; 1; 10000000; 
524288; 4; 175; 8249; 1; 10000000; 
524288; 4; 180; 8531; 1; 10000000; 
524288; 4; 185; 8717; 1; 10000000; 
524288; 4; 190; 8936; 1; 10000000; 
524288; 4; 195; 9111; 1; 10000000; 
524288; 4; 200; 9077; 1; 10000000; 
524288; 4; 5; 2628; 2; 10000000; 
524288; 4; 10; 3045; 2; 10000000; 
524288; 4; 15; 3608; 2; 10000000; 
524288; 4; 20; 3281; 2; 10000000; 
524288; 4; 25; 3531; 2; 10000000; 
524288; 4; 30; 3688; 2; 10000000; 
524288; 4; 35; 3800; 2; 10000000; 
524288; 4; 40; 4141; 2; 10000000; 
524288; 4; 45; 3984; 2; 10000000; 
524288; 4; 50; 4254; 2; 10000000; 
524288; 4; 55; 4391; 2; 10000000; 
524288; 4; 60; 4606; 2; 10000000; 
524288; 4; 65; 4907; 2; 10000000; 
524288; 4; 70; 4920; 2; 10000000; 
524288; 4; 75; 4952; 2; 10000000; 
524288; 4; 80; 5297; 2; 10000000; 
524288; 4; 85; 5531; 2; 10000000; 
524288; 4; 90; 5672; 2; 10000000; 
524288; 4; 95; 5642; 2; 10000000; 
524288; 4; 100; 5891; 2; 10000000; 
524288; 4; 105; 6157; 2; 10000000; 
524288; 4; 110; 6235; 2; 10000000; 
524288; 4; 115; 6578; 2; 10000000; 
524288; 4; 120; 6715; 2; 10000000; 
524288; 4; 125; 6971; 2; 10000000; 
524288; 4; 130; 6652; 2; 10000000; 
524288; 4; 135; 7140; 2; 10000000; 
524288; 4; 140; 7536; 2; 10000000; 
524288; 4; 145; 7406; 2; 10000000; 
524288; 4; 150; 7580; 2; 10000000; 
524288; 4; 155; 8062; 2; 10000000; 
524288; 4; 160; 7873; 2; 10000000; 
524288; 4; 165; 8107; 2; 10000000; 
524288; 4; 170; 8220; 2; 10000000; 
524288; 4; 175; 8411; 2; 10000000; 
524288; 4; 180; 8453; 2; 10000000; 
524288; 4; 185; 8609; 2; 10000000; 
524288; 4; 190; 8986; 2; 10000000; 
524288; 4; 195; 9063; 2; 10000000; 
524288; 4; 200; 9158; 2; 10000000; 
524288; 4; 5; 2862; 3; 10000000; 
524288; 4; 10; 2906; 3; 10000000; 
524288; 4; 15; 3393; 3; 10000000; 
524288; 4; 20; 3330; 3; 10000000; 
524288; 4; 25; 3576; 3; 10000000; 
524288; 4; 30; 3612; 3; 10000000; 
524288; 4; 35; 3922; 3; 10000000; 
524288; 4; 40; 4095; 3; 10000000; 
524288; 4; 45; 3988; 3; 10000000; 
524288; 4; 50; 4326; 3; 10000000; 
524288; 4; 55; 4326; 3; 10000000; 
524288; 4; 60; 4659; 3; 10000000; 
524288; 4; 65; 4968; 3; 10000000; 
524288; 4; 70; 4903; 3; 10000000; 
524288; 4; 75; 5159; 3; 10000000; 
524288; 4; 80; 5262; 3; 10000000; 
524288; 4; 85; 5484; 3; 10000000; 
524288; 4; 90; 5766; 3; 10000000; 
524288; 4; 95; 5833; 3; 10000000; 
524288; 4; 100; 5827; 3; 10000000; 
524288; 4; 105; 6079; 3; 10000000; 
524288; 4; 110; 6279; 3; 10000000; 
524288; 4; 115; 6454; 3; 10000000; 
524288; 4; 120; 6675; 3; 10000000; 
524288; 4; 125; 6767; 3; 10000000; 
524288; 4; 130; 7015; 3; 10000000; 
524288; 4; 135; 7175; 3; 10000000; 
524288; 4; 140; 7396; 3; 10000000; 
524288; 4; 145; 7441; 3; 10000000; 
524288; 4; 150; 7627; 3; 10000000; 
524288; 4; 155; 7532; 3; 10000000; 
524288; 4; 160; 7939; 3; 10000000; 
524288; 4; 165; 8095; 3; 10000000; 
524288; 4; 170; 8080; 3; 10000000; 
524288; 4; 175; 8327; 3; 10000000; 
524288; 4; 180; 8520; 3; 10000000; 
524288; 4; 185; 8672; 3; 10000000; 
524288; 4; 190; 8975; 3; 10000000; 
524288; 4; 195; 9174; 3; 10000000; 
524288; 4; 200; 9189; 3; 10000000; 
524288; 4; 5; 2893; 4; 10000000; 
524288; 4; 10; 2942; 4; 10000000; 
524288; 4; 15; 3314; 4; 10000000; 
524288; 4; 20; 3437; 4; 10000000; 
524288; 4; 25; 3550; 4; 10000000; 
524288; 4; 30; 3639; 4; 10000000; 
524288; 4; 35; 3891; 4; 10000000; 
524288; 4; 40; 4098; 4; 10000000; 
524288; 4; 45; 4237; 4; 10000000; 
524288; 4; 50; 4202; 4; 10000000; 
524288; 4; 55; 4485; 4; 10000000; 
524288; 4; 60; 4468; 4; 10000000; 
524288; 4; 65; 4674; 4; 10000000; 
524288; 4; 70; 4987; 4; 10000000; 
524288; 4; 75; 5121; 4; 10000000; 
524288; 4; 80; 5159; 4; 10000000; 
524288; 4; 85; 5422; 4; 10000000; 
524288; 4; 90; 5768; 4; 10000000; 
524288; 4; 95; 5722; 4; 10000000; 
524288; 4; 100; 6081; 4; 10000000; 
524288; 4; 105; 6234; 4; 10000000; 
524288; 4; 110; 6283; 4; 10000000; 
524288; 4; 115; 6379; 4; 10000000; 
524288; 4; 120; 6687; 4; 10000000; 
524288; 4; 125; 6734; 4; 10000000; 
524288; 4; 130; 6925; 4; 10000000; 
524288; 4; 135; 7000; 4; 10000000; 
524288; 4; 140; 7302; 4; 10000000; 
524288; 4; 145; 7488; 4; 10000000; 
524288; 4; 150; 7689; 4; 10000000; 
524288; 4; 155; 7753; 4; 10000000; 
524288; 4; 160; 7800; 4; 10000000; 
524288; 4; 165; 8095; 4; 10000000; 
524288; 4; 170; 8177; 4; 10000000; 
524288; 4; 175; 8470; 4; 10000000; 
524288; 4; 180; 8769; 4; 10000000; 
524288; 4; 185; 8691; 4; 10000000; 
524288; 4; 190; 8942; 4; 10000000; 
524288; 4; 195; 9111; 4; 10000000; 
524288; 4; 200; 9047; 4; 10000000; 
524288; 4; 5; 2831; 5; 10000000; 
524288; 4; 10; 3003; 5; 10000000; 
524288; 4; 15; 3296; 5; 10000000; 
524288; 4; 20; 3278; 5; 10000000; 
524288; 4; 25; 3530; 5; 10000000; 
524288; 4; 30; 3641; 5; 10000000; 
524288; 4; 35; 3875; 5; 10000000; 
524288; 4; 40; 4154; 5; 10000000; 
524288; 4; 45; 4236; 5; 10000000; 
524288; 4; 50; 4296; 5; 10000000; 
524288; 4; 55; 4471; 5; 10000000; 
524288; 4; 60; 4640; 5; 10000000; 
524288; 4; 65; 4878; 5; 10000000; 
524288; 4; 70; 5015; 5; 10000000; 
524288; 4; 75; 5144; 5; 10000000; 
524288; 4; 80; 5245; 5; 10000000; 
524288; 4; 85; 5501; 5; 10000000; 
524288; 4; 90; 5893; 5; 10000000; 
524288; 4; 95; 5747; 5; 10000000; 
524288; 4; 100; 5973; 5; 10000000; 
524288; 4; 105; 5985; 5; 10000000; 
524288; 4; 110; 6325; 5; 10000000; 
524288; 4; 115; 6456; 5; 10000000; 
524288; 4; 120; 6874; 5; 10000000; 
524288; 4; 125; 6721; 5; 10000000; 
524288; 4; 130; 6926; 5; 10000000; 
524288; 4; 135; 7188; 5; 10000000; 
524288; 4; 140; 7389; 5; 10000000; 
524288; 4; 145; 7423; 5; 10000000; 
524288; 4; 150; 7532; 5; 10000000; 
524288; 4; 155; 7638; 5; 10000000; 
524288; 4; 160; 7840; 5; 10000000; 
524288; 4; 165; 8185; 5; 10000000; 
524288; 4; 170; 8264; 5; 10000000; 
524288; 4; 175; 8487; 5; 10000000; 
524288; 4; 180; 8625; 5; 10000000; 
524288; 4; 185; 8812; 5; 10000000; 
524288; 4; 190; 8952; 5; 10000000; 
524288; 4; 195; 9125; 5; 10000000; 
524288; 4; 200; 9253; 5; 10000000; 
524288; 4; 5; 2751; 6; 10000000; 
524288; 4; 10; 3108; 6; 10000000; 
524288; 4; 15; 3375; 6; 10000000; 
524288; 4; 20; 3251; 6; 10000000; 
524288; 4; 25; 3451; 6; 10000000; 
524288; 4; 30; 3716; 6; 10000000; 
524288; 4; 35; 3828; 6; 10000000; 
524288; 4; 40; 4155; 6; 10000000; 
524288; 4; 45; 4189; 6; 10000000; 
524288; 4; 50; 4180; 6; 10000000; 
524288; 4; 55; 4380; 6; 10000000; 
524288; 4; 60; 4564; 6; 10000000; 
524288; 4; 65; 4893; 6; 10000000; 
524288; 4; 70; 4904; 6; 10000000; 
524288; 4; 75; 5109; 6; 10000000; 
524288; 4; 80; 5313; 6; 10000000; 
524288; 4; 85; 5314; 6; 10000000; 
524288; 4; 90; 5892; 6; 10000000; 
524288; 4; 95; 5639; 6; 10000000; 
524288; 4; 100; 5812; 6; 10000000; 
524288; 4; 105; 6093; 6; 10000000; 
524288; 4; 110; 6421; 6; 10000000; 
524288; 4; 115; 6453; 6; 10000000; 
524288; 4; 120; 6657; 6; 10000000; 
524288; 4; 125; 6797; 6; 10000000; 
524288; 4; 130; 6965; 6; 10000000; 
524288; 4; 135; 7062; 6; 10000000; 
524288; 4; 140; 7249; 6; 10000000; 
524288; 4; 145; 7252; 6; 10000000; 
524288; 4; 150; 7520; 6; 10000000; 
524288; 4; 155; 7609; 6; 10000000; 
524288; 4; 160; 7925; 6; 10000000; 
524288; 4; 165; 8128; 6; 10000000; 
524288; 4; 170; 8186; 6; 10000000; 
524288; 4; 175; 8420; 6; 10000000; 
524288; 4; 180; 8613; 6; 10000000; 
524288; 4; 185; 8609; 6; 10000000; 
524288; 4; 190; 8873; 6; 10000000; 
524288; 4; 195; 9189; 6; 10000000; 
524288; 4; 200; 9107; 6; 10000000; 
