textSize; alphaSize; querySize; time; expCount; iterations;   
32768; 4; 5; 2139; 2; 10000000;   
32768; 4; 5; 2234; 3; 10000000;   
32768; 4; 5; 2188; 4; 10000000;   
32768; 4; 5; 2376; 5; 10000000;   
32768; 4; 5; 2172; 6; 10000000;   
32768; 4; 10; 2266; 2; 10000000;   
32768; 4; 10; 2342; 3; 10000000;   
32768; 4; 10; 2404; 4; 10000000;   
32768; 4; 10; 2296; 5; 10000000;   
32768; 4; 10; 2342; 6; 10000000;   
32768; 4; 15; 2545; 2; 10000000;   
32768; 4; 15; 2426; 3; 10000000;   
32768; 4; 15; 2579; 4; 10000000;   
32768; 4; 15; 2485; 5; 10000000;   
32768; 4; 15; 2372; 6; 10000000;   
32768; 4; 20; 2785; 2; 10000000;   
32768; 4; 20; 2704; 3; 10000000;   
32768; 4; 20; 2672; 4; 10000000;   
32768; 4; 20; 2749; 5; 10000000;   
32768; 4; 20; 2732; 6; 10000000;   
32768; 4; 25; 2611; 2; 10000000;   
32768; 4; 25; 2831; 3; 10000000;   
32768; 4; 25; 2780; 4; 10000000;   
32768; 4; 25; 2690; 5; 10000000;   
32768; 4; 25; 2845; 6; 10000000;   
32768; 4; 30; 3120; 2; 10000000;   
32768; 4; 30; 2999; 3; 10000000;   
32768; 4; 30; 3082; 4; 10000000;   
32768; 4; 30; 3028; 5; 10000000;   
32768; 4; 30; 2951; 6; 10000000;   
32768; 4; 35; 3032; 2; 10000000;   
32768; 4; 35; 3170; 3; 10000000;   
32768; 4; 35; 3203; 4; 10000000;   
32768; 4; 35; 3158; 5; 10000000;   
32768; 4; 35; 3139; 6; 10000000;   
32768; 4; 40; 3333; 2; 10000000;   
32768; 4; 40; 3389; 3; 10000000;   
32768; 4; 40; 3467; 4; 10000000;   
32768; 4; 40; 3498; 5; 10000000;   
32768; 4; 40; 3343; 6; 10000000;   
32768; 4; 45; 3393; 2; 10000000;   
32768; 4; 45; 3503; 3; 10000000;   
32768; 4; 45; 3490; 4; 10000000;   
32768; 4; 45; 3546; 5; 10000000;   
32768; 4; 45; 3425; 6; 10000000;   
32768; 4; 50; 3673; 2; 10000000;   
32768; 4; 50; 3642; 3; 10000000;   
32768; 4; 50; 3503; 4; 10000000;   
32768; 4; 50; 3641; 5; 10000000;   
32768; 4; 50; 3502; 6; 10000000;   
32768; 4; 55; 3985; 2; 10000000;   
32768; 4; 55; 3923; 3; 10000000;   
32768; 4; 55; 3785; 4; 10000000;   
32768; 4; 55; 3920; 5; 10000000;   
32768; 4; 55; 3878; 6; 10000000;   
32768; 4; 60; 3941; 2; 10000000;   
32768; 4; 60; 3997; 3; 10000000;   
32768; 4; 60; 4048; 4; 10000000;   
32768; 4; 60; 3939; 5; 10000000;   
32768; 4; 60; 3893; 6; 10000000;   
32768; 4; 65; 4299; 2; 10000000;   
32768; 4; 65; 4232; 3; 10000000;   
32768; 4; 65; 4144; 4; 10000000;   
32768; 4; 65; 4267; 5; 10000000;   
32768; 4; 65; 4221; 6; 10000000;   
32768; 4; 70; 4386; 2; 10000000;   
32768; 4; 70; 4424; 3; 10000000;   
32768; 4; 70; 4402; 4; 10000000;   
32768; 4; 70; 4560; 5; 10000000;   
32768; 4; 70; 4281; 6; 10000000;   
32768; 4; 75; 4391; 2; 10000000;   
32768; 4; 75; 4438; 3; 10000000;   
32768; 4; 75; 4610; 4; 10000000;   
32768; 4; 75; 4435; 5; 10000000;   
32768; 4; 75; 4592; 6; 10000000;   
32768; 4; 80; 4749; 2; 10000000;   
32768; 4; 80; 4691; 3; 10000000;   
32768; 4; 80; 4858; 4; 10000000;   
32768; 4; 80; 4811; 5; 10000000;   
32768; 4; 80; 4532; 6; 10000000;   
32768; 4; 85; 4841; 2; 10000000;   
32768; 4; 85; 4732; 3; 10000000;   
32768; 4; 85; 4952; 4; 10000000;   
32768; 4; 85; 4939; 5; 10000000;   
32768; 4; 85; 4810; 6; 10000000;   
32768; 4; 90; 5138; 2; 10000000;   
32768; 4; 90; 4918; 3; 10000000;   
32768; 4; 90; 4894; 4; 10000000;   
32768; 4; 90; 4938; 5; 10000000;   
32768; 4; 90; 5030; 6; 10000000;   
32768; 4; 95; 5142; 2; 10000000;   
32768; 4; 95; 5016; 3; 10000000;   
32768; 4; 95; 5157; 4; 10000000;   
32768; 4; 95; 5105; 5; 10000000;   
32768; 4; 95; 5172; 6; 10000000;   
32768; 4; 100; 5314; 2; 10000000;   
32768; 4; 100; 5076; 3; 10000000;   
32768; 4; 100; 5297; 4; 10000000;   
32768; 4; 100; 5187; 5; 10000000;   
32768; 4; 100; 5300; 6; 10000000;   
32768; 4; 105; 5481; 2; 10000000;   
32768; 4; 105; 5435; 3; 10000000;   
32768; 4; 105; 5390; 4; 10000000;   
32768; 4; 105; 5531; 5; 10000000;   
32768; 4; 105; 5421; 6; 10000000;   
32768; 4; 110; 5404; 2; 10000000;   
32768; 4; 110; 5564; 3; 10000000;   
32768; 4; 110; 5451; 4; 10000000;   
32768; 4; 110; 5625; 5; 10000000;   
32768; 4; 110; 5613; 6; 10000000;   
32768; 4; 115; 5862; 2; 10000000;   
32768; 4; 115; 5781; 3; 10000000;   
32768; 4; 115; 5779; 4; 10000000;   
32768; 4; 115; 5970; 5; 10000000;   
32768; 4; 115; 5736; 6; 10000000;   
32768; 4; 120; 6014; 2; 10000000;   
32768; 4; 120; 6061; 3; 10000000;   
32768; 4; 120; 5939; 4; 10000000;   
32768; 4; 120; 6032; 5; 10000000;   
32768; 4; 120; 6000; 6; 10000000;   
32768; 4; 125; 6296; 2; 10000000;   
32768; 4; 125; 6174; 3; 10000000;   
32768; 4; 125; 6201; 4; 10000000;   
32768; 4; 125; 6232; 5; 10000000;   
32768; 4; 125; 6049; 6; 10000000;   
32768; 4; 130; 6247; 2; 10000000;   
32768; 4; 130; 6281; 3; 10000000;   
32768; 4; 130; 6356; 4; 10000000;   
32768; 4; 130; 6406; 5; 10000000;   
32768; 4; 130; 6330; 6; 10000000;   
32768; 4; 135; 6564; 2; 10000000;   
32768; 4; 135; 6469; 3; 10000000;   
32768; 4; 135; 6517; 4; 10000000;   
32768; 4; 135; 6439; 5; 10000000;   
32768; 4; 135; 6412; 6; 10000000;   
32768; 4; 140; 6704; 2; 10000000;   
32768; 4; 140; 6704; 3; 10000000;   
32768; 4; 140; 6722; 4; 10000000;   
32768; 4; 140; 6717; 5; 10000000;   
32768; 4; 140; 6796; 6; 10000000;   
32768; 4; 145; 6984; 2; 10000000;   
32768; 4; 145; 6875; 3; 10000000;   
32768; 4; 145; 6708; 4; 10000000;   
32768; 4; 145; 6830; 5; 10000000;   
32768; 4; 145; 6655; 6; 10000000;   
32768; 4; 150; 7078; 2; 10000000;   
32768; 4; 150; 7017; 3; 10000000;   
32768; 4; 150; 7033; 4; 10000000;   
32768; 4; 150; 6971; 5; 10000000;   
32768; 4; 150; 7046; 6; 10000000;   
32768; 4; 155; 7204; 2; 10000000;   
32768; 4; 155; 7045; 3; 10000000;   
32768; 4; 155; 7095; 4; 10000000;   
32768; 4; 155; 7142; 5; 10000000;   
32768; 4; 155; 7058; 6; 10000000;   
32768; 4; 160; 7247; 2; 10000000;   
32768; 4; 160; 7374; 3; 10000000;   
32768; 4; 160; 7421; 4; 10000000;   
32768; 4; 160; 7345; 5; 10000000;   
32768; 4; 160; 7426; 6; 10000000;   
32768; 4; 165; 7299; 2; 10000000;   
32768; 4; 165; 7594; 3; 10000000;   
32768; 4; 165; 7532; 4; 10000000;   
32768; 4; 165; 7658; 5; 10000000;   
32768; 4; 165; 7516; 6; 10000000;   
32768; 4; 170; 7577; 2; 10000000;   
32768; 4; 170; 7579; 3; 10000000;   
32768; 4; 170; 7656; 4; 10000000;   
32768; 4; 170; 7705; 5; 10000000;   
32768; 4; 170; 7531; 6; 10000000;   
32768; 4; 175; 7785; 2; 10000000;   
32768; 4; 175; 7816; 3; 10000000;   
32768; 4; 175; 7718; 4; 10000000;   
32768; 4; 175; 7800; 5; 10000000;   
32768; 4; 175; 7826; 6; 10000000;   
32768; 4; 180; 7861; 2; 10000000;   
32768; 4; 180; 7847; 3; 10000000;   
32768; 4; 180; 7952; 4; 10000000;   
32768; 4; 180; 7985; 5; 10000000;   
32768; 4; 180; 8019; 6; 10000000;   
32768; 4; 185; 8016; 2; 10000000;   
32768; 4; 185; 8062; 3; 10000000;   
32768; 4; 185; 8002; 4; 10000000;   
32768; 4; 185; 8062; 5; 10000000;   
32768; 4; 185; 8142; 6; 10000000;   
32768; 4; 190; 8436; 2; 10000000;   
32768; 4; 190; 8405; 3; 10000000;   
32768; 4; 190; 8265; 4; 10000000;   
32768; 4; 190; 8342; 5; 10000000;   
32768; 4; 190; 8345; 6; 10000000;   
32768; 4; 195; 8518; 2; 10000000;   
32768; 4; 195; 8374; 3; 10000000;   
32768; 4; 195; 8342; 4; 10000000;   
32768; 4; 195; 8388; 5; 10000000;   
32768; 4; 195; 8371; 6; 10000000;   
32768; 4; 200; 8721; 2; 10000000;   
32768; 4; 200; 8660; 3; 10000000;   
32768; 4; 200; 8627; 4; 10000000;   
32768; 4; 200; 8608; 5; 10000000;   
32768; 4; 200; 8512; 6; 10000000;   
