textSize; alphaSize; querySize; time; expCount; iterations; 
2048; 4; 5; 1747; 0; 10000000; 
2048; 4; 10; 1847; 0; 10000000; 
2048; 4; 15; 1999; 0; 10000000; 
2048; 4; 20; 2114; 0; 10000000; 
2048; 4; 25; 2297; 0; 10000000; 
2048; 4; 30; 2454; 0; 10000000; 
2048; 4; 35; 2590; 0; 10000000; 
2048; 4; 40; 2735; 0; 10000000; 
2048; 4; 45; 2905; 0; 10000000; 
2048; 4; 50; 3098; 0; 10000000; 
2048; 4; 55; 3297; 0; 10000000; 
2048; 4; 60; 3454; 0; 10000000; 
2048; 4; 65; 3624; 0; 10000000; 
2048; 4; 70; 3906; 0; 10000000; 
2048; 4; 75; 4076; 0; 10000000; 
2048; 4; 80; 4233; 0; 10000000; 
2048; 4; 85; 4484; 0; 10000000; 
2048; 4; 90; 4610; 0; 10000000; 
2048; 4; 95; 4687; 0; 10000000; 
2048; 4; 100; 4735; 0; 10000000; 
2048; 4; 105; 4862; 0; 10000000; 
2048; 4; 110; 4920; 0; 10000000; 
2048; 4; 115; 5284; 0; 10000000; 
2048; 4; 120; 5467; 0; 10000000; 
2048; 4; 125; 5488; 0; 10000000; 
2048; 4; 130; 5891; 0; 10000000; 
2048; 4; 135; 5955; 0; 10000000; 
2048; 4; 140; 6107; 0; 10000000; 
2048; 4; 145; 6262; 0; 10000000; 
2048; 4; 150; 6350; 0; 10000000; 
2048; 4; 155; 6673; 0; 10000000; 
2048; 4; 160; 6832; 0; 10000000; 
2048; 4; 165; 7033; 0; 10000000; 
2048; 4; 170; 7015; 0; 10000000; 
2048; 4; 175; 7266; 0; 10000000; 
2048; 4; 180; 7391; 0; 10000000; 
2048; 4; 185; 7512; 0; 10000000; 
2048; 4; 190; 7858; 0; 10000000; 
2048; 4; 195; 7801; 0; 10000000; 
2048; 4; 200; 8156; 0; 10000000; 
2048; 4; 5; 1701; 1; 10000000; 
2048; 4; 10; 1873; 1; 10000000; 
2048; 4; 15; 2111; 1; 10000000; 
2048; 4; 20; 2158; 1; 10000000; 
2048; 4; 25; 2221; 1; 10000000; 
2048; 4; 30; 2611; 1; 10000000; 
2048; 4; 35; 2530; 1; 10000000; 
2048; 4; 40; 2798; 1; 10000000; 
2048; 4; 45; 3012; 1; 10000000; 
2048; 4; 50; 3139; 1; 10000000; 
2048; 4; 55; 3252; 1; 10000000; 
2048; 4; 60; 3470; 1; 10000000; 
2048; 4; 65; 3783; 1; 10000000; 
2048; 4; 70; 3889; 1; 10000000; 
2048; 4; 75; 3953; 1; 10000000; 
2048; 4; 80; 4232; 1; 10000000; 
2048; 4; 85; 4346; 1; 10000000; 
2048; 4; 90; 4360; 1; 10000000; 
2048; 4; 95; 4609; 1; 10000000; 
2048; 4; 100; 4690; 1; 10000000; 
2048; 4; 105; 4906; 1; 10000000; 
2048; 4; 110; 5077; 1; 10000000; 
2048; 4; 115; 5215; 1; 10000000; 
2048; 4; 120; 5482; 1; 10000000; 
2048; 4; 125; 5595; 1; 10000000; 
2048; 4; 130; 5735; 1; 10000000; 
2048; 4; 135; 5802; 1; 10000000; 
2048; 4; 140; 6060; 1; 10000000; 
2048; 4; 145; 6280; 1; 10000000; 
2048; 4; 150; 6341; 1; 10000000; 
2048; 4; 155; 6753; 1; 10000000; 
2048; 4; 160; 6782; 1; 10000000; 
2048; 4; 165; 6989; 1; 10000000; 
2048; 4; 170; 7192; 1; 10000000; 
2048; 4; 175; 7187; 1; 10000000; 
2048; 4; 180; 7482; 1; 10000000; 
2048; 4; 185; 7549; 1; 10000000; 
2048; 4; 190; 7683; 1; 10000000; 
2048; 4; 195; 7905; 1; 10000000; 
2048; 4; 200; 8047; 1; 10000000; 
2048; 4; 5; 1657; 2; 10000000; 
2048; 4; 10; 1766; 2; 10000000; 
2048; 4; 15; 2033; 2; 10000000; 
2048; 4; 20; 2108; 2; 10000000; 
2048; 4; 25; 2345; 2; 10000000; 
2048; 4; 30; 2437; 2; 10000000; 
2048; 4; 35; 2642; 2; 10000000; 
2048; 4; 40; 2769; 2; 10000000; 
2048; 4; 45; 2970; 2; 10000000; 
2048; 4; 50; 3190; 2; 10000000; 
2048; 4; 55; 3312; 2; 10000000; 
2048; 4; 60; 3441; 2; 10000000; 
2048; 4; 65; 3718; 2; 10000000; 
2048; 4; 70; 3890; 2; 10000000; 
2048; 4; 75; 4079; 2; 10000000; 
2048; 4; 80; 4192; 2; 10000000; 
2048; 4; 85; 4359; 2; 10000000; 
2048; 4; 90; 4519; 2; 10000000; 
2048; 4; 95; 4481; 2; 10000000; 
2048; 4; 100; 4722; 2; 10000000; 
2048; 4; 105; 4906; 2; 10000000; 
2048; 4; 110; 4998; 2; 10000000; 
2048; 4; 115; 5065; 2; 10000000; 
2048; 4; 120; 5187; 2; 10000000; 
2048; 4; 125; 5568; 2; 10000000; 
2048; 4; 130; 5751; 2; 10000000; 
2048; 4; 135; 6125; 2; 10000000; 
2048; 4; 140; 6232; 2; 10000000; 
2048; 4; 145; 6203; 2; 10000000; 
2048; 4; 150; 6485; 2; 10000000; 
2048; 4; 155; 6578; 2; 10000000; 
2048; 4; 160; 6780; 2; 10000000; 
2048; 4; 165; 6919; 2; 10000000; 
2048; 4; 170; 7187; 2; 10000000; 
2048; 4; 175; 7252; 2; 10000000; 
2048; 4; 180; 7406; 2; 10000000; 
2048; 4; 185; 7546; 2; 10000000; 
2048; 4; 190; 7752; 2; 10000000; 
2048; 4; 195; 7956; 2; 10000000; 
2048; 4; 200; 8075; 2; 10000000; 
2048; 4; 5; 1656; 3; 10000000; 
2048; 4; 10; 1733; 3; 10000000; 
2048; 4; 15; 1955; 3; 10000000; 
2048; 4; 20; 2062; 3; 10000000; 
2048; 4; 25; 2269; 3; 10000000; 
2048; 4; 30; 2388; 3; 10000000; 
2048; 4; 35; 2705; 3; 10000000; 
2048; 4; 40; 2809; 3; 10000000; 
2048; 4; 45; 2999; 3; 10000000; 
2048; 4; 50; 3000; 3; 10000000; 
2048; 4; 55; 3284; 3; 10000000; 
2048; 4; 60; 3452; 3; 10000000; 
2048; 4; 65; 3549; 3; 10000000; 
2048; 4; 70; 3872; 3; 10000000; 
2048; 4; 75; 3908; 3; 10000000; 
2048; 4; 80; 4082; 3; 10000000; 
2048; 4; 85; 4451; 3; 10000000; 
2048; 4; 90; 4453; 3; 10000000; 
2048; 4; 95; 4610; 3; 10000000; 
2048; 4; 100; 4735; 3; 10000000; 
2048; 4; 105; 4922; 3; 10000000; 
2048; 4; 110; 5078; 3; 10000000; 
2048; 4; 115; 5168; 3; 10000000; 
2048; 4; 120; 5311; 3; 10000000; 
2048; 4; 125; 5626; 3; 10000000; 
2048; 4; 130; 5765; 3; 10000000; 
2048; 4; 135; 5892; 3; 10000000; 
2048; 4; 140; 6174; 3; 10000000; 
2048; 4; 145; 6128; 3; 10000000; 
2048; 4; 150; 6394; 3; 10000000; 
2048; 4; 155; 6545; 3; 10000000; 
2048; 4; 160; 6762; 3; 10000000; 
2048; 4; 165; 6920; 3; 10000000; 
2048; 4; 170; 7109; 3; 10000000; 
2048; 4; 175; 7185; 3; 10000000; 
2048; 4; 180; 7299; 3; 10000000; 
2048; 4; 185; 7613; 3; 10000000; 
2048; 4; 190; 7604; 3; 10000000; 
2048; 4; 195; 7775; 3; 10000000; 
2048; 4; 200; 8078; 3; 10000000; 
2048; 4; 5; 1549; 4; 10000000; 
2048; 4; 10; 1844; 4; 10000000; 
2048; 4; 15; 1936; 4; 10000000; 
2048; 4; 20; 2111; 4; 10000000; 
2048; 4; 25; 2315; 4; 10000000; 
2048; 4; 30; 2613; 4; 10000000; 
2048; 4; 35; 2469; 4; 10000000; 
2048; 4; 40; 2906; 4; 10000000; 
2048; 4; 45; 3046; 4; 10000000; 
2048; 4; 50; 3032; 4; 10000000; 
2048; 4; 55; 3313; 4; 10000000; 
2048; 4; 60; 3482; 4; 10000000; 
2048; 4; 65; 3576; 4; 10000000; 
2048; 4; 70; 3903; 4; 10000000; 
2048; 4; 75; 4079; 4; 10000000; 
2048; 4; 80; 4158; 4; 10000000; 
2048; 4; 85; 4380; 4; 10000000; 
2048; 4; 90; 4529; 4; 10000000; 
2048; 4; 95; 4578; 4; 10000000; 
2048; 4; 100; 4874; 4; 10000000; 
2048; 4; 105; 4877; 4; 10000000; 
2048; 4; 110; 4951; 4; 10000000; 
2048; 4; 115; 5201; 4; 10000000; 
2048; 4; 120; 5361; 4; 10000000; 
2048; 4; 125; 5737; 4; 10000000; 
2048; 4; 130; 5749; 4; 10000000; 
2048; 4; 135; 5889; 4; 10000000; 
2048; 4; 140; 6017; 4; 10000000; 
2048; 4; 145; 6108; 4; 10000000; 
2048; 4; 150; 6456; 4; 10000000; 
2048; 4; 155; 6674; 4; 10000000; 
2048; 4; 160; 6813; 4; 10000000; 
2048; 4; 165; 6906; 4; 10000000; 
2048; 4; 170; 6998; 4; 10000000; 
2048; 4; 175; 7343; 4; 10000000; 
2048; 4; 180; 7267; 4; 10000000; 
2048; 4; 185; 7670; 4; 10000000; 
2048; 4; 190; 7766; 4; 10000000; 
2048; 4; 195; 7874; 4; 10000000; 
2048; 4; 200; 8123; 4; 10000000; 
2048; 4; 5; 1483; 5; 10000000; 
2048; 4; 10; 1798; 5; 10000000; 
2048; 4; 15; 1982; 5; 10000000; 
2048; 4; 20; 2062; 5; 10000000; 
2048; 4; 25; 2282; 5; 10000000; 
2048; 4; 30; 2421; 5; 10000000; 
2048; 4; 35; 2626; 5; 10000000; 
2048; 4; 40; 2748; 5; 10000000; 
2048; 4; 45; 3032; 5; 10000000; 
2048; 4; 50; 3252; 5; 10000000; 
2048; 4; 55; 3130; 5; 10000000; 
2048; 4; 60; 3375; 5; 10000000; 
2048; 4; 65; 3811; 5; 10000000; 
2048; 4; 70; 3969; 5; 10000000; 
2048; 4; 75; 4049; 5; 10000000; 
2048; 4; 80; 4123; 5; 10000000; 
2048; 4; 85; 4329; 5; 10000000; 
2048; 4; 90; 4549; 5; 10000000; 
2048; 4; 95; 4766; 5; 10000000; 
2048; 4; 100; 4640; 5; 10000000; 
2048; 4; 105; 4845; 5; 10000000; 
2048; 4; 110; 5096; 5; 10000000; 
2048; 4; 115; 5251; 5; 10000000; 
2048; 4; 120; 5177; 5; 10000000; 
2048; 4; 125; 5702; 5; 10000000; 
2048; 4; 130; 5767; 5; 10000000; 
2048; 4; 135; 5952; 5; 10000000; 
2048; 4; 140; 6077; 5; 10000000; 
2048; 4; 145; 6206; 5; 10000000; 
2048; 4; 150; 6517; 5; 10000000; 
2048; 4; 155; 6513; 5; 10000000; 
2048; 4; 160; 6782; 5; 10000000; 
2048; 4; 165; 7029; 5; 10000000; 
2048; 4; 170; 7203; 5; 10000000; 
2048; 4; 175; 7267; 5; 10000000; 
2048; 4; 180; 7344; 5; 10000000; 
2048; 4; 185; 7566; 5; 10000000; 
2048; 4; 190; 7595; 5; 10000000; 
2048; 4; 195; 7857; 5; 10000000; 
2048; 4; 200; 8111; 5; 10000000; 
2048; 4; 5; 1670; 6; 10000000; 
2048; 4; 10; 1778; 6; 10000000; 
2048; 4; 15; 1954; 6; 10000000; 
2048; 4; 20; 2171; 6; 10000000; 
2048; 4; 25; 2309; 6; 10000000; 
2048; 4; 30; 2453; 6; 10000000; 
2048; 4; 35; 2686; 6; 10000000; 
2048; 4; 40; 2781; 6; 10000000; 
2048; 4; 45; 2903; 6; 10000000; 
2048; 4; 50; 3155; 6; 10000000; 
2048; 4; 55; 3439; 6; 10000000; 
2048; 4; 60; 3439; 6; 10000000; 
2048; 4; 65; 3765; 6; 10000000; 
2048; 4; 70; 3906; 6; 10000000; 
2048; 4; 75; 4063; 6; 10000000; 
2048; 4; 80; 4219; 6; 10000000; 
2048; 4; 85; 4420; 6; 10000000; 
2048; 4; 90; 4613; 6; 10000000; 
2048; 4; 95; 4579; 6; 10000000; 
2048; 4; 100; 4691; 6; 10000000; 
2048; 4; 105; 4904; 6; 10000000; 
2048; 4; 110; 5002; 6; 10000000; 
2048; 4; 115; 5280; 6; 10000000; 
2048; 4; 120; 5470; 6; 10000000; 
2048; 4; 125; 5563; 6; 10000000; 
2048; 4; 130; 5954; 6; 10000000; 
2048; 4; 135; 5969; 6; 10000000; 
2048; 4; 140; 6017; 6; 10000000; 
2048; 4; 145; 6361; 6; 10000000; 
2048; 4; 150; 6437; 6; 10000000; 
2048; 4; 155; 6625; 6; 10000000; 
2048; 4; 160; 6844; 6; 10000000; 
2048; 4; 165; 7076; 6; 10000000; 
2048; 4; 170; 7047; 6; 10000000; 
2048; 4; 175; 7248; 6; 10000000; 
2048; 4; 180; 7313; 6; 10000000; 
2048; 4; 185; 7502; 6; 10000000; 
2048; 4; 190; 7701; 6; 10000000; 
2048; 4; 195; 7923; 6; 10000000; 
2048; 4; 200; 8015; 6; 10000000; 
