textSize; alphaSize; querySize; time; expCount; iterations; 
131072; 4; 5; 2514; 0; 10000000; 
131072; 4; 10; 2609; 0; 10000000; 
131072; 4; 15; 2812; 0; 10000000; 
131072; 4; 20; 2985; 0; 10000000; 
131072; 4; 25; 3266; 0; 10000000; 
131072; 4; 30; 3394; 0; 10000000; 
131072; 4; 35; 3532; 0; 10000000; 
131072; 4; 40; 3736; 0; 10000000; 
131072; 4; 45; 4031; 0; 10000000; 
131072; 4; 50; 4021; 0; 10000000; 
131072; 4; 55; 4189; 0; 10000000; 
131072; 4; 60; 4266; 0; 10000000; 
131072; 4; 65; 4547; 0; 10000000; 
131072; 4; 70; 4704; 0; 10000000; 
131072; 4; 75; 4874; 0; 10000000; 
131072; 4; 80; 5012; 0; 10000000; 
131072; 4; 85; 5265; 0; 10000000; 
131072; 4; 90; 5408; 0; 10000000; 
131072; 4; 95; 5623; 0; 10000000; 
131072; 4; 100; 5671; 0; 10000000; 
131072; 4; 105; 5968; 0; 10000000; 
131072; 4; 110; 5906; 0; 10000000; 
131072; 4; 115; 6064; 0; 10000000; 
131072; 4; 120; 6435; 0; 10000000; 
131072; 4; 125; 6653; 0; 10000000; 
131072; 4; 130; 6592; 0; 10000000; 
131072; 4; 135; 6675; 0; 10000000; 
131072; 4; 140; 7016; 0; 10000000; 
131072; 4; 145; 7125; 0; 10000000; 
131072; 4; 150; 7220; 0; 10000000; 
131072; 4; 155; 7378; 0; 10000000; 
131072; 4; 160; 7423; 0; 10000000; 
131072; 4; 165; 7764; 0; 10000000; 
131072; 4; 170; 7855; 0; 10000000; 
131072; 4; 175; 8152; 0; 10000000; 
131072; 4; 180; 8295; 0; 10000000; 
131072; 4; 185; 8393; 0; 10000000; 
131072; 4; 190; 8624; 0; 10000000; 
131072; 4; 195; 8876; 0; 10000000; 
131072; 4; 200; 9033; 0; 10000000; 
131072; 4; 5; 2488; 1; 10000000; 
131072; 4; 10; 2595; 1; 10000000; 
131072; 4; 15; 2818; 1; 10000000; 
131072; 4; 20; 2967; 1; 10000000; 
131072; 4; 25; 3329; 1; 10000000; 
131072; 4; 30; 3421; 1; 10000000; 
131072; 4; 35; 3407; 1; 10000000; 
131072; 4; 40; 3469; 1; 10000000; 
131072; 4; 45; 3718; 1; 10000000; 
131072; 4; 50; 3968; 1; 10000000; 
131072; 4; 55; 4083; 1; 10000000; 
131072; 4; 60; 4202; 1; 10000000; 
131072; 4; 65; 4469; 1; 10000000; 
131072; 4; 70; 4794; 1; 10000000; 
131072; 4; 75; 4797; 1; 10000000; 
131072; 4; 80; 4956; 1; 10000000; 
131072; 4; 85; 5222; 1; 10000000; 
131072; 4; 90; 5293; 1; 10000000; 
131072; 4; 95; 5403; 1; 10000000; 
131072; 4; 100; 5578; 1; 10000000; 
131072; 4; 105; 5889; 1; 10000000; 
131072; 4; 110; 5955; 1; 10000000; 
131072; 4; 115; 6174; 1; 10000000; 
131072; 4; 120; 6406; 1; 10000000; 
131072; 4; 125; 6453; 1; 10000000; 
131072; 4; 130; 6736; 1; 10000000; 
131072; 4; 135; 6986; 1; 10000000; 
131072; 4; 140; 7124; 1; 10000000; 
131072; 4; 145; 7096; 1; 10000000; 
131072; 4; 150; 7359; 1; 10000000; 
131072; 4; 155; 7548; 1; 10000000; 
131072; 4; 160; 7671; 1; 10000000; 
131072; 4; 165; 7767; 1; 10000000; 
131072; 4; 170; 7816; 1; 10000000; 
131072; 4; 175; 7936; 1; 10000000; 
131072; 4; 180; 8139; 1; 10000000; 
131072; 4; 185; 8343; 1; 10000000; 
131072; 4; 190; 8514; 1; 10000000; 
131072; 4; 195; 8723; 1; 10000000; 
131072; 4; 200; 8786; 1; 10000000; 
131072; 4; 5; 2453; 2; 10000000; 
131072; 4; 10; 2624; 2; 10000000; 
131072; 4; 15; 2886; 2; 10000000; 
131072; 4; 20; 2877; 2; 10000000; 
131072; 4; 25; 3185; 2; 10000000; 
131072; 4; 30; 3435; 2; 10000000; 
131072; 4; 35; 3453; 2; 10000000; 
131072; 4; 40; 3482; 2; 10000000; 
131072; 4; 45; 3861; 2; 10000000; 
131072; 4; 50; 3959; 2; 10000000; 
131072; 4; 55; 4109; 2; 10000000; 
131072; 4; 60; 4297; 2; 10000000; 
131072; 4; 65; 4501; 2; 10000000; 
131072; 4; 70; 4624; 2; 10000000; 
131072; 4; 75; 4798; 2; 10000000; 
131072; 4; 80; 4957; 2; 10000000; 
131072; 4; 85; 5249; 2; 10000000; 
131072; 4; 90; 5126; 2; 10000000; 
131072; 4; 95; 5435; 2; 10000000; 
131072; 4; 100; 5639; 2; 10000000; 
131072; 4; 105; 5763; 2; 10000000; 
131072; 4; 110; 5906; 2; 10000000; 
131072; 4; 115; 6282; 2; 10000000; 
131072; 4; 120; 6267; 2; 10000000; 
131072; 4; 125; 6531; 2; 10000000; 
131072; 4; 130; 6625; 2; 10000000; 
131072; 4; 135; 6861; 2; 10000000; 
131072; 4; 140; 7144; 2; 10000000; 
131072; 4; 145; 7124; 2; 10000000; 
131072; 4; 150; 7407; 2; 10000000; 
131072; 4; 155; 7498; 2; 10000000; 
131072; 4; 160; 7577; 2; 10000000; 
131072; 4; 165; 7701; 2; 10000000; 
131072; 4; 170; 7830; 2; 10000000; 
131072; 4; 175; 8063; 2; 10000000; 
131072; 4; 180; 8312; 2; 10000000; 
131072; 4; 185; 8375; 2; 10000000; 
131072; 4; 190; 8452; 2; 10000000; 
131072; 4; 195; 8860; 2; 10000000; 
131072; 4; 200; 9077; 2; 10000000; 
131072; 4; 5; 2483; 3; 10000000; 
131072; 4; 10; 2627; 3; 10000000; 
131072; 4; 15; 2753; 3; 10000000; 
131072; 4; 20; 3033; 3; 10000000; 
131072; 4; 25; 3248; 3; 10000000; 
131072; 4; 30; 3347; 3; 10000000; 
131072; 4; 35; 3594; 3; 10000000; 
131072; 4; 40; 3798; 3; 10000000; 
131072; 4; 45; 3795; 3; 10000000; 
131072; 4; 50; 3997; 3; 10000000; 
131072; 4; 55; 4154; 3; 10000000; 
131072; 4; 60; 4282; 3; 10000000; 
131072; 4; 65; 4359; 3; 10000000; 
131072; 4; 70; 4723; 3; 10000000; 
131072; 4; 75; 4783; 3; 10000000; 
131072; 4; 80; 4922; 3; 10000000; 
131072; 4; 85; 5170; 3; 10000000; 
131072; 4; 90; 5262; 3; 10000000; 
131072; 4; 95; 5311; 3; 10000000; 
131072; 4; 100; 5811; 3; 10000000; 
131072; 4; 105; 5848; 3; 10000000; 
131072; 4; 110; 6094; 3; 10000000; 
131072; 4; 115; 6076; 3; 10000000; 
131072; 4; 120; 6222; 3; 10000000; 
131072; 4; 125; 6517; 3; 10000000; 
131072; 4; 130; 6608; 3; 10000000; 
131072; 4; 135; 6906; 3; 10000000; 
131072; 4; 140; 7077; 3; 10000000; 
131072; 4; 145; 7183; 3; 10000000; 
131072; 4; 150; 7298; 3; 10000000; 
131072; 4; 155; 7500; 3; 10000000; 
131072; 4; 160; 7565; 3; 10000000; 
131072; 4; 165; 7770; 3; 10000000; 
131072; 4; 170; 7861; 3; 10000000; 
131072; 4; 175; 7891; 3; 10000000; 
131072; 4; 180; 8312; 3; 10000000; 
131072; 4; 185; 8406; 3; 10000000; 
131072; 4; 190; 8484; 3; 10000000; 
131072; 4; 195; 8732; 3; 10000000; 
131072; 4; 200; 9017; 3; 10000000; 
131072; 4; 5; 2488; 4; 10000000; 
131072; 4; 10; 2625; 4; 10000000; 
131072; 4; 15; 2755; 4; 10000000; 
131072; 4; 20; 2938; 4; 10000000; 
131072; 4; 25; 3280; 4; 10000000; 
131072; 4; 30; 3329; 4; 10000000; 
131072; 4; 35; 3551; 4; 10000000; 
131072; 4; 40; 3689; 4; 10000000; 
131072; 4; 45; 3784; 4; 10000000; 
131072; 4; 50; 4094; 4; 10000000; 
131072; 4; 55; 4268; 4; 10000000; 
131072; 4; 60; 4317; 4; 10000000; 
131072; 4; 65; 4375; 4; 10000000; 
131072; 4; 70; 4796; 4; 10000000; 
131072; 4; 75; 4955; 4; 10000000; 
131072; 4; 80; 5126; 4; 10000000; 
131072; 4; 85; 5031; 4; 10000000; 
131072; 4; 90; 5404; 4; 10000000; 
131072; 4; 95; 5444; 4; 10000000; 
131072; 4; 100; 5754; 4; 10000000; 
131072; 4; 105; 5764; 4; 10000000; 
131072; 4; 110; 5796; 4; 10000000; 
131072; 4; 115; 6013; 4; 10000000; 
131072; 4; 120; 6302; 4; 10000000; 
131072; 4; 125; 6660; 4; 10000000; 
131072; 4; 130; 6574; 4; 10000000; 
131072; 4; 135; 6860; 4; 10000000; 
131072; 4; 140; 6830; 4; 10000000; 
131072; 4; 145; 7092; 4; 10000000; 
131072; 4; 150; 7315; 4; 10000000; 
131072; 4; 155; 7484; 4; 10000000; 
131072; 4; 160; 7545; 4; 10000000; 
131072; 4; 165; 7658; 4; 10000000; 
131072; 4; 170; 7983; 4; 10000000; 
131072; 4; 175; 8205; 4; 10000000; 
131072; 4; 180; 8362; 4; 10000000; 
131072; 4; 185; 8251; 4; 10000000; 
131072; 4; 190; 8642; 4; 10000000; 
131072; 4; 195; 8795; 4; 10000000; 
131072; 4; 200; 9001; 4; 10000000; 
131072; 4; 5; 2561; 5; 10000000; 
131072; 4; 10; 2611; 5; 10000000; 
131072; 4; 15; 2908; 5; 10000000; 
131072; 4; 20; 2968; 5; 10000000; 
131072; 4; 25; 3143; 5; 10000000; 
131072; 4; 30; 3263; 5; 10000000; 
131072; 4; 35; 3469; 5; 10000000; 
131072; 4; 40; 3639; 5; 10000000; 
131072; 4; 45; 3719; 5; 10000000; 
131072; 4; 50; 3795; 5; 10000000; 
131072; 4; 55; 4152; 5; 10000000; 
131072; 4; 60; 4223; 5; 10000000; 
131072; 4; 65; 4580; 5; 10000000; 
131072; 4; 70; 4826; 5; 10000000; 
131072; 4; 75; 4829; 5; 10000000; 
131072; 4; 80; 4908; 5; 10000000; 
131072; 4; 85; 5312; 5; 10000000; 
131072; 4; 90; 5440; 5; 10000000; 
131072; 4; 95; 5452; 5; 10000000; 
131072; 4; 100; 5638; 5; 10000000; 
131072; 4; 105; 5782; 5; 10000000; 
131072; 4; 110; 5955; 5; 10000000; 
131072; 4; 115; 6170; 5; 10000000; 
131072; 4; 120; 6326; 5; 10000000; 
131072; 4; 125; 6580; 5; 10000000; 
131072; 4; 130; 6750; 5; 10000000; 
131072; 4; 135; 6766; 5; 10000000; 
131072; 4; 140; 7034; 5; 10000000; 
131072; 4; 145; 6969; 5; 10000000; 
131072; 4; 150; 7277; 5; 10000000; 
131072; 4; 155; 7264; 5; 10000000; 
131072; 4; 160; 7780; 5; 10000000; 
131072; 4; 165; 7878; 5; 10000000; 
131072; 4; 170; 7788; 5; 10000000; 
131072; 4; 175; 8048; 5; 10000000; 
131072; 4; 180; 8190; 5; 10000000; 
131072; 4; 185; 8487; 5; 10000000; 
131072; 4; 190; 8654; 5; 10000000; 
131072; 4; 195; 8706; 5; 10000000; 
131072; 4; 200; 8809; 5; 10000000; 
131072; 4; 5; 2527; 6; 10000000; 
131072; 4; 10; 2669; 6; 10000000; 
131072; 4; 15; 2659; 6; 10000000; 
131072; 4; 20; 2953; 6; 10000000; 
131072; 4; 25; 3186; 6; 10000000; 
131072; 4; 30; 3437; 6; 10000000; 
131072; 4; 35; 3594; 6; 10000000; 
131072; 4; 40; 3738; 6; 10000000; 
131072; 4; 45; 3702; 6; 10000000; 
131072; 4; 50; 3952; 6; 10000000; 
131072; 4; 55; 4236; 6; 10000000; 
131072; 4; 60; 4295; 6; 10000000; 
131072; 4; 65; 4575; 6; 10000000; 
131072; 4; 70; 4795; 6; 10000000; 
131072; 4; 75; 4908; 6; 10000000; 
131072; 4; 80; 4938; 6; 10000000; 
131072; 4; 85; 5124; 6; 10000000; 
131072; 4; 90; 5313; 6; 10000000; 
131072; 4; 95; 5440; 6; 10000000; 
131072; 4; 100; 5689; 6; 10000000; 
131072; 4; 105; 5872; 6; 10000000; 
131072; 4; 110; 6565; 6; 10000000; 
131072; 4; 115; 6081; 6; 10000000; 
131072; 4; 120; 6204; 6; 10000000; 
131072; 4; 125; 6452; 6; 10000000; 
131072; 4; 130; 6708; 6; 10000000; 
131072; 4; 135; 7377; 6; 10000000; 
131072; 4; 140; 7001; 6; 10000000; 
131072; 4; 145; 7154; 6; 10000000; 
131072; 4; 150; 7344; 6; 10000000; 
131072; 4; 155; 7544; 6; 10000000; 
131072; 4; 160; 7645; 6; 10000000; 
131072; 4; 165; 7622; 6; 10000000; 
131072; 4; 170; 7892; 6; 10000000; 
131072; 4; 175; 7922; 6; 10000000; 
131072; 4; 180; 8470; 6; 10000000; 
131072; 4; 185; 8452; 6; 10000000; 
131072; 4; 190; 8580; 6; 10000000; 
131072; 4; 195; 8655; 6; 10000000; 
131072; 4; 200; 9064; 6; 10000000; 
