textSize; alphaSize; querySize; time; expCount; iterations; 
4096; 4; 5; 1844; 0; 10000000; 
4096; 4; 10; 1968; 0; 10000000; 
4096; 4; 15; 2095; 0; 10000000; 
4096; 4; 20; 2190; 0; 10000000; 
4096; 4; 25; 2466; 0; 10000000; 
4096; 4; 30; 2582; 0; 10000000; 
4096; 4; 35; 2826; 0; 10000000; 
4096; 4; 40; 3017; 0; 10000000; 
4096; 4; 45; 3095; 0; 10000000; 
4096; 4; 50; 3299; 0; 10000000; 
4096; 4; 55; 3483; 0; 10000000; 
4096; 4; 60; 3746; 0; 10000000; 
4096; 4; 65; 3751; 0; 10000000; 
4096; 4; 70; 4094; 0; 10000000; 
4096; 4; 75; 4138; 0; 10000000; 
4096; 4; 80; 4281; 0; 10000000; 
4096; 4; 85; 4564; 0; 10000000; 
4096; 4; 90; 4538; 0; 10000000; 
4096; 4; 95; 4671; 0; 10000000; 
4096; 4; 100; 4984; 0; 10000000; 
4096; 4; 105; 5044; 0; 10000000; 
4096; 4; 110; 5217; 0; 10000000; 
4096; 4; 115; 5389; 0; 10000000; 
4096; 4; 120; 5533; 0; 10000000; 
4096; 4; 125; 5721; 0; 10000000; 
4096; 4; 130; 5937; 0; 10000000; 
4096; 4; 135; 5910; 0; 10000000; 
4096; 4; 140; 6155; 0; 10000000; 
4096; 4; 145; 6268; 0; 10000000; 
4096; 4; 150; 6611; 0; 10000000; 
4096; 4; 155; 6781; 0; 10000000; 
4096; 4; 160; 6812; 0; 10000000; 
4096; 4; 165; 7050; 0; 10000000; 
4096; 4; 170; 7282; 0; 10000000; 
4096; 4; 175; 7222; 0; 10000000; 
4096; 4; 180; 7626; 0; 10000000; 
4096; 4; 185; 7737; 0; 10000000; 
4096; 4; 190; 7892; 0; 10000000; 
4096; 4; 195; 8095; 0; 10000000; 
4096; 4; 200; 8252; 0; 10000000; 
4096; 4; 5; 1847; 1; 10000000; 
4096; 4; 10; 2000; 1; 10000000; 
4096; 4; 15; 2174; 1; 10000000; 
4096; 4; 20; 2199; 1; 10000000; 
4096; 4; 25; 2438; 1; 10000000; 
4096; 4; 30; 2594; 1; 10000000; 
4096; 4; 35; 2659; 1; 10000000; 
4096; 4; 40; 2954; 1; 10000000; 
4096; 4; 45; 3061; 1; 10000000; 
4096; 4; 50; 3236; 1; 10000000; 
4096; 4; 55; 3467; 1; 10000000; 
4096; 4; 60; 3611; 1; 10000000; 
4096; 4; 65; 3859; 1; 10000000; 
4096; 4; 70; 4011; 1; 10000000; 
4096; 4; 75; 4284; 1; 10000000; 
4096; 4; 80; 4423; 1; 10000000; 
4096; 4; 85; 4438; 1; 10000000; 
4096; 4; 90; 4658; 1; 10000000; 
4096; 4; 95; 4689; 1; 10000000; 
4096; 4; 100; 4972; 1; 10000000; 
4096; 4; 105; 5000; 1; 10000000; 
4096; 4; 110; 5235; 1; 10000000; 
4096; 4; 115; 5356; 1; 10000000; 
4096; 4; 120; 5469; 1; 10000000; 
4096; 4; 125; 5736; 1; 10000000; 
4096; 4; 130; 5941; 1; 10000000; 
4096; 4; 135; 6191; 1; 10000000; 
4096; 4; 140; 6356; 1; 10000000; 
4096; 4; 145; 6263; 1; 10000000; 
4096; 4; 150; 6625; 1; 10000000; 
4096; 4; 155; 6830; 1; 10000000; 
4096; 4; 160; 7060; 1; 10000000; 
4096; 4; 165; 7077; 1; 10000000; 
4096; 4; 170; 7126; 1; 10000000; 
4096; 4; 175; 7278; 1; 10000000; 
4096; 4; 180; 7577; 1; 10000000; 
4096; 4; 185; 7781; 1; 10000000; 
4096; 4; 190; 7893; 1; 10000000; 
4096; 4; 195; 8081; 1; 10000000; 
4096; 4; 200; 8141; 1; 10000000; 
4096; 4; 5; 1717; 2; 10000000; 
4096; 4; 10; 2109; 2; 10000000; 
4096; 4; 15; 2139; 2; 10000000; 
4096; 4; 20; 2160; 2; 10000000; 
4096; 4; 25; 2403; 2; 10000000; 
4096; 4; 30; 2599; 2; 10000000; 
4096; 4; 35; 2794; 2; 10000000; 
4096; 4; 40; 2863; 2; 10000000; 
4096; 4; 45; 3137; 2; 10000000; 
4096; 4; 50; 3394; 2; 10000000; 
4096; 4; 55; 3357; 2; 10000000; 
4096; 4; 60; 3560; 2; 10000000; 
4096; 4; 65; 3768; 2; 10000000; 
4096; 4; 70; 3967; 2; 10000000; 
4096; 4; 75; 4174; 2; 10000000; 
4096; 4; 80; 4268; 2; 10000000; 
4096; 4; 85; 4421; 2; 10000000; 
4096; 4; 90; 4561; 2; 10000000; 
4096; 4; 95; 4653; 2; 10000000; 
4096; 4; 100; 4733; 2; 10000000; 
4096; 4; 105; 5028; 2; 10000000; 
4096; 4; 110; 5114; 2; 10000000; 
4096; 4; 115; 5411; 2; 10000000; 
4096; 4; 120; 5604; 2; 10000000; 
4096; 4; 125; 5632; 2; 10000000; 
4096; 4; 130; 5879; 2; 10000000; 
4096; 4; 135; 6017; 2; 10000000; 
4096; 4; 140; 6281; 2; 10000000; 
4096; 4; 145; 6485; 2; 10000000; 
4096; 4; 150; 6655; 2; 10000000; 
4096; 4; 155; 6891; 2; 10000000; 
4096; 4; 160; 6862; 2; 10000000; 
4096; 4; 165; 7124; 2; 10000000; 
4096; 4; 170; 7189; 2; 10000000; 
4096; 4; 175; 7359; 2; 10000000; 
4096; 4; 180; 7483; 2; 10000000; 
4096; 4; 185; 7717; 2; 10000000; 
4096; 4; 190; 7846; 2; 10000000; 
4096; 4; 195; 8140; 2; 10000000; 
4096; 4; 200; 8062; 2; 10000000; 
4096; 4; 5; 1750; 3; 10000000; 
4096; 4; 10; 1938; 3; 10000000; 
4096; 4; 15; 2139; 3; 10000000; 
4096; 4; 20; 2295; 3; 10000000; 
4096; 4; 25; 2455; 3; 10000000; 
4096; 4; 30; 2621; 3; 10000000; 
4096; 4; 35; 2832; 3; 10000000; 
4096; 4; 40; 2826; 3; 10000000; 
4096; 4; 45; 3108; 3; 10000000; 
4096; 4; 50; 3154; 3; 10000000; 
4096; 4; 55; 3325; 3; 10000000; 
4096; 4; 60; 3452; 3; 10000000; 
4096; 4; 65; 3830; 3; 10000000; 
4096; 4; 70; 4015; 3; 10000000; 
4096; 4; 75; 4201; 3; 10000000; 
4096; 4; 80; 4357; 3; 10000000; 
4096; 4; 85; 4357; 3; 10000000; 
4096; 4; 90; 4670; 3; 10000000; 
4096; 4; 95; 4817; 3; 10000000; 
4096; 4; 100; 4875; 3; 10000000; 
4096; 4; 105; 4874; 3; 10000000; 
4096; 4; 110; 5235; 3; 10000000; 
4096; 4; 115; 5437; 3; 10000000; 
4096; 4; 120; 5641; 3; 10000000; 
4096; 4; 125; 5780; 3; 10000000; 
4096; 4; 130; 5905; 3; 10000000; 
4096; 4; 135; 5972; 3; 10000000; 
4096; 4; 140; 6129; 3; 10000000; 
4096; 4; 145; 6424; 3; 10000000; 
4096; 4; 150; 6640; 3; 10000000; 
4096; 4; 155; 6813; 3; 10000000; 
4096; 4; 160; 6966; 3; 10000000; 
4096; 4; 165; 7016; 3; 10000000; 
4096; 4; 170; 7311; 3; 10000000; 
4096; 4; 175; 7452; 3; 10000000; 
4096; 4; 180; 7637; 3; 10000000; 
4096; 4; 185; 7673; 3; 10000000; 
4096; 4; 190; 7861; 3; 10000000; 
4096; 4; 195; 7965; 3; 10000000; 
4096; 4; 200; 8408; 3; 10000000; 
4096; 4; 5; 1737; 4; 10000000; 
4096; 4; 10; 1910; 4; 10000000; 
4096; 4; 15; 2127; 4; 10000000; 
4096; 4; 20; 2220; 4; 10000000; 
4096; 4; 25; 2545; 4; 10000000; 
4096; 4; 30; 2551; 4; 10000000; 
4096; 4; 35; 2754; 4; 10000000; 
4096; 4; 40; 2856; 4; 10000000; 
4096; 4; 45; 2936; 4; 10000000; 
4096; 4; 50; 3311; 4; 10000000; 
4096; 4; 55; 3408; 4; 10000000; 
4096; 4; 60; 3607; 4; 10000000; 
4096; 4; 65; 3873; 4; 10000000; 
4096; 4; 70; 4062; 4; 10000000; 
4096; 4; 75; 4220; 4; 10000000; 
4096; 4; 80; 4284; 4; 10000000; 
4096; 4; 85; 4579; 4; 10000000; 
4096; 4; 90; 4713; 4; 10000000; 
4096; 4; 95; 4705; 4; 10000000; 
4096; 4; 100; 4701; 4; 10000000; 
4096; 4; 105; 4949; 4; 10000000; 
4096; 4; 110; 5266; 4; 10000000; 
4096; 4; 115; 5264; 4; 10000000; 
4096; 4; 120; 5451; 4; 10000000; 
4096; 4; 125; 5767; 4; 10000000; 
4096; 4; 130; 5779; 4; 10000000; 
4096; 4; 135; 6002; 4; 10000000; 
4096; 4; 140; 6082; 4; 10000000; 
4096; 4; 145; 6311; 4; 10000000; 
4096; 4; 150; 6577; 4; 10000000; 
4096; 4; 155; 6672; 4; 10000000; 
4096; 4; 160; 7047; 4; 10000000; 
4096; 4; 165; 6967; 4; 10000000; 
4096; 4; 170; 7219; 4; 10000000; 
4096; 4; 175; 7375; 4; 10000000; 
4096; 4; 180; 7517; 4; 10000000; 
4096; 4; 185; 7671; 4; 10000000; 
4096; 4; 190; 7795; 4; 10000000; 
4096; 4; 195; 8075; 4; 10000000; 
4096; 4; 200; 8174; 4; 10000000; 
4096; 4; 5; 1785; 5; 10000000; 
4096; 4; 10; 1658; 5; 10000000; 
4096; 4; 15; 2144; 5; 10000000; 
4096; 4; 20; 2312; 5; 10000000; 
4096; 4; 25; 2404; 5; 10000000; 
4096; 4; 30; 2685; 5; 10000000; 
4096; 4; 35; 2861; 5; 10000000; 
4096; 4; 40; 2999; 5; 10000000; 
4096; 4; 45; 3236; 5; 10000000; 
4096; 4; 50; 3251; 5; 10000000; 
4096; 4; 55; 3375; 5; 10000000; 
4096; 4; 60; 3483; 5; 10000000; 
4096; 4; 65; 3735; 5; 10000000; 
4096; 4; 70; 4035; 5; 10000000; 
4096; 4; 75; 4311; 5; 10000000; 
4096; 4; 80; 4187; 5; 10000000; 
4096; 4; 85; 4396; 5; 10000000; 
4096; 4; 90; 4702; 5; 10000000; 
4096; 4; 95; 4654; 5; 10000000; 
4096; 4; 100; 4861; 5; 10000000; 
4096; 4; 105; 5000; 5; 10000000; 
4096; 4; 110; 5128; 5; 10000000; 
4096; 4; 115; 5389; 5; 10000000; 
4096; 4; 120; 5547; 5; 10000000; 
4096; 4; 125; 5735; 5; 10000000; 
4096; 4; 130; 5957; 5; 10000000; 
4096; 4; 135; 6161; 5; 10000000; 
4096; 4; 140; 6311; 5; 10000000; 
4096; 4; 145; 6392; 5; 10000000; 
4096; 4; 150; 6628; 5; 10000000; 
4096; 4; 155; 6780; 5; 10000000; 
4096; 4; 160; 6861; 5; 10000000; 
4096; 4; 165; 7219; 5; 10000000; 
4096; 4; 170; 7187; 5; 10000000; 
4096; 4; 175; 7468; 5; 10000000; 
4096; 4; 180; 7640; 5; 10000000; 
4096; 4; 185; 7704; 5; 10000000; 
4096; 4; 190; 8003; 5; 10000000; 
4096; 4; 195; 7952; 5; 10000000; 
4096; 4; 200; 8111; 5; 10000000; 
4096; 4; 5; 1828; 6; 10000000; 
4096; 4; 10; 1923; 6; 10000000; 
4096; 4; 15; 2095; 6; 10000000; 
4096; 4; 20; 2237; 6; 10000000; 
4096; 4; 25; 2453; 6; 10000000; 
4096; 4; 30; 2591; 6; 10000000; 
4096; 4; 35; 2784; 6; 10000000; 
4096; 4; 40; 2889; 6; 10000000; 
4096; 4; 45; 3171; 6; 10000000; 
4096; 4; 50; 3250; 6; 10000000; 
4096; 4; 55; 3437; 6; 10000000; 
4096; 4; 60; 3448; 6; 10000000; 
4096; 4; 65; 3798; 6; 10000000; 
4096; 4; 70; 3873; 6; 10000000; 
4096; 4; 75; 4238; 6; 10000000; 
4096; 4; 80; 4297; 6; 10000000; 
4096; 4; 85; 4424; 6; 10000000; 
4096; 4; 90; 4506; 6; 10000000; 
4096; 4; 95; 4642; 6; 10000000; 
4096; 4; 100; 4841; 6; 10000000; 
4096; 4; 105; 4986; 6; 10000000; 
4096; 4; 110; 5157; 6; 10000000; 
4096; 4; 115; 5254; 6; 10000000; 
4096; 4; 120; 5528; 6; 10000000; 
4096; 4; 125; 5877; 6; 10000000; 
4096; 4; 130; 5762; 6; 10000000; 
4096; 4; 135; 5934; 6; 10000000; 
4096; 4; 140; 6188; 6; 10000000; 
4096; 4; 145; 6358; 6; 10000000; 
4096; 4; 150; 6562; 6; 10000000; 
4096; 4; 155; 6685; 6; 10000000; 
4096; 4; 160; 6999; 6; 10000000; 
4096; 4; 165; 7097; 6; 10000000; 
4096; 4; 170; 7122; 6; 10000000; 
4096; 4; 175; 7468; 6; 10000000; 
4096; 4; 180; 7595; 6; 10000000; 
4096; 4; 185; 7781; 6; 10000000; 
4096; 4; 190; 7797; 6; 10000000; 
4096; 4; 195; 7951; 6; 10000000; 
4096; 4; 200; 8127; 6; 10000000; 
