textSize; alphaSize; querySize; time; expCount; iterations;  
128; 4; 5; 1170; 0; 10000000;  
128; 4; 5; 1361; 1; 10000000;  
128; 4; 5; 1250; 2; 10000000;  
128; 4; 5; 1204; 3; 10000000;  
128; 4; 5; 1158; 4; 10000000;  
128; 4; 5; 1123; 5; 10000000;  
128; 4; 5; 1295; 6; 10000000;  
128; 4; 10; 1438; 0; 10000000;  
128; 4; 10; 1438; 1; 10000000;  
128; 4; 10; 1390; 2; 10000000;  
128; 4; 10; 1375; 3; 10000000;  
128; 4; 10; 1424; 4; 10000000;  
128; 4; 10; 1408; 5; 10000000;  
128; 4; 10; 1484; 6; 10000000;  
128; 4; 15; 1563; 0; 10000000;  
128; 4; 15; 1565; 1; 10000000;  
128; 4; 15; 1515; 2; 10000000;  
128; 4; 15; 1517; 3; 10000000;  
128; 4; 15; 1578; 4; 10000000;  
128; 4; 15; 1591; 5; 10000000;  
128; 4; 15; 1487; 6; 10000000;  
128; 4; 20; 1655; 0; 10000000;  
128; 4; 20; 1705; 1; 10000000;  
128; 4; 20; 1700; 2; 10000000;  
128; 4; 20; 1703; 3; 10000000;  
128; 4; 20; 1565; 4; 10000000;  
128; 4; 20; 1703; 5; 10000000;  
128; 4; 20; 1674; 6; 10000000;  
128; 4; 25; 1826; 0; 10000000;  
128; 4; 25; 1923; 1; 10000000;  
128; 4; 25; 1876; 2; 10000000;  
128; 4; 25; 1843; 3; 10000000;  
128; 4; 25; 1954; 4; 10000000;  
128; 4; 25; 1750; 5; 10000000;  
128; 4; 25; 1831; 6; 10000000;  
128; 4; 30; 1983; 0; 10000000;  
128; 4; 30; 2109; 1; 10000000;  
128; 4; 30; 2001; 2; 10000000;  
128; 4; 30; 2112; 3; 10000000;  
128; 4; 30; 2032; 4; 10000000;  
128; 4; 30; 1949; 5; 10000000;  
128; 4; 30; 2063; 6; 10000000;  
128; 4; 35; 2146; 0; 10000000;  
128; 4; 35; 2029; 1; 10000000;  
128; 4; 35; 2140; 2; 10000000;  
128; 4; 35; 2217; 3; 10000000;  
128; 4; 35; 2049; 4; 10000000;  
128; 4; 35; 2144; 5; 10000000;  
128; 4; 35; 2218; 6; 10000000;  
128; 4; 40; 2314; 0; 10000000;  
128; 4; 40; 2253; 1; 10000000;  
128; 4; 40; 2423; 2; 10000000;  
128; 4; 40; 2329; 3; 10000000;  
128; 4; 40; 2376; 4; 10000000;  
128; 4; 40; 2376; 5; 10000000;  
128; 4; 40; 2251; 6; 10000000;  
128; 4; 45; 2547; 0; 10000000;  
128; 4; 45; 2519; 1; 10000000;  
128; 4; 45; 2564; 2; 10000000;  
128; 4; 45; 2505; 3; 10000000;  
128; 4; 45; 2516; 4; 10000000;  
128; 4; 45; 2518; 5; 10000000;  
128; 4; 45; 2469; 6; 10000000;  
128; 4; 50; 2753; 0; 10000000;  
128; 4; 50; 2623; 1; 10000000;  
128; 4; 50; 2738; 2; 10000000;  
128; 4; 50; 2574; 3; 10000000;  
128; 4; 50; 2641; 4; 10000000;  
128; 4; 50; 2646; 5; 10000000;  
128; 4; 50; 2732; 6; 10000000;  
128; 4; 55; 2824; 0; 10000000;  
128; 4; 55; 2811; 1; 10000000;  
128; 4; 55; 2812; 2; 10000000;  
128; 4; 55; 2673; 3; 10000000;  
128; 4; 55; 2687; 4; 10000000;  
128; 4; 55; 2765; 5; 10000000;  
128; 4; 55; 2752; 6; 10000000;  
128; 4; 60; 2888; 0; 10000000;  
128; 4; 60; 2969; 1; 10000000;  
128; 4; 60; 3061; 2; 10000000;  
128; 4; 60; 2917; 3; 10000000;  
128; 4; 60; 2998; 4; 10000000;  
128; 4; 60; 2940; 5; 10000000;  
128; 4; 60; 2921; 6; 10000000;  
128; 4; 65; 3222; 0; 10000000;  
128; 4; 65; 3229; 1; 10000000;  
128; 4; 65; 3295; 2; 10000000;  
128; 4; 65; 3296; 3; 10000000;  
128; 4; 65; 3248; 4; 10000000;  
128; 4; 65; 3280; 5; 10000000;  
128; 4; 65; 3262; 6; 10000000;  
128; 4; 70; 3342; 0; 10000000;  
128; 4; 70; 3456; 1; 10000000;  
128; 4; 70; 3456; 2; 10000000;  
128; 4; 70; 3388; 3; 10000000;  
128; 4; 70; 3361; 4; 10000000;  
128; 4; 70; 3470; 5; 10000000;  
128; 4; 70; 3379; 6; 10000000;  
128; 4; 75; 3656; 0; 10000000;  
128; 4; 75; 3626; 1; 10000000;  
128; 4; 75; 3718; 2; 10000000;  
128; 4; 75; 3632; 3; 10000000;  
128; 4; 75; 3558; 4; 10000000;  
128; 4; 75; 3534; 5; 10000000;  
128; 4; 75; 3500; 6; 10000000;  
128; 4; 80; 3796; 0; 10000000;  
128; 4; 80; 3734; 1; 10000000;  
128; 4; 80; 3766; 2; 10000000;  
128; 4; 80; 3717; 3; 10000000;  
128; 4; 80; 3751; 4; 10000000;  
128; 4; 80; 3687; 5; 10000000;  
128; 4; 80; 3720; 6; 10000000;  
128; 4; 85; 3895; 0; 10000000;  
128; 4; 85; 3938; 1; 10000000;  
128; 4; 85; 3968; 2; 10000000;  
128; 4; 85; 3895; 3; 10000000;  
128; 4; 85; 3873; 4; 10000000;  
128; 4; 85; 3907; 5; 10000000;  
128; 4; 85; 3937; 6; 10000000;  
128; 4; 90; 4046; 0; 10000000;  
128; 4; 90; 4159; 1; 10000000;  
128; 4; 90; 4140; 2; 10000000;  
128; 4; 90; 4079; 3; 10000000;  
128; 4; 90; 4108; 4; 10000000;  
128; 4; 90; 4188; 5; 10000000;  
128; 4; 90; 4125; 6; 10000000;  
128; 4; 95; 4046; 0; 10000000;  
128; 4; 95; 4156; 1; 10000000;  
128; 4; 95; 4109; 2; 10000000;  
128; 4; 95; 4063; 3; 10000000;  
128; 4; 95; 4093; 4; 10000000;  
128; 4; 95; 4073; 5; 10000000;  
128; 4; 95; 4142; 6; 10000000;  
128; 4; 100; 4426; 0; 10000000;  
128; 4; 100; 4248; 1; 10000000;  
128; 4; 100; 4283; 2; 10000000;  
128; 4; 100; 4285; 3; 10000000;  
128; 4; 100; 4294; 4; 10000000;  
128; 4; 100; 4263; 5; 10000000;  
128; 4; 100; 4282; 6; 10000000;  
128; 4; 105; 4358; 0; 10000000;  
128; 4; 105; 4425; 1; 10000000;  
128; 4; 105; 4482; 2; 10000000;  
128; 4; 105; 4472; 3; 10000000;  
128; 4; 105; 4562; 4; 10000000;  
128; 4; 105; 4422; 5; 10000000;  
128; 4; 105; 4280; 6; 10000000;  
128; 4; 110; 4501; 0; 10000000;  
128; 4; 110; 4657; 1; 10000000;  
128; 4; 110; 4482; 2; 10000000;  
128; 4; 110; 4548; 3; 10000000;  
128; 4; 110; 4609; 4; 10000000;  
128; 4; 110; 4581; 5; 10000000;  
128; 4; 110; 4735; 6; 10000000;  
128; 4; 115; 4753; 0; 10000000;  
128; 4; 115; 4405; 1; 10000000;  
128; 4; 115; 4878; 2; 10000000;  
128; 4; 115; 4815; 3; 10000000;  
128; 4; 115; 4721; 4; 10000000;  
128; 4; 115; 4896; 5; 10000000;  
128; 4; 115; 4936; 6; 10000000;  
128; 4; 120; 4953; 0; 10000000;  
128; 4; 120; 4924; 1; 10000000;  
128; 4; 120; 4936; 2; 10000000;  
128; 4; 120; 4798; 3; 10000000;  
128; 4; 120; 4906; 4; 10000000;  
128; 4; 120; 5076; 5; 10000000;  
128; 4; 120; 4985; 6; 10000000;  
128; 4; 125; 5156; 0; 10000000;  
128; 4; 125; 5235; 1; 10000000;  
128; 4; 125; 5032; 2; 10000000;  
128; 4; 125; 5093; 3; 10000000;  
128; 4; 125; 5043; 4; 10000000;  
128; 4; 125; 5091; 5; 10000000;  
128; 4; 125; 5031; 6; 10000000;  
132; 4; 130; 5279; 0; 10000000;  
132; 4; 130; 5363; 1; 10000000;  
132; 4; 130; 5375; 2; 10000000;  
132; 4; 130; 5405; 3; 10000000;  
132; 4; 130; 5421; 4; 10000000;  
132; 4; 130; 5373; 5; 10000000;  
132; 4; 130; 5311; 6; 10000000;  
137; 4; 135; 5391; 0; 10000000;  
137; 4; 135; 5474; 1; 10000000;  
137; 4; 135; 5455; 2; 10000000;  
137; 4; 135; 5425; 3; 10000000;  
137; 4; 135; 5467; 4; 10000000;  
137; 4; 135; 5575; 5; 10000000;  
137; 4; 135; 5453; 6; 10000000;  
142; 4; 140; 5748; 0; 10000000;  
142; 4; 140; 5780; 1; 10000000;  
142; 4; 140; 5752; 2; 10000000;  
142; 4; 140; 5879; 3; 10000000;  
142; 4; 140; 5780; 4; 10000000;  
142; 4; 140; 5832; 5; 10000000;  
142; 4; 140; 5749; 6; 10000000;  
147; 4; 145; 5889; 0; 10000000;  
147; 4; 145; 5849; 1; 10000000;  
147; 4; 145; 5906; 2; 10000000;  
147; 4; 145; 5922; 3; 10000000;  
147; 4; 145; 5827; 4; 10000000;  
147; 4; 145; 5828; 5; 10000000;  
147; 4; 145; 5872; 6; 10000000;  
152; 4; 150; 6029; 0; 10000000;  
152; 4; 150; 6015; 1; 10000000;  
152; 4; 150; 6001; 2; 10000000;  
152; 4; 150; 6126; 3; 10000000;  
152; 4; 150; 5983; 4; 10000000;  
152; 4; 150; 6021; 5; 10000000;  
152; 4; 150; 6139; 6; 10000000;  
157; 4; 155; 6129; 0; 10000000;  
157; 4; 155; 6206; 1; 10000000;  
157; 4; 155; 6125; 2; 10000000;  
157; 4; 155; 6156; 3; 10000000;  
157; 4; 155; 6013; 4; 10000000;  
157; 4; 155; 6139; 5; 10000000;  
157; 4; 155; 6172; 6; 10000000;  
162; 4; 160; 6424; 0; 10000000;  
162; 4; 160; 6325; 1; 10000000;  
162; 4; 160; 6469; 2; 10000000;  
162; 4; 160; 6297; 3; 10000000;  
162; 4; 160; 6427; 4; 10000000;  
162; 4; 160; 6343; 5; 10000000;  
162; 4; 160; 6317; 6; 10000000;  
167; 4; 165; 6515; 0; 10000000;  
167; 4; 165; 6581; 1; 10000000;  
167; 4; 165; 6517; 2; 10000000;  
167; 4; 165; 6534; 3; 10000000;  
167; 4; 165; 6629; 4; 10000000;  
167; 4; 165; 6706; 5; 10000000;  
167; 4; 165; 6531; 6; 10000000;  
172; 4; 170; 6734; 0; 10000000;  
172; 4; 170; 6610; 1; 10000000;  
172; 4; 170; 6768; 2; 10000000;  
172; 4; 170; 6608; 3; 10000000;  
172; 4; 170; 6750; 4; 10000000;  
172; 4; 170; 6657; 5; 10000000;  
172; 4; 170; 6660; 6; 10000000;  
177; 4; 175; 6817; 0; 10000000;  
177; 4; 175; 6905; 1; 10000000;  
177; 4; 175; 6781; 2; 10000000;  
177; 4; 175; 6860; 3; 10000000;  
177; 4; 175; 6814; 4; 10000000;  
177; 4; 175; 6783; 5; 10000000;  
177; 4; 175; 6669; 6; 10000000;  
182; 4; 180; 7123; 0; 10000000;  
182; 4; 180; 6952; 1; 10000000;  
182; 4; 180; 6954; 2; 10000000;  
182; 4; 180; 7015; 3; 10000000;  
182; 4; 180; 6986; 4; 10000000;  
182; 4; 180; 7011; 5; 10000000;  
182; 4; 180; 6876; 6; 10000000;  
187; 4; 185; 7248; 0; 10000000;  
187; 4; 185; 7126; 1; 10000000;  
187; 4; 185; 7143; 2; 10000000;  
187; 4; 185; 7188; 3; 10000000;  
187; 4; 185; 7081; 4; 10000000;  
187; 4; 185; 7313; 5; 10000000;  
187; 4; 185; 7282; 6; 10000000;  
192; 4; 190; 7390; 0; 10000000;  
192; 4; 190; 7280; 1; 10000000;  
192; 4; 190; 7282; 2; 10000000;  
192; 4; 190; 7189; 3; 10000000;  
192; 4; 190; 7375; 4; 10000000;  
192; 4; 190; 7312; 5; 10000000;  
192; 4; 190; 7221; 6; 10000000;  
197; 4; 195; 7502; 0; 10000000;  
197; 4; 195; 7655; 1; 10000000;  
197; 4; 195; 7519; 2; 10000000;  
197; 4; 195; 7390; 3; 10000000;  
197; 4; 195; 7407; 4; 10000000;  
197; 4; 195; 7422; 5; 10000000;  
197; 4; 195; 7443; 6; 10000000;  
202; 4; 200; 7546; 0; 10000000;  
202; 4; 200; 7798; 1; 10000000;  
202; 4; 200; 7674; 2; 10000000;  
202; 4; 200; 7595; 3; 10000000;  
202; 4; 200; 7627; 4; 10000000;  
202; 4; 200; 7563; 5; 10000000;  
202; 4; 200; 7515; 6; 10000000;  
