textSize; alphaSize; querySize; time; expCount; iterations; 
200000; 2; 50; 2093; 0; 4000000; 
200000; 2; 100; 3963; 0; 4000000; 
200000; 2; 150; 5015; 0; 4000000; 
200000; 2; 200; 6749; 0; 4000000; 
200000; 2; 250; 8934; 0; 4000000; 
200000; 2; 300; 10553; 0; 4000000; 
200000; 2; 350; 12655; 0; 4000000; 
200000; 2; 400; 14083; 0; 4000000; 
200000; 2; 450; 16139; 0; 4000000; 
200000; 2; 500; 17375; 0; 4000000; 
200000; 2; 550; 19224; 0; 4000000; 
200000; 2; 600; 21424; 0; 4000000; 
200000; 2; 650; 23442; 0; 4000000; 
200000; 2; 700; 24472; 0; 4000000; 
200000; 2; 750; 27172; 0; 4000000; 
200000; 2; 800; 27755; 0; 4000000; 
200000; 2; 850; 29983; 0; 4000000; 
200000; 2; 900; 32029; 0; 4000000; 
200000; 2; 950; 33302; 0; 4000000; 
200000; 2; 1000; 34555; 0; 4000000; 
200000; 2; 1050; 36470; 0; 4000000; 
200000; 2; 1100; 38805; 0; 4000000; 
200000; 2; 1150; 41724; 0; 4000000; 
200000; 2; 1200; 41877; 0; 4000000; 
200000; 2; 1250; 44791; 0; 4000000; 
200000; 2; 1300; 46029; 0; 4000000; 
200000; 2; 1350; 46893; 0; 4000000; 
200000; 2; 1400; 49937; 0; 4000000; 
200000; 2; 1450; 50651; 0; 4000000; 
200000; 2; 1500; 53528; 0; 4000000; 
200000; 2; 50; 2099; 1; 4000000; 
200000; 2; 100; 3878; 1; 4000000; 
200000; 2; 150; 5184; 1; 4000000; 
200000; 2; 200; 6405; 1; 4000000; 
200000; 2; 250; 8816; 1; 4000000; 
200000; 2; 300; 10099; 1; 4000000; 
200000; 2; 350; 11799; 1; 4000000; 
200000; 2; 400; 14467; 1; 4000000; 
200000; 2; 450; 15486; 1; 4000000; 
200000; 2; 500; 18586; 1; 4000000; 
200000; 2; 550; 18985; 1; 4000000; 
200000; 2; 600; 20385; 1; 4000000; 
200000; 2; 650; 24160; 1; 4000000; 
200000; 2; 700; 24467; 1; 4000000; 
200000; 2; 750; 25963; 1; 4000000; 
200000; 2; 800; 28697; 1; 4000000; 
200000; 2; 850; 30443; 1; 4000000; 
200000; 2; 900; 33453; 1; 4000000; 
200000; 2; 950; 32526; 1; 4000000; 
200000; 2; 1000; 34290; 1; 4000000; 
200000; 2; 1050; 36330; 1; 4000000; 
200000; 2; 1100; 39163; 1; 4000000; 
200000; 2; 1150; 39998; 1; 4000000; 
200000; 2; 1200; 41468; 1; 4000000; 
200000; 2; 1250; 43874; 1; 4000000; 
200000; 2; 1300; 45486; 1; 4000000; 
200000; 2; 1350; 47639; 1; 4000000; 
200000; 2; 1400; 49320; 1; 4000000; 
200000; 2; 1450; 51423; 1; 4000000; 
200000; 2; 1500; 52732; 1; 4000000; 
200000; 2; 50; 2044; 2; 4000000; 
200000; 2; 100; 3810; 2; 4000000; 
200000; 2; 150; 5376; 2; 4000000; 
200000; 2; 200; 7256; 2; 4000000; 
200000; 2; 250; 8996; 2; 4000000; 
200000; 2; 300; 10388; 2; 4000000; 
200000; 2; 350; 12404; 2; 4000000; 
200000; 2; 400; 13878; 2; 4000000; 
200000; 2; 450; 15910; 2; 4000000; 
200000; 2; 500; 16982; 2; 4000000; 
200000; 2; 550; 19789; 2; 4000000; 
200000; 2; 600; 22042; 2; 4000000; 
200000; 2; 650; 22481; 2; 4000000; 
200000; 2; 700; 25956; 2; 4000000; 
200000; 2; 750; 26772; 2; 4000000; 
200000; 2; 800; 28390; 2; 4000000; 
200000; 2; 850; 30650; 2; 4000000; 
200000; 2; 900; 31444; 2; 4000000; 
200000; 2; 950; 34150; 2; 4000000; 
200000; 2; 1000; 34270; 2; 4000000; 
200000; 2; 1050; 36840; 2; 4000000; 
200000; 2; 1100; 38585; 2; 4000000; 
200000; 2; 1150; 40637; 2; 4000000; 
200000; 2; 1200; 43775; 2; 4000000; 
200000; 2; 1250; 43391; 2; 4000000; 
200000; 2; 1300; 47645; 2; 4000000; 
200000; 2; 1350; 47115; 2; 4000000; 
200000; 2; 1400; 49766; 2; 4000000; 
200000; 2; 1450; 50827; 2; 4000000; 
200000; 2; 1500; 51836; 2; 4000000; 
200000; 2; 50; 1950; 3; 4000000; 
200000; 2; 100; 3557; 3; 4000000; 
200000; 2; 150; 5381; 3; 4000000; 
200000; 2; 200; 7810; 3; 4000000; 
200000; 2; 250; 8835; 3; 4000000; 
200000; 2; 300; 10279; 3; 4000000; 
200000; 2; 350; 13056; 3; 4000000; 
200000; 2; 400; 14629; 3; 4000000; 
200000; 2; 450; 16398; 3; 4000000; 
200000; 2; 500; 18510; 3; 4000000; 
200000; 2; 550; 19209; 3; 4000000; 
200000; 2; 600; 21514; 3; 4000000; 
200000; 2; 650; 23285; 3; 4000000; 
200000; 2; 700; 24532; 3; 4000000; 
200000; 2; 750; 26395; 3; 4000000; 
200000; 2; 800; 28123; 3; 4000000; 
200000; 2; 850; 30907; 3; 4000000; 
200000; 2; 900; 31056; 3; 4000000; 
200000; 2; 950; 33271; 3; 4000000; 
200000; 2; 1000; 34545; 3; 4000000; 
200000; 2; 1050; 37903; 3; 4000000; 
200000; 2; 1100; 38548; 3; 4000000; 
200000; 2; 1150; 40023; 3; 4000000; 
200000; 2; 1200; 41962; 3; 4000000; 
200000; 2; 1250; 43783; 3; 4000000; 
200000; 2; 1300; 44414; 3; 4000000; 
200000; 2; 1350; 48626; 3; 4000000; 
200000; 2; 1400; 50271; 3; 4000000; 
200000; 2; 1450; 51909; 3; 4000000; 
200000; 2; 1500; 55002; 3; 4000000; 
200000; 2; 50; 1834; 4; 4000000; 
200000; 2; 100; 3674; 4; 4000000; 
200000; 2; 150; 5199; 4; 4000000; 
200000; 2; 200; 7766; 4; 4000000; 
200000; 2; 250; 9126; 4; 4000000; 
200000; 2; 300; 10287; 4; 4000000; 
200000; 2; 350; 12233; 4; 4000000; 
200000; 2; 400; 13516; 4; 4000000; 
200000; 2; 450; 15280; 4; 4000000; 
200000; 2; 500; 17502; 4; 4000000; 
200000; 2; 550; 19932; 4; 4000000; 
200000; 2; 600; 20797; 4; 4000000; 
200000; 2; 650; 23232; 4; 4000000; 
200000; 2; 700; 24787; 4; 4000000; 
200000; 2; 750; 26029; 4; 4000000; 
200000; 2; 800; 27560; 4; 4000000; 
200000; 2; 850; 33262; 4; 4000000; 
200000; 2; 900; 37734; 4; 4000000; 
200000; 2; 950; 35940; 4; 4000000; 
200000; 2; 1000; 35500; 4; 4000000; 
200000; 2; 1050; 37391; 4; 4000000; 
200000; 2; 1100; 39726; 4; 4000000; 
200000; 2; 1150; 40788; 4; 4000000; 
200000; 2; 1200; 40577; 4; 4000000; 
200000; 2; 1250; 44283; 4; 4000000; 
200000; 2; 1300; 46924; 4; 4000000; 
200000; 2; 1350; 46407; 4; 4000000; 
200000; 2; 1400; 50110; 4; 4000000; 
200000; 2; 1450; 49937; 4; 4000000; 
200000; 2; 1500; 54975; 4; 4000000; 
200000; 2; 50; 1973; 5; 4000000; 
200000; 2; 100; 3792; 5; 4000000; 
200000; 2; 150; 5889; 5; 4000000; 
200000; 2; 200; 7373; 5; 4000000; 
200000; 2; 250; 8831; 5; 4000000; 
200000; 2; 300; 10498; 5; 4000000; 
200000; 2; 350; 12688; 5; 4000000; 
200000; 2; 400; 14679; 5; 4000000; 
200000; 2; 450; 15693; 5; 4000000; 
200000; 2; 500; 18940; 5; 4000000; 
200000; 2; 550; 19578; 5; 4000000; 
200000; 2; 600; 21503; 5; 4000000; 
200000; 2; 650; 22744; 5; 4000000; 
200000; 2; 700; 24757; 5; 4000000; 
200000; 2; 750; 26569; 5; 4000000; 
200000; 2; 800; 27786; 5; 4000000; 
200000; 2; 850; 29510; 5; 4000000; 
200000; 2; 900; 31805; 5; 4000000; 
200000; 2; 950; 33238; 5; 4000000; 
200000; 2; 1000; 34476; 5; 4000000; 
200000; 2; 1050; 37085; 5; 4000000; 
200000; 2; 1100; 38546; 5; 4000000; 
200000; 2; 1150; 41265; 5; 4000000; 
200000; 2; 1200; 41885; 5; 4000000; 
200000; 2; 1250; 43434; 5; 4000000; 
200000; 2; 1300; 46426; 5; 4000000; 
200000; 2; 1350; 46305; 5; 4000000; 
200000; 2; 1400; 49459; 5; 4000000; 
200000; 2; 1450; 52426; 5; 4000000; 
200000; 2; 1500; 53284; 5; 4000000; 
200000; 2; 50; 1740; 6; 4000000; 
200000; 2; 100; 3483; 6; 4000000; 
200000; 2; 150; 5883; 6; 4000000; 
200000; 2; 200; 8068; 6; 4000000; 
200000; 2; 250; 8662; 6; 4000000; 
200000; 2; 300; 10405; 6; 4000000; 
200000; 2; 350; 12405; 6; 4000000; 
200000; 2; 400; 14600; 6; 4000000; 
200000; 2; 450; 15798; 6; 4000000; 
200000; 2; 500; 17185; 6; 4000000; 
200000; 2; 550; 19429; 6; 4000000; 
200000; 2; 600; 20810; 6; 4000000; 
200000; 2; 650; 23178; 6; 4000000; 
200000; 2; 700; 25515; 6; 4000000; 
200000; 2; 750; 27150; 6; 4000000; 
200000; 2; 800; 28706; 6; 4000000; 
200000; 2; 850; 30672; 6; 4000000; 
200000; 2; 900; 31746; 6; 4000000; 
200000; 2; 950; 33712; 6; 4000000; 
200000; 2; 1000; 36149; 6; 4000000; 
200000; 2; 1050; 37612; 6; 4000000; 
200000; 2; 1100; 38977; 6; 4000000; 
200000; 2; 1150; 41804; 6; 4000000; 
200000; 2; 1200; 42027; 6; 4000000; 
200000; 2; 1250; 45262; 6; 4000000; 
200000; 2; 1300; 45662; 6; 4000000; 
200000; 2; 1350; 47698; 6; 4000000; 
200000; 2; 1400; 48653; 6; 4000000; 
200000; 2; 1450; 52126; 6; 4000000; 
200000; 2; 1500; 52490; 6; 4000000; 
