textSize; alphaSize; querySize; time; expCount; iterations;   avgTime; standardDeviation; relativeStdDev; graphAvg; 
200000; 2; 50; 2044; 2; 4000000;    1908.2; 107.87474217813919;  5.6532199024284235; 35.77019364364427; 
200000; 2; 100; 3810; 2; 4000000;    3663.2; 128.0677945464823;  3.496063402120613; 35.77019364364427; 
200000; 2; 150; 5376; 2; 4000000;    5545.6; 285.5700264383501;  5.149488359029683; 35.77019364364427; 
200000; 2; 200; 7256; 2; 4000000;    7654.6; 298.5428612444116;  3.9001758582344155; 35.77019364364427; 
200000; 2; 250; 8996; 2; 4000000;    8890.0; 158.38055436195444;  1.7815585417542683; 35.77019364364427; 
200000; 2; 300; 10388; 2; 4000000;    10371.4; 81.35502442996375;  0.7844169970299454; 35.77019364364427; 
200000; 2; 350; 12404; 2; 4000000;    12557.2; 289.0158473163712;  2.30159468126948; 35.77019364364427; 
200000; 2; 400; 13878; 2; 4000000;    14260.4; 474.7170104388508;  3.328917915618432; 35.77019364364427; 
200000; 2; 450; 15910; 2; 4000000;    15815.8; 360.6407630870365;  2.280256219015393; 35.77019364364427; 
200000; 2; 500; 16982; 2; 4000000;    17823.8; 766.4229641653491;  4.2999975547602025; 35.77019364364427; 
200000; 2; 550; 19789; 2; 4000000;    19587.4; 256.03015447403845;  1.3071165875717983; 35.77019364364427; 
200000; 2; 600; 22042; 2; 4000000;    21333.2; 474.3768122495028;  2.2236552052645773; 35.77019364364427; 
200000; 2; 650; 22481; 2; 4000000;    22984.0; 316.33842637276933;  1.376341917737423; 35.77019364364427; 
200000; 2; 700; 25956; 2; 4000000;    25109.4; 537.1705874301011;  2.13932068241416; 35.77019364364427; 
200000; 2; 750; 26772; 2; 4000000;    26583.0; 374.07646277198467;  1.4072018311401446; 35.77019364364427; 
200000; 2; 800; 28390; 2; 4000000;    28113.0; 410.1745969706071;  1.4590210826685417; 35.77019364364427; 
200000; 2; 850; 30650; 2; 4000000;    31000.2; 1230.8920992515957;  3.9705940582692874; 35.77019364364427; 
200000; 2; 900; 31444; 2; 4000000;    32757.0; 2502.6515538524336;  7.640051145869382; 35.77019364364427; 
200000; 2; 950; 34150; 2; 4000000;    34062.2; 996.1711499536614;  2.924564913463198; 35.77019364364427; 
200000; 2; 1000; 34270; 2; 4000000;    34988.0; 718.8855263531184;  2.054663102644102; 35.77019364364427; 
200000; 2; 1050; 36840; 2; 4000000;    37366.2; 375.5387596507183;  1.0050226130854043; 35.77019364364427; 
200000; 2; 1100; 38585; 2; 4000000;    38876.4; 454.7230365838089;  1.169663437416553; 35.77019364364427; 
200000; 2; 1150; 40637; 2; 4000000;    40903.4; 600.2041652637876;  1.467369864763779; 35.77019364364427; 
200000; 2; 1200; 43775; 2; 4000000;    42045.2; 1017.9132379530193;  2.4209974930622744; 35.77019364364427; 
200000; 2; 1250; 43391; 2; 4000000;    44030.6; 693.7401819125083;  1.5755864828380908; 35.77019364364427; 
200000; 2; 1300; 47645; 2; 4000000;    46214.2; 1108.2877604665675;  2.3981541614191473; 35.77019364364427; 
200000; 2; 1350; 47115; 2; 4000000;    47230.2; 861.8606383865085;  1.8248083607236651; 35.77019364364427; 
200000; 2; 1400; 49766; 2; 4000000;    49651.8; 572.9172366057771;  1.1538700240591018; 35.77019364364427; 
200000; 2; 1450; 50827; 2; 4000000;    51445.0; 927.0820891377418;  1.8020839520609229; 35.77019364364427; 
200000; 2; 1500; 51836; 2; 4000000;    53517.4; 1285.7501468014693;  2.40248993187537; 35.77019364364427; 
