textSize; alphaSize; querySize; time; expCount; iterations;   avgTime; standardDeviation; relativeStdDev; 
200000; 2; 50; 2609; 2; 4000000;    2556.0; 122.60179444037514;  4.796627325523285; 
200000; 2; 100; 5145; 2; 4000000;    5135.6; 161.73138223610158;  3.149220777243196; 
200000; 2; 150; 7512; 2; 4000000;    7317.0; 412.11212066620897;  5.632255304991239; 
200000; 2; 200; 9073; 2; 4000000;    8838.2; 347.12038257641973;  3.9275008777400338; 
200000; 2; 250; 12132; 2; 4000000;    11317.0; 525.4000380662338;  4.642573456448121; 
200000; 2; 300; 13296; 2; 4000000;    13029.8; 375.50307588620365;  2.8818790456200687; 
200000; 2; 350; 14748; 2; 4000000;    14751.0; 232.0;  1.5727747271371433; 
200000; 2; 400; 17262; 2; 4000000;    17066.6; 466.38379045588624;  2.732728196921978; 
200000; 2; 450; 19659; 2; 4000000;    18920.0; 429.25982807618976;  2.268815158965062; 
200000; 2; 500; 20377; 2; 4000000;    21038.4; 623.2802259016404;  2.962583779667847; 
200000; 2; 550; 23909; 2; 4000000;    23102.0; 596.7837129144863;  2.5832556181910062; 
200000; 2; 600; 25059; 2; 4000000;    24870.0; 571.4325857001857;  2.297678269803722; 
200000; 2; 650; 27522; 2; 4000000;    27309.2; 864.9155796954983;  3.167121628226013; 
200000; 2; 700; 29033; 2; 4000000;    29110.8; 367.33113126986666;  1.2618379820199606; 
200000; 2; 750; 31394; 2; 4000000;    30443.6; 691.6888317733632;  2.2720336352250166; 
200000; 2; 800; 32862; 2; 4000000;    32413.8; 323.5808399766587;  0.998281102421372; 
200000; 2; 850; 34527; 2; 4000000;    35045.6; 636.1812949152152;  1.815295771552535; 
200000; 2; 900; 37290; 2; 4000000;    36912.6; 905.3621595803527;  2.452718474397232; 
200000; 2; 950; 40658; 2; 4000000;    39416.6; 685.2286041898718;  1.7384264603996078; 
200000; 2; 1000; 44566; 2; 4000000;    41713.6; 1497.7103324742068;  3.5904605032272614; 
200000; 2; 1050; 48306; 2; 4000000;    44170.0; 2149.405778348984;  4.866211859517736; 
200000; 2; 1100; 51195; 2; 4000000;    46272.2; 2560.450772813256;  5.53345372126948; 
200000; 2; 1150; 48272; 2; 4000000;    47136.0; 803.2620991930343;  1.7041371758168582; 
200000; 2; 1200; 49731; 2; 4000000;    48965.4; 821.6292594595204;  1.677979265888812; 
200000; 2; 1250; 51882; 2; 4000000;    51189.6; 499.92983507688353;  0.9766238358511955; 
200000; 2; 1300; 52772; 2; 4000000;    53082.4; 184.93523190565935;  0.34839274770104467; 
200000; 2; 1350; 55707; 2; 4000000;    55052.6; 690.756860262712;  1.2547215940077527; 
200000; 2; 1400; 56906; 2; 4000000;    56900.8; 333.3187063457435;  0.5857891388974206; 
200000; 2; 1450; 58012; 2; 4000000;    59196.6; 700.3857794101763;  1.183152038141002; 
200000; 2; 1500; 61943; 2; 4000000;    61537.8; 383.3094833160275;  0.6228846063980634; 
