textSize; alphaSize; querySize; time; expCount; iterations;   
200000; 2; 50; 2609; 2; 4000000;   
200000; 2; 50; 2397; 3; 4000000;   
200000; 2; 50; 2711; 4; 4000000;   
200000; 2; 50; 2427; 5; 4000000;   
200000; 2; 50; 2636; 6; 4000000;   
200000; 2; 100; 5145; 2; 4000000;   
200000; 2; 100; 5133; 3; 4000000;   
200000; 2; 100; 4842; 4; 4000000;   
200000; 2; 100; 5320; 5; 4000000;   
200000; 2; 100; 5238; 6; 4000000;   
200000; 2; 150; 7512; 2; 4000000;   
200000; 2; 150; 6607; 3; 4000000;   
200000; 2; 150; 7688; 4; 4000000;   
200000; 2; 150; 7107; 5; 4000000;   
200000; 2; 150; 7671; 6; 4000000;   
200000; 2; 200; 9073; 2; 4000000;   
200000; 2; 200; 8538; 3; 4000000;   
200000; 2; 200; 8719; 4; 4000000;   
200000; 2; 200; 8469; 5; 4000000;   
200000; 2; 200; 9392; 6; 4000000;   
200000; 2; 250; 12132; 2; 4000000;   
200000; 2; 250; 11554; 3; 4000000;   
200000; 2; 250; 10535; 4; 4000000;   
200000; 2; 250; 11259; 5; 4000000;   
200000; 2; 250; 11105; 6; 4000000;   
200000; 2; 300; 13296; 2; 4000000;   
200000; 2; 300; 12327; 3; 4000000;   
200000; 2; 300; 13326; 4; 4000000;   
200000; 2; 300; 12954; 5; 4000000;   
200000; 2; 300; 13246; 6; 4000000;   
200000; 2; 350; 14748; 2; 4000000;   
200000; 2; 350; 15100; 3; 4000000;   
200000; 2; 350; 14657; 4; 4000000;   
200000; 2; 350; 14856; 5; 4000000;   
200000; 2; 350; 14394; 6; 4000000;   
200000; 2; 400; 17262; 2; 4000000;   
200000; 2; 400; 16393; 3; 4000000;   
200000; 2; 400; 17187; 4; 4000000;   
200000; 2; 400; 17754; 5; 4000000;   
200000; 2; 400; 16737; 6; 4000000;   
200000; 2; 450; 19659; 2; 4000000;   
200000; 2; 450; 18629; 3; 4000000;   
200000; 2; 450; 18619; 4; 4000000;   
200000; 2; 450; 19154; 5; 4000000;   
200000; 2; 450; 18539; 6; 4000000;   
200000; 2; 500; 20377; 2; 4000000;   
200000; 2; 500; 21616; 3; 4000000;   
200000; 2; 500; 21219; 4; 4000000;   
200000; 2; 500; 20237; 5; 4000000;   
200000; 2; 500; 21743; 6; 4000000;   
200000; 2; 550; 23909; 2; 4000000;   
200000; 2; 550; 23371; 3; 4000000;   
200000; 2; 550; 22544; 4; 4000000;   
200000; 2; 550; 23396; 5; 4000000;   
200000; 2; 550; 22290; 6; 4000000;   
200000; 2; 600; 25059; 2; 4000000;   
200000; 2; 600; 24137; 3; 4000000;   
200000; 2; 600; 25331; 4; 4000000;   
200000; 2; 600; 25561; 5; 4000000;   
200000; 2; 600; 24262; 6; 4000000;   
200000; 2; 650; 27522; 2; 4000000;   
200000; 2; 650; 27537; 3; 4000000;   
200000; 2; 650; 28090; 4; 4000000;   
200000; 2; 650; 25629; 5; 4000000;   
200000; 2; 650; 27768; 6; 4000000;   
200000; 2; 700; 29033; 2; 4000000;   
200000; 2; 700; 28729; 3; 4000000;   
200000; 2; 700; 29580; 4; 4000000;   
200000; 2; 700; 28717; 5; 4000000;   
200000; 2; 700; 29495; 6; 4000000;   
200000; 2; 750; 31394; 2; 4000000;   
200000; 2; 750; 29827; 3; 4000000;   
200000; 2; 750; 29741; 4; 4000000;   
200000; 2; 750; 30105; 5; 4000000;   
200000; 2; 750; 31151; 6; 4000000;   
200000; 2; 800; 32862; 2; 4000000;   
200000; 2; 800; 32105; 3; 4000000;   
200000; 2; 800; 32174; 4; 4000000;   
200000; 2; 800; 32177; 5; 4000000;   
200000; 2; 800; 32751; 6; 4000000;   
200000; 2; 850; 34527; 2; 4000000;   
200000; 2; 850; 36099; 3; 4000000;   
200000; 2; 850; 35268; 4; 4000000;   
200000; 2; 850; 35060; 5; 4000000;   
200000; 2; 850; 34274; 6; 4000000;   
200000; 2; 900; 37290; 2; 4000000;   
200000; 2; 900; 37778; 3; 4000000;   
200000; 2; 900; 35228; 4; 4000000;   
200000; 2; 900; 37502; 5; 4000000;   
200000; 2; 900; 36765; 6; 4000000;   
200000; 2; 950; 40658; 2; 4000000;   
200000; 2; 950; 39588; 3; 4000000;   
200000; 2; 950; 38734; 4; 4000000;   
200000; 2; 950; 39201; 5; 4000000;   
200000; 2; 950; 38902; 6; 4000000;   
200000; 2; 1000; 44566; 2; 4000000;   
200000; 2; 1000; 41024; 3; 4000000;   
200000; 2; 1000; 41093; 4; 4000000;   
200000; 2; 1000; 41660; 5; 4000000;   
200000; 2; 1000; 40225; 6; 4000000;   
200000; 2; 1050; 48306; 2; 4000000;   
200000; 2; 1050; 43418; 3; 4000000;   
200000; 2; 1050; 43296; 4; 4000000;   
200000; 2; 1050; 42045; 5; 4000000;   
200000; 2; 1050; 43785; 6; 4000000;   
200000; 2; 1100; 51195; 2; 4000000;   
200000; 2; 1100; 44807; 3; 4000000;   
200000; 2; 1100; 44097; 4; 4000000;   
200000; 2; 1100; 46281; 5; 4000000;   
200000; 2; 1100; 44981; 6; 4000000;   
200000; 2; 1150; 48272; 2; 4000000;   
200000; 2; 1150; 46366; 3; 4000000;   
200000; 2; 1150; 46113; 4; 4000000;   
200000; 2; 1150; 47264; 5; 4000000;   
200000; 2; 1150; 47665; 6; 4000000;   
200000; 2; 1200; 49731; 2; 4000000;   
200000; 2; 1200; 50179; 3; 4000000;   
200000; 2; 1200; 48378; 4; 4000000;   
200000; 2; 1200; 48307; 5; 4000000;   
200000; 2; 1200; 48232; 6; 4000000;   
200000; 2; 1250; 51882; 2; 4000000;   
200000; 2; 1250; 51223; 3; 4000000;   
200000; 2; 1250; 51434; 4; 4000000;   
200000; 2; 1250; 51050; 5; 4000000;   
200000; 2; 1250; 50359; 6; 4000000;   
200000; 2; 1300; 52772; 2; 4000000;   
200000; 2; 1300; 53227; 3; 4000000;   
200000; 2; 1300; 53249; 4; 4000000;   
200000; 2; 1300; 53196; 5; 4000000;   
200000; 2; 1300; 52968; 6; 4000000;   
200000; 2; 1350; 55707; 2; 4000000;   
200000; 2; 1350; 55912; 3; 4000000;   
200000; 2; 1350; 54031; 4; 4000000;   
200000; 2; 1350; 54642; 5; 4000000;   
200000; 2; 1350; 54971; 6; 4000000;   
200000; 2; 1400; 56906; 2; 4000000;   
200000; 2; 1400; 57132; 3; 4000000;   
200000; 2; 1400; 56964; 4; 4000000;   
200000; 2; 1400; 57227; 5; 4000000;   
200000; 2; 1400; 56275; 6; 4000000;   
200000; 2; 1450; 58012; 2; 4000000;   
200000; 2; 1450; 58941; 3; 4000000;   
200000; 2; 1450; 60117; 4; 4000000;   
200000; 2; 1450; 59426; 5; 4000000;   
200000; 2; 1450; 59487; 6; 4000000;   
200000; 2; 1500; 61943; 2; 4000000;   
200000; 2; 1500; 61597; 3; 4000000;   
200000; 2; 1500; 61878; 4; 4000000;   
200000; 2; 1500; 60883; 5; 4000000;   
200000; 2; 1500; 61388; 6; 4000000;   
