textSize; alphaSize; querySize; timeTree; timeArray; timeTray; expCount; iterations; 
65536; 5; 100; 266; 203; 140; 2; 250000;  
65536; 5; 100; 266; 203; 157; 3; 250000;  
65536; 5; 100; 250; 203; 156; 4; 250000;  
65536; 5; 100; 266; 171; 124; 5; 250000;  
65536; 5; 100; 266; 172; 141; 6; 250000;  
65536; 5; 200; 375; 281; 251; 2; 250000;  
65536; 5; 200; 344; 297; 250; 3; 250000;  
65536; 5; 200; 359; 266; 235; 4; 250000;  
65536; 5; 200; 344; 265; 219; 5; 250000;  
65536; 5; 200; 328; 298; 234; 6; 250000;  
65536; 5; 300; 392; 360; 280; 2; 250000;  
65536; 5; 300; 360; 281; 328; 3; 250000;  
65536; 5; 300; 437; 329; 313; 4; 250000;  
65536; 5; 300; 376; 328; 311; 5; 250000;  
65536; 5; 300; 408; 344; 328; 6; 250000;  
65536; 5; 400; 452; 423; 374; 2; 250000;  
65536; 5; 400; 422; 391; 437; 3; 250000;  
65536; 5; 400; 515; 469; 436; 4; 250000;  
65536; 5; 400; 531; 421; 374; 5; 250000;  
65536; 5; 400; 454; 437; 437; 6; 250000;  
65536; 5; 500; 578; 437; 532; 2; 250000;  
65536; 5; 500; 577; 471; 531; 3; 250000;  
65536; 5; 500; 578; 516; 515; 4; 250000;  
65536; 5; 500; 594; 531; 486; 5; 250000;  
65536; 5; 500; 578; 500; 439; 6; 250000;  
65536; 5; 600; 641; 546; 609; 2; 250000;  
65536; 5; 600; 657; 608; 640; 3; 250000;  
65536; 5; 600; 656; 563; 595; 4; 250000;  
65536; 5; 600; 655; 594; 626; 5; 250000;  
65536; 5; 600; 657; 609; 565; 6; 250000;  
65536; 5; 700; 658; 640; 672; 2; 250000;  
65536; 5; 700; 703; 657; 687; 3; 250000;  
65536; 5; 700; 735; 655; 640; 4; 250000;  
65536; 5; 700; 704; 704; 687; 5; 250000;  
65536; 5; 700; 750; 610; 702; 6; 250000;  
65536; 5; 800; 814; 751; 749; 2; 250000;  
65536; 5; 800; 797; 765; 719; 3; 250000;  
65536; 5; 800; 812; 735; 766; 4; 250000;  
65536; 5; 800; 780; 750; 782; 5; 250000;  
65536; 5; 800; 797; 734; 718; 6; 250000;  
65536; 5; 900; 860; 828; 905; 2; 250000;  
65536; 5; 900; 874; 797; 875; 3; 250000;  
65536; 5; 900; 890; 796; 860; 4; 250000;  
65536; 5; 900; 906; 858; 828; 5; 250000;  
65536; 5; 900; 892; 750; 812; 6; 250000;  
65536; 5; 1000; 923; 906; 970; 2; 250000;  
65536; 5; 1000; 952; 861; 925; 3; 250000;  
65536; 5; 1000; 937; 938; 984; 4; 250000;  
65536; 5; 1000; 953; 923; 858; 5; 250000;  
65536; 5; 1000; 970; 922; 936; 6; 250000;  
65536; 5; 1100; 1078; 954; 1048; 2; 250000;  
65536; 5; 1100; 1046; 968; 1047; 3; 250000;  
65536; 5; 1100; 1032; 969; 1046; 4; 250000;  
65536; 5; 1100; 1047; 982; 1079; 5; 250000;  
65536; 5; 1100; 1061; 984; 1030; 6; 250000;  
65536; 5; 1200; 1171; 1124; 1064; 2; 250000;  
65536; 5; 1200; 1095; 1110; 1141; 3; 250000;  
65536; 5; 1200; 1158; 1094; 1140; 4; 250000;  
65536; 5; 1200; 1112; 1015; 1125; 5; 250000;  
65536; 5; 1200; 1097; 999; 1141; 6; 250000;  
65536; 5; 1300; 1140; 1157; 1234; 2; 250000;  
65536; 5; 1300; 1156; 1125; 1249; 3; 250000;  
65536; 5; 1300; 1202; 1125; 1202; 4; 250000;  
65536; 5; 1300; 1218; 1061; 1202; 5; 250000;  
65536; 5; 1300; 1172; 1141; 1188; 6; 250000;  
65536; 5; 1400; 1345; 1251; 1313; 2; 250000;  
65536; 5; 1400; 1280; 1281; 1235; 3; 250000;  
65536; 5; 1400; 1280; 1201; 1297; 4; 250000;  
65536; 5; 1400; 1266; 1249; 1280; 5; 250000;  
65536; 5; 1400; 1203; 1234; 1236; 6; 250000;  
65536; 5; 1500; 1375; 1268; 1422; 2; 250000;  
65536; 5; 1500; 1389; 1328; 1375; 3; 250000;  
65536; 5; 1500; 1358; 1279; 1328; 4; 250000;  
65536; 5; 1500; 1343; 1282; 1329; 5; 250000;  
65536; 5; 1500; 1312; 1249; 1393; 6; 250000;  
65536; 5; 1600; 1471; 1405; 1499; 2; 250000;  
65536; 5; 1600; 1389; 1423; 1470; 3; 250000;  
65536; 5; 1600; 1484; 1329; 1515; 4; 250000;  
65536; 5; 1600; 1438; 1360; 1502; 5; 250000;  
65536; 5; 1600; 1451; 1422; 1407; 6; 250000;  
65536; 5; 1700; 1486; 1578; 1563; 2; 250000;  
65536; 5; 1700; 1455; 1372; 1533; 3; 250000;  
65536; 5; 1700; 1486; 1421; 1592; 4; 250000;  
65536; 5; 1700; 1532; 1484; 1580; 5; 250000;  
65536; 5; 1700; 1419; 1405; 1643; 6; 250000;  
65536; 5; 1800; 1565; 1518; 1608; 2; 250000;  
65536; 5; 1800; 1610; 1560; 1626; 3; 250000;  
65536; 5; 1800; 1516; 1564; 1593; 4; 250000;  
65536; 5; 1800; 1516; 1530; 1625; 5; 250000;  
65536; 5; 1800; 1546; 1514; 1608; 6; 250000;  
65536; 5; 1900; 1594; 1580; 1767; 2; 250000;  
65536; 5; 1900; 1612; 1578; 1736; 3; 250000;  
65536; 5; 1900; 1607; 1656; 1752; 4; 250000;  
65536; 5; 1900; 1592; 1596; 1659; 5; 250000;  
65536; 5; 1900; 1516; 1527; 1798; 6; 250000;  
65536; 5; 2000; 1796; 1688; 1859; 2; 250000;  
65536; 5; 2000; 1656; 1657; 1811; 3; 250000;  
65536; 5; 2000; 1686; 1674; 1827; 4; 250000;  
65536; 5; 2000; 1641; 1625; 1811; 5; 250000;  
65536; 5; 2000; 1781; 1671; 1718; 6; 250000;  
