log2(x) = log(x)/log(2)

if (!exists("directory")) directory='./'

set terminal pdf enhanced font "Helvetica, 10" size 7,4
set output (directory . "plot_genome3_2499279.pdf")

set xlabel "Genome3 (n=2499279 full length)"
set xtics 0, 100 rotate
set offset 1, 1

set ylabel "Running time [milliseconds]"

set ytics nomirror tc lt 1


set xrange [100:2000]
set yrange [200:2500]

set grid mytics


set key vert left top reverse
set pointsize 2

set datafile separator ";"


plot (directory .  'genome3.fa_compare_2499279_Exp12Removed_avgANDstdDev.csv') using ($3):($9) title 'Tree'  with linespoints ls 1,\
(directory .  'genome3.fa_compare_2499279_Exp12Removed_avgANDstdDev.csv') using ($3):($12) title 'Array'  with linespoints ls 2,\
(directory .  'genome3.fa_compare_2499279_Exp12Removed_avgANDstdDev.csv') using ($3):($15) title 'Tray'  with linespoints ls 3
