textSize; alphaSize; querySize; timeArray; timeTray; expCount; iterations;  
262144; 81; 10; 282; 203; 2; 500000;  
262144; 81; 10; 265; 188; 3; 500000;  
262144; 81; 10; 281; 203; 4; 500000;  
262144; 81; 10; 359; 204; 5; 500000;  
262144; 81; 10; 282; 219; 6; 500000;  
262144; 81; 15; 358; 220; 2; 500000;  
262144; 81; 15; 359; 219; 3; 500000;  
262144; 81; 15; 344; 157; 4; 500000;  
262144; 81; 15; 343; 219; 5; 500000;  
262144; 81; 15; 344; 172; 6; 500000;  
262144; 81; 20; 374; 202; 2; 500000;  
262144; 81; 20; 375; 234; 3; 500000;  
262144; 81; 20; 376; 267; 4; 500000;  
262144; 81; 20; 375; 234; 5; 500000;  
262144; 81; 20; 437; 188; 6; 500000;  
262144; 81; 25; 359; 235; 2; 500000;  
262144; 81; 25; 327; 250; 3; 500000;  
262144; 81; 25; 311; 249; 4; 500000;  
262144; 81; 25; 360; 264; 5; 500000;  
262144; 81; 25; 421; 186; 6; 500000;  
262144; 81; 30; 422; 265; 2; 500000;  
262144; 81; 30; 392; 188; 3; 500000;  
262144; 81; 30; 376; 235; 4; 500000;  
262144; 81; 30; 344; 283; 5; 500000;  
262144; 81; 30; 375; 266; 6; 500000;  
262144; 81; 35; 296; 234; 2; 500000;  
262144; 81; 35; 405; 266; 3; 500000;  
262144; 81; 35; 391; 235; 4; 500000;  
262144; 81; 35; 390; 265; 5; 500000;  
262144; 81; 35; 343; 250; 6; 500000;  
262144; 81; 40; 390; 265; 2; 500000;  
262144; 81; 40; 283; 250; 3; 500000;  
262144; 81; 40; 391; 250; 4; 500000;  
262144; 81; 40; 390; 266; 5; 500000;  
262144; 81; 40; 453; 187; 6; 500000;  
262144; 81; 45; 408; 282; 2; 500000;  
262144; 81; 45; 391; 328; 3; 500000;  
262144; 81; 45; 422; 250; 4; 500000;  
262144; 81; 45; 455; 220; 5; 500000;  
262144; 81; 45; 421; 313; 6; 500000;  
262144; 81; 50; 452; 313; 2; 500000;  
262144; 81; 50; 408; 264; 3; 500000;  
262144; 81; 50; 437; 265; 4; 500000;  
262144; 81; 50; 469; 265; 5; 500000;  
262144; 81; 50; 373; 345; 6; 500000;  
262144; 81; 55; 377; 252; 2; 500000;  
262144; 81; 55; 389; 220; 3; 500000;  
262144; 81; 55; 343; 235; 4; 500000;  
262144; 81; 55; 467; 328; 5; 500000;  
262144; 81; 55; 438; 297; 6; 500000;  
262144; 81; 60; 406; 313; 2; 500000;  
262144; 81; 60; 390; 329; 3; 500000;  
262144; 81; 60; 470; 330; 4; 500000;  
262144; 81; 60; 453; 281; 5; 500000;  
262144; 81; 60; 452; 250; 6; 500000;  
262144; 81; 65; 470; 359; 2; 500000;  
262144; 81; 65; 423; 392; 3; 500000;  
262144; 81; 65; 452; 283; 4; 500000;  
262144; 81; 65; 452; 328; 5; 500000;  
262144; 81; 65; 468; 345; 6; 500000;  
262144; 81; 70; 469; 314; 2; 500000;  
262144; 81; 70; 484; 360; 3; 500000;  
262144; 81; 70; 436; 328; 4; 500000;  
262144; 81; 70; 469; 359; 5; 500000;  
262144; 81; 70; 454; 279; 6; 500000;  
262144; 81; 75; 515; 343; 2; 500000;  
262144; 81; 75; 468; 313; 3; 500000;  
262144; 81; 75; 436; 360; 4; 500000;  
262144; 81; 75; 469; 374; 5; 500000;  
262144; 81; 75; 501; 359; 6; 500000;  
262144; 81; 80; 467; 313; 2; 500000;  
262144; 81; 80; 469; 390; 3; 500000;  
262144; 81; 80; 500; 296; 4; 500000;  
262144; 81; 80; 405; 345; 5; 500000;  
262144; 81; 80; 467; 359; 6; 500000;  
262144; 81; 85; 453; 374; 2; 500000;  
262144; 81; 85; 453; 375; 3; 500000;  
262144; 81; 85; 454; 313; 4; 500000;  
262144; 81; 85; 423; 377; 5; 500000;  
262144; 81; 85; 437; 345; 6; 500000;  
262144; 81; 90; 501; 408; 2; 500000;  
262144; 81; 90; 468; 358; 3; 500000;  
262144; 81; 90; 421; 343; 4; 500000;  
262144; 81; 90; 468; 312; 5; 500000;  
262144; 81; 90; 485; 390; 6; 500000;  
262144; 81; 95; 518; 327; 2; 500000;  
262144; 81; 95; 534; 362; 3; 500000;  
262144; 81; 95; 487; 407; 4; 500000;  
262144; 81; 95; 517; 407; 5; 500000;  
262144; 81; 95; 404; 328; 6; 500000;  
262144; 81; 100; 485; 346; 2; 500000;  
262144; 81; 100; 467; 390; 3; 500000;  
262144; 81; 100; 501; 391; 4; 500000;  
262144; 81; 100; 515; 377; 5; 500000;  
262144; 81; 100; 515; 359; 6; 500000;  
