textSize; alphaSize; querySize; time; expCount; iterations; 
1500000; 2; 50; 10421; 0; 20000000; 
1500000; 2; 50; 10300; 1; 20000000; 
1500000; 2; 50; 9908; 2; 20000000; 
1500000; 2; 50; 10309; 3; 20000000; 
1500000; 2; 50; 10748; 4; 20000000; 
1500000; 2; 50; 10192; 5; 20000000; 
1500000; 2; 50; 10218; 6; 20000000; 
