textSize; alphaSize; querySize; time; expCount;   avgTime; standardDeviation; relativeStdDev; time/A(2); 
6085126; 64; 5000; 4042; 2;    4244.8; 109.56167213035769;  2.581079724141483; 10.923314462171898; 
6085126; 64; 10000; 9751; 2;    9701.2; 67.24700736835804;  0.6931823626804728; 14.756921204745971; 
6085126; 64; 15000; 12765; 2;    12801.6; 79.72352225033714;  0.6227621723092203; 14.61703585293446; 
6085126; 64; 20000; 15624; 2;    15524.8; 73.71404208154645;  0.47481476142395684; 8.097642395159607; 
6085126; 64; 25000; 18877; 2;    18926.6; 239.21254147723943;  1.2638960060298177; 5.835059810087556; 
6085126; 64; 30000; 22082; 2;    22089.4; 212.9540795570726;  0.964055517836938; 5.746163050829822; 
6085126; 64; 35000; 25340; 2;    25240.6; 93.3929333515122;  0.370010749948544; 5.6961094060299695; 
6085126; 64; 40000; 28328; 2;    28374.8; 120.17054547600257;  0.4235115154150957; 5.778040237843121; 
6085126; 64; 45000; 31347; 2;    31357.8; 77.8650113979315;  0.24831146125662992; 5.690657665505227; 
6085126; 64; 50000; 35065; 2;    34754.6; 215.2576131057854;  0.6193643808468099; 5.6890816827631365; 
6085126; 64; 55000; 38887; 2;    38802.2; 109.83150731916595;  0.28305484565093203; 5.640838518346222; 
6085126; 64; 60000; 42030; 2;    41986.6; 40.272074692024496;  0.09591649405292282; 5.769450627971528; 
6085126; 64; 65000; 44843; 2;    44954.2; 144.03943904361748;  0.32041375231595154; 5.835176531671858; 
6085126; 64; 70000; 47875; 2;    47871.8; 113.57006647880418;  0.23723792813055739; 5.9684570117694; 
6085126; 64; 75000; 50595; 2;    50617.0; 98.57991681879226;  0.19475653795916836; 5.439646649185401; 
6085126; 64; 80000; 53566; 2;    53453.0; 170.9537949271674;  0.3198207676410443; 5.271914943979801; 
6085126; 64; 85000; 56709; 2;    56730.6; 69.72689581502965;  0.1229087931645878; 5.428765550239234; 
6085126; 64; 90000; 62706; 2;    62634.0; 95.29113285085869;  0.15213962520493451; 5.8704332014921174; 
6085126; 64; 95000; 68616; 2;    68519.2; 133.61047863098162;  0.194997137489903; 6.244800495798472; 
