log2(x) = log(x)/log(2)

if (!exists("directory")) directory='./'

set terminal pdf enhanced font "Helvetica, 10" size 7,4
set output (directory . "Array_(100-2000)_Bib.pdf")

set xlabel "m"
set xtics 0, 100 rotate


set ylabel "Running time [milliseconds]"

set ytics nomirror tc lt 1


set xrange [100:2000]
set yrange [0:2500]

set grid mytics


set key vert left top reverse
set pointsize 2

set datafile separator ";"


plot (directory .  'NotIn_Compare_bible(100-2000)/FirstPart/AV1611Bible_2pow21.txt_compare_NotIn_2097152_Exp12Removed_avgANDstdDev.csv') using ($3):($8) title 'Array (NotIn)'  with linespoints ls 2,\
(directory .  'Compare_bible(100-2000)/FirstPart/AV1611Bible_2pow21.txt_compare_2097152_Exp12Removed_avgANDstdDev.csv') using ($3):($12) title 'Array'  with linespoints ls 5,\
