digraph SuffixTray {
"a" -> "b";
"a" -> "c";
"b" -> "d";
"b" -> "e";
"b" -> "f";
"f" -> "j";
"e" -> "h";
"e" -> "i";
"i" -> "n";
"n" -> "q";
"n" -> "r";
"n" -> "s";
"r" -> "w";
"r" -> "x";
"r" -> "y";
"t" -> "z";
"c" -> "g";
"g" -> "k";
"g" -> "l";
"g" -> "m";
"k" -> "o";
"o" -> "t";
"m" -> "p";
"p" -> "u";
"p" -> "v";
"a"[color="green"];
"c"[color="blue"];
"g"[color="green"];
"m"[color="red"];
"b"[color="blue"];
"e"[color="blue"];
"i"[color="blue"];
"n"[color="blue"];
"r"[color="red"];
"k"[color="red"];
}
