textSize; alphaSize; querySize; timeTree; timeArray; timeTray; expCount; iterations;  avgTimeTree; standardDeviationTree; relativeStdDevTree; avgTimeArray; standardDeviationArray; relativeStdDevArray; avgTimeTray; standardDeviationTray; relativeStdDevTray; 
262144; 81; 4000; 937; 861; 876; 2; 62500;   890.0; 30.371038836365145;  3.4124762737488927;859.4; 10.190191362285598;  1.1857332280993247;857.0; 11.50651989091402;  1.3426510957892672; 
262144; 81; 8000; 1641; 1638; 1657; 2; 62500;   1614.4; 28.938555596297476;  1.792526981931211;1677.4; 38.949197681081955;  2.3219981925051836;1656.4; 16.267759526130202;  0.9821154024468849; 
262144; 81; 12000; 2515; 2453; 2546; 2; 62500;   2375.6; 90.62361723083008;  3.8147675210822567;2440.0; 46.08687448721165;  1.8888063314431005;2490.6; 35.32477883865658;  1.4183240519817144; 
262144; 81; 16000; 3170; 3204; 3265; 2; 62500;   3146.0; 93.53288191860656;  2.973073169695059;3234.0; 51.62557505732987;  1.596338127932278;3265.4; 40.86367580137645;  1.2514140932619724; 
262144; 81; 20000; 3920; 4064; 4059; 2; 62500;   3917.8; 71.97054953243028;  1.8370143838999;4010.2; 45.97564572684107;  1.1464676506618392;4102.2; 37.60531877274809;  0.9167110031872677; 
262144; 81; 24000; 4750; 4907; 4830; 2; 62500;   4706.6; 111.3527727539822;  2.365885623464543;4823.6; 66.46683383462764;  1.377950780218667;4847.2; 29.84225192575118;  0.6156595957614949; 
262144; 81; 28000; 5493; 5563; 5658; 2; 62500;   5431.4; 126.78107114234365;  2.3342245303668236;5562.6; 32.02873709655128;  0.5757871696068615;5651.0; 67.3349834781297;  1.1915587237326084; 
262144; 81; 32000; 6143; 6361; 6341; 2; 62500;   6172.4; 66.43071578720193;  1.0762542250534952;6312.4; 46.68018851718575;  0.7394998497748202;6423.8; 68.97941721992147;  1.0738101625194039; 
262144; 81; 36000; 6768; 7206; 7186; 2; 62500;   6933.2; 127.69244300270866;  1.8417533462572644;7092.0; 87.77926862306384;  1.237722343810827;7256.4; 53.1209939666042;  0.7320571353095778; 
262144; 81; 40000; 7687; 7869; 7858; 2; 62500;   7692.8; 91.13374786543127;  1.1846629038247618;7882.8; 47.80962246242905;  0.6065055876392785;7995.4; 114.72331933831063;  1.434866539989377; 
262144; 81; 44000; 8529; 8736; 8961; 2; 62500;   8473.4; 45.33696063919592;  0.5350504005381066;8657.6; 109.19633693489905;  1.2612772238830512;8807.6; 178.40582950116848;  2.0255895987688866; 
262144; 81; 48000; 9297; 9416; 9467; 2; 62500;   9143.8; 109.9006824364617;  1.2019147666884853;9438.4; 29.04203849594584;  0.3077008655698618;9597.2; 179.1283338838387;  1.8664645301112688; 
262144; 81; 52000; 9901; 10424; 10519; 2; 62500;   9980.0; 133.97163878970804;  1.3424011902776356;10173.0; 171.04853112494126;  1.6813971407150425;10371.0; 93.61837426488457;  0.9026938025733735; 
262144; 81; 56000; 10628; 11092; 11237; 2; 62500;   10737.0; 95.1125648902394;  0.8858392930077248;11005.4; 74.57774466957284;  0.677646834004878;11222.0; 92.69735702812675;  0.8260324098033037; 
262144; 81; 60000; 11522; 11765; 11925; 2; 62500;   11526.8; 88.85358743461066;  0.7708434902541093;11865.2; 88.7927925002925;  0.7483463616314306;11996.2; 74.171153422338;  0.6182887366194126; 
