textSize; alphaSize; querySize; timeTree; timeArray; timeTray; expCount; iterations;  
262144; 81; 4000; 937; 861; 876; 2; 62500;  
262144; 81; 4000; 858; 842; 860; 3; 62500;  
262144; 81; 4000; 891; 874; 845; 4; 62500;  
262144; 81; 4000; 907; 860; 845; 5; 62500;  
262144; 81; 4000; 857; 860; 859; 6; 62500;  
262144; 81; 8000; 1641; 1638; 1657; 2; 62500;  
262144; 81; 8000; 1639; 1626; 1627; 3; 62500;  
262144; 81; 8000; 1562; 1687; 1672; 4; 62500;  
262144; 81; 8000; 1607; 1719; 1655; 5; 62500;  
262144; 81; 8000; 1623; 1717; 1671; 6; 62500;  
262144; 81; 12000; 2515; 2453; 2546; 2; 62500;  
262144; 81; 12000; 2407; 2359; 2500; 3; 62500;  
262144; 81; 12000; 2375; 2435; 2498; 4; 62500;  
262144; 81; 12000; 2235; 2452; 2469; 5; 62500;  
262144; 81; 12000; 2346; 2501; 2440; 6; 62500;  
262144; 81; 16000; 3170; 3204; 3265; 2; 62500;  
262144; 81; 16000; 3216; 3282; 3270; 3; 62500;  
262144; 81; 16000; 3061; 3235; 3200; 4; 62500;  
262144; 81; 16000; 3266; 3154; 3329; 5; 62500;  
262144; 81; 16000; 3017; 3295; 3263; 6; 62500;  
262144; 81; 20000; 3920; 4064; 4059; 2; 62500;  
262144; 81; 20000; 3783; 4062; 4156; 3; 62500;  
262144; 81; 20000; 3996; 3971; 4061; 4; 62500;  
262144; 81; 20000; 3937; 3952; 4109; 5; 62500;  
262144; 81; 20000; 3953; 4002; 4126; 6; 62500;  
262144; 81; 24000; 4750; 4907; 4830; 2; 62500;  
262144; 81; 24000; 4864; 4752; 4812; 3; 62500;  
262144; 81; 24000; 4529; 4892; 4830; 4; 62500;  
262144; 81; 24000; 4653; 4751; 4892; 5; 62500;  
262144; 81; 24000; 4737; 4816; 4872; 6; 62500;  
262144; 81; 28000; 5493; 5563; 5658; 2; 62500;  
262144; 81; 28000; 5622; 5578; 5707; 3; 62500;  
262144; 81; 28000; 5418; 5513; 5606; 4; 62500;  
262144; 81; 28000; 5236; 5610; 5735; 5; 62500;  
262144; 81; 28000; 5388; 5549; 5549; 6; 62500;  
262144; 81; 32000; 6143; 6361; 6341; 2; 62500;  
262144; 81; 32000; 6278; 6347; 6485; 3; 62500;  
262144; 81; 32000; 6219; 6342; 6515; 4; 62500;  
262144; 81; 32000; 6124; 6263; 6354; 5; 62500;  
262144; 81; 32000; 6098; 6249; 6424; 6; 62500;  
262144; 81; 36000; 6768; 7206; 7186; 2; 62500;  
262144; 81; 36000; 6945; 6987; 7217; 3; 62500;  
262144; 81; 36000; 6920; 7187; 7248; 4; 62500;  
262144; 81; 36000; 7158; 7034; 7299; 5; 62500;  
262144; 81; 36000; 6875; 7046; 7332; 6; 62500;  
262144; 81; 40000; 7687; 7869; 7858; 2; 62500;  
262144; 81; 40000; 7688; 7951; 7938; 3; 62500;  
262144; 81; 40000; 7757; 7911; 7985; 4; 62500;  
262144; 81; 40000; 7800; 7876; 8204; 5; 62500;  
262144; 81; 40000; 7532; 7807; 7992; 6; 62500;  
262144; 81; 44000; 8529; 8736; 8961; 2; 62500;  
262144; 81; 44000; 8467; 8710; 8511; 3; 62500;  
262144; 81; 44000; 8424; 8466; 8737; 4; 62500;  
262144; 81; 44000; 8522; 8766; 8815; 5; 62500;  
262144; 81; 44000; 8425; 8610; 9014; 6; 62500;  
262144; 81; 48000; 9297; 9416; 9467; 2; 62500;  
262144; 81; 48000; 8954; 9408; 9330; 3; 62500;  
262144; 81; 48000; 9171; 9457; 9758; 4; 62500;  
262144; 81; 48000; 9141; 9486; 9811; 5; 62500;  
262144; 81; 48000; 9156; 9425; 9620; 6; 62500;  
262144; 81; 52000; 9901; 10424; 10519; 2; 62500;  
262144; 81; 52000; 9937; 10078; 10424; 3; 62500;  
262144; 81; 52000; 10226; 9926; 10279; 4; 62500;  
262144; 81; 52000; 9836; 10286; 10268; 5; 62500;  
262144; 81; 52000; 10000; 10151; 10365; 6; 62500;  
262144; 81; 56000; 10628; 11092; 11237; 2; 62500;  
262144; 81; 56000; 10702; 10945; 11233; 3; 62500;  
262144; 81; 56000; 10907; 11049; 11046; 4; 62500;  
262144; 81; 56000; 10762; 11049; 11311; 5; 62500;  
262144; 81; 56000; 10686; 10892; 11283; 6; 62500;  
262144; 81; 60000; 11522; 11765; 11925; 2; 62500;  
262144; 81; 60000; 11579; 11999; 12000; 3; 62500;  
262144; 81; 60000; 11368; 11769; 11936; 4; 62500;  
262144; 81; 60000; 11531; 11885; 11987; 5; 62500;  
262144; 81; 60000; 11634; 11908; 12133; 6; 62500;  
