textSize; alphaSize; querySize; timeTree; timeArray; timeTray; expCount; iterations; 
65536; 80; 4000; 830; 811; 828; 0; 62500; 
65536; 80; 4000; 843; 842; 814; 1; 62500; 
65536; 80; 4000; 861; 767; 750; 2; 62500; 
65536; 80; 4000; 813; 828; 812; 3; 62500; 
65536; 80; 4000; 815; 813; 783; 4; 62500; 
65536; 80; 4000; 814; 813; 828; 5; 62500; 
65536; 80; 4000; 778; 846; 812; 6; 62500; 
65536; 80; 8000; 1626; 1654; 1626; 0; 62500; 
65536; 80; 8000; 1503; 1656; 1625; 1; 62500; 
65536; 80; 8000; 1688; 1596; 1640; 2; 62500; 
65536; 80; 8000; 1505; 1560; 1530; 3; 62500; 
65536; 80; 8000; 1607; 1578; 1659; 4; 62500; 
65536; 80; 8000; 1546; 1594; 1454; 5; 62500; 
65536; 80; 8000; 1702; 1672; 1656; 6; 62500; 
65536; 80; 12000; 2392; 2405; 2439; 0; 62500; 
65536; 80; 12000; 2298; 2372; 2454; 1; 62500; 
65536; 80; 12000; 2359; 2438; 2467; 2; 62500; 
65536; 80; 12000; 2265; 2390; 2377; 3; 62500; 
65536; 80; 12000; 2328; 2360; 2530; 4; 62500; 
65536; 80; 12000; 2483; 2389; 2425; 5; 62500; 
65536; 80; 12000; 2313; 2388; 2450; 6; 62500; 
65536; 80; 16000; 3066; 3300; 3281; 0; 62500; 
65536; 80; 16000; 3001; 3187; 3143; 1; 62500; 
65536; 80; 16000; 3175; 3172; 3249; 2; 62500; 
65536; 80; 16000; 3171; 3281; 3249; 3; 62500; 
65536; 80; 16000; 3201; 3207; 3190; 4; 62500; 
65536; 80; 16000; 3095; 3112; 3127; 5; 62500; 
65536; 80; 16000; 2998; 3329; 3394; 6; 62500; 
65536; 80; 20000; 3847; 4129; 4013; 0; 62500; 
65536; 80; 20000; 3784; 3875; 3995; 1; 62500; 
65536; 80; 20000; 3798; 3925; 3796; 2; 62500; 
65536; 80; 20000; 3846; 3969; 4123; 3; 62500; 
65536; 80; 20000; 3926; 3947; 4067; 4; 62500; 
65536; 80; 20000; 3845; 3985; 4002; 5; 62500; 
65536; 80; 20000; 3857; 3889; 3991; 6; 62500; 
65536; 80; 24000; 4640; 4703; 4864; 0; 62500; 
65536; 80; 24000; 4614; 4574; 4783; 1; 62500; 
65536; 80; 24000; 4638; 4766; 4800; 2; 62500; 
65536; 80; 24000; 4687; 4731; 4906; 3; 62500; 
65536; 80; 24000; 4650; 4658; 4830; 4; 62500; 
65536; 80; 24000; 4688; 4612; 4704; 5; 62500; 
65536; 80; 24000; 4527; 4860; 4889; 6; 62500; 
65536; 80; 28000; 5392; 5543; 5465; 0; 62500; 
65536; 80; 28000; 5329; 5481; 5639; 1; 62500; 
65536; 80; 28000; 5392; 5623; 5515; 2; 62500; 
65536; 80; 28000; 5529; 5532; 5677; 3; 62500; 
65536; 80; 28000; 5452; 5594; 5527; 4; 62500; 
65536; 80; 28000; 5346; 5581; 5707; 5; 62500; 
65536; 80; 28000; 5247; 5612; 5528; 6; 62500; 
65536; 80; 32000; 6185; 6249; 6407; 0; 62500; 
65536; 80; 32000; 6175; 6424; 6424; 1; 62500; 
65536; 80; 32000; 5998; 6374; 6437; 2; 62500; 
65536; 80; 32000; 5997; 6136; 6345; 3; 62500; 
65536; 80; 32000; 6347; 6256; 6313; 4; 62500; 
65536; 80; 32000; 5987; 6189; 6349; 5; 62500; 
65536; 80; 32000; 6033; 6252; 6422; 6; 62500; 
65536; 80; 36000; 6976; 6998; 7158; 0; 62500; 
65536; 80; 36000; 6875; 7075; 7110; 1; 62500; 
65536; 80; 36000; 6938; 7053; 7233; 2; 62500; 
65536; 80; 36000; 6910; 7091; 7217; 3; 62500; 
65536; 80; 36000; 6746; 7171; 7153; 4; 62500; 
65536; 80; 36000; 6893; 7002; 7001; 5; 62500; 
65536; 80; 36000; 6848; 7131; 7110; 6; 62500; 
65536; 80; 40000; 7709; 7909; 8033; 0; 62500; 
65536; 80; 40000; 7559; 7813; 7967; 1; 62500; 
65536; 80; 40000; 7872; 7842; 8104; 2; 62500; 
65536; 80; 40000; 7659; 7785; 8062; 3; 62500; 
65536; 80; 40000; 7584; 7988; 7939; 4; 62500; 
65536; 80; 40000; 7424; 7889; 7922; 5; 62500; 
65536; 80; 40000; 7672; 7585; 8109; 6; 62500; 
65536; 80; 44000; 8305; 8575; 8732; 0; 62500; 
65536; 80; 44000; 8273; 8485; 8542; 1; 62500; 
65536; 80; 44000; 8485; 8706; 8750; 2; 62500; 
65536; 80; 44000; 8280; 8706; 8686; 3; 62500; 
65536; 80; 44000; 8310; 8601; 8749; 4; 62500; 
65536; 80; 44000; 8514; 8531; 8824; 5; 62500; 
65536; 80; 44000; 8473; 8597; 9017; 6; 62500; 
65536; 80; 48000; 9130; 9332; 9583; 0; 62500; 
65536; 80; 48000; 9166; 9160; 9424; 1; 62500; 
65536; 80; 48000; 9106; 9249; 9406; 2; 62500; 
65536; 80; 48000; 9141; 9503; 9642; 3; 62500; 
65536; 80; 48000; 9213; 9468; 9785; 4; 62500; 
65536; 80; 48000; 9062; 9520; 9576; 5; 62500; 
65536; 80; 48000; 9092; 9238; 9535; 6; 62500; 
65536; 80; 52000; 9993; 9983; 10264; 0; 62500; 
65536; 80; 52000; 9829; 10099; 10319; 1; 62500; 
65536; 80; 52000; 9769; 10250; 10255; 2; 62500; 
65536; 80; 52000; 9676; 9887; 10375; 3; 62500; 
65536; 80; 52000; 9622; 10423; 10344; 4; 62500; 
65536; 80; 52000; 9891; 10141; 10424; 5; 62500; 
65536; 80; 52000; 9769; 10129; 10471; 6; 62500; 
65536; 80; 56000; 10515; 10951; 11067; 0; 62500; 
65536; 80; 56000; 10579; 10918; 10997; 1; 62500; 
65536; 80; 56000; 10576; 10801; 11045; 2; 62500; 
65536; 80; 56000; 10399; 10833; 11246; 3; 62500; 
65536; 80; 56000; 10579; 11067; 11187; 4; 62500; 
65536; 80; 56000; 10442; 11071; 11143; 5; 62500; 
65536; 80; 56000; 10573; 10923; 10937; 6; 62500; 
65536; 80; 60000; 11359; 11943; 11981; 0; 62500; 
65536; 80; 60000; 11300; 11740; 11890; 1; 62500; 
65536; 80; 60000; 11280; 11780; 11937; 2; 62500; 
65536; 80; 60000; 11437; 11770; 12078; 3; 62500; 
65536; 80; 60000; 11096; 11577; 11979; 4; 62500; 
65536; 80; 60000; 11558; 11659; 11812; 5; 62500; 
65536; 80; 60000; 11201; 11907; 12063; 6; 62500; 
