textSize; alphaSize; querySize; timeArray; timeTray; expCount; iterations; ;  
65536; 80; 4000; 906; 877; 2; 62500;  
65536; 80; 4000; 830; 796; 3; 62500;  
65536; 80; 4000; 810; 861; 4; 62500;  
65536; 80; 4000; 938; 812; 5; 62500;  
65536; 80; 4000; 731; 796; 6; 62500;  
65536; 80; 8000; 1501; 1627; 2; 62500;  
65536; 80; 8000; 1705; 1716; 3; 62500;  
65536; 80; 8000; 1687; 1499; 4; 62500;  
65536; 80; 8000; 1627; 1689; 5; 62500;  
65536; 80; 8000; 1607; 1735; 6; 62500;  
65536; 80; 12000; 2531; 2547; 2; 62500;  
65536; 80; 12000; 2432; 2378; 3; 62500;  
65536; 80; 12000; 2456; 2613; 4; 62500;  
65536; 80; 12000; 2641; 2396; 5; 62500;  
65536; 80; 12000; 2377; 2521; 6; 62500;  
65536; 80; 16000; 3156; 3223; 2; 62500;  
65536; 80; 16000; 3375; 2983; 3; 62500;  
65536; 80; 16000; 3189; 3267; 4; 62500;  
65536; 80; 16000; 3221; 3420; 5; 62500;  
65536; 80; 16000; 3185; 3390; 6; 62500;  
65536; 80; 20000; 3891; 3978; 2; 62500;  
65536; 80; 20000; 3951; 4018; 3; 62500;  
65536; 80; 20000; 4220; 3797; 4; 62500;  
65536; 80; 20000; 4162; 3969; 5; 62500;  
65536; 80; 20000; 4127; 4032; 6; 62500;  
65536; 80; 24000; 4784; 4688; 2; 62500;  
65536; 80; 24000; 4759; 4906; 3; 62500;  
65536; 80; 24000; 4777; 4692; 4; 62500;  
65536; 80; 24000; 4713; 4774; 5; 62500;  
65536; 80; 24000; 4442; 4683; 6; 62500;  
65536; 80; 28000; 5561; 5578; 2; 62500;  
65536; 80; 28000; 5467; 5613; 3; 62500;  
65536; 80; 28000; 5448; 5423; 4; 62500;  
65536; 80; 28000; 5433; 5717; 5; 62500;  
65536; 80; 28000; 5584; 5707; 6; 62500;  
65536; 80; 32000; 6508; 6443; 2; 62500;  
65536; 80; 32000; 6279; 6549; 3; 62500;  
65536; 80; 32000; 6644; 6446; 4; 62500;  
65536; 80; 32000; 6370; 6528; 5; 62500;  
65536; 80; 32000; 6476; 6502; 6; 62500;  
65536; 80; 36000; 7440; 7155; 2; 62500;  
65536; 80; 36000; 7078; 7226; 3; 62500;  
65536; 80; 36000; 7307; 7475; 4; 62500;  
65536; 80; 36000; 7378; 7461; 5; 62500;  
65536; 80; 36000; 7359; 7669; 6; 62500;  
65536; 80; 40000; 9121; 9069; 2; 62500;  
65536; 80; 40000; 7820; 8394; 3; 62500;  
65536; 80; 40000; 8555; 8341; 4; 62500;  
65536; 80; 40000; 8396; 8459; 5; 62500;  
65536; 80; 40000; 8908; 8656; 6; 62500;  
65536; 80; 44000; 9292; 9148; 2; 62500;  
65536; 80; 44000; 9407; 9445; 3; 62500;  
65536; 80; 44000; 10696; 10278; 4; 62500;  
65536; 80; 44000; 9361; 9457; 5; 62500;  
65536; 80; 44000; 9339; 10051; 6; 62500;  
65536; 80; 48000; 10929; 10081; 2; 62500;  
65536; 80; 48000; 10249; 11105; 3; 62500;  
65536; 80; 48000; 10324; 10850; 4; 62500;  
65536; 80; 48000; 10983; 10568; 5; 62500;  
65536; 80; 48000; 11252; 10513; 6; 62500;  
65536; 80; 52000; 10805; 10673; 2; 62500;  
65536; 80; 52000; 10511; 10631; 3; 62500;  
65536; 80; 52000; 10785; 10812; 4; 62500;  
65536; 80; 52000; 10466; 10875; 5; 62500;  
65536; 80; 52000; 10497; 10420; 6; 62500;  
65536; 80; 56000; 11574; 11609; 2; 62500;  
65536; 80; 56000; 11191; 11494; 3; 62500;  
65536; 80; 56000; 11636; 11419; 4; 62500;  
65536; 80; 56000; 11758; 11236; 5; 62500;  
65536; 80; 56000; 11192; 11703; 6; 62500;  
65536; 80; 60000; 11722; 12278; 2; 62500;  
65536; 80; 60000; 12136; 12289; 3; 62500;  
65536; 80; 60000; 13911; 12727; 4; 62500;  
65536; 80; 60000; 12156; 12169; 5; 62500;  
65536; 80; 60000; 12149; 12193; 6; 62500;  
