textSize; alphaSize; querySize; timeArray; timeTray; expCount; iterations; ;  avgTimeArray; standardDeviationArray; relativeStdDevArray; avgTimeTray; standardDeviationTray; relativeStdDevTray; 
65536; 80; 4000; 906; 877; 2; 62500;   843.0; 73.20655708336514;  8.684051848560514;828.4; 34.03880138900311;  4.108981336190622; 
65536; 80; 8000; 1501; 1627; 2; 62500;   1625.4; 72.03776787213774;  4.432002453066183;1653.2; 85.30041031554303;  5.159715117078576; 
65536; 80; 12000; 2531; 2547; 2; 62500;   2487.4; 91.36432564190467;  3.673085375971081;2491.0; 90.23746450338685;  3.6225397231387735; 
65536; 80; 16000; 3156; 3223; 2; 62500;   3225.2; 77.68243044601527;  2.40860816216096;3256.6; 155.29919510416016;  4.7687525365153896; 
65536; 80; 20000; 3891; 3978; 2; 62500;   4070.2; 126.81861062162761;  3.115783269166813;3958.8; 84.27906027003387;  2.1289042202191033; 
65536; 80; 24000; 4784; 4688; 2; 62500;   4695.0; 128.8984096100491;  2.7454400342928458;4748.6; 85.5560634905557;  1.8017113147149832; 
65536; 80; 28000; 5561; 5578; 2; 62500;   5498.6; 61.72390136729855;  1.1225384892026797;5607.6; 106.61256961540698;  1.9012156647301337; 
65536; 80; 32000; 6508; 6443; 2; 62500;   6455.4; 124.23461675394665;  1.9245068741510465;6493.6; 42.77662913320778;  0.6587506026427217; 
65536; 80; 36000; 7440; 7155; 2; 62500;   7312.4; 124.68295793732196;  1.705089408912559;7397.2; 185.45554723437095;  2.507104677910168; 
65536; 80; 40000; 9121; 9069; 2; 62500;   8560.0; 449.52107848242224;  5.251414468252596;8583.8; 265.0218104232178;  3.087464880626504; 
65536; 80; 44000; 9292; 9148; 2; 62500;   9619.0; 539.7714331084964;  5.611512975449593;9675.8; 420.2701036238481;  4.3435178861060395; 
65536; 80; 48000; 10929; 10081; 2; 62500;   10747.4; 392.6263363555736;  3.6532215824810983;10623.4; 344.30835017466535;  3.2410372401930205; 
65536; 80; 52000; 10805; 10673; 2; 62500;   10612.8; 149.61069480488354;  1.409719346495586;10682.2; 158.41388828003687;  1.4829706266502862; 
65536; 80; 56000; 11574; 11609; 2; 62500;   11470.2; 235.13434457773283;  2.049958541069317;11492.2; 160.6728352896033;  1.3981033682811237; 
65536; 80; 60000; 11722; 12278; 2; 62500;   12414.8; 766.0212529688715;  6.170226286117146;12331.2; 203.3109933082813;  1.6487527029671183; 
