log2(x) = log(x)/log(2)

if (!exists("directory")) directory='./'

set terminal pdf enhanced font "Helvetica, 10" size 7,4
set output (directory . "plot_bible_2097152.pdf")

set xlabel "m"
set xtics 0, 4000 rotate


set ylabel "Running time [milliseconds]"

set ytics nomirror tc lt 1


set xrange [4000:60000]
set yrange [0:15000]

set grid mytics


set key vert left top reverse
set pointsize 2

set datafile separator ";"


plot (directory .  'AV1611Bible_2pow21.txt_2_compare_NotIn_2097152_Exp12Removed_avgANDstdDev.csv') using ($3):($8) title 'Array'  with linespoints ls 2,\
(directory .  'AV1611Bible_2pow21.txt_2_compare_NotIn_2097152_Exp12Removed_avgANDstdDev.csv') using ($3):($11) title 'Tray'  with linespoints ls 3

