textSize; alphaSize; querySize; time; expCount; iterations;   avgTime; standardDeviation; relativeStdDev; 
1300000; 2; 50; 10096; 2; 20000000;    10013.8; 88.8963441318033;  0.8877383623779515; 
1400000; 2; 50; 10703; 2; 20000000;    10550.0; 203.27518294174527;  1.926778985229813; 
1500000; 2; 50; 10562; 2; 20000000;    10417.4; 193.70864719986042;  1.8594721062823778; 
1600000; 2; 50; 9701; 2; 20000000;    9748.4; 125.5063345014904;  1.2874557312122032; 
1700000; 2; 50; 9799; 2; 20000000;    9827.6; 118.16023019611971;  1.2023304794265102; 
