textSize; alphaSize; querySize; time; expCount;   avgTime; standardDeviation; relativeStdDev; 
200000; 2; 20000; 4625; 2; 75000;    4619.0; 15.8871016865884;  0.3439511081746785; 
200000; 4; 20000; 4625; 2; 75000;    4634.4; 12.451505933018705;  0.2686756847276607; 
200000; 6; 20000; 4641; 2; 75000;    4625.4; 13.865064009949611;  0.2997592426590049; 
200000; 8; 20000; 4751; 2; 75000;    4641.2; 58.7448721166367;  1.2657259354614476; 
200000; 10; 20000; 4610; 2; 75000;    4637.8; 28.89567441677041;  0.6230470140318775; 
200000; 12; 20000; 4672; 2; 75000;    4631.4; 23.286047324524617;  0.5027863567069271; 
200000; 14; 20000; 4657; 2; 75000;    4647.0; 47.84558495828011;  1.0296015700081798; 
200000; 16; 20000; 4782; 2; 75000;    4656.6; 64.2638311960935;  1.380059081649562; 
200000; 18; 20000; 4625; 2; 75000;    4625.2; 16.98705389406886;  0.36727176974117576; 
200000; 20; 20000; 4624; 2; 75000;    4637.6; 23.08765904114144;  0.4978363602109159; 
200000; 22; 20000; 4625; 2; 75000;    4641.0; 14.310835055998654;  0.3083567131221429; 
200000; 24; 20000; 4656; 2; 75000;    4638.0; 22.86482013924448;  0.49298879127305906; 
200000; 26; 20000; 4625; 2; 75000;    4619.0; 20.938003725283842;  0.4533016610799706; 
200000; 28; 20000; 4625; 2; 75000;    4647.0; 21.23205124334434;  0.45689802546469416; 
200000; 30; 20000; 4595; 2; 75000;    4619.2; 12.106196760337246;  0.26208427347456803; 
200000; 32; 20000; 4656; 2; 75000;    4643.8; 11.822013364905319;  0.2545762815992359; 
200000; 34; 20000; 4656; 2; 75000;    4622.0; 24.875690945177784;  0.5382018811159192; 
200000; 36; 20000; 4657; 2; 75000;    4641.0; 22.063544592834578;  0.4754049686023396; 
200000; 38; 20000; 4625; 2; 75000;    4634.4; 18.969449122207003;  0.4093183394227301; 
200000; 40; 20000; 4641; 2; 75000;    4625.2; 20.08382433701311;  0.43422607318630785; 
200000; 42; 20000; 4609; 2; 75000;    4622.2; 18.56232744027537;  0.4015907455383881; 
200000; 44; 20000; 4626; 2; 75000;    4628.6; 15.396103403134184;  0.3326298103775263; 
200000; 46; 20000; 4672; 2; 75000;    4641.2; 21.92167876783163;  0.47232781969817356; 
200000; 48; 20000; 4656; 2; 75000;    4656.2; 35.78491302211031;  0.7685432975840881; 
200000; 50; 20000; 4656; 2; 75000;    4625.2; 25.81782330096788;  0.5581990681693306; 
200000; 52; 20000; 4626; 2; 75000;    4615.8; 12.607934009979589;  0.2731473202907316; 
200000; 54; 20000; 4657; 2; 75000;    4628.6; 20.86719914123599;  0.45083176643555256; 
200000; 56; 20000; 4625; 2; 75000;    4650.4; 16.044936896105263;  0.3450227269934901; 
200000; 58; 20000; 4625; 2; 75000;    4622.0; 6.0;  0.1298139333621809; 
200000; 60; 20000; 4625; 2; 75000;    4637.6; 11.655041827466771;  0.2513162374389074; 
200000; 62; 20000; 4657; 2; 75000;    4637.8; 11.973303637676613;  0.2581677441389584; 
200000; 64; 20000; 4672; 2; 75000;    4632.0; 20.938003725283842;  0.4520294413921382; 
