textSize; alphaSize; querySize; timeArray; timeTray; expCount; iterations; ;  avgTimeArray; standardDeviationArray; relativeStdDevArray; avgTimeTray; standardDeviationTray; relativeStdDevTray; 
1852441; 5; 4000; 951; 983; 2; 62500;   949.0; 64.16541124313005;  6.7613710477481614;1029.6; 44.48640241691837;  4.320746155489353; 
1852441; 5; 8000; 1736; 1938; 2; 62500;   1680.8; 65.43515874512723;  3.8930960700337476;1895.0; 73.71295679865244;  3.8898657941241392; 
1852441; 5; 12000; 2454; 2704; 2; 62500;   2471.2; 82.78019086713923;  3.349797299576693;2733.2; 76.34238665381113;  2.7931503971100224; 
1852441; 5; 16000; 3329; 3544; 2; 62500;   3263.2; 74.51281768930767;  2.283427852700039;3603.6; 127.04109571315891;  3.5253939314340914; 
1852441; 5; 20000; 3968; 4560; 2; 62500;   3970.8; 46.47321809386563;  1.1703741838890307;4535.2; 42.94368405248902;  0.9468972493492903; 
1852441; 5; 24000; 5057; 5282; 2; 62500;   4795.2; 160.66536652309358;  3.350545681579362;5348.0; 115.19548602267365;  2.153991885240719; 
1852441; 5; 28000; 5481; 6271; 2; 62500;   5596.0; 134.99481471523268;  2.4123447947682752;6254.0; 62.06770496804276;  0.9924481126965584; 
1852441; 5; 32000; 6666; 7287; 2; 62500;   6482.0; 145.88077323622878;  2.250551885779524;7196.2; 104.8110681178281;  1.4564779761239002; 
1852441; 5; 36000; 7106; 7976; 2; 62500;   7223.4; 128.10402023355863;  1.7734587622665037;8004.6; 78.84820860362017;  0.985036211723511; 
1852441; 5; 40000; 8223; 9060; 2; 62500;   8125.2; 120.0256639223462;  1.4772025786730936;8848.2; 221.87329717656428;  2.5075529167126; 
1852441; 5; 44000; 8331; 9917; 2; 62500;   8663.2; 216.05962140113084;  2.493993228843047;9919.4; 66.11686622942743;  0.6665409826141443; 
1852441; 5; 48000; 9625; 10873; 2; 62500;   9524.6; 66.94057065786039;  0.7028176580419166;10719.6; 186.50426268587;  1.739843489364062; 
1852441; 5; 52000; 10045; 11595; 2; 62500;   10318.2; 143.59721445766277;  1.3916886129137134;11520.0; 204.7398349125055;  1.7772555113932769; 
1852441; 5; 56000; 10822; 12028; 2; 62500;   10992.6; 135.7241319736472;  1.2346863523974965;12423.2; 231.5835918194551;  1.8641218995062068; 
1852441; 5; 60000; 12145; 13090; 2; 62500;   11809.4; 214.2415459242208;  1.8141611421767474;13393.2; 167.54151724274197;  1.2509446378964098; 
