textSize; alphaSize; querySize; timeArray; timeTray; expCount; iterations; ;  
65536; 5; 4000; 843; 968; 2; 62500;  
65536; 5; 4000; 888; 953; 3; 62500;  
65536; 5; 4000; 861; 983; 4; 62500;  
65536; 5; 4000; 877; 921; 5; 62500;  
65536; 5; 4000; 875; 891; 6; 62500;  
65536; 5; 8000; 1640; 1893; 2; 62500;  
65536; 5; 8000; 1565; 1796; 3; 62500;  
65536; 5; 8000; 1644; 1671; 4; 62500;  
65536; 5; 8000; 1657; 1844; 5; 62500;  
65536; 5; 8000; 1718; 1856; 6; 62500;  
65536; 5; 12000; 2470; 2828; 2; 62500;  
65536; 5; 12000; 2484; 2876; 3; 62500;  
65536; 5; 12000; 2298; 2717; 4; 62500;  
65536; 5; 12000; 2300; 2776; 5; 62500;  
65536; 5; 12000; 2455; 2733; 6; 62500;  
65536; 5; 16000; 3440; 3639; 2; 62500;  
65536; 5; 16000; 3063; 3859; 3; 62500;  
65536; 5; 16000; 3205; 3641; 4; 62500;  
65536; 5; 16000; 3283; 3648; 5; 62500;  
65536; 5; 16000; 3013; 3605; 6; 62500;  
65536; 5; 20000; 4048; 4440; 2; 62500;  
65536; 5; 20000; 3981; 4279; 3; 62500;  
65536; 5; 20000; 4044; 4370; 4; 62500;  
65536; 5; 20000; 4112; 4392; 5; 62500;  
65536; 5; 20000; 4192; 4516; 6; 62500;  
65536; 5; 24000; 4715; 5548; 2; 62500;  
65536; 5; 24000; 4581; 5277; 3; 62500;  
65536; 5; 24000; 4828; 5370; 4; 62500;  
65536; 5; 24000; 4782; 5250; 5; 62500;  
65536; 5; 24000; 4767; 5334; 6; 62500;  
65536; 5; 28000; 5542; 6353; 2; 62500;  
65536; 5; 28000; 5604; 6034; 3; 62500;  
65536; 5; 28000; 5621; 6387; 4; 62500;  
65536; 5; 28000; 5748; 6208; 5; 62500;  
65536; 5; 28000; 5282; 6359; 6; 62500;  
65536; 5; 32000; 6400; 7157; 2; 62500;  
65536; 5; 32000; 6285; 6999; 3; 62500;  
65536; 5; 32000; 6232; 7367; 4; 62500;  
65536; 5; 32000; 6215; 7104; 5; 62500;  
65536; 5; 32000; 6062; 6846; 6; 62500;  
65536; 5; 36000; 6848; 7829; 2; 62500;  
65536; 5; 36000; 7000; 7964; 3; 62500;  
65536; 5; 36000; 6766; 7751; 4; 62500;  
65536; 5; 36000; 7704; 8098; 5; 62500;  
65536; 5; 36000; 7110; 8079; 6; 62500;  
65536; 5; 40000; 7953; 8694; 2; 62500;  
65536; 5; 40000; 7922; 8577; 3; 62500;  
65536; 5; 40000; 7973; 8828; 4; 62500;  
65536; 5; 40000; 7735; 8690; 5; 62500;  
65536; 5; 40000; 8068; 8935; 6; 62500;  
65536; 5; 44000; 8940; 9925; 2; 62500;  
65536; 5; 44000; 8582; 9595; 3; 62500;  
65536; 5; 44000; 8903; 9511; 4; 62500;  
65536; 5; 44000; 8677; 9967; 5; 62500;  
65536; 5; 44000; 8847; 9383; 6; 62500;  
65536; 5; 48000; 9667; 10472; 2; 62500;  
65536; 5; 48000; 9553; 10448; 3; 62500;  
65536; 5; 48000; 9170; 10491; 4; 62500;  
65536; 5; 48000; 9991; 10556; 5; 62500;  
65536; 5; 48000; 9565; 10534; 6; 62500;  
65536; 5; 52000; 10381; 12009; 2; 62500;  
65536; 5; 52000; 10328; 11601; 3; 62500;  
65536; 5; 52000; 9934; 11600; 4; 62500;  
65536; 5; 52000; 10063; 11211; 5; 62500;  
65536; 5; 52000; 10063; 11825; 6; 62500;  
65536; 5; 56000; 10896; 12471; 2; 62500;  
65536; 5; 56000; 11218; 12601; 3; 62500;  
65536; 5; 56000; 10870; 12350; 4; 62500;  
65536; 5; 56000; 10910; 12756; 5; 62500;  
65536; 5; 56000; 10976; 12513; 6; 62500;  
65536; 5; 60000; 11672; 13284; 2; 62500;  
65536; 5; 60000; 11654; 13398; 3; 62500;  
65536; 5; 60000; 11625; 13498; 4; 62500;  
65536; 5; 60000; 11573; 13153; 5; 62500;  
65536; 5; 60000; 11802; 13512; 6; 62500;  
