textSize; alphaSize; querySize; timeArray; timeTray; expCount; iterations; ; 
262144; 5; 4000; 876; 904; 0; 62500; 
262144; 5; 4000; 952; 1001; 1; 62500; 
262144; 5; 4000; 906; 968; 2; 62500; 
262144; 5; 4000; 843; 984; 3; 62500; 
262144; 5; 4000; 1015; 1000; 4; 62500; 
262144; 5; 4000; 794; 1028; 5; 62500; 
262144; 5; 4000; 841; 919; 6; 62500; 
262144; 5; 8000; 1641; 1887; 0; 62500; 
262144; 5; 8000; 1608; 1814; 1; 62500; 
262144; 5; 8000; 1610; 1858; 2; 62500; 
262144; 5; 8000; 1692; 1845; 3; 62500; 
262144; 5; 8000; 1670; 1832; 4; 62500; 
262144; 5; 8000; 1545; 1873; 5; 62500; 
262144; 5; 8000; 1514; 1829; 6; 62500; 
262144; 5; 12000; 2347; 2754; 0; 62500; 
262144; 5; 12000; 2424; 2780; 1; 62500; 
262144; 5; 12000; 2294; 2644; 2; 62500; 
262144; 5; 12000; 2355; 2705; 3; 62500; 
262144; 5; 12000; 2341; 2667; 4; 62500; 
262144; 5; 12000; 2565; 2628; 5; 62500; 
262144; 5; 12000; 2420; 2781; 6; 62500; 
262144; 5; 16000; 3047; 3595; 0; 62500; 
262144; 5; 16000; 3277; 3544; 1; 62500; 
262144; 5; 16000; 3421; 3676; 2; 62500; 
262144; 5; 16000; 3154; 3818; 3; 62500; 
262144; 5; 16000; 3097; 3469; 4; 62500; 
262144; 5; 16000; 3329; 3561; 5; 62500; 
262144; 5; 16000; 3011; 3418; 6; 62500; 
262144; 5; 20000; 4185; 4611; 0; 62500; 
262144; 5; 20000; 4229; 4603; 1; 62500; 
262144; 5; 20000; 3957; 4604; 2; 62500; 
262144; 5; 20000; 4302; 4829; 3; 62500; 
262144; 5; 20000; 4166; 4541; 4; 62500; 
262144; 5; 20000; 4285; 4606; 5; 62500; 
262144; 5; 20000; 4215; 5097; 6; 62500; 
262144; 5; 24000; 5000; 5638; 0; 62500; 
262144; 5; 24000; 5135; 5563; 1; 62500; 
262144; 5; 24000; 5002; 5591; 2; 62500; 
262144; 5; 24000; 5073; 5438; 3; 62500; 
262144; 5; 24000; 4976; 5536; 4; 62500; 
262144; 5; 24000; 5107; 5747; 5; 62500; 
262144; 5; 24000; 5016; 5732; 6; 62500; 
262144; 5; 28000; 5780; 6578; 0; 62500; 
262144; 5; 28000; 5859; 6479; 1; 62500; 
262144; 5; 28000; 5542; 6192; 2; 62500; 
262144; 5; 28000; 5481; 6356; 3; 62500; 
262144; 5; 28000; 5410; 6068; 4; 62500; 
262144; 5; 28000; 5457; 6342; 5; 62500; 
262144; 5; 28000; 5641; 6305; 6; 62500; 
262144; 5; 32000; 6529; 7020; 0; 62500; 
262144; 5; 32000; 6218; 6904; 1; 62500; 
262144; 5; 32000; 6201; 7058; 2; 62500; 
262144; 5; 32000; 6438; 7027; 3; 62500; 
262144; 5; 32000; 6206; 7085; 4; 62500; 
262144; 5; 32000; 6186; 6896; 5; 62500; 
262144; 5; 32000; 6252; 7171; 6; 62500; 
262144; 5; 36000; 7228; 7911; 0; 62500; 
262144; 5; 36000; 6673; 7637; 1; 62500; 
262144; 5; 36000; 6986; 7767; 2; 62500; 
262144; 5; 36000; 6848; 8228; 3; 62500; 
262144; 5; 36000; 6964; 7915; 4; 62500; 
262144; 5; 36000; 7089; 8211; 5; 62500; 
262144; 5; 36000; 7046; 8190; 6; 62500; 
262144; 5; 40000; 8003; 8464; 0; 62500; 
262144; 5; 40000; 7990; 8691; 1; 62500; 
262144; 5; 40000; 8279; 8912; 2; 62500; 
262144; 5; 40000; 7888; 8685; 3; 62500; 
262144; 5; 40000; 8187; 8641; 4; 62500; 
262144; 5; 40000; 7661; 8877; 5; 62500; 
262144; 5; 40000; 7953; 8782; 6; 62500; 
262144; 5; 44000; 8426; 9532; 0; 62500; 
262144; 5; 44000; 8511; 9788; 1; 62500; 
262144; 5; 44000; 8139; 9766; 2; 62500; 
262144; 5; 44000; 8760; 9503; 3; 62500; 
262144; 5; 44000; 8383; 9418; 4; 62500; 
262144; 5; 44000; 8737; 9740; 5; 62500; 
262144; 5; 44000; 8719; 9537; 6; 62500; 
262144; 5; 48000; 9349; 10891; 0; 62500; 
262144; 5; 48000; 9206; 10626; 1; 62500; 
262144; 5; 48000; 9414; 10617; 2; 62500; 
262144; 5; 48000; 9229; 10427; 3; 62500; 
262144; 5; 48000; 9204; 10305; 4; 62500; 
262144; 5; 48000; 9594; 10444; 5; 62500; 
262144; 5; 48000; 9545; 10448; 6; 62500; 
262144; 5; 52000; 10031; 11354; 0; 62500; 
262144; 5; 52000; 10004; 11596; 1; 62500; 
262144; 5; 52000; 9909; 11560; 2; 62500; 
262144; 5; 52000; 9685; 11544; 3; 62500; 
262144; 5; 52000; 10139; 11311; 4; 62500; 
262144; 5; 52000; 10145; 11276; 5; 62500; 
262144; 5; 52000; 10125; 11248; 6; 62500; 
262144; 5; 56000; 11139; 12131; 0; 62500; 
262144; 5; 56000; 10883; 11979; 1; 62500; 
262144; 5; 56000; 10863; 12159; 2; 62500; 
262144; 5; 56000; 11006; 12264; 3; 62500; 
262144; 5; 56000; 10994; 12018; 4; 62500; 
262144; 5; 56000; 11031; 12028; 5; 62500; 
262144; 5; 56000; 10928; 11895; 6; 62500; 
262144; 5; 60000; 11523; 12803; 0; 62500; 
262144; 5; 60000; 11970; 13294; 1; 62500; 
262144; 5; 60000; 11635; 13298; 2; 62500; 
262144; 5; 60000; 11893; 12915; 3; 62500; 
262144; 5; 60000; 11278; 13136; 4; 62500; 
262144; 5; 60000; 11355; 12765; 5; 62500; 
262144; 5; 60000; 11909; 13249; 6; 62500; 
