textSize; alphaSize; querySize; timeArray; timeTray; expCount; iterations; ; 
1852441; 5; 4000; 967; 954; 0; 62500; 
1852441; 5; 4000; 905; 1047; 1; 62500; 
1852441; 5; 4000; 951; 983; 2; 62500; 
1852441; 5; 4000; 966; 1109; 3; 62500; 
1852441; 5; 4000; 828; 1044; 4; 62500; 
1852441; 5; 4000; 985; 1013; 5; 62500; 
1852441; 5; 4000; 1015; 999; 6; 62500; 
1852441; 5; 8000; 1656; 1765; 0; 62500; 
1852441; 5; 8000; 1797; 2031; 1; 62500; 
1852441; 5; 8000; 1736; 1938; 2; 62500; 
1852441; 5; 8000; 1703; 1860; 3; 62500; 
1852441; 5; 8000; 1575; 1982; 4; 62500; 
1852441; 5; 8000; 1751; 1770; 5; 62500; 
1852441; 5; 8000; 1639; 1925; 6; 62500; 
1852441; 5; 12000; 2423; 2591; 0; 62500; 
1852441; 5; 12000; 2514; 2843; 1; 62500; 
1852441; 5; 12000; 2454; 2704; 2; 62500; 
1852441; 5; 12000; 2505; 2861; 3; 62500; 
1852441; 5; 12000; 2612; 2755; 4; 62500; 
1852441; 5; 12000; 2375; 2627; 5; 62500; 
1852441; 5; 12000; 2410; 2719; 6; 62500; 
1852441; 5; 16000; 3263; 3592; 0; 62500; 
1852441; 5; 16000; 3547; 3702; 1; 62500; 
1852441; 5; 16000; 3329; 3544; 2; 62500; 
1852441; 5; 16000; 3340; 3736; 3; 62500; 
1852441; 5; 16000; 3161; 3385; 4; 62500; 
1852441; 5; 16000; 3187; 3652; 5; 62500; 
1852441; 5; 16000; 3299; 3701; 6; 62500; 
1852441; 5; 20000; 3923; 4494; 0; 62500; 
1852441; 5; 20000; 4068; 4392; 1; 62500; 
1852441; 5; 20000; 3968; 4560; 2; 62500; 
1852441; 5; 20000; 3992; 4450; 3; 62500; 
1852441; 5; 20000; 4037; 4546; 4; 62500; 
1852441; 5; 20000; 3894; 4560; 5; 62500; 
1852441; 5; 20000; 3963; 4560; 6; 62500; 
1852441; 5; 24000; 4994; 5304; 0; 62500; 
1852441; 5; 24000; 4900; 5368; 1; 62500; 
1852441; 5; 24000; 5057; 5282; 2; 62500; 
1852441; 5; 24000; 4732; 5513; 3; 62500; 
1852441; 5; 24000; 4797; 5281; 4; 62500; 
1852441; 5; 24000; 4560; 5210; 5; 62500; 
1852441; 5; 24000; 4830; 5454; 6; 62500; 
1852441; 5; 28000; 5531; 6454; 0; 62500; 
1852441; 5; 28000; 5784; 6394; 1; 62500; 
1852441; 5; 28000; 5481; 6271; 2; 62500; 
1852441; 5; 28000; 5794; 6251; 3; 62500; 
1852441; 5; 28000; 5636; 6282; 4; 62500; 
1852441; 5; 28000; 5413; 6140; 5; 62500; 
1852441; 5; 28000; 5656; 6326; 6; 62500; 
1852441; 5; 32000; 6579; 7000; 0; 62500; 
1852441; 5; 32000; 6582; 7216; 1; 62500; 
1852441; 5; 32000; 6666; 7287; 2; 62500; 
1852441; 5; 32000; 6248; 7346; 3; 62500; 
1852441; 5; 32000; 6445; 7172; 4; 62500; 
1852441; 5; 32000; 6446; 7099; 5; 62500; 
1852441; 5; 32000; 6605; 7077; 6; 62500; 
1852441; 5; 36000; 7457; 8142; 0; 62500; 
1852441; 5; 36000; 7058; 8169; 1; 62500; 
1852441; 5; 36000; 7106; 7976; 2; 62500; 
1852441; 5; 36000; 7235; 8134; 3; 62500; 
1852441; 5; 36000; 7087; 7925; 4; 62500; 
1852441; 5; 36000; 7445; 8053; 5; 62500; 
1852441; 5; 36000; 7244; 7935; 6; 62500; 
1852441; 5; 40000; 7950; 9122; 0; 62500; 
1852441; 5; 40000; 7649; 8877; 1; 62500; 
1852441; 5; 40000; 8223; 9060; 2; 62500; 
1852441; 5; 40000; 8121; 8635; 3; 62500; 
1852441; 5; 40000; 8292; 9165; 4; 62500; 
1852441; 5; 40000; 8014; 8637; 5; 62500; 
1852441; 5; 40000; 7976; 8744; 6; 62500; 
1852441; 5; 44000; 8842; 9856; 0; 62500; 
1852441; 5; 44000; 8591; 10011; 1; 62500; 
1852441; 5; 44000; 8331; 9917; 2; 62500; 
1852441; 5; 44000; 8555; 9967; 3; 62500; 
1852441; 5; 44000; 8953; 9984; 4; 62500; 
1852441; 5; 44000; 8828; 9796; 5; 62500; 
1852441; 5; 44000; 8649; 9933; 6; 62500; 
1852441; 5; 48000; 9350; 10407; 0; 62500; 
1852441; 5; 48000; 9797; 10706; 1; 62500; 
1852441; 5; 48000; 9625; 10873; 2; 62500; 
1852441; 5; 48000; 9506; 10701; 3; 62500; 
1852441; 5; 48000; 9505; 10730; 4; 62500; 
1852441; 5; 48000; 9424; 10911; 5; 62500; 
1852441; 5; 48000; 9563; 10383; 6; 62500; 
1852441; 5; 52000; 10263; 11858; 0; 62500; 
1852441; 5; 52000; 10129; 11342; 1; 62500; 
1852441; 5; 52000; 10045; 11595; 2; 62500; 
1852441; 5; 52000; 10392; 11691; 3; 62500; 
1852441; 5; 52000; 10424; 11725; 4; 62500; 
1852441; 5; 52000; 10426; 11170; 5; 62500; 
1852441; 5; 52000; 10304; 11419; 6; 62500; 
1852441; 5; 56000; 10985; 12269; 0; 62500; 
1852441; 5; 56000; 11065; 12819; 1; 62500; 
1852441; 5; 56000; 10822; 12028; 2; 62500; 
1852441; 5; 56000; 10838; 12755; 3; 62500; 
1852441; 5; 56000; 11119; 12432; 4; 62500; 
1852441; 5; 56000; 11051; 12463; 5; 62500; 
1852441; 5; 56000; 11133; 12438; 6; 62500; 
1852441; 5; 60000; 11844; 13471; 0; 62500; 
1852441; 5; 60000; 11653; 13170; 1; 62500; 
1852441; 5; 60000; 12145; 13090; 2; 62500; 
1852441; 5; 60000; 11925; 13404; 3; 62500; 
1852441; 5; 60000; 11813; 13591; 4; 62500; 
1852441; 5; 60000; 11576; 13489; 5; 62500; 
1852441; 5; 60000; 11588; 13392; 6; 62500; 
