textSize; alphaSize; querySize; time; expCount; iterations;   avgTime; standardDeviation; relativeStdDev; 
100000; 2; 50; 9876; 2; 20000000;    9842.2; 107.02037189245793;  1.087362295954745; 
200000; 2; 50; 9982; 2; 20000000;    9987.0; 222.59110494357137;  2.228808500486346; 
300000; 2; 50; 9965; 2; 20000000;    9852.6; 61.12479038818866;  0.620392489172286; 
400000; 2; 50; 10031; 2; 20000000;    10032.0; 72.54515834981684;  0.7231375433594183; 
500000; 2; 50; 10058; 2; 20000000;    9963.2; 107.61858575543539;  1.0801608494804418; 
600000; 2; 50; 10078; 2; 20000000;    9862.2; 120.13392526676218;  1.218125015379552; 
700000; 2; 50; 9943; 2; 20000000;    9953.0; 89.6727383322267;  0.900961904272347; 
800000; 2; 50; 9988; 2; 20000000;    9904.0; 113.37901040316059;  1.144779991954368; 
900000; 2; 50; 10318; 2; 20000000;    10053.6; 137.65841783196552;  1.3692450249857318; 
1000000; 2; 50; 9876; 2; 20000000;    9981.4; 62.25624466669991;  0.6237225706484051; 
1100000; 2; 50; 9950; 2; 20000000;    9878.4; 81.04467903570227;  0.8204231356869764; 
1200000; 2; 50; 10001; 2; 20000000;    9914.4; 44.603138902996506;  0.44988238222178356; 
1300000; 2; 50; 10232; 2; 20000000;    10045.2; 118.89390228266545;  1.1835891996442625; 
1400000; 2; 50; 10030; 2; 20000000;    10297.6; 331.83526033259335;  3.2224524193267685; 
1500000; 2; 50; 10655; 2; 20000000;    10330.6; 426.4516854228624;  4.128043728562352; 
1600000; 2; 50; 9872; 2; 20000000;    10148.6; 395.2409897771232;  3.8945370768098377; 
1700000; 2; 50; 10003; 2; 20000000;    9864.4; 121.91734905254462;  1.2359327384589496; 
1800000; 2; 50; 9702; 2; 20000000;    9840.6; 81.61029346840998;  0.8293223326668088; 
1900000; 2; 50; 9671; 2; 20000000;    9874.2; 143.60974897269335;  1.4543937632688555; 
2000000; 2; 50; 9687; 2; 20000000;    9820.8; 78.84516472175069;  0.8028385133772268; 
