textSize; alphaSize; querySize; time; expCount; iterations; 
128; 16; 10; 2092; 0; 15000000; 
128; 16; 20; 2510; 0; 15000000; 
128; 16; 30; 2872; 0; 15000000; 
128; 16; 40; 3484; 0; 15000000; 
128; 16; 50; 4141; 0; 15000000; 
128; 16; 60; 4462; 0; 15000000; 
128; 16; 70; 5093; 0; 15000000; 
128; 16; 80; 5750; 0; 15000000; 
128; 16; 90; 6077; 0; 15000000; 
128; 16; 100; 6381; 0; 15000000; 
128; 16; 110; 6901; 0; 15000000; 
128; 16; 120; 7396; 0; 15000000; 
132; 16; 130; 8302; 0; 15000000; 
142; 16; 140; 8563; 0; 15000000; 
152; 16; 150; 9094; 0; 15000000; 
162; 16; 160; 9734; 0; 15000000; 
172; 16; 170; 10217; 0; 15000000; 
182; 16; 180; 10435; 0; 15000000; 
192; 16; 190; 11000; 0; 15000000; 
202; 16; 200; 11468; 0; 15000000; 
128; 16; 10; 2090; 1; 15000000; 
128; 16; 20; 2847; 1; 15000000; 
128; 16; 30; 3375; 1; 15000000; 
128; 16; 40; 3561; 1; 15000000; 
128; 16; 50; 4185; 1; 15000000; 
128; 16; 60; 4684; 1; 15000000; 
128; 16; 70; 5232; 1; 15000000; 
128; 16; 80; 5673; 1; 15000000; 
128; 16; 90; 5985; 1; 15000000; 
128; 16; 100; 6476; 1; 15000000; 
128; 16; 110; 7118; 1; 15000000; 
128; 16; 120; 7701; 1; 15000000; 
132; 16; 130; 8173; 1; 15000000; 
142; 16; 140; 8450; 1; 15000000; 
152; 16; 150; 9159; 1; 15000000; 
162; 16; 160; 9710; 1; 15000000; 
172; 16; 170; 10150; 1; 15000000; 
182; 16; 180; 10574; 1; 15000000; 
192; 16; 190; 11184; 1; 15000000; 
202; 16; 200; 11454; 1; 15000000; 
128; 16; 10; 1925; 2; 15000000; 
128; 16; 20; 2682; 2; 15000000; 
128; 16; 30; 2810; 2; 15000000; 
128; 16; 40; 3643; 2; 15000000; 
128; 16; 50; 4068; 2; 15000000; 
128; 16; 60; 4628; 2; 15000000; 
128; 16; 70; 5080; 2; 15000000; 
128; 16; 80; 5392; 2; 15000000; 
128; 16; 90; 6325; 2; 15000000; 
128; 16; 100; 6610; 2; 15000000; 
128; 16; 110; 7167; 2; 15000000; 
128; 16; 120; 7608; 2; 15000000; 
132; 16; 130; 8119; 2; 15000000; 
142; 16; 140; 8768; 2; 15000000; 
152; 16; 150; 9328; 2; 15000000; 
162; 16; 160; 9561; 2; 15000000; 
172; 16; 170; 10153; 2; 15000000; 
182; 16; 180; 10704; 2; 15000000; 
192; 16; 190; 10878; 2; 15000000; 
202; 16; 200; 11420; 2; 15000000; 
128; 16; 10; 2234; 3; 15000000; 
128; 16; 20; 2625; 3; 15000000; 
128; 16; 30; 3255; 3; 15000000; 
128; 16; 40; 3513; 3; 15000000; 
128; 16; 50; 3926; 3; 15000000; 
128; 16; 60; 4392; 3; 15000000; 
128; 16; 70; 5252; 3; 15000000; 
128; 16; 80; 5609; 3; 15000000; 
128; 16; 90; 6255; 3; 15000000; 
128; 16; 100; 6405; 3; 15000000; 
128; 16; 110; 6782; 3; 15000000; 
128; 16; 120; 7420; 3; 15000000; 
132; 16; 130; 8302; 3; 15000000; 
142; 16; 140; 8935; 3; 15000000; 
152; 16; 150; 9221; 3; 15000000; 
162; 16; 160; 9692; 3; 15000000; 
172; 16; 170; 10203; 3; 15000000; 
182; 16; 180; 10846; 3; 15000000; 
192; 16; 190; 11060; 3; 15000000; 
202; 16; 200; 11333; 3; 15000000; 
128; 16; 10; 1956; 4; 15000000; 
128; 16; 20; 2665; 4; 15000000; 
128; 16; 30; 2971; 4; 15000000; 
128; 16; 40; 3484; 4; 15000000; 
128; 16; 50; 3910; 4; 15000000; 
128; 16; 60; 4566; 4; 15000000; 
128; 16; 70; 4997; 4; 15000000; 
128; 16; 80; 5602; 4; 15000000; 
128; 16; 90; 6385; 4; 15000000; 
128; 16; 100; 6298; 4; 15000000; 
128; 16; 110; 6938; 4; 15000000; 
128; 16; 120; 7501; 4; 15000000; 
132; 16; 130; 7984; 4; 15000000; 
142; 16; 140; 8733; 4; 15000000; 
152; 16; 150; 9418; 4; 15000000; 
162; 16; 160; 9641; 4; 15000000; 
172; 16; 170; 10389; 4; 15000000; 
182; 16; 180; 10502; 4; 15000000; 
192; 16; 190; 10890; 4; 15000000; 
202; 16; 200; 11686; 4; 15000000; 
128; 16; 10; 1989; 5; 15000000; 
128; 16; 20; 2474; 5; 15000000; 
128; 16; 30; 3107; 5; 15000000; 
128; 16; 40; 3370; 5; 15000000; 
128; 16; 50; 4021; 5; 15000000; 
128; 16; 60; 4359; 5; 15000000; 
128; 16; 70; 5324; 5; 15000000; 
128; 16; 80; 5566; 5; 15000000; 
128; 16; 90; 6077; 5; 15000000; 
128; 16; 100; 6464; 5; 15000000; 
128; 16; 110; 7140; 5; 15000000; 
128; 16; 120; 7535; 5; 15000000; 
132; 16; 130; 8356; 5; 15000000; 
142; 16; 140; 8661; 5; 15000000; 
152; 16; 150; 9244; 5; 15000000; 
162; 16; 160; 9894; 5; 15000000; 
172; 16; 170; 10158; 5; 15000000; 
182; 16; 180; 10739; 5; 15000000; 
192; 16; 190; 11425; 5; 15000000; 
202; 16; 200; 11735; 5; 15000000; 
128; 16; 10; 1924; 6; 15000000; 
128; 16; 20; 2342; 6; 15000000; 
128; 16; 30; 2987; 6; 15000000; 
128; 16; 40; 3326; 6; 15000000; 
128; 16; 50; 4018; 6; 15000000; 
128; 16; 60; 4552; 6; 15000000; 
128; 16; 70; 5143; 6; 15000000; 
128; 16; 80; 5409; 6; 15000000; 
128; 16; 90; 6188; 6; 15000000; 
128; 16; 100; 6576; 6; 15000000; 
128; 16; 110; 6910; 6; 15000000; 
128; 16; 120; 7750; 6; 15000000; 
132; 16; 130; 8239; 6; 15000000; 
142; 16; 140; 8799; 6; 15000000; 
152; 16; 150; 8992; 6; 15000000; 
162; 16; 160; 9604; 6; 15000000; 
172; 16; 170; 9956; 6; 15000000; 
182; 16; 180; 10422; 6; 15000000; 
192; 16; 190; 11003; 6; 15000000; 
202; 16; 200; 11348; 6; 15000000; 
